{
    "@class": "com.kony.gen.viz.model.component.KVizButton",
    "DNDConfig": null,
    "__parentReadjusting__": false,
    "_height_": {
        "type": "ref",
        "value": "preferred"
    },
    "_left_": {
        "type": "string",
        "value": "0dp"
    },
    "_margin_": [
        6,
        6,
        6,
        6
    ],
    "_padding_": [
        0,
        0,
        0,
        0
    ],
    "_skin_": "sae54276696f477dbbd70e34725a8526",
    "_text_": "DELETE",
    "_top_": {
        "type": "string",
        "value": "10dp"
    },
    "_width_": {
        "type": "ref",
        "value": "preferred"
    },
    "accessibilityconfig": {
        "a11yLabel": "DELETE"
    },
    "canUpdateUI": true,
    "containerId": true,
    "containerweight": 100,
    "contentalignment": 5,
    "desktopweb": {
        "psp": {
            "hoverSkin": "sd36babbd8f6461f8b492698ab830d13"
        }
    },
    "disabledSkins": {
        "focusSkin": "sf44d06ca8224832827ea7fdff757013"
    },
    "displaytext": true,
    "id": "btnDelete",
    "ide_onClick": "AS_Button_c4c9eb523afe48d89e125bb95c7ba88f",
    "info": null,
    "isvisible": true,
    "kuid": "a1ea0e0e440b4025b31a5e8da6b4f1d5",
    "name": "kony.ui.Button",
    "parent": "flxActions",
    "pf": "segManageRecipientsWireTransfersSelected",
    "tooltip": "DELETE",
    "wType": "Button",
    "zindex": 1
}