{
    "@class": "com.kony.gen.viz.model.component.KVizButton",
    "DNDConfig": null,
    "__parentReadjusting__": false,
    "_height_": {
        "type": "ref",
        "value": "preferred"
    },
    "_left_": {
        "type": "string",
        "value": "0dp"
    },
    "_margin_": [
        6,
        6,
        6,
        6
    ],
    "_padding_": [
        0,
        0,
        0,
        0
    ],
    "_skin_": "se4cbdf6e51f48eda9966caa941c6a19",
    "_text_": "VIEW ACTIVITY",
    "_top_": {
        "type": "string",
        "value": "0dp"
    },
    "_width_": {
        "type": "string",
        "value": "90%"
    },
    "accessibilityconfig": {
        "a11yLabel": "VIEW ACTIVITY"
    },
    "canUpdateUI": true,
    "containerId": true,
    "containerweight": 100,
    "contentalignment": 4,
    "desktopweb": {
        "psp": {
            "hoverSkin": "sd36babbd8f6461f8b492698ab830d13"
        }
    },
    "disabledSkins": {
        "focusSkin": "sf44d06ca8224832827ea7fdff757013"
    },
    "displaytext": true,
    "id": "btnViewActivity",
    "ide_onClick": "AS_Button_jf9351ce577f490784da5e5b59e550b4",
    "info": null,
    "isvisible": true,
    "kuid": "f363bfd2102f4375811511da35a2ffaf",
    "name": "kony.ui.Button",
    "parent": "flxActions",
    "pf": "segBillPayManagePayeesSelected",
    "tooltip": "VIEW ACTIVITY",
    "wType": "Button",
    "zindex": 1
}