{
    "DNDConfig": null,
    "__parentReadjusting__": false,
    "_height_": {
        "type": "string",
        "value": "16dp"
    },
    "_left_": {
        "type": "string",
        "value": "15%"
    },
    "_margin_": [
        0,
        0,
        0,
        0
    ],
    "_orientation_": 6,
    "_padding_": [
        0,
        0,
        0,
        0
    ],
    "_percent_": true,
    "_skin_": "s6c4cbf31f7c4fc08f7236fc38f01a0e",
    "_width_": {
        "type": "string",
        "value": "20dp"
    },
    "allboxes": [],
    "autogrowmode": 0,
    "canUpdateUI": true,
    "centery": {
        "type": "string",
        "value": "50%"
    },
    "children": [
        "imgInfoTransactionAccess"
    ],
    "clipbounds": true,
    "containerweight": 100,
    "enablescrolling": true,
    "id": "flxInfoTransactionAccess",
    "info": null,
    "iscustomlayout": false,
    "isvisible": true,
    "kuid": "hb4da0c22b424291b9b2fb8421dbb42e",
    "layouttype": 2,
    "name": "kony.ui.FlexContainer",
    "parent": "flxTransactionAccessDetails",
    "pf": "frmBBUsersDashboard",
    "responsiveData": {
        "b3": {
            "left": {
                "type": "string",
                "value": "35%"
            }
        }
    },
    "retaincontentalignment": false,
    "retainflexpositionproperties": false,
    "snapgridsize": 10,
    "snaptogrid": true,
    "wType": "FlexContainer",
    "widgetalignment": 1,
    "zindex": 1
}