{
    "@class": "com.kony.gen.viz.model.component.KVizLabel",
    "DNDConfig": null,
    "__parentReadjusting__": false,
    "_height_": {
        "type": "ref",
        "value": "preferred"
    },
    "_left_": {
        "type": "string",
        "value": "43.83%"
    },
    "_margin_": [
        1,
        1,
        1,
        1
    ],
    "_padding_": [
        0,
        0,
        0,
        0
    ],
    "_skin_": "s239284213a74db6a883d596049facdf",
    "_text_": "Label",
    "_top_": {
        "type": "string",
        "value": "95dp"
    },
    "_width_": {
        "type": "ref",
        "value": "preferred"
    },
    "_wrapping_": 2,
    "android": {
        "textStyle": {
            "letterSpacing": 0,
            "strikeThrough": false
        }
    },
    "canUpdateUI": true,
    "containerweight": 100,
    "contentalignment": 4,
    "id": "lblPhoneNumberKey",
    "info": null,
    "ipad": {
        "psp": {
            "wrapping": 2
        }
    },
    "iphone": {
        "psp": {
            "wrapping": 2
        }
    },
    "iscustomlayout": false,
    "isvisible": true,
    "kuid": "a93c18deb7ce4b5885130096052d085f",
    "name": "kony.ui.Label",
    "parent": "flxUserDetail",
    "pf": "frmBBUsersDashboard",
    "responsiveData": {
        "b2": {
            "left": {
                "type": "string",
                "value": "49.83%"
            }
        },
        "b3": {
            "left": {
                "type": "string",
                "value": "20dp"
            },
            "top": {
                "type": "string",
                "value": "333dp"
            }
        }
    },
    "retaincontentalignment": false,
    "retainflexpositionproperties": false,
    "texti18n": "i18n.konybb.manageUser.RegisteredPhoneNumber",
    "tooltip": "",
    "wType": "Label",
    "zindex": 1
}