{
    "@class": "com.kony.gen.viz.model.component.KVizUserWidget",
    "DNDConfig": null,
    "_android_": {},
    "_androidwearos_": {},
    "_children_": [],
    "_desktopweb_": {},
    "_height_": {
        "type": "string",
        "value": "100%"
    },
    "_ipad_": {},
    "_iphone_": {},
    "_kiosk_": {},
    "_left_": {
        "type": "string",
        "value": "0dp"
    },
    "_margin_": [
        0,
        0,
        0,
        0
    ],
    "_orientation_": 1,
    "_padding_": [
        0,
        0,
        0,
        0
    ],
    "_percent_": true,
    "_responsiveData_": {},
    "_skin_": "s24c92fc23b14f5484b693ee9b8a9b35",
    "_spa_": {},
    "_spaan_": {},
    "_spaandroidtablet_": {},
    "_spabb_": {},
    "_spaip_": {},
    "_spaipad_": {},
    "_spamobile_": {},
    "_spatablet_": {},
    "_spawindowstablet_": {},
    "_spawinphone8_": {},
    "_tabrcandroid_": {},
    "_top_": {
        "type": "string",
        "value": "0dp"
    },
    "_vizProps_": {
        "hidewidgethierarchy": false
    },
    "_width_": {
        "type": "string",
        "value": "100%"
    },
    "_windows10_": {},
    "_windows8_": {},
    "_winphone10_": {},
    "_winphone8_": {},
    "android": {},
    "androidwearos": {},
    "areflexpropsreferenced": false,
    "canUpdateUI": true,
    "clipbounds": true,
    "containerweight": 0,
    "dataDiffs": {
        "PopupHeaderUM": {
            "__events__": {},
            "__info__": {
                "isRoot": true,
                "kuid": "a9d0aa5dfa1742db87070bd918bafcbf",
                "srcKUID": "b489322f6e0340b080d60e7c281ed08c",
                "wType": "FlexContainer"
            }
        },
        "flxBody": {
            "__events__": {},
            "__info__": {
                "kuid": "i70f0bb2f0c94cdf8bd20da853cd03ff",
                "srcKUID": "g83e5a0cfbc34b93ba705d301a00bbc2",
                "wType": "FlexContainer"
            }
        },
        "flxClose": {
            "__events__": {},
            "__info__": {
                "kuid": "j91e5aa0f29f4cfaa749543e219258bf",
                "srcKUID": "fb952e0bbc6f44719f1621a5bdef8122",
                "wType": "FlexContainer"
            }
        },
        "flxComments": {
            "__events__": {},
            "__info__": {
                "kuid": "c1474b58c30948dab75b8a12ae5810bd",
                "srcKUID": "d7ae211354264109bcc8d6b528ba9310",
                "wType": "FlexContainer"
            },
            "isVisible": false,
            "responsiveData": {}
        },
        "flxHeader": {
            "__events__": {},
            "__info__": {
                "kuid": "ea0304af728245988f912458764eecfe",
                "srcKUID": "h3d3b2f8e498449d92e35567324d8425",
                "wType": "FlexContainer"
            }
        },
        "flxPlaceHolder": {
            "__events__": {},
            "__info__": {
                "kuid": "def7b14b0bfc49ee9931723ecedf94af",
                "srcKUID": "e5936eff9365480bbf81b9da16547cb3",
                "wType": "FlexContainer"
            }
        },
        "flxPopupContainer": {
            "__events__": {},
            "__info__": {
                "kuid": "dc4756df22314e7e8314cbfb244000dc",
                "srcKUID": "c8bf69e8961649679b0b2a87588d8b36",
                "wType": "FlexContainer"
            }
        },
        "flxSeperator": {
            "__events__": {},
            "__info__": {
                "kuid": "hde37289239d401eaf3630111c851ba0",
                "srcKUID": "ib0e703bf8724408be8ca30890b2d08c",
                "wType": "FlexContainer"
            }
        },
        "flxSeperatorBlankChild": {
            "__events__": {},
            "__info__": {
                "kuid": "i3d423e1774f406bab066219f44955ec",
                "srcKUID": "b267886da14e4e33802bff0155775dd7",
                "wType": "FlexContainer"
            }
        },
        "formActionsNew": {
            "__events__": {},
            "__info__": {
                "kuid": "a17e57c17dc1415594d64621b6c6814a",
                "srcKUID": "dbae1f1058f1482d8c5f36e0a5bc07dc",
                "wType": "UserWidgetInstance"
            }
        },
        "formActionsNew.btnCancel": {
            "__events__": {},
            "__info__": {
                "kuid": "ff07e681f9ca4b34a136db94c98606be",
                "srcKUID": "e7778be9a3b54a7e83688c755e8b17a0",
                "wType": "Button"
            },
            "i18n_text": "i18n.common.no",
            "responsiveData": {},
            "text": "No"
        },
        "formActionsNew.btnNext": {
            "__events__": {},
            "__info__": {
                "kuid": "adbac9a5cf72438d8231770745d93344",
                "srcKUID": "f293bbc4c4e64f8a86e9f87f8458742f",
                "wType": "Button"
            },
            "i18n_text": "i18n.common.yes",
            "responsiveData": {},
            "text": "Yes"
        },
        "formActionsNew.btnOption": {
            "__events__": {},
            "__info__": {
                "kuid": "c88236c6c3f147719ad7757567f3fd6c",
                "srcKUID": "fc51ee8ee0dc4e1898e74a120ddfce8e",
                "wType": "Button"
            },
            "i18n_text": "i18n.MFA.Option"
        },
        "formActionsNew.flxMain": {
            "__events__": {},
            "__info__": {
                "kuid": "i54b69efae5b4df085ddb151232bbe6c",
                "srcKUID": "ba2094d06ce342199df87f5a1471613d",
                "wType": "FlexContainer"
            }
        },
        "imgClose": {
            "__events__": {},
            "__info__": {
                "kuid": "ea59df730e814afbbc8b9dc02e69ce87",
                "srcKUID": "ce0520d874a643f2a4ebb5f4ca01e283",
                "wType": "Image"
            }
        },
        "lblCommnets": {
            "__events__": {},
            "__info__": {
                "kuid": "fe7344b5b3fd4ed4a04e71b984fff4df",
                "srcKUID": "b6cc3f8f3ae94bd7bb6949895c8ceb33",
                "wType": "Label"
            },
            "i18n_text": "i18n.konybb.myRequests.comments"
        },
        "lblHeader": {
            "__events__": {},
            "__info__": {
                "kuid": "g27ed196043e418b810834f14b5cc570",
                "srcKUID": "f5ecc50055bc45559d1e35e31f30d5b8",
                "wType": "Label"
            }
        },
        "lblPopupMsg": {
            "__events__": {},
            "__info__": {
                "kuid": "j29e8a806af64305bf2dee41cc4045c4",
                "srcKUID": "b3c0a54dccc749e4989dd377e4c7bc39",
                "wType": "Label"
            }
        },
        "trComments": {
            "__events__": {},
            "__info__": {
                "kuid": "a66001f3932042dc8250fe2625ab6c27",
                "srcKUID": "dcffa2f4991d4e7badb8e1eb1a87db99",
                "wType": "TextArea"
            },
            "i18n_placeholder": "i18n.konybb.trComments"
        }
    },
    "enablescrolling": true,
    "id": "PopupHeaderUM",
    "info": null,
    "iscustomlayout": false,
    "isdatareferenced": false,
    "isvisible": true,
    "kuid": "a9d0aa5dfa1742db87070bd918bafcbf",
    "layouttype": 2,
    "masterType": 0,
    "name": "kony.ui.UserWidgetInstance",
    "parent": "flxPopupConfirmation",
    "pf": "frmBBUsersDashboard",
    "retaincontentalignment": false,
    "retainflexpositionproperties": false,
    "snapgridsize": 10,
    "snaptogrid": true,
    "sourceUserWidget": "b489322f6e0340b080d60e7c281ed08c",
    "spa": {},
    "spaan": {},
    "spaandroidtablet": {},
    "spabb": {},
    "spaip": {},
    "spaipad": {},
    "spamobile": {},
    "spatablet": {},
    "spawindowstablet": {},
    "spawinphone8": {},
    "tabrcandroid": {},
    "vizProps": {
        "hidewidgethierarchy": false
    },
    "wType": "UserWidgetInstance",
    "windows10": {},
    "windows8": {},
    "winphone10": {},
    "winphone8": {}
}