{
    "@class": "com.kony.gen.viz.model.component.KVizUserWidget",
    "DNDConfig": null,
    "__parentReadjusting__": false,
    "_android_": {},
    "_androidwearos_": {},
    "_children_": [],
    "_desktopweb_": {},
    "_height_": {
        "type": "ref",
        "value": "preferred"
    },
    "_ipad_": {},
    "_iphone_": {},
    "_kiosk_": {},
    "_left_": {
        "type": "string",
        "value": "0dp"
    },
    "_margin_": [
        0,
        0,
        0,
        0
    ],
    "_orientation_": 1,
    "_padding_": [
        0,
        0,
        0,
        0
    ],
    "_percent_": true,
    "_render_": true,
    "_responsiveData_": {},
    "_skin_": "s4d6392bface4761840338d65d827a61",
    "_spa_": {},
    "_spaan_": {},
    "_spaandroidtablet_": {},
    "_spabb_": {},
    "_spaip_": {},
    "_spaipad_": {},
    "_spamobile_": {},
    "_spatablet_": {},
    "_spawindowstablet_": {},
    "_spawinphone8_": {},
    "_tabrcandroid_": {},
    "_top_": {
        "type": "string",
        "value": "0dp"
    },
    "_vizProps_": {
        "hidewidgethierarchy": false
    },
    "_width_": {
        "type": "string",
        "value": "100%"
    },
    "_windows10_": {},
    "_windows8_": {},
    "_winphone10_": {},
    "_winphone8_": {},
    "areflexpropsreferenced": false,
    "autogrowmode": 1,
    "canUpdateUI": true,
    "clipbounds": true,
    "containerweight": 0,
    "dataDiffs": {
        "CustomerFeedbackDetails": {
            "__events__": {},
            "__info__": {
                "isRoot": true,
                "kuid": "f9147a1f41ca4145b736ff9ea900c1ee",
                "srcKUID": "h93b40cf133945b9baf0de71c04b12c8",
                "wType": "FlexContainer"
            }
        },
        "confirmHeaders": {
            "__events__": {},
            "__info__": {
                "kuid": "e76071b574284dafaf79103286a8394a",
                "srcKUID": "jb718b007ee44a168260fdea5f79af0d",
                "wType": "UserWidgetInstance"
            }
        },
        "confirmHeaders.flxHeader": {
            "__events__": {},
            "__info__": {
                "kuid": "b105ddac302b4a76af9a4c7ab17f0a3b",
                "srcKUID": "bfbfb9f59a6f415880f5ba35fbddd249",
                "wType": "FlexContainer"
            }
        },
        "confirmHeaders.lblHeading": {
            "__events__": {},
            "__info__": {
                "kuid": "e5b637534fe94263b2213fe15334d127",
                "srcKUID": "b632c5d3e7934929bf29a1aa5ab625f2",
                "wType": "Label"
            }
        },
        "flxComments": {
            "__events__": {},
            "__info__": {
                "kuid": "a7877cb837164015beb7504a72d46a6b",
                "srcKUID": "g8dbda9e424e4334b9d728e9755a8ed0",
                "wType": "FlexContainer"
            }
        },
        "flxHorizontalLine": {
            "__events__": {},
            "__info__": {
                "kuid": "fbd3759d70214448b2993f60befc0860",
                "srcKUID": "icff8fe3507441cab5dbb4d0f425a0f4",
                "wType": "FlexContainer"
            }
        },
        "flxMain": {
            "__events__": {},
            "__info__": {
                "kuid": "f1d392eff3bc4dd0bf5ff950bb9aa6de",
                "srcKUID": "c19e50a5cbff43c694de5f500a6ec3ce",
                "wType": "FlexContainer"
            }
        },
        "flxQuestion1": {
            "__events__": {},
            "__info__": {
                "kuid": "g027b0dcd7a84cdb8280f1a084ea59c4",
                "srcKUID": "h2a40b37e8164755a6f5132077764448",
                "wType": "FlexContainer"
            }
        },
        "flxQuestion2": {
            "__events__": {},
            "__info__": {
                "kuid": "a37551c0f6064d9bacab840dfec12dd3",
                "srcKUID": "bfd793d8c75c4b03b5cee95565f837fc",
                "wType": "FlexContainer"
            }
        },
        "flxQuestion3": {
            "__events__": {},
            "__info__": {
                "kuid": "e494d16465624bf9b0559a869f111797",
                "srcKUID": "e57c06688c214905a35aa4683bdd95a1",
                "wType": "FlexContainer"
            }
        },
        "flxRateYourExperience": {
            "__events__": {},
            "__info__": {
                "kuid": "f3d123d81348436d818994e3c856ab5f",
                "srcKUID": "b54d49bbed594297afeb43490823061c",
                "wType": "FlexContainer"
            }
        },
        "flxRatingimg": {
            "__events__": {},
            "__info__": {
                "kuid": "ef7dcaf2fa1146ab8e54f3a778662533",
                "srcKUID": "c3ea265627264cddb93ed75039e2f6b3",
                "wType": "FlexContainer"
            }
        },
        "flxScrollContainerCustomerFeedback": {
            "__events__": {},
            "__info__": {
                "kuid": "bbe46da876174aab80c2cf01864ec8ee",
                "srcKUID": "c47df74481cc429790e6b72f2e4d12bc",
                "wType": "FlexScrollContainer"
            }
        },
        "flxaddress": {
            "__events__": {},
            "__info__": {
                "kuid": "f684bff717ee4dddbbe61d2c6601dd8a",
                "srcKUID": "ib601e53804948a5b346ee1a9ca07cad",
                "wType": "FlexContainer"
            }
        },
        "imgRating1": {
            "__events__": {},
            "__info__": {
                "kuid": "fc38850e7cdb4aa588c6f736c68af1c9",
                "srcKUID": "icb3c97367e04d279701970b6300260d",
                "wType": "Image"
            },
            "src": "unfilled_star.png"
        },
        "imgRating2": {
            "__events__": {},
            "__info__": {
                "kuid": "da4d90bed59d4852ac843e4444ff2a87",
                "srcKUID": "eac6f15b976e41d282acff3bc563e25d",
                "wType": "Image"
            },
            "src": "unfilled_star.png"
        },
        "imgRating3": {
            "__events__": {},
            "__info__": {
                "kuid": "a8a480824c104fdc97c4e50bccfe586e",
                "srcKUID": "c479872be62d4930a61c5e9bbbf9b3c3",
                "wType": "Image"
            },
            "src": "unfilled_star.png"
        },
        "imgRating4": {
            "__events__": {},
            "__info__": {
                "kuid": "d9ee14f4cdb8472cb4c040711e7175ac",
                "srcKUID": "d0a63e805eba40719dae22392b39e9b6",
                "wType": "Image"
            },
            "src": "unfilled_star.png"
        },
        "imgRating5": {
            "__events__": {},
            "__info__": {
                "kuid": "ad794e57382449d698c2b59c85365487",
                "srcKUID": "je060ba8c131424fa0e8086505cf6da1",
                "wType": "Image"
            },
            "src": "unfilled_star.png"
        },
        "lblAddYourComments": {
            "__events__": {},
            "__info__": {
                "kuid": "h7116cd609d7416392992ca48ab10205",
                "srcKUID": "f43ee1c3ca61470584c296068f00036e",
                "wType": "Label"
            }
        },
        "lblAnswer1": {
            "__events__": {},
            "__info__": {
                "kuid": "bf3b2449607f470bb070c853b2ea08e4",
                "srcKUID": "idf5ae7cf2634114a38f3c757b78a8bf",
                "wType": "Label"
            }
        },
        "lblAnswer2": {
            "__events__": {},
            "__info__": {
                "kuid": "ab2d4cf4e5e64b7c8cb15bc099ed12c4",
                "srcKUID": "j4d5e4b1616a45e4ae2a6b9019da3d29",
                "wType": "Label"
            }
        },
        "lblAnswer3": {
            "__events__": {},
            "__info__": {
                "kuid": "d9d8ec0b3db9497dac699be6fac5127c",
                "srcKUID": "d8b1060a8780494e98a995f1d2fdb1c1",
                "wType": "Label"
            }
        },
        "lblQuestion1": {
            "__events__": {},
            "__info__": {
                "kuid": "icf6c3f5d865483bbca189e6b1139415",
                "srcKUID": "b8fb66250bcc4cf2928f6099d3ed351b",
                "wType": "Label"
            }
        },
        "lblQuestion2": {
            "__events__": {},
            "__info__": {
                "kuid": "h741c55f13c248298248eff617ab984f",
                "srcKUID": "i110e0adf66f4f278c34eb90388449db",
                "wType": "Label"
            }
        },
        "lblQuestion3": {
            "__events__": {},
            "__info__": {
                "kuid": "d9d64d08b517466f8dcce1a3aafad556",
                "srcKUID": "e4f90f81b314440b9423b2c9625e3d83",
                "wType": "Label"
            }
        },
        "lblRateYourExpeience": {
            "__events__": {},
            "__info__": {
                "kuid": "a874c1e58a344feebea9059ed7d3fb71",
                "srcKUID": "f7b7d185e60e41128b86e2a775d5893a",
                "wType": "Label"
            }
        },
        "lblcomments": {
            "__events__": {},
            "__info__": {
                "kuid": "b86efe2a385b485dbfbf99064eb0b6f2",
                "srcKUID": "c5107942216f4301b9dc9de13b3cd40d",
                "wType": "Label"
            }
        }
    },
    "id": "CustomerFeedbackDetails",
    "info": null,
    "isdatareferenced": false,
    "isvisible": true,
    "kuid": "ie7c9b0fab7541378555faf610e69095",
    "layouttype": 2,
    "masterType": 0,
    "name": "kony.ui.UserWidgetInstance",
    "parent": "flxTransactionDetails",
    "pf": "frmCustomerFeedbackSurvey",
    "snaptogrid": true,
    "sourceUserWidget": "h93b40cf133945b9baf0de71c04b12c8",
    "vizprops": {
        "hidewidgethierarchy": false
    },
    "wType": "UserWidgetInstance"
}