{
    "@class": "com.kony.gen.viz.model.component.KVizImage2",
    "DNDConfig": null,
    "__parentReadjusting__": false,
    "_base64_": null,
    "_height_": {
        "type": "string",
        "value": "20px"
    },
    "_left_": {
        "type": "string",
        "value": "1%"
    },
    "_margin_": [
        0,
        0,
        0,
        0
    ],
    "_padding_": [
        0,
        0,
        0,
        0
    ],
    "_skin_": "s78a5f26c9f14cec9ebed1bb46098f80",
    "_src_": "checked_box.png",
    "_top_": {
        "type": "string",
        "value": "0dp"
    },
    "_width_": {
        "type": "string",
        "value": "20dp"
    },
    "canUpdateUI": true,
    "containerweight": 100,
    "context": {
        "channel": "desktop",
        "formID": "uwbe1106e468a847e5bd30403ff9510eee",
        "platform": "desktopweb",
        "templateType": "userwidgets",
        "topLevelBox": null
    },
    "id": "imgCheckboxPhone",
    "imagescalemode": 0,
    "imagewhiledownloading": "img_transparent.png",
    "info": null,
    "invokedProperty": "src",
    "isvisible": true,
    "kuid": "e9bc48c5449d40edb11661bc5a25cdb4",
    "name": "kony.ui.Image2",
    "parent": "flxCheckboxPhone",
    "pf": "userwidgetmodel",
    "srcType": 1,
    "tooltip": "Select Phone No",
    "wType": "Image",
    "widgetalignment": 5,
    "zindex": 1,
    "accessibilityconfig": {
        "a11yLabel": "Select Phone No"
    }
}