{
  "android": {
    "font_size": 125,
    "isForked": false
  },
  "androidwearos": {
    "font_size": 125,
    "isForked": false
  },
  "background_color": "f9fafbff",
  "bg_type": "one",
  "border_color": "f9fafbff",
  "border_style": "plain",
  "border_type": 0,
  "border_width": 1,
  "desktopweb": {
    "font_name": "SourceSansPro-Regular",
    "font_size": 125,
    "isForked": false
  },
  "fontSizeInPx": false,
  "font_color": "455574ff",
  "font_name": "Helvetica",
  "font_size": 125,
  "font_style": "normal",
  "font_weight": "normal",
  "ipad": {
    "font_size": 125,
    "isForked": false
  },
  "iphone": {
    "font_size": 125,
    "isForked": false
  },
  "isDefaultSkin": false,
  "kiosk": {
    "font_size": 125,
    "isForked": false
  },
  "kuid": "sf992fedb1ee4be2be79d8d73358ace8",
  "spaan": {
    "font_size": 125,
    "isForked": false
  },
  "spaandroidtablet": {
    "font_size": 125,
    "isForked": false
  },
  "spabb": {
    "font_size": 125,
    "isForked": false
  },
  "spaip": {
    "font_size": 125,
    "isForked": false
  },
  "spaipad": {
    "font_size": 125,
    "isForked": false
  },
  "spawindowstablet": {
    "font_size": 125,
    "isForked": false
  },
  "spawinphone8": {
    "font_size": 125,
    "isForked": false
  },
  "tabrcandroid": {
    "font_size": 125,
    "isForked": false
  },
  "wType": "Label",
  "watchos": {
    "font_size": 125,
    "isForked": false
  },
  "windows8": {
    "font_size": 125,
    "isForked": false
  },
  "winphone8": {
    "font_size": 125,
    "isForked": false
  }
}