{
    "background_color": "ffffffff",
    "bg_type": "one",
    "border_color": "000000ff",
    "border_style": "plain",
    "border_type": 0,
    "border_width": 0,
    "font_color": "000000ff",
    "font_name": "Helvetica",
    "font_size": 156,
    "font_style": "normal",
    "font_weight": "normal",
    "isDefaultSkin": false,
    "kuid": "sd4ba83edeff48cea40f71b225631b9a",
    "wType": "Image"
}