{
    "background_color": "00000059",
    "bg_type": "one",
    "border_color": "000000ff",
    "border_style": "plain",
    "border_type": 0,
    "border_width": 0,
    "isDefaultSkin": false,
    "kuid": "s46c2f35679e49558df61053d316fc4b",
    "wType": "FlexContainer"
}