{
  "background_color": "ffffffff",
  "bg_type": "one",
  "border_color": "d3d3d3ff",
  "border_radius": 3,
  "border_style": "custom",
  "border_type": 0,
  "border_width": 1,
  "desktopweb": {
    "bottom_left_border_color": "d3d3d3ff",
    "bottom_left_border_style": "plain",
    "bottom_left_border_width": "0",
    "bottom_right_border_color": "d3d3d3ff",
    "bottom_right_border_style": "plain",
    "bottom_right_border_width": "0",
    "isForked": true,
    "shadow": {
      "br": 2,
      "color": "d9d9d9ff",
      "inner": false,
      "nm": 0,
      "x": 1,
      "y": 1
    },
    "top_left_border_color": "d3d3d3ff",
    "top_left_border_style": "plain",
    "top_left_border_width": "0",
    "top_right_border_color": "d3d3d3ff",
    "top_right_border_style": "plain",
    "top_right_border_width": "0"
  },
  "ipad": {
    "isForked": true,
    "shadow": {
      "br": 2,
      "color": "d9d9d9ff",
      "inner": false,
      "nm": 0,
      "x": 1,
      "y": 1
    }
  },
  "iphone": {
    "isForked": true,
    "shadow": {
      "br": 2,
      "color": "d9d9d9ff",
      "inner": false,
      "nm": 0,
      "x": 1,
      "y": 1
    }
  },
  "isDefaultSkin": false,
  "kuid": "s869ff2218004c0e85a1dcfe600eb6d1",
  "spaan": {
    "bottom_left_border_color": "d3d3d3ff",
    "bottom_left_border_style": "plain",
    "bottom_left_border_width": "0",
    "bottom_right_border_color": "d3d3d3ff",
    "bottom_right_border_style": "plain",
    "bottom_right_border_width": "0",
    "isForked": true,
    "shadow": {
      "br": 2,
      "color": "d9d9d9ff",
      "inner": false,
      "nm": 0,
      "x": 1,
      "y": 1
    },
    "top_left_border_color": "d3d3d3ff",
    "top_left_border_style": "plain",
    "top_left_border_width": "0",
    "top_right_border_color": "d3d3d3ff",
    "top_right_border_style": "plain",
    "top_right_border_width": "0"
  },
  "spaandroidtablet": {
    "bottom_left_border_color": "d3d3d3ff",
    "bottom_left_border_style": "plain",
    "bottom_left_border_width": "0",
    "bottom_right_border_color": "d3d3d3ff",
    "bottom_right_border_style": "plain",
    "bottom_right_border_width": "0",
    "isForked": true,
    "shadow": {
      "br": 2,
      "color": "d9d9d9ff",
      "inner": false,
      "nm": 0,
      "x": 1,
      "y": 1
    },
    "top_left_border_color": "d3d3d3ff",
    "top_left_border_style": "plain",
    "top_left_border_width": "0",
    "top_right_border_color": "d3d3d3ff",
    "top_right_border_style": "plain",
    "top_right_border_width": "0"
  },
  "spabb": {
    "bottom_left_border_color": "d3d3d3ff",
    "bottom_left_border_style": "plain",
    "bottom_left_border_width": "0",
    "bottom_right_border_color": "d3d3d3ff",
    "bottom_right_border_style": "plain",
    "bottom_right_border_width": "0",
    "isForked": true,
    "shadow": {
      "br": 2,
      "color": "d9d9d9ff",
      "inner": false,
      "nm": 0,
      "x": 1,
      "y": 1
    },
    "top_left_border_color": "d3d3d3ff",
    "top_left_border_style": "plain",
    "top_left_border_width": "0",
    "top_right_border_color": "d3d3d3ff",
    "top_right_border_style": "plain",
    "top_right_border_width": "0"
  },
  "spaip": {
    "bottom_left_border_color": "d3d3d3ff",
    "bottom_left_border_style": "plain",
    "bottom_left_border_width": "0",
    "bottom_right_border_color": "d3d3d3ff",
    "bottom_right_border_style": "plain",
    "bottom_right_border_width": "0",
    "isForked": true,
    "shadow": {
      "br": 2,
      "color": "d9d9d9ff",
      "inner": false,
      "nm": 0,
      "x": 1,
      "y": 1
    },
    "top_left_border_color": "d3d3d3ff",
    "top_left_border_style": "plain",
    "top_left_border_width": "0",
    "top_right_border_color": "d3d3d3ff",
    "top_right_border_style": "plain",
    "top_right_border_width": "0"
  },
  "spaipad": {
    "bottom_left_border_color": "d3d3d3ff",
    "bottom_left_border_style": "plain",
    "bottom_left_border_width": "0",
    "bottom_right_border_color": "d3d3d3ff",
    "bottom_right_border_style": "plain",
    "bottom_right_border_width": "0",
    "isForked": true,
    "shadow": {
      "br": 2,
      "color": "d9d9d9ff",
      "inner": false,
      "nm": 0,
      "x": 1,
      "y": 1
    },
    "top_left_border_color": "d3d3d3ff",
    "top_left_border_style": "plain",
    "top_left_border_width": "0",
    "top_right_border_color": "d3d3d3ff",
    "top_right_border_style": "plain",
    "top_right_border_width": "0"
  },
  "spawindowstablet": {
    "bottom_left_border_color": "d3d3d3ff",
    "bottom_left_border_style": "plain",
    "bottom_left_border_width": "0",
    "bottom_right_border_color": "d3d3d3ff",
    "bottom_right_border_style": "plain",
    "bottom_right_border_width": "0",
    "isForked": true,
    "shadow": {
      "br": 2,
      "color": "d9d9d9ff",
      "inner": false,
      "nm": 0,
      "x": 1,
      "y": 1
    },
    "top_left_border_color": "d3d3d3ff",
    "top_left_border_style": "plain",
    "top_left_border_width": "0",
    "top_right_border_color": "d3d3d3ff",
    "top_right_border_style": "plain",
    "top_right_border_width": "0"
  },
  "spawinphone8": {
    "bottom_left_border_color": "d3d3d3ff",
    "bottom_left_border_style": "plain",
    "bottom_left_border_width": "0",
    "bottom_right_border_color": "d3d3d3ff",
    "bottom_right_border_style": "plain",
    "bottom_right_border_width": "0",
    "isForked": true,
    "shadow": {
      "br": 2,
      "color": "d9d9d9ff",
      "inner": false,
      "nm": 0,
      "x": 1,
      "y": 1
    },
    "top_left_border_color": "d3d3d3ff",
    "top_left_border_style": "plain",
    "top_left_border_width": "0",
    "top_right_border_color": "d3d3d3ff",
    "top_right_border_style": "plain",
    "top_right_border_width": "0"
  },
  "wType": "FlexContainer"
}