{
    "background_color": "ffffffff",
    "bg_type": "one",
    "border_color": "e8e9ebff",
    "border_style": "plain",
    "border_type": 0,
    "border_width": 0,
    "isDefaultSkin": false,
    "kuid": "se3bf92ca9794bcda594fcf8025d44b0",
    "wType": "FlexContainer"
}