{
    "background_color": "00000000",
    "bg_type": "one",
    "border_color": "e3e3e3ff",
    "border_radius": 3,
    "border_style": "custom",
    "border_type": 0,
    "border_width": 1,
    "isDefaultSkin": false,
    "kuid": "s977e90210164710ad2ec08e195681e5",
    "wType": "FlexContainer"
}