{
  "background_color": "fbfbfbff",
  "bg_type": "one",
  "border_color": "fbfbfbff",
  "border_radius": 2,
  "border_style": "custom",
  "border_type": 0,
  "border_width": 1,
  "isDefaultSkin": false,
  "kuid": "s2efd12204eb407a9594764c853d6b70",
  "wType": "FlexContainer"
}