{
  "background_color": "ffffffff",
  "bg_type": "one",
  "border_color": "2a90e2ff",
  "border_radius": 5,
  "border_style": "custom",
  "border_type": 0,
  "border_width": 1,
  "isDefaultSkin": false,
  "kuid": "s623dda9137c478b9e5576fa0888f24d",
  "wType": "FlexContainer"
}