{
  "android": {
    "font_name": "SourceSansPro-Regular",
    "font_size": 29,
    "isForked": false
  },
  "background_color": "42424200",
  "bg_type": "one",
  "border_color": "424242ff",
  "border_style": "plain",
  "border_type": 0,
  "border_width": 0,
  "delinkedPltfrms": {
    "desktop": [
      "desktopweb"
    ],
    "mobile": [],
    "tablet": [
      "spaipad"
    ],
    "watch": []
  },
  "desktopweb": {
    "cursor_type": "pointer",
    "font_color": "0273e3ff",
    "font_name": "SourceSansPro-Regular",
    "font_size": 108,
    "isForked": true
  },
  "fontSizeInPx": true,
  "font_color": "424242ff",
  "font_name": "SourceSansPro-Regular",
  "font_size": 50,
  "font_style": "normal",
  "font_weight": "normal",
  "ipad": {
    "font_name": "SourceSansPro-Regular",
    "font_size": 43,
    "isForked": false
  },
  "iphone": {
    "font_name": "SourceSansPro-Regular",
    "font_size": 43,
    "isForked": false
  },
  "isDefaultSkin": false,
  "kiosk": {
    "font_name": "GenericMonospace",
    "font_size": 75,
    "isForked": false
  },
  "kuid": "sd34ee9a651541d8ae0d5f4b0942127e",
  "spaan": {
    "font_name": "SourceSansPro-Regular",
    "font_size": 50,
    "isForked": false
  },
  "spaandroidtablet": {
    "font_name": "SourceSansPro-Regular",
    "font_size": 50,
    "isForked": false
  },
  "spabb": {
    "font_name": "SourceSansPro-Regular",
    "font_size": 50,
    "isForked": false
  },
  "spaip": {
    "font_name": "SourceSansPro-Regular",
    "font_size": 50,
    "isForked": false
  },
  "spaipad": {
    "font_name": "SourceSansPro-Regular",
    "font_size": 100,
    "isForked": true
  },
  "spawindowstablet": {
    "font_name": "SourceSansPro-Regular",
    "font_size": 50,
    "isForked": false
  },
  "spawinphone8": {
    "font_name": "SourceSansPro-Regular",
    "font_size": 50,
    "isForked": false
  },
  "tabrcandroid": {
    "font_name": "SourceSansPro-Regular",
    "font_size": 71,
    "isForked": false
  },
  "wType": "Label",
  "watchos": {
    "font_name": "SourceSansPro-Regular",
    "font_size": 43,
    "isForked": false
  },
  "windows8": {
    "font_name": "GenericMonospace",
    "font_size": 29,
    "isForked": false
  },
  "winphone8": {
    "font_name": "GenericMonospace",
    "font_size": 40,
    "isForked": false
  }
}