{
  "android": {
    "background_color": "f9fafbff",
    "bg_type": "one",
    "isForked": true
  },
  "androidwearos": {
    "background_color": "f9fafbff",
    "bg_type": "one",
    "isForked": true
  },
  "background_color": "f9fafbff",
  "bg_type": "one",
  "border_color": "00000000",
  "border_radius": 3,
  "border_style": "custom",
  "border_type": 0,
  "border_width": 1,
  "ipad": {
    "background_color": "f9fafbff",
    "bg_type": "one",
    "isForked": true,
    "shadow": {
      "br": 2,
      "color": "c0c0c0ff",
      "inner": false,
      "nm": 0,
      "x": 0,
      "y": 0
    }
  },
  "iphone": {
    "background_color": "f9fafbff",
    "bg_type": "one",
    "isForked": true,
    "shadow": {
      "br": 2,
      "color": "c0c0c0ff",
      "inner": false,
      "nm": 0,
      "x": 0,
      "y": 0
    }
  },
  "isDefaultSkin": false,
  "kiosk": {
    "background_color": "f9fafbff",
    "bg_type": "one",
    "isForked": true
  },
  "kuid": "s261bd1d7d5a4422abe2841957f2a0cd",
  "spaan": {
    "background_color": "f9fafbff",
    "bg_type": "one",
    "bottom_left_border_color": "00000000",
    "bottom_left_border_radius": "3",
    "bottom_left_border_style": "rc",
    "bottom_left_border_width": 1,
    "bottom_right_border_color": "00000000",
    "bottom_right_border_radius": "3",
    "bottom_right_border_style": "rc",
    "bottom_right_border_width": 1,
    "isForked": true,
    "shadow": {
      "br": 2,
      "color": "c0c0c0ff",
      "inner": false,
      "nm": 0,
      "x": 0,
      "y": 0
    },
    "top_left_border_color": "00000000",
    "top_left_border_radius": "3",
    "top_left_border_style": "rc",
    "top_left_border_width": 1,
    "top_right_border_color": "00000000",
    "top_right_border_radius": "3",
    "top_right_border_style": "rc",
    "top_right_border_width": 1
  },
  "spaandroidtablet": {
    "background_color": "f9fafbff",
    "bg_type": "one",
    "bottom_left_border_color": "00000000",
    "bottom_left_border_radius": "3",
    "bottom_left_border_style": "rc",
    "bottom_left_border_width": 1,
    "bottom_right_border_color": "00000000",
    "bottom_right_border_radius": "3",
    "bottom_right_border_style": "rc",
    "bottom_right_border_width": 1,
    "isForked": true,
    "shadow": {
      "br": 2,
      "color": "c0c0c0ff",
      "inner": false,
      "nm": 0,
      "x": 0,
      "y": 0
    },
    "top_left_border_color": "00000000",
    "top_left_border_radius": "3",
    "top_left_border_style": "rc",
    "top_left_border_width": 1,
    "top_right_border_color": "00000000",
    "top_right_border_radius": "3",
    "top_right_border_style": "rc",
    "top_right_border_width": 1
  },
  "spabb": {
    "background_color": "f9fafbff",
    "bg_type": "one",
    "bottom_left_border_color": "00000000",
    "bottom_left_border_radius": "3",
    "bottom_left_border_style": "rc",
    "bottom_left_border_width": 1,
    "bottom_right_border_color": "00000000",
    "bottom_right_border_radius": "3",
    "bottom_right_border_style": "rc",
    "bottom_right_border_width": 1,
    "isForked": true,
    "shadow": {
      "br": 2,
      "color": "c0c0c0ff",
      "inner": false,
      "nm": 0,
      "x": 0,
      "y": 0
    },
    "top_left_border_color": "00000000",
    "top_left_border_radius": "3",
    "top_left_border_style": "rc",
    "top_left_border_width": 1,
    "top_right_border_color": "00000000",
    "top_right_border_radius": "3",
    "top_right_border_style": "rc",
    "top_right_border_width": 1
  },
  "spaip": {
    "background_color": "f9fafbff",
    "bg_type": "one",
    "bottom_left_border_color": "00000000",
    "bottom_left_border_radius": "3",
    "bottom_left_border_style": "rc",
    "bottom_left_border_width": 1,
    "bottom_right_border_color": "00000000",
    "bottom_right_border_radius": "3",
    "bottom_right_border_style": "rc",
    "bottom_right_border_width": 1,
    "isForked": true,
    "shadow": {
      "br": 2,
      "color": "c0c0c0ff",
      "inner": false,
      "nm": 0,
      "x": 0,
      "y": 0
    },
    "top_left_border_color": "00000000",
    "top_left_border_radius": "3",
    "top_left_border_style": "rc",
    "top_left_border_width": 1,
    "top_right_border_color": "00000000",
    "top_right_border_radius": "3",
    "top_right_border_style": "rc",
    "top_right_border_width": 1
  },
  "spaipad": {
    "background_color": "f9fafbff",
    "bg_type": "one",
    "bottom_left_border_color": "00000000",
    "bottom_left_border_radius": "3",
    "bottom_left_border_style": "rc",
    "bottom_left_border_width": 1,
    "bottom_right_border_color": "00000000",
    "bottom_right_border_radius": "3",
    "bottom_right_border_style": "rc",
    "bottom_right_border_width": 1,
    "isForked": true,
    "shadow": {
      "br": 2,
      "color": "c0c0c0ff",
      "inner": false,
      "nm": 0,
      "x": 0,
      "y": 0
    },
    "top_left_border_color": "00000000",
    "top_left_border_radius": "3",
    "top_left_border_style": "rc",
    "top_left_border_width": 1,
    "top_right_border_color": "00000000",
    "top_right_border_radius": "3",
    "top_right_border_style": "rc",
    "top_right_border_width": 1
  },
  "spawindowstablet": {
    "background_color": "f9fafbff",
    "bg_type": "one",
    "bottom_left_border_color": "00000000",
    "bottom_left_border_radius": "3",
    "bottom_left_border_style": "rc",
    "bottom_left_border_width": 1,
    "bottom_right_border_color": "00000000",
    "bottom_right_border_radius": "3",
    "bottom_right_border_style": "rc",
    "bottom_right_border_width": 1,
    "isForked": true,
    "shadow": {
      "br": 2,
      "color": "c0c0c0ff",
      "inner": false,
      "nm": 0,
      "x": 0,
      "y": 0
    },
    "top_left_border_color": "00000000",
    "top_left_border_radius": "3",
    "top_left_border_style": "rc",
    "top_left_border_width": 1,
    "top_right_border_color": "00000000",
    "top_right_border_radius": "3",
    "top_right_border_style": "rc",
    "top_right_border_width": 1
  },
  "spawinphone8": {
    "background_color": "f9fafbff",
    "bg_type": "one",
    "bottom_left_border_color": "00000000",
    "bottom_left_border_radius": "3",
    "bottom_left_border_style": "rc",
    "bottom_left_border_width": 1,
    "bottom_right_border_color": "00000000",
    "bottom_right_border_radius": "3",
    "bottom_right_border_style": "rc",
    "bottom_right_border_width": 1,
    "isForked": true,
    "shadow": {
      "br": 2,
      "color": "c0c0c0ff",
      "inner": false,
      "nm": 0,
      "x": 0,
      "y": 0
    },
    "top_left_border_color": "00000000",
    "top_left_border_radius": "3",
    "top_left_border_style": "rc",
    "top_left_border_width": 1,
    "top_right_border_color": "00000000",
    "top_right_border_radius": "3",
    "top_right_border_style": "rc",
    "top_right_border_width": 1
  },
  "tabrcandroid": {
    "background_color": "f9fafbff",
    "bg_type": "one",
    "isForked": true
  },
  "wType": "FlexContainer",
  "windows8": {
    "background_color": "f9fafbff",
    "bg_type": "one",
    "isForked": true
  },
  "winphone8": {
    "background_color": "f9fafbff",
    "bg_type": "one",
    "isForked": true
  }
}