{
  "background_color": "e3e3e300",
  "bg_type": "one",
  "border_color": "e3e3e3ff",
  "border_style": "plain",
  "border_type": 0,
  "border_width": 1,
  "isDefaultSkin": false,
  "kuid": "sac0b9a2fcf747319c1a1b6eb0caf0cb",
  "wType": "FlexContainer"
}