{
  "android": {
    "background_color": {
      "angle": 90,
      "colors": [
        "ffffffff",
        "ffffffff",
        "0273e3ff",
        "0273e3ff"
      ],
      "cs": [
        0,
        50,
        50,
        100
      ],
      "gradientType": "toRight",
      "gt": "linear"
    },
    "background_style": "linear",
    "bg_type": "ms_gradient",
    "isForked": true
  },
  "androidwearos": {
    "background_color": {
      "angle": 90,
      "colors": [
        "ffffffff",
        "ffffffff",
        "0273e3ff",
        "0273e3ff"
      ],
      "cs": [
        0,
        50,
        50,
        100
      ],
      "gradientType": "toRight",
      "gt": "linear"
    },
    "background_style": "linear",
    "bg_type": "ms_gradient",
    "isForked": true
  },
  "background_color": "ffffffff",
  "bg_type": "one",
  "border_color": "000000ff",
  "border_style": "plain",
  "border_type": 0,
  "border_width": 0,
  "desktopweb": {
    "background_color": {
      "angle": 90,
      "colors": [
        "ffffffff",
        "ffffffff",
        "0273e3ff",
        "0273e3ff"
      ],
      "cs": [
        0,
        50,
        50,
        100
      ],
      "gradientType": "toRight",
      "gt": "linear"
    },
    "background_style": "linear",
    "bg_type": "ms_gradient",
    "border_type": 0,
    "bottom_left_border_color": "ffffff00",
    "bottom_left_border_style": "plain",
    "bottom_left_border_width": "0",
    "bottom_right_border_color": "ffffff00",
    "bottom_right_border_style": "plain",
    "bottom_right_border_width": "0",
    "isForked": true,
    "shadow": {
      "br": 12,
      "color": "bebebeff",
      "inner": false,
      "nm": 0,
      "x": 2,
      "y": 4
    },
    "top_left_border_color": "ffffff00",
    "top_left_border_style": "plain",
    "top_left_border_width": "0",
    "top_right_border_color": "ffffff00",
    "top_right_border_style": "plain",
    "top_right_border_width": "0"
  },
  "ipad": {
    "background_color": {
      "angle": 90,
      "colors": [
        "ffffffff",
        "ffffffff",
        "0273e3ff",
        "0273e3ff"
      ],
      "cs": [
        0,
        50,
        50,
        100
      ],
      "gradientType": "toRight",
      "gt": "linear"
    },
    "background_style": "linear",
    "bg_type": "ms_gradient",
    "isForked": true,
    "shadow": {
      "br": 12,
      "color": "bebebeff",
      "inner": false,
      "nm": 0,
      "x": 2,
      "y": 4
    }
  },
  "iphone": {
    "background_color": {
      "angle": 90,
      "colors": [
        "ffffffff",
        "ffffffff",
        "0273e3ff",
        "0273e3ff"
      ],
      "cs": [
        0,
        50,
        50,
        100
      ],
      "gradientType": "toRight",
      "gt": "linear"
    },
    "background_style": "linear",
    "bg_type": "ms_gradient",
    "isForked": true,
    "shadow": {
      "br": 12,
      "color": "bebebeff",
      "inner": false,
      "nm": 0,
      "x": 2,
      "y": 4
    }
  },
  "isDefaultSkin": false,
  "kiosk": {
    "background_color": {
      "angle": 90,
      "colors": [
        "ffffffff",
        "ffffffff",
        "0273e3ff",
        "0273e3ff"
      ],
      "cs": [
        0,
        50,
        50,
        100
      ],
      "gradientType": "toRight",
      "gt": "linear"
    },
    "background_style": "linear",
    "bg_type": "ms_gradient",
    "isForked": true
  },
  "kuid": "s88bd58a585345878d6a909075f24918",
  "spaan": {
    "background_color": {
      "angle": 90,
      "colors": [
        "ffffffff",
        "ffffffff",
        "0273e3ff",
        "0273e3ff"
      ],
      "cs": [
        0,
        50,
        50,
        100
      ],
      "gradientType": "toRight",
      "gt": "linear"
    },
    "background_style": "linear",
    "bg_type": "ms_gradient",
    "border_type": 0,
    "bottom_left_border_color": "ffffff00",
    "bottom_left_border_style": "plain",
    "bottom_left_border_width": "0",
    "bottom_right_border_color": "ffffff00",
    "bottom_right_border_style": "plain",
    "bottom_right_border_width": "0",
    "isForked": true,
    "shadow": {
      "br": 12,
      "color": "bebebeff",
      "inner": false,
      "nm": 0,
      "x": 2,
      "y": 4
    },
    "top_left_border_color": "ffffff00",
    "top_left_border_style": "plain",
    "top_left_border_width": "0",
    "top_right_border_color": "ffffff00",
    "top_right_border_style": "plain",
    "top_right_border_width": "0"
  },
  "spaandroidtablet": {
    "background_color": {
      "angle": 90,
      "colors": [
        "ffffffff",
        "ffffffff",
        "0273e3ff",
        "0273e3ff"
      ],
      "cs": [
        0,
        50,
        50,
        100
      ],
      "gradientType": "toRight",
      "gt": "linear"
    },
    "background_style": "linear",
    "bg_type": "ms_gradient",
    "border_type": 0,
    "bottom_left_border_color": "ffffff00",
    "bottom_left_border_style": "plain",
    "bottom_left_border_width": "0",
    "bottom_right_border_color": "ffffff00",
    "bottom_right_border_style": "plain",
    "bottom_right_border_width": "0",
    "isForked": true,
    "shadow": {
      "br": 12,
      "color": "bebebeff",
      "inner": false,
      "nm": 0,
      "x": 2,
      "y": 4
    },
    "top_left_border_color": "ffffff00",
    "top_left_border_style": "plain",
    "top_left_border_width": "0",
    "top_right_border_color": "ffffff00",
    "top_right_border_style": "plain",
    "top_right_border_width": "0"
  },
  "spabb": {
    "background_color": {
      "angle": 90,
      "colors": [
        "ffffffff",
        "ffffffff",
        "0273e3ff",
        "0273e3ff"
      ],
      "cs": [
        0,
        50,
        50,
        100
      ],
      "gradientType": "toRight",
      "gt": "linear"
    },
    "background_style": "linear",
    "bg_type": "ms_gradient",
    "border_type": 0,
    "bottom_left_border_color": "ffffff00",
    "bottom_left_border_style": "plain",
    "bottom_left_border_width": "0",
    "bottom_right_border_color": "ffffff00",
    "bottom_right_border_style": "plain",
    "bottom_right_border_width": "0",
    "isForked": true,
    "shadow": {
      "br": 12,
      "color": "bebebeff",
      "inner": false,
      "nm": 0,
      "x": 2,
      "y": 4
    },
    "top_left_border_color": "ffffff00",
    "top_left_border_style": "plain",
    "top_left_border_width": "0",
    "top_right_border_color": "ffffff00",
    "top_right_border_style": "plain",
    "top_right_border_width": "0"
  },
  "spaip": {
    "background_color": {
      "angle": 90,
      "colors": [
        "ffffffff",
        "ffffffff",
        "0273e3ff",
        "0273e3ff"
      ],
      "cs": [
        0,
        50,
        50,
        100
      ],
      "gradientType": "toRight",
      "gt": "linear"
    },
    "background_style": "linear",
    "bg_type": "ms_gradient",
    "border_type": 0,
    "bottom_left_border_color": "ffffff00",
    "bottom_left_border_style": "plain",
    "bottom_left_border_width": "0",
    "bottom_right_border_color": "ffffff00",
    "bottom_right_border_style": "plain",
    "bottom_right_border_width": "0",
    "isForked": true,
    "shadow": {
      "br": 12,
      "color": "bebebeff",
      "inner": false,
      "nm": 0,
      "x": 2,
      "y": 4
    },
    "top_left_border_color": "ffffff00",
    "top_left_border_style": "plain",
    "top_left_border_width": "0",
    "top_right_border_color": "ffffff00",
    "top_right_border_style": "plain",
    "top_right_border_width": "0"
  },
  "spaipad": {
    "background_color": {
      "angle": 90,
      "colors": [
        "ffffffff",
        "ffffffff",
        "0273e3ff",
        "0273e3ff"
      ],
      "cs": [
        0,
        50,
        50,
        100
      ],
      "gradientType": "toRight",
      "gt": "linear"
    },
    "background_style": "linear",
    "bg_type": "ms_gradient",
    "border_type": 0,
    "bottom_left_border_color": "ffffff00",
    "bottom_left_border_style": "plain",
    "bottom_left_border_width": "0",
    "bottom_right_border_color": "ffffff00",
    "bottom_right_border_style": "plain",
    "bottom_right_border_width": "0",
    "isForked": true,
    "shadow": {
      "br": 12,
      "color": "bebebeff",
      "inner": false,
      "nm": 0,
      "x": 2,
      "y": 4
    },
    "top_left_border_color": "ffffff00",
    "top_left_border_style": "plain",
    "top_left_border_width": "0",
    "top_right_border_color": "ffffff00",
    "top_right_border_style": "plain",
    "top_right_border_width": "0"
  },
  "spawindowstablet": {
    "background_color": {
      "angle": 90,
      "colors": [
        "ffffffff",
        "ffffffff",
        "0273e3ff",
        "0273e3ff"
      ],
      "cs": [
        0,
        50,
        50,
        100
      ],
      "gradientType": "toRight",
      "gt": "linear"
    },
    "background_style": "linear",
    "bg_type": "ms_gradient",
    "border_type": 0,
    "bottom_left_border_color": "ffffff00",
    "bottom_left_border_style": "plain",
    "bottom_left_border_width": "0",
    "bottom_right_border_color": "ffffff00",
    "bottom_right_border_style": "plain",
    "bottom_right_border_width": "0",
    "isForked": true,
    "shadow": {
      "br": 12,
      "color": "bebebeff",
      "inner": false,
      "nm": 0,
      "x": 2,
      "y": 4
    },
    "top_left_border_color": "ffffff00",
    "top_left_border_style": "plain",
    "top_left_border_width": "0",
    "top_right_border_color": "ffffff00",
    "top_right_border_style": "plain",
    "top_right_border_width": "0"
  },
  "spawinphone8": {
    "background_color": {
      "angle": 90,
      "colors": [
        "ffffffff",
        "ffffffff",
        "0273e3ff",
        "0273e3ff"
      ],
      "cs": [
        0,
        50,
        50,
        100
      ],
      "gradientType": "toRight",
      "gt": "linear"
    },
    "background_style": "linear",
    "bg_type": "ms_gradient",
    "border_type": 0,
    "bottom_left_border_color": "ffffff00",
    "bottom_left_border_style": "plain",
    "bottom_left_border_width": "0",
    "bottom_right_border_color": "ffffff00",
    "bottom_right_border_style": "plain",
    "bottom_right_border_width": "0",
    "isForked": true,
    "shadow": {
      "br": 12,
      "color": "bebebeff",
      "inner": false,
      "nm": 0,
      "x": 2,
      "y": 4
    },
    "top_left_border_color": "ffffff00",
    "top_left_border_style": "plain",
    "top_left_border_width": "0",
    "top_right_border_color": "ffffff00",
    "top_right_border_style": "plain",
    "top_right_border_width": "0"
  },
  "tabrcandroid": {
    "background_color": {
      "angle": 90,
      "colors": [
        "ffffffff",
        "ffffffff",
        "0273e3ff",
        "0273e3ff"
      ],
      "cs": [
        0,
        50,
        50,
        100
      ],
      "gradientType": "toRight",
      "gt": "linear"
    },
    "background_style": "linear",
    "bg_type": "ms_gradient",
    "isForked": true
  },
  "wType": "FlexContainer",
  "windows8": {
    "background_color": {
      "angle": 90,
      "colors": [
        "ffffffff",
        "ffffffff",
        "0273e3ff",
        "0273e3ff"
      ],
      "cs": [
        0,
        50,
        50,
        100
      ],
      "gradientType": "toRight",
      "gt": "linear"
    },
    "background_style": "linear",
    "bg_type": "ms_gradient",
    "isForked": true
  },
  "winphone8": {
    "background_color": {
      "angle": 90,
      "colors": [
        "ffffffff",
        "ffffffff",
        "0273e3ff",
        "0273e3ff"
      ],
      "cs": [
        0,
        50,
        50,
        100
      ],
      "gradientType": "toRight",
      "gt": "linear"
    },
    "background_style": "linear",
    "bg_type": "ms_gradient",
    "isForked": true
  }
}