{
    "background_color": "26d0ceff",
    "bg_type": "one",
    "border_color": "000000ff",
    "border_style": "plain",
    "border_type": 0,
    "border_width": 0,
    "desktopweb": {
        "border_type": 0,
        "bottom_left_border_color": "26d0ceff",
        "bottom_left_border_radius": "3",
        "bottom_left_border_style": "rc",
        "bottom_left_border_width": "1",
        "bottom_right_border_color": "26d0ceff",
        "bottom_right_border_radius": "3",
        "bottom_right_border_style": "rc",
        "bottom_right_border_width": "1",
        "isForked": true,
        "top_left_border_color": "26d0ceff",
        "top_left_border_radius": "3",
        "top_left_border_style": "rc",
        "top_left_border_width": "1",
        "top_right_border_color": "000000ff",
        "top_right_border_style": "plain",
        "top_right_border_width": 0
    },
    "isDefaultSkin": false,
    "kuid": "s34036f6aeb846ea99f9da6a4dd2e95b",
    "spaan": {
        "border_type": 0,
        "bottom_left_border_color": "26d0ceff",
        "bottom_left_border_radius": "3",
        "bottom_left_border_style": "rc",
        "bottom_left_border_width": "1",
        "bottom_right_border_color": "26d0ceff",
        "bottom_right_border_radius": "3",
        "bottom_right_border_style": "rc",
        "bottom_right_border_width": "1",
        "isForked": true,
        "top_left_border_color": "26d0ceff",
        "top_left_border_radius": "3",
        "top_left_border_style": "rc",
        "top_left_border_width": "1",
        "top_right_border_color": "000000ff",
        "top_right_border_style": "plain",
        "top_right_border_width": 0
    },
    "spaandroidtablet": {
        "border_type": 0,
        "bottom_left_border_color": "26d0ceff",
        "bottom_left_border_radius": "3",
        "bottom_left_border_style": "rc",
        "bottom_left_border_width": "1",
        "bottom_right_border_color": "26d0ceff",
        "bottom_right_border_radius": "3",
        "bottom_right_border_style": "rc",
        "bottom_right_border_width": "1",
        "isForked": true,
        "top_left_border_color": "26d0ceff",
        "top_left_border_radius": "3",
        "top_left_border_style": "rc",
        "top_left_border_width": "1",
        "top_right_border_color": "000000ff",
        "top_right_border_style": "plain",
        "top_right_border_width": 0
    },
    "spabb": {
        "border_type": 0,
        "bottom_left_border_color": "26d0ceff",
        "bottom_left_border_radius": "3",
        "bottom_left_border_style": "rc",
        "bottom_left_border_width": "1",
        "bottom_right_border_color": "26d0ceff",
        "bottom_right_border_radius": "3",
        "bottom_right_border_style": "rc",
        "bottom_right_border_width": "1",
        "isForked": true,
        "top_left_border_color": "26d0ceff",
        "top_left_border_radius": "3",
        "top_left_border_style": "rc",
        "top_left_border_width": "1",
        "top_right_border_color": "000000ff",
        "top_right_border_style": "plain",
        "top_right_border_width": 0
    },
    "spaip": {
        "border_type": 0,
        "bottom_left_border_color": "26d0ceff",
        "bottom_left_border_radius": "3",
        "bottom_left_border_style": "rc",
        "bottom_left_border_width": "1",
        "bottom_right_border_color": "26d0ceff",
        "bottom_right_border_radius": "3",
        "bottom_right_border_style": "rc",
        "bottom_right_border_width": "1",
        "isForked": true,
        "top_left_border_color": "26d0ceff",
        "top_left_border_radius": "3",
        "top_left_border_style": "rc",
        "top_left_border_width": "1",
        "top_right_border_color": "000000ff",
        "top_right_border_style": "plain",
        "top_right_border_width": 0
    },
    "spaipad": {
        "border_type": 0,
        "bottom_left_border_color": "26d0ceff",
        "bottom_left_border_radius": "3",
        "bottom_left_border_style": "rc",
        "bottom_left_border_width": "1",
        "bottom_right_border_color": "26d0ceff",
        "bottom_right_border_radius": "3",
        "bottom_right_border_style": "rc",
        "bottom_right_border_width": "1",
        "isForked": true,
        "top_left_border_color": "26d0ceff",
        "top_left_border_radius": "3",
        "top_left_border_style": "rc",
        "top_left_border_width": "1",
        "top_right_border_color": "000000ff",
        "top_right_border_style": "plain",
        "top_right_border_width": 0
    },
    "spawindowstablet": {
        "border_type": 0,
        "bottom_left_border_color": "26d0ceff",
        "bottom_left_border_radius": "3",
        "bottom_left_border_style": "rc",
        "bottom_left_border_width": "1",
        "bottom_right_border_color": "26d0ceff",
        "bottom_right_border_radius": "3",
        "bottom_right_border_style": "rc",
        "bottom_right_border_width": "1",
        "isForked": true,
        "top_left_border_color": "26d0ceff",
        "top_left_border_radius": "3",
        "top_left_border_style": "rc",
        "top_left_border_width": "1",
        "top_right_border_color": "000000ff",
        "top_right_border_style": "plain",
        "top_right_border_width": 0
    },
    "spawinphone8": {
        "border_type": 0,
        "bottom_left_border_color": "26d0ceff",
        "bottom_left_border_radius": "3",
        "bottom_left_border_style": "rc",
        "bottom_left_border_width": "1",
        "bottom_right_border_color": "26d0ceff",
        "bottom_right_border_radius": "3",
        "bottom_right_border_style": "rc",
        "bottom_right_border_width": "1",
        "isForked": true,
        "top_left_border_color": "26d0ceff",
        "top_left_border_radius": "3",
        "top_left_border_style": "rc",
        "top_left_border_width": "1",
        "top_right_border_color": "000000ff",
        "top_right_border_style": "plain",
        "top_right_border_width": 0
    },
    "wType": "FlexContainer"
}
