{
  "background_color": "f7f7f700",
  "bg_type": "one",
  "border_color": "f7f7f7ff",
  "border_radius": 5,
  "border_style": "custom",
  "border_type": 0,
  "border_width": 1,
  "desktopweb": {
    "bottom_left_border_color": "f7f7f7ff",
    "bottom_left_border_style": "plain",
    "bottom_left_border_width": "0",
    "bottom_right_border_color": "f7f7f7ff",
    "bottom_right_border_style": "plain",
    "bottom_right_border_width": "0",
    "customCSS": "cursor: pointer !important;\n",
    "isCustomCSSEnabled": false,
    "isForked": true,
    "shadow": {
      "br": 12,
      "color": "09487bff",
      "inner": false,
      "nm": 0,
      "x": 1,
      "y": 1
    },
    "top_left_border_color": "f7f7f7ff",
    "top_left_border_style": "plain",
    "top_left_border_width": "0",
    "top_right_border_color": "f7f7f7ff",
    "top_right_border_style": "plain",
    "top_right_border_width": "0"
  },
  "ipad": {
    "isForked": true,
    "shadow": {
      "br": 12,
      "color": "09487bff",
      "inner": false,
      "nm": 0,
      "x": 1,
      "y": 1
    }
  },
  "iphone": {
    "isForked": true,
    "shadow": {
      "br": 12,
      "color": "09487bff",
      "inner": false,
      "nm": 0,
      "x": 1,
      "y": 1
    }
  },
  "isDefaultSkin": false,
  "kuid": "s0712a4ea6a14a1fbde213083e160354",
  "spaan": {
    "bottom_left_border_color": "f7f7f7ff",
    "bottom_left_border_style": "plain",
    "bottom_left_border_width": "0",
    "bottom_right_border_color": "f7f7f7ff",
    "bottom_right_border_style": "plain",
    "bottom_right_border_width": "0",
    "isCustomCSSEnabled": false,
    "isForked": true,
    "shadow": {
      "br": 12,
      "color": "09487bff",
      "inner": false,
      "nm": 0,
      "x": 1,
      "y": 1
    },
    "top_left_border_color": "f7f7f7ff",
    "top_left_border_style": "plain",
    "top_left_border_width": "0",
    "top_right_border_color": "f7f7f7ff",
    "top_right_border_style": "plain",
    "top_right_border_width": "0"
  },
  "spaandroidtablet": {
    "bottom_left_border_color": "f7f7f7ff",
    "bottom_left_border_style": "plain",
    "bottom_left_border_width": "0",
    "bottom_right_border_color": "f7f7f7ff",
    "bottom_right_border_style": "plain",
    "bottom_right_border_width": "0",
    "isCustomCSSEnabled": false,
    "isForked": true,
    "shadow": {
      "br": 12,
      "color": "09487bff",
      "inner": false,
      "nm": 0,
      "x": 1,
      "y": 1
    },
    "top_left_border_color": "f7f7f7ff",
    "top_left_border_style": "plain",
    "top_left_border_width": "0",
    "top_right_border_color": "f7f7f7ff",
    "top_right_border_style": "plain",
    "top_right_border_width": "0"
  },
  "spabb": {
    "bottom_left_border_color": "f7f7f7ff",
    "bottom_left_border_style": "plain",
    "bottom_left_border_width": "0",
    "bottom_right_border_color": "f7f7f7ff",
    "bottom_right_border_style": "plain",
    "bottom_right_border_width": "0",
    "isCustomCSSEnabled": false,
    "isForked": true,
    "shadow": {
      "br": 12,
      "color": "09487bff",
      "inner": false,
      "nm": 0,
      "x": 1,
      "y": 1
    },
    "top_left_border_color": "f7f7f7ff",
    "top_left_border_style": "plain",
    "top_left_border_width": "0",
    "top_right_border_color": "f7f7f7ff",
    "top_right_border_style": "plain",
    "top_right_border_width": "0"
  },
  "spaip": {
    "bottom_left_border_color": "f7f7f7ff",
    "bottom_left_border_style": "plain",
    "bottom_left_border_width": "0",
    "bottom_right_border_color": "f7f7f7ff",
    "bottom_right_border_style": "plain",
    "bottom_right_border_width": "0",
    "isCustomCSSEnabled": false,
    "isForked": true,
    "shadow": {
      "br": 12,
      "color": "09487bff",
      "inner": false,
      "nm": 0,
      "x": 1,
      "y": 1
    },
    "top_left_border_color": "f7f7f7ff",
    "top_left_border_style": "plain",
    "top_left_border_width": "0",
    "top_right_border_color": "f7f7f7ff",
    "top_right_border_style": "plain",
    "top_right_border_width": "0"
  },
  "spaipad": {
    "bottom_left_border_color": "f7f7f7ff",
    "bottom_left_border_style": "plain",
    "bottom_left_border_width": "0",
    "bottom_right_border_color": "f7f7f7ff",
    "bottom_right_border_style": "plain",
    "bottom_right_border_width": "0",
    "isCustomCSSEnabled": false,
    "isForked": true,
    "shadow": {
      "br": 12,
      "color": "09487bff",
      "inner": false,
      "nm": 0,
      "x": 1,
      "y": 1
    },
    "top_left_border_color": "f7f7f7ff",
    "top_left_border_style": "plain",
    "top_left_border_width": "0",
    "top_right_border_color": "f7f7f7ff",
    "top_right_border_style": "plain",
    "top_right_border_width": "0"
  },
  "spawindowstablet": {
    "bottom_left_border_color": "f7f7f7ff",
    "bottom_left_border_style": "plain",
    "bottom_left_border_width": "0",
    "bottom_right_border_color": "f7f7f7ff",
    "bottom_right_border_style": "plain",
    "bottom_right_border_width": "0",
    "isCustomCSSEnabled": false,
    "isForked": true,
    "shadow": {
      "br": 12,
      "color": "09487bff",
      "inner": false,
      "nm": 0,
      "x": 1,
      "y": 1
    },
    "top_left_border_color": "f7f7f7ff",
    "top_left_border_style": "plain",
    "top_left_border_width": "0",
    "top_right_border_color": "f7f7f7ff",
    "top_right_border_style": "plain",
    "top_right_border_width": "0"
  },
  "spawinphone8": {
    "bottom_left_border_color": "f7f7f7ff",
    "bottom_left_border_style": "plain",
    "bottom_left_border_width": "0",
    "bottom_right_border_color": "f7f7f7ff",
    "bottom_right_border_style": "plain",
    "bottom_right_border_width": "0",
    "isCustomCSSEnabled": false,
    "isForked": true,
    "shadow": {
      "br": 12,
      "color": "09487bff",
      "inner": false,
      "nm": 0,
      "x": 1,
      "y": 1
    },
    "top_left_border_color": "f7f7f7ff",
    "top_left_border_style": "plain",
    "top_left_border_width": "0",
    "top_right_border_color": "f7f7f7ff",
    "top_right_border_style": "plain",
    "top_right_border_width": "0"
  },
  "wType": "FlexContainer"
}