{
  "background_color": "f7f7f7ff",
  "bg_type": "one",
  "border_color": "dee0e2ff",
  "border_radius": 5,
  "border_style": "custom",
  "border_type": 0,
  "border_width": 1,
  "isDefaultSkin": false,
  "kuid": "s639bbd66e104c56b5ef01457beb6250",
  "wType": "FlexContainer"
}