{
  "background_color": "dbdbdbff",
  "bg_type": "one",
  "border_color": "000000ff",
  "border_style": "plain",
  "border_type": 0,
  "border_width": 0,
  "isDefaultSkin": false,
  "kuid": "s870810bb1d04b1b8a143c4167a0eff0",
  "wType": "FlexContainer"
}