{
  "background_color": "e9dff1ff",
  "bg_type": "one",
  "border_color": "000000ff",
  "border_style": "plain",
  "border_type": 0,
  "border_width": 0,
  "desktopweb": {
    "border_type": 0,
    "bottom_left_border_color": "e9dff1ff",
    "bottom_left_border_style": "plain",
    "bottom_left_border_width": "1",
    "bottom_right_border_color": "000000ff",
    "bottom_right_border_style": "plain",
    "bottom_right_border_width": 0,
    "isForked": true,
    "top_left_border_color": "e9dff1ff",
    "top_left_border_radius": "3",
    "top_left_border_style": "rc",
    "top_left_border_width": "1",
    "top_right_border_color": "e9dff1ff",
    "top_right_border_radius": "3",
    "top_right_border_style": "rc",
    "top_right_border_width": "1"
  },
  "isDefaultSkin": false,
  "kuid": "s5d49102953d46c6b5cf913c64253b73",
  "spaan": {
    "border_type": 0,
    "bottom_left_border_color": "e9dff1ff",
    "bottom_left_border_style": "plain",
    "bottom_left_border_width": "1",
    "bottom_right_border_color": "000000ff",
    "bottom_right_border_style": "plain",
    "bottom_right_border_width": 0,
    "isForked": true,
    "top_left_border_color": "e9dff1ff",
    "top_left_border_radius": "3",
    "top_left_border_style": "rc",
    "top_left_border_width": "1",
    "top_right_border_color": "e9dff1ff",
    "top_right_border_radius": "3",
    "top_right_border_style": "rc",
    "top_right_border_width": "1"
  },
  "spaandroidtablet": {
    "border_type": 0,
    "bottom_left_border_color": "e9dff1ff",
    "bottom_left_border_style": "plain",
    "bottom_left_border_width": "1",
    "bottom_right_border_color": "000000ff",
    "bottom_right_border_style": "plain",
    "bottom_right_border_width": 0,
    "isForked": true,
    "top_left_border_color": "e9dff1ff",
    "top_left_border_radius": "3",
    "top_left_border_style": "rc",
    "top_left_border_width": "1",
    "top_right_border_color": "e9dff1ff",
    "top_right_border_radius": "3",
    "top_right_border_style": "rc",
    "top_right_border_width": "1"
  },
  "spabb": {
    "border_type": 0,
    "bottom_left_border_color": "e9dff1ff",
    "bottom_left_border_style": "plain",
    "bottom_left_border_width": "1",
    "bottom_right_border_color": "000000ff",
    "bottom_right_border_style": "plain",
    "bottom_right_border_width": 0,
    "isForked": true,
    "top_left_border_color": "e9dff1ff",
    "top_left_border_radius": "3",
    "top_left_border_style": "rc",
    "top_left_border_width": "1",
    "top_right_border_color": "e9dff1ff",
    "top_right_border_radius": "3",
    "top_right_border_style": "rc",
    "top_right_border_width": "1"
  },
  "spaip": {
    "border_type": 0,
    "bottom_left_border_color": "e9dff1ff",
    "bottom_left_border_style": "plain",
    "bottom_left_border_width": "1",
    "bottom_right_border_color": "000000ff",
    "bottom_right_border_style": "plain",
    "bottom_right_border_width": 0,
    "isForked": true,
    "top_left_border_color": "e9dff1ff",
    "top_left_border_radius": "3",
    "top_left_border_style": "rc",
    "top_left_border_width": "1",
    "top_right_border_color": "e9dff1ff",
    "top_right_border_radius": "3",
    "top_right_border_style": "rc",
    "top_right_border_width": "1"
  },
  "spaipad": {
    "border_type": 0,
    "bottom_left_border_color": "e9dff1ff",
    "bottom_left_border_style": "plain",
    "bottom_left_border_width": "1",
    "bottom_right_border_color": "000000ff",
    "bottom_right_border_style": "plain",
    "bottom_right_border_width": 0,
    "isForked": true,
    "top_left_border_color": "e9dff1ff",
    "top_left_border_radius": "3",
    "top_left_border_style": "rc",
    "top_left_border_width": "1",
    "top_right_border_color": "e9dff1ff",
    "top_right_border_radius": "3",
    "top_right_border_style": "rc",
    "top_right_border_width": "1"
  },
  "spawindowstablet": {
    "border_type": 0,
    "bottom_left_border_color": "e9dff1ff",
    "bottom_left_border_style": "plain",
    "bottom_left_border_width": "1",
    "bottom_right_border_color": "000000ff",
    "bottom_right_border_style": "plain",
    "bottom_right_border_width": 0,
    "isForked": true,
    "top_left_border_color": "e9dff1ff",
    "top_left_border_radius": "3",
    "top_left_border_style": "rc",
    "top_left_border_width": "1",
    "top_right_border_color": "e9dff1ff",
    "top_right_border_radius": "3",
    "top_right_border_style": "rc",
    "top_right_border_width": "1"
  },
  "spawinphone8": {
    "border_type": 0,
    "bottom_left_border_color": "e9dff1ff",
    "bottom_left_border_style": "plain",
    "bottom_left_border_width": "1",
    "bottom_right_border_color": "000000ff",
    "bottom_right_border_style": "plain",
    "bottom_right_border_width": 0,
    "isForked": true,
    "top_left_border_color": "e9dff1ff",
    "top_left_border_radius": "3",
    "top_left_border_style": "rc",
    "top_left_border_width": "1",
    "top_right_border_color": "e9dff1ff",
    "top_right_border_radius": "3",
    "top_right_border_style": "rc",
    "top_right_border_width": "1"
  },
  "wType": "FlexContainer"
}