{
  "android": {
    "background_color": "f6f6f6ff",
    "bg_type": "one",
    "isForked": true
  },
  "background_color": "f6f6f6ff",
  "bg_type": "one",
  "border_color": "000000ff",
  "border_style": "plain",
  "border_type": 0,
  "border_width": 0,
  "desktopweb": {
    "background_color": "f6f6f6ff",
    "bg_type": "one",
    "border_type": 0,
    "bottom_left_border_color": "000000ff",
    "bottom_left_border_style": "plain",
    "bottom_left_border_width": 0,
    "bottom_right_border_color": "e3e3e3ff",
    "bottom_right_border_style": "plain",
    "bottom_right_border_width": "1",
    "cursor_type": "pointer",
    "customCSS": "background-color: #f6f6f6;\nposition: fixed !important;\nz-index: 1000 !important;\nopacity: 1 !important;\noverflow: visible;\nwidth: 35.13%  !important;\nheight: 638px !important;\ntransform-origin: 50% 50% 0px !important;\nleft: -35.13% !important;\ntop: 0px !important;",
    "isCustomCSSEnabled": false,
    "isForked": true,
    "top_left_border_color": "000000ff",
    "top_left_border_style": "plain",
    "top_left_border_width": 0,
    "top_right_border_color": "000000ff",
    "top_right_border_style": "plain",
    "top_right_border_width": 0
  },
  "ipad": {
    "background_color": "f6f6f6ff",
    "bg_type": "one",
    "isForked": true
  },
  "iphone": {
    "background_color": "f6f6f6ff",
    "bg_type": "one",
    "isForked": true
  },
  "isDefaultSkin": false,
  "kiosk": {
    "background_color": "f6f6f6ff",
    "bg_type": "one",
    "isForked": true
  },
  "kuid": "sad0e770874f4021acce356bfa3df076",
  "spaan": {
    "background_color": "f6f6f6ff",
    "bg_type": "one",
    "border_type": 0,
    "bottom_left_border_color": "000000ff",
    "bottom_left_border_style": "plain",
    "bottom_left_border_width": 0,
    "bottom_right_border_color": "e3e3e3ff",
    "bottom_right_border_style": "plain",
    "bottom_right_border_width": "1",
    "customCSS": "background-color: #f6f6f6;\nposition: fixed !important;\nz-index: 1000 !important;\nopacity: 1 !important;\noverflow: visible;\nwidth: 35.13%  !important;\nheight: 638px !important;\ntransform-origin: 50% 50% 0px !important;\nleft: -35.13% !important;\ntop: 0px !important;",
    "isCustomCSSEnabled": false,
    "isForked": true,
    "top_left_border_color": "000000ff",
    "top_left_border_style": "plain",
    "top_left_border_width": 0,
    "top_right_border_color": "000000ff",
    "top_right_border_style": "plain",
    "top_right_border_width": 0
  },
  "spaandroidtablet": {
    "background_color": "f6f6f6ff",
    "bg_type": "one",
    "border_type": 0,
    "bottom_left_border_color": "000000ff",
    "bottom_left_border_style": "plain",
    "bottom_left_border_width": 0,
    "bottom_right_border_color": "e3e3e3ff",
    "bottom_right_border_style": "plain",
    "bottom_right_border_width": "1",
    "customCSS": "background-color: #f6f6f6;\nposition: fixed !important;\nz-index: 1000 !important;\nopacity: 1 !important;\noverflow: visible;\nwidth: 35.13%  !important;\nheight: 638px !important;\ntransform-origin: 50% 50% 0px !important;\nleft: -35.13% !important;\ntop: 0px !important;",
    "isCustomCSSEnabled": false,
    "isForked": true,
    "top_left_border_color": "000000ff",
    "top_left_border_style": "plain",
    "top_left_border_width": 0,
    "top_right_border_color": "000000ff",
    "top_right_border_style": "plain",
    "top_right_border_width": 0
  },
  "spabb": {
    "background_color": "f6f6f6ff",
    "bg_type": "one",
    "border_type": 0,
    "bottom_left_border_color": "000000ff",
    "bottom_left_border_style": "plain",
    "bottom_left_border_width": 0,
    "bottom_right_border_color": "e3e3e3ff",
    "bottom_right_border_style": "plain",
    "bottom_right_border_width": "1",
    "customCSS": "background-color: #f6f6f6;\nposition: fixed !important;\nz-index: 1000 !important;\nopacity: 1 !important;\noverflow: visible;\nwidth: 35.13%  !important;\nheight: 638px !important;\ntransform-origin: 50% 50% 0px !important;\nleft: -35.13% !important;\ntop: 0px !important;",
    "isCustomCSSEnabled": false,
    "isForked": true,
    "top_left_border_color": "000000ff",
    "top_left_border_style": "plain",
    "top_left_border_width": 0,
    "top_right_border_color": "000000ff",
    "top_right_border_style": "plain",
    "top_right_border_width": 0
  },
  "spaip": {
    "background_color": "f6f6f6ff",
    "bg_type": "one",
    "border_type": 0,
    "bottom_left_border_color": "000000ff",
    "bottom_left_border_style": "plain",
    "bottom_left_border_width": 0,
    "bottom_right_border_color": "e3e3e3ff",
    "bottom_right_border_style": "plain",
    "bottom_right_border_width": "1",
    "customCSS": "background-color: #f6f6f6;\nposition: fixed !important;\nz-index: 1000 !important;\nopacity: 1 !important;\noverflow: visible;\nwidth: 35.13%  !important;\nheight: 638px !important;\ntransform-origin: 50% 50% 0px !important;\nleft: -35.13% !important;\ntop: 0px !important;",
    "isCustomCSSEnabled": false,
    "isForked": true,
    "top_left_border_color": "000000ff",
    "top_left_border_style": "plain",
    "top_left_border_width": 0,
    "top_right_border_color": "000000ff",
    "top_right_border_style": "plain",
    "top_right_border_width": 0
  },
  "spaipad": {
    "background_color": "f6f6f6ff",
    "bg_type": "one",
    "border_type": 0,
    "bottom_left_border_color": "000000ff",
    "bottom_left_border_style": "plain",
    "bottom_left_border_width": 0,
    "bottom_right_border_color": "e3e3e3ff",
    "bottom_right_border_style": "plain",
    "bottom_right_border_width": "1",
    "customCSS": "background-color: #f6f6f6;\nposition: fixed !important;\nz-index: 1000 !important;\nopacity: 1 !important;\noverflow: visible;\nwidth: 35.13%  !important;\nheight: 638px !important;\ntransform-origin: 50% 50% 0px !important;\nleft: -35.13% !important;\ntop: 0px !important;",
    "isCustomCSSEnabled": false,
    "isForked": true,
    "top_left_border_color": "000000ff",
    "top_left_border_style": "plain",
    "top_left_border_width": 0,
    "top_right_border_color": "000000ff",
    "top_right_border_style": "plain",
    "top_right_border_width": 0
  },
  "spawindowstablet": {
    "background_color": "f6f6f6ff",
    "bg_type": "one",
    "border_type": 0,
    "bottom_left_border_color": "000000ff",
    "bottom_left_border_style": "plain",
    "bottom_left_border_width": 0,
    "bottom_right_border_color": "e3e3e3ff",
    "bottom_right_border_style": "plain",
    "bottom_right_border_width": "1",
    "customCSS": "background-color: #f6f6f6;\nposition: fixed !important;\nz-index: 1000 !important;\nopacity: 1 !important;\noverflow: visible;\nwidth: 35.13%  !important;\nheight: 638px !important;\ntransform-origin: 50% 50% 0px !important;\nleft: -35.13% !important;\ntop: 0px !important;",
    "isCustomCSSEnabled": false,
    "isForked": true,
    "top_left_border_color": "000000ff",
    "top_left_border_style": "plain",
    "top_left_border_width": 0,
    "top_right_border_color": "000000ff",
    "top_right_border_style": "plain",
    "top_right_border_width": 0
  },
  "spawinphone8": {
    "background_color": "f6f6f6ff",
    "bg_type": "one",
    "border_type": 0,
    "bottom_left_border_color": "000000ff",
    "bottom_left_border_style": "plain",
    "bottom_left_border_width": 0,
    "bottom_right_border_color": "e3e3e3ff",
    "bottom_right_border_style": "plain",
    "bottom_right_border_width": "1",
    "customCSS": "background-color: #f6f6f6;\nposition: fixed !important;\nz-index: 1000 !important;\nopacity: 1 !important;\noverflow: visible;\nwidth: 35.13%  !important;\nheight: 638px !important;\ntransform-origin: 50% 50% 0px !important;\nleft: -35.13% !important;\ntop: 0px !important;",
    "isCustomCSSEnabled": false,
    "isForked": true,
    "top_left_border_color": "000000ff",
    "top_left_border_style": "plain",
    "top_left_border_width": 0,
    "top_right_border_color": "000000ff",
    "top_right_border_style": "plain",
    "top_right_border_width": 0
  },
  "tabrcandroid": {
    "background_color": "f6f6f6ff",
    "bg_type": "one",
    "isForked": true
  },
  "wType": "FlexContainer",
  "windows8": {
    "background_color": "f6f6f6ff",
    "bg_type": "one",
    "isForked": true
  },
  "winphone8": {
    "background_color": "f6f6f6ff",
    "bg_type": "one",
    "isForked": true
  }
}