{
  "background_color": "fbfbfbff",
  "bg_type": "one",
  "border_color": "dee0e2ff",
  "border_radius": 5,
  "border_style": "custom",
  "border_type": 0,
  "border_width": 1,
  "isDefaultSkin": false,
  "kuid": "sae6f8ab50f64a8e9de7c890a75223c5",
  "wType": "FlexContainer"
}