{
  "background_color": "00000000",
  "bg_type": "one",
  "border_color": "979797ff",
  "border_radius": 3,
  "border_style": "custom",
  "border_type": 0,
  "border_width": 1,
  "isDefaultSkin": false,
  "kuid": "s6d8c75751884844a837655162215f93",
  "wType": "FlexContainer"
}