{
  "android": {
    "font_size": 26,
    "isForked": true
  },
  "background_color": "00000000",
  "bg_type": "one",
  "border_color": "424242ff",
  "border_style": "plain",
  "border_type": 0,
  "border_width": 0,
  "desktopweb": {
    "font_name": "SourceSansPro-Regular",
    "font_size": 92,
    "isForked": true
  },
  "fontSizeInPx": true,
  "font_color": "424242ff",
  "font_name": "Helvetica",
  "font_size": 76,
  "font_style": "normal",
  "font_weight": "normal",
  "ipad": {
    "font_size": 39,
    "isForked": true
  },
  "iphone": {
    "font_size": 39,
    "isForked": true
  },
  "isDefaultSkin": false,
  "kiosk": {
    "font_size": 69,
    "isForked": true
  },
  "kuid": "s99da42c63bb4cada02062579733a547",
  "spaan": {
    "font_size": 92,
    "isForked": true
  },
  "spaandroidtablet": {
    "font_size": 92,
    "isForked": true
  },
  "spabb": {
    "font_size": 92,
    "isForked": true
  },
  "spaip": {
    "font_size": 92,
    "isForked": true
  },
  "spaipad": {
    "font_name": "SourceSansPro-Regular",
    "font_size": 92,
    "isForked": true
  },
  "spawindowstablet": {
    "font_size": 92,
    "isForked": true
  },
  "spawinphone8": {
    "font_size": 92,
    "isForked": true
  },
  "tabrcandroid": {
    "font_size": 65,
    "isForked": true
  },
  "wType": "Label",
  "watchos": {
    "font_size": 39,
    "isForked": true
  },
  "windows8": {
    "font_size": 27,
    "isForked": true
  },
  "winphone8": {
    "font_size": 37,
    "isForked": true
  }
}