{
  "android": {
    "font_name": "Helvetica",
    "font_size": 43,
    "isForked": false
  },
  "background_color": "d3d3d300",
  "bg_type": "one",
  "border_color": "72727233",
  "border_style": "plain",
  "border_type": 0,
  "border_width": 0,
  "desktopweb": {
    "font_name": "SourceSansPro-Regular",
    "font_size": 200,
    "isForked": false
  },
  "fontSizeInPx": true,
  "font_color": "424242ff",
  "font_name": "Helvetica",
  "font_size": 200,
  "font_style": "normal",
  "font_weight": "normal",
  "ipad": {
    "font_name": "Helvetica",
    "font_size": 86,
    "isForked": false
  },
  "iphone": {
    "font_name": "Helvetica",
    "font_size": 86,
    "isForked": false
  },
  "isDefaultSkin": false,
  "kiosk": {
    "font_name": "GenericMonospace",
    "font_size": 150,
    "isForked": false
  },
  "kuid": "sfc31615b7684e669ee7c1764171143c",
  "spaan": {
    "font_name": "SourceSansPro-Regular",
    "font_size": 200,
    "isForked": false
  },
  "spaandroidtablet": {
    "font_name": "SourceSansPro-Regular",
    "font_size": 200,
    "isForked": false
  },
  "spabb": {
    "font_name": "Helvetica",
    "font_size": 200,
    "isForked": false
  },
  "spaip": {
    "font_name": "SourceSansPro-Regular",
    "font_size": 200,
    "isForked": false
  },
  "spaipad": {
    "font_name": "SourceSansPro-Regular",
    "font_size": 200,
    "isForked": false
  },
  "spawindowstablet": {
    "font_name": "Helvetica",
    "font_size": 200,
    "isForked": false
  },
  "spawinphone8": {
    "font_name": "Helvetica",
    "font_size": 200,
    "isForked": false
  },
  "tabrcandroid": {
    "font_name": "Helvetica",
    "font_size": 142,
    "isForked": false
  },
  "wType": "TextField",
  "watchos": {
    "font_name": "Helvetica",
    "font_size": 86,
    "isForked": false
  },
  "windows8": {
    "font_name": "GenericMonospace",
    "font_size": 59,
    "isForked": false
  },
  "winphone8": {
    "font_name": "GenericMonospace",
    "font_size": 80,
    "isForked": false
  }
}