{
    "background_color": "ffffffd8",
    "bg_type": "one",
    "border_color": "000000ff",
    "border_style": "plain",
    "border_type": 0,
    "border_width": 0,
    "isDefaultSkin": false,
    "kuid": "sd289382cd8f4dda81accac6f0be953f",
    "wType": "Segment"
}
