{
    "DNDConfig": null,
    "__parentReadjusting__": false,
    "_bottom_": {
        "type": "number",
        "value": ""
    },
    "_height_": {
        "type": "ref",
        "value": "preferred"
    },
    "_left_": {
        "type": "string",
        "value": "0dp"
    },
    "_margin_": [
        0,
        0,
        0,
        0
    ],
    "_orientation_": 6,
    "_padding_": [
        0,
        0,
        0,
        0
    ],
    "_percent_": true,
    "_skin_": "sb75f187c17c456fb0450d66550451bb",
    "_top_": {
        "type": "string",
        "value": "0dp"
    },
    "_width_": {
        "type": "string",
        "value": "1366dp"
    },
    "allboxes": [],
    "autogrowmode": 1,
    "canUpdateUI": true,
    "centerx": {
        "type": "string",
        "value": "50%"
    },
    "children": [
        "flxDowntimeWarning",
        "flxPFMContainers",
        "flexCategorizedMonthlySpending",
        "flxUncategorizedTransactions"
    ],
    "clipbounds": true,
    "containerweight": 100,
    "enablescrolling": true,
    "id": "flxMainContainer",
    "info": null,
    "isvisible": true,
    "kuid": "fa9f27a960d847acaf6c767387bb47e3",
    "layouttype": 4,
    "minwidth": {
        "type": "number",
        "value": ""
    },
    "name": "kony.ui.FlexContainer",
    "parent": "flxContainer",
    "pf": "frmPersonalFinanceManagement",
    "responsiveData": {
        "b1": {
            "width": {
                "type": "string",
                "value": "1366dp"
            },
            "zIndex": 1
        },
        "b2": {
            "left": {
                "type": "string",
                "value": "0%"
            },
            "minWidth": {
                "type": "string",
                "value": ""
            },
            "width": {
                "type": "string",
                "value": "100%"
            },
            "zIndex": 1
        },
        "b3": {
            "width": {
                "type": "string",
                "value": "100%"
            },
            "zIndex": 1
        },
        "b4": {
            "bottom": {
                "type": "string",
                "value": "10dp"
            },
            "width": {
                "type": "string",
                "value": "100%"
            }
        }
    },
    "snapgridsize": 10,
    "snaptogrid": true,
    "wType": "FlexContainer",
    "widgetalignment": 1,
    "zindex": 2
}