{
    "DNDConfig": null,
    "__parentReadjusting__": false,
    "_bottom_": {
        "type": "string",
        "value": "0dp"
    },
    "_height_": {
        "type": "string",
        "value": "600dp"
    },
    "_left_": {
        "type": "string",
        "value": "2.50%"
    },
    "_margin_": [
        0,
        0,
        0,
        0
    ],
    "_orientation_": 6,
    "_padding_": [
        0,
        0,
        0,
        0
    ],
    "_percent_": true,
    "_skin_": "sd16ce1e169e41989424e7544cbf4816",
    "_top_": {
        "type": "string",
        "value": "20dp"
    },
    "_width_": {
        "type": "string",
        "value": "46.85%"
    },
    "allboxes": [],
    "autogrowmode": 0,
    "canUpdateUI": true,
    "children": [
        "flxHeaderAccounts",
        "flxSeparatorAccounts",
        "flxMySpendingWrapperAccounts",
        "flxAccounts",
        "flxSeperator2Accounts"
    ],
    "clipbounds": false,
    "containerweight": 100,
    "enablescrolling": true,
    "id": "flxPFMAccounts",
    "info": null,
    "isvisible": true,
    "kuid": "b1efcbee47d441f2b74ba76f8cdaa1e7",
    "layouttype": 4,
    "name": "kony.ui.FlexContainer",
    "parent": "flxPFMContainer2",
    "pf": "frmPersonalFinanceManagement",
    "responsiveData": {
        "b1": {
            "left": {
                "type": "string",
                "value": "5dp"
            },
            "skin": "sd16ce1e169e41989424e7544cbf4816",
            "top": {
                "type": "string",
                "value": "5dp"
            },
            "width": {
                "type": "string",
                "value": "49.25%"
            }
        },
        "b2": {
            "bottom": {
                "type": "string",
                "value": "5dp"
            },
            "left": {
                "type": "string",
                "value": "5dp"
            },
            "top": {
                "type": "string",
                "value": "0dp"
            },
            "width": {
                "type": "string",
                "value": "49.25%"
            }
        },
        "b3": {
            "bottom": {
                "type": "string",
                "value": "12dp"
            },
            "left": {
                "type": "string",
                "value": "5dp"
            },
            "width": {
                "type": "string",
                "value": "48.50%"
            }
        },
        "b4": {
            "left": {
                "type": "string",
                "value": "5dp"
            },
            "top": {
                "type": "string",
                "value": "20dp"
            },
            "width": {
                "type": "string",
                "value": "97.50%"
            }
        }
    },
    "snapgridsize": 10,
    "snaptogrid": true,
    "wType": "FlexContainer",
    "widgetalignment": 1,
    "zindex": 1
}