{
    "@class": "com.kony.gen.viz.model.component.KVizLabel",
    "DNDConfig": null,
    "__parentReadjusting__": false,
    "_height_": {
        "type": "ref",
        "value": "preferred"
    },
    "_left_": {
        "type": "string",
        "value": "30dp"
    },
    "_margin_": [
        0,
        0,
        0,
        0
    ],
    "_padding_": [
        0,
        0,
        0,
        0
    ],
    "_skin_": "sf3d49727f004b24b063b120aad6943d",
    "_text_": "J",
    "_width_": {
        "type": "string",
        "value": "30dp"
    },
    "_wrapping_": 2,
    "accessibilityconfig": {
        "a11yLabel": "J"
    },
    "android": {
        "textStyle": {
            "letterSpacing": 0,
            "strikeThrough": false
        }
    },
    "canUpdateUI": true,
    "centery": {
        "type": "string",
        "value": "50%"
    },
    "containerweight": 100,
    "contentalignment": 4,
    "id": "imgMySpendingIconBudget",
    "info": null,
    "ipad": {
        "psp": {
            "wrapping": 2
        }
    },
    "iphone": {
        "psp": {
            "wrapping": 2
        }
    },
    "isvisible": true,
    "kuid": "f4f34c941c5c45c7bac656daa7cb3331",
    "name": "kony.ui.Label",
    "parent": "flxHeaderBudget",
    "pf": "frmPersonalFinanceManagement",
    "responsiveData": {
        "b2": {
            "left": {
                "type": "string",
                "value": "5.32%"
            }
        },
        "b3": {
            "left": {
                "type": "string",
                "value": "7%"
            }
        }
    },
    "tooltip": "",
    "wType": "Label",
    "zindex": 1
}