{
    "@class": "com.kony.gen.viz.model.component.KVizLabel",
    "DNDConfig": null,
    "__parentReadjusting__": false,
    "_height_": {
        "type": "string",
        "value": "120dp"
    },
    "_left_": {
        "type": "string",
        "value": "53dp"
    },
    "_margin_": [
        1,
        1,
        1,
        1
    ],
    "_padding_": [
        0,
        0,
        0,
        0
    ],
    "_skin_": "s9ef5483aaa7434b9a55e7dd5251700b",
    "_text_": "I",
    "_top_": {
        "type": "string",
        "value": "21dp"
    },
    "_width_": {
        "type": "string",
        "value": "100dp"
    },
    "_wrapping_": 2,
    "accessibilityconfig": {
        "a11yLabel": "I"
    },
    "android": {
        "textStyle": {
            "letterSpacing": 0,
            "strikeThrough": false
        }
    },
    "canUpdateUI": true,
    "centerx": {
        "type": "string",
        "value": "50%"
    },
    "centery": {
        "type": "string",
        "value": "75%"
    },
    "containerweight": 100,
    "contentalignment": 4,
    "id": "lblImg",
    "info": null,
    "ipad": {
        "psp": {
            "wrapping": 2
        }
    },
    "iphone": {
        "psp": {
            "wrapping": 2
        }
    },
    "isvisible": true,
    "kuid": "af0f8e5db6ae4211af68ce2b988d3fd1",
    "name": "kony.ui.Label",
    "parent": "flxNoTransactions",
    "pf": "frmPersonalFinanceManagement",
    "responsiveData": {
        "b2": {
            "left": {
                "type": "string",
                "value": "11.75%"
            },
            "width": {
                "type": "string",
                "value": "22.17%"
            }
        },
        "b3": {
            "left": {
                "type": "string",
                "value": ""
            }
        },
        "b4": {
            "left": {
                "type": "string",
                "value": ""
            }
        }
    },
    "tooltip": "",
    "wType": "Label",
    "zindex": 1
}