{
    "@class": "com.kony.gen.viz.model.component.KVizLabel",
    "DNDConfig": null,
    "__parentReadjusting__": false,
    "_height_": {
        "type": "ref",
        "value": "preferred"
    },
    "_left_": {
        "type": "string",
        "value": "42%"
    },
    "_margin_": [
        1,
        1,
        1,
        1
    ],
    "_padding_": [
        0,
        0,
        0,
        0
    ],
    "_right_": {
        "type": "number",
        "value": ""
    },
    "_skin_": "s5c846d545014fb0891c57a80f2b684d",
    "_text_": "$3000.00",
    "_top_": {
        "type": "string",
        "value": "84dp"
    },
    "_width_": {
        "type": "ref",
        "value": "preferred"
    },
    "_wrapping_": 2,
    "accessibilityconfig": {
        "a11yLabel": "$3000.00"
    },
    "android": {
        "textStyle": {
            "letterSpacing": 0,
            "strikeThrough": false
        }
    },
    "canUpdateUI": true,
    "containerweight": 100,
    "contentalignment": 4,
    "id": "lblOverallSpendingAmount",
    "info": null,
    "ipad": {
        "psp": {
            "wrapping": 2
        }
    },
    "iphone": {
        "psp": {
            "wrapping": 2
        }
    },
    "isvisible": true,
    "kuid": "e79fa8003cf74902b41a58f74786cfcd",
    "name": "kony.ui.Label",
    "parent": "flxMySpendingWrapper",
    "pf": "frmPersonalFinanceManagement",
    "responsiveData": {
        "b1": {
            "left": {
                "type": "string",
                "value": "34%"
            }
        },
        "b2": {
            "left": {
                "type": "string",
                "value": "34%"
            }
        },
        "b3": {
            "left": {
                "type": "string",
                "value": "42%"
            }
        },
        "b4": {
            "left": {
                "type": "string",
                "value": "42%"
            },
            "right": {
                "type": "string",
                "value": ""
            }
        }
    },
    "tooltip": "",
    "wType": "Label",
    "zindex": 1
}