{
    "AS_UWI_hc684b9bd58b4228a7283153fd4d91bf": {
        "id": "AS_UWI_hc684b9bd58b4228a7283153fd4d91bf",
        "type": "ACTION_SEQUENCE",
        "params": [{
            "datatype": "collection",
            "name": "eventobject"
        }, {
            "datatype": "string",
            "name": "x"
        }, {
            "datatype": "string",
            "name": "y"
        }],
        "contextObj": {
            "type": "forms",
            "platform": "",
            "KUID": "e059936099a34afc8e9ebbf56ecdea5f"
        },
        "language": "js",
        "actions": [{
            "id": "ADD_SNIPPET__c9d785284b864727a49a8a462e32730e",
            "type": "ADD_SNIPPET",
            "codeSnippet": "this.showEnterCVVPage();",
            "parentId": null,
            "callbackType": null
        }]
    }
}