{
    "@class": "com.kony.gen.viz.model.component.KVizLabel",
    "DNDConfig": null,
    "__parentReadjusting__": false,
    "_bottom_": {
        "type": "string",
        "value": "15%"
    },
    "_height_": {
        "type": "string",
        "value": "1px"
    },
    "_margin_": [
        1,
        1,
        1,
        1
    ],
    "_padding_": [
        0,
        0,
        0,
        0
    ],
    "_right_": {
        "type": "string",
        "value": "2%"
    },
    "_skin_": "s09349f2265649b3ae4b14f3130733b2",
    "_text_": "A",
    "_top_": {
        "type": "string",
        "value": "77dp"
    },
    "_width_": {
        "type": "string",
        "value": "88.50%"
    },
    "_wrapping_": 2,
    "accessibilityconfig": {
        "a11yLabel": "A"
    },
    "android": {
        "textStyle": {
            "letterSpacing": 0,
            "strikeThrough": false
        }
    },
    "canUpdateUI": true,
    "centerx": {
        "type": "string",
        "value": "50%"
    },
    "containerId": true,
    "containerweight": 100,
    "contentalignment": 4,
    "id": "lblSeparator",
    "info": null,
    "ipad": {
        "psp": {
            "wrapping": 2
        }
    },
    "iphone": {
        "psp": {
            "wrapping": 2
        }
    },
    "isvisible": true,
    "kuid": "b22a571d97c24f93b9160439872644ff",
    "name": "kony.ui.Label",
    "parent": "flxContent",
    "pf": "segPFMAccounts",
    "tooltip": "",
    "wType": "Label",
    "zindex": 1
}