{
    "@class": "com.kony.gen.viz.model.component.KVizImage2",
    "DNDConfig": null,
    "__parentReadjusting__": false,
    "_base64_": null,
    "_height_": {
        "type": "string",
        "value": "16dp"
    },
    "_left_": {
        "type": "string",
        "value": "0dp"
    },
    "_margin_": [
        0,
        0,
        0,
        0
    ],
    "_padding_": [
        0,
        0,
        0,
        0
    ],
    "_right_": {
        "type": "string",
        "value": "5.05%"
    },
    "_skin_": "s78a5f26c9f14cec9ebed1bb46098f80",
    "_src_": "icon_close_grey.png",
    "_top_": {
        "type": "string",
        "value": "0dp"
    },
    "_width_": {
        "type": "string",
        "value": "15dp"
    },
    "accessibilityconfig": {
        "a11yLabel": "Cancel"
    },
    "canUpdateUI": true,
    "centerx": {
        "type": "string",
        "value": "50%"
    },
    "centery": {
        "type": "string",
        "value": "50%"
    },
    "containerweight": 100,
    "context": {
        "channel": "desktop",
        "formID": "uw7d4a3722cf7642e3a7ffe23c89facac8",
        "platform": "desktopweb",
        "templateType": "userwidgets",
        "topLevelBox": null
    },
    "id": "imgCross",
    "imagescalemode": 1,
    "imagewhiledownloading": "img_transparent.png",
    "info": null,
    "invokedProperty": "src",
    "isvisible": true,
    "kuid": "ibb669efce4d43a4a6859cf2bdce69cf",
    "name": "kony.ui.Image2",
    "parent": "flxCross",
    "pf": "userwidgetmodel",
    "srcType": 1,
    "tooltip": "Cancel",
    "wType": "Image",
    "widgetalignment": 5,
    "zindex": 1
}