{
    "@class": "com.kony.gen.viz.model.component.KVizRichText",
    "DNDConfig": null,
    "__parentReadjusting__": false,
    "_height_": {
        "type": "ref",
        "value": "preferred"
    },
    "_left_": {
        "type": "string",
        "value": "85dp"
    },
    "_margin_": [
        0,
        0,
        0,
        0
    ],
    "_padding_": [
        0,
        0,
        0,
        0
    ],
    "_skin_": "s54053171dc84722aadd410cfc137838",
    "_text_": "RichText",
    "_top_": {
        "type": "string",
        "value": "41dp"
    },
    "_width_": {
        "type": "string",
        "value": "87.94%"
    },
    "_wrapping_": 2,
    "accessibilityconfig": {
        "a11yLabel": "No Transactions Found"
    },
    "canUpdateUI": true,
    "containerweight": 100,
    "contentalignment": 4,
    "id": "rtxNoPaymentMessage",
    "info": null,
    "isvisible": true,
    "kuid": "082722d5dd4b4534a2c38cebfe36432b",
    "name": "kony.ui.RichText",
    "parent": "flxNoTransactions",
    "pf": "userwidgetmodel",
    "texti18n": "i18n.transfers.noTransactions",
    "wType": "RichText",
    "widgetalignment": 5,
    "zindex": 1
}