{
    "@class": "com.kony.gen.viz.model.component.KVizUserWidget",
    "DNDConfig": null,
    "__parentReadjusting__": false,
    "_android_": {},
    "_androidwearos_": {},
    "_children_": [],
    "_desktopweb_": {},
    "_height_": {
        "type": "string",
        "value": "290dp"
    },
    "_ipad_": {},
    "_iphone_": {},
    "_kiosk_": {},
    "_left_": {
        "type": "string",
        "value": "0dp"
    },
    "_margin_": [
        0,
        0,
        0,
        0
    ],
    "_orientation_": 1,
    "_padding_": [
        0,
        0,
        0,
        0
    ],
    "_percent_": true,
    "_render_": true,
    "_responsiveData_": {
        "b1": {
            "width": {
                "type": "string",
                "value": "45%"
            }
        },
        "b2": {
            "width": {
                "type": "string",
                "value": "60%"
            }
        },
        "b3": {
            "centerY": {
                "type": "string",
                "value": ""
            },
            "height": {
                "type": "string",
                "value": "310dp"
            },
            "top": {
                "type": "string",
                "value": "200dp"
            },
            "width": {
                "type": "string",
                "value": "90%"
            }
        },
        "b4": {
            "width": {
                "type": "string",
                "value": "75%"
            }
        }
    },
    "_skin_": "s701065f11074080832b59947e731160",
    "_spa_": {},
    "_spaan_": {},
    "_spaandroidtablet_": {},
    "_spabb_": {},
    "_spaip_": {},
    "_spaipad_": {},
    "_spamobile_": {},
    "_spatablet_": {},
    "_spawindowstablet_": {},
    "_spawinphone8_": {},
    "_tabrcandroid_": {},
    "_top_": {
        "type": "string",
        "value": "300dp"
    },
    "_vizProps_": {
        "hidewidgethierarchy": false
    },
    "_width_": {
        "type": "string",
        "value": "44.30%"
    },
    "_windows10_": {},
    "_windows8_": {},
    "_winphone10_": {},
    "_winphone8_": {},
    "areflexpropsreferenced": false,
    "autogrowmode": 0,
    "canUpdateUI": true,
    "centerx": {
        "type": "string",
        "value": "50%"
    },
    "centery": {
        "type": "number",
        "value": ""
    },
    "clipbounds": false,
    "containerweight": 0,
    "dataDiffs": {
        "CancelStopCheckPayments": {
            "__events__": {},
            "__info__": {
                "isRoot": true,
                "kuid": "gc2db5e1dfe3487aa586f071370d39e2",
                "srcKUID": "i9cbaecb49054559b51622a83ab468ee",
                "wType": "FlexContainer"
            },
            "autogrowMode": {
                "Default": 0
            },
            "centerX": {
                "Default": {
                    "type": "string",
                    "value": "50%"
                }
            },
            "centerY": {},
            "height": {
                "Default": {
                    "type": "string",
                    "value": "290dp"
                }
            },
            "responsiveData": {
                "b1": {
                    "width": {
                        "type": "string",
                        "value": "45%"
                    }
                },
                "b2": {
                    "width": {
                        "type": "string",
                        "value": "60%"
                    }
                },
                "b3": {
                    "centerY": {
                        "type": "string",
                        "value": ""
                    },
                    "height": {
                        "type": "string",
                        "value": "310dp"
                    },
                    "top": {
                        "type": "string",
                        "value": "200dp"
                    },
                    "width": {
                        "type": "string",
                        "value": "90%"
                    }
                },
                "b4": {
                    "width": {
                        "type": "string",
                        "value": "75%"
                    }
                }
            },
            "top": {
                "Default": {
                    "type": "string",
                    "value": "300dp"
                }
            },
            "width": {
                "Default": {
                    "type": "string",
                    "value": "44.30%"
                }
            }
        },
        "btnNo": {
            "__events__": {},
            "__info__": {
                "kuid": "d118e49f0d2544458635a33c0b2fadab",
                "srcKUID": "g57ed05d214d415a81a083418c43f21b",
                "wType": "Button"
            },
            "responsiveData": {
                "b2": {
                    "right": {
                        "type": "string",
                        "value": "35%"
                    },
                    "width": {
                        "type": "string",
                        "value": "25%"
                    }
                }
            },
            "right": {},
            "width": {}
        },
        "btnYes": {
            "__events__": {},
            "__info__": {
                "kuid": "a8a35ba50afd4510b7515614312c28a7",
                "srcKUID": "c3cbd55101e146b4bf5430b0e51170e3",
                "wType": "Button"
            },
            "responsiveData": {
                "b2": {
                    "width": {
                        "type": "string",
                        "value": "25%"
                    }
                }
            },
            "width": {}
        },
        "flxCross": {
            "__events__": {},
            "__info__": {
                "kuid": "aa0f77e2d8094c3db8f1d34d418e9958",
                "srcKUID": "b4d2694533f644fa9fdc217a6322e285",
                "wType": "FlexContainer"
            },
            "responsiveData": {
                "b3": {
                    "top": {
                        "type": "string",
                        "value": "10dp"
                    }
                }
            },
            "top": {}
        },
        "flxFollowingPoints": {
            "__events__": {},
            "__info__": {
                "kuid": "c904c60179094cd5bc0f29a2ba23c80c",
                "srcKUID": "b57282513c6d4c6b9dce96f3f0056a09",
                "wType": "FlexContainer"
            },
            "autogrowMode": {
                "Default": 0
            },
            "height": {
                "Default": {
                    "type": "string",
                    "value": "30dp"
                }
            },
            "left": {
                "Default": {
                    "type": "string",
                    "value": "20dp"
                }
            },
            "responsiveData": {
                "b1": {
                    "left": {
                        "type": "string",
                        "value": "1dp"
                    }
                },
                "b2": {
                    "left": {
                        "type": "string",
                        "value": "8dp"
                    }
                },
                "b3": {
                    "left": {
                        "type": "string",
                        "value": "0dp"
                    }
                },
                "b4": {
                    "left": {
                        "type": "string",
                        "value": "0dp"
                    },
                    "top": {
                        "type": "string",
                        "value": "5dp"
                    }
                }
            },
            "top": {},
            "width": {
                "Default": {
                    "type": "string",
                    "value": "30dp"
                }
            }
        },
        "flxHeader": {
            "__events__": {},
            "__info__": {
                "kuid": "gb9a7a97c3b04c91aeaa9a9bf879cac5",
                "srcKUID": "c783d01d307d4959889ba97c4f5e7c2c",
                "wType": "FlexContainer"
            },
            "responsiveData": {
                "b3": {
                    "top": {
                        "type": "string",
                        "value": "-1dp"
                    }
                }
            }
        },
        "flxPleaseNoteTheFollowingPoints": {
            "__events__": {},
            "__info__": {
                "kuid": "i3f55ac7de134854bbfbcf1594f77f92",
                "srcKUID": "ee796450b0a54586b82e428feeb42bbd",
                "wType": "FlexContainer"
            },
            "autogrowMode": {
                "Default": 0
            },
            "centerX": {},
            "height": {
                "Default": {
                    "type": "string",
                    "value": "75dp"
                }
            },
            "left": {},
            "responsiveData": {
                "b1": {
                    "centerX": {
                        "type": "string",
                        "value": "48%"
                    },
                    "height": {
                        "type": "string",
                        "value": "80dp"
                    },
                    "top": {
                        "type": "string",
                        "value": "105dp"
                    },
                    "width": {
                        "type": "string",
                        "value": "87.99%"
                    }
                },
                "b3": {
                    "height": {
                        "type": "string",
                        "value": "96dp"
                    },
                    "top": {
                        "type": "string",
                        "value": "125dp"
                    }
                },
                "b4": {
                    "centerX": {
                        "type": "string",
                        "value": ""
                    },
                    "left": {
                        "type": "string",
                        "value": "28dp"
                    },
                    "top": {
                        "type": "string",
                        "value": "115dp"
                    },
                    "width": {
                        "type": "string",
                        "value": "88%"
                    }
                }
            },
            "top": {},
            "width": {
                "Default": {
                    "type": "string",
                    "value": "90%"
                }
            }
        },
        "flxSeperator": {
            "__events__": {},
            "__info__": {
                "kuid": "b8f31809f6cd4c268a8f59e41ead8ef1",
                "srcKUID": "ad5b40174e3d4789ace777bb63173c56",
                "wType": "FlexContainer"
            }
        },
        "flxSeperator2": {
            "__events__": {},
            "__info__": {
                "kuid": "f8dbc290b8c3484cafe6bd5370d1bfe4",
                "srcKUID": "e7a34a2283104d18904e1df907c896d8",
                "wType": "FlexContainer"
            },
            "responsiveData": {
                "b1": {
                    "isVisible": false
                },
                "b4": {
                    "isVisible": false
                }
            }
        },
        "flxSubmitBtnWrapper": {
            "__events__": {},
            "__info__": {
                "kuid": "e2d3a1ae126d4da8a84c84476a9e8dfa",
                "srcKUID": "ec728d7e75f24745bd16722c423bb485",
                "wType": "FlexContainer"
            },
            "responsiveData": {
                "b1": {
                    "top": {
                        "type": "string",
                        "value": "222dp"
                    }
                },
                "b3": {
                    "top": {
                        "type": "string",
                        "value": "242dp"
                    }
                }
            },
            "top": {}
        },
        "imgCross": {
            "__events__": {},
            "__info__": {
                "kuid": "ebb42e32c9fc4c77b64cd9045fb812a7",
                "srcKUID": "ea66c837e4c94b5d8be08bf7a5a8153e",
                "wType": "Image"
            },
            "centerY": {},
            "responsiveData": {
                "b1": {
                    "centerX": {
                        "type": "string",
                        "value": "60%"
                    }
                },
                "b3": {
                    "centerY": {
                        "type": "string",
                        "value": "50%"
                    }
                }
            },
            "src": "bbcloseicon.png"
        },
        "imgInfoTC": {
            "__events__": {},
            "__info__": {
                "kuid": "fb6d2e1a590a4452827e10730b81d7bc",
                "srcKUID": "ccc83b23b5694f439f2d417c2e482f07",
                "wType": "Image"
            },
            "height": {
                "Default": {
                    "type": "string",
                    "value": "25dp"
                }
            },
            "left": {
                "Default": {
                    "type": "string",
                    "value": "1px"
                }
            },
            "responsiveData": {
                "b4": {
                    "left": {
                        "type": "string",
                        "value": "0px"
                    }
                }
            },
            "src": "info.png",
            "width": {
                "Default": {
                    "type": "string",
                    "value": "25dp"
                }
            }
        },
        "lblHeading": {
            "__events__": {},
            "__info__": {
                "kuid": "bb1fa22a8bb6480081b54ff7b3e68f52",
                "srcKUID": "hb133028e71a40029a1f5813b838441a",
                "wType": "Label"
            },
            "i18n_text": "i18n.NAO.SubmitApplication",
            "responsiveData": {
                "b1": {
                    "centerY": {
                        "type": "string",
                        "value": "51%"
                    },
                    "left": {
                        "type": "string",
                        "value": "22dp"
                    }
                },
                "b3": {
                    "centerY": {
                        "type": "string",
                        "value": "52%"
                    }
                }
            },
            "text": ""
        },
        "lblPopupMessage": {
            "__events__": {},
            "__info__": {
                "kuid": "a7584de9ce5b45d7a17057d246b8847c",
                "srcKUID": "h1ba3733a0af4b68872a6f5a27f19802",
                "wType": "Label"
            },
            "centerX": {},
            "height": {},
            "i18n_text": "i18n.NAO.SubmitApplicationQuestion",
            "left": {},
            "responsiveData": {
                "b1": {
                    "centerX": {
                        "type": "string",
                        "value": "50%"
                    },
                    "width": {
                        "type": "string",
                        "value": "90%"
                    }
                },
                "b3": {
                    "height": {
                        "type": "string",
                        "value": "80dp"
                    },
                    "left": {
                        "type": "string",
                        "value": "31dp"
                    },
                    "top": {
                        "type": "string",
                        "value": "24%"
                    },
                    "width": {
                        "type": "string",
                        "value": "80%"
                    }
                },
                "b4": {
                    "centerX": {
                        "type": "string",
                        "value": "50%"
                    },
                    "left": {
                        "type": "string",
                        "value": ""
                    },
                    "width": {
                        "type": "string",
                        "value": "90%"
                    }
                }
            },
            "text": "",
            "top": {},
            "width": {}
        },
        "lblThisServicesIsChargeble": {
            "__events__": {},
            "__info__": {
                "kuid": "c5ca7822b3964b72986c532d31c340d0",
                "srcKUID": "hf4d5c41bb094bf186e0aefc51a805b6",
                "wType": "Label"
            },
            "bottom": {},
            "height": {},
            "i18n_text": "i18n.NAO.SubmitApplicationErrorMsg",
            "left": {
                "Default": {
                    "type": "string",
                    "value": "54dp"
                }
            },
            "responsiveData": {
                "b1": {
                    "height": {
                        "type": "string",
                        "value": "60dp"
                    },
                    "left": {
                        "type": "string",
                        "value": "34dp"
                    },
                    "top": {
                        "type": "string",
                        "value": "14dp"
                    }
                },
                "b2": {
                    "left": {
                        "type": "string",
                        "value": "36dp"
                    },
                    "top": {
                        "type": "string",
                        "value": "15dp"
                    }
                },
                "b3": {
                    "bottom": {
                        "type": "string",
                        "value": ""
                    },
                    "left": {
                        "type": "string",
                        "value": "34dp"
                    },
                    "text": "You will not be able to edit this application beyond this step. We will now perform a credit check to complete the Application.",
                    "top": {
                        "type": "string",
                        "value": "15dp"
                    }
                },
                "b4": {
                    "left": {
                        "type": "string",
                        "value": "30dp"
                    },
                    "top": {
                        "type": "string",
                        "value": "5dp"
                    },
                    "width": {
                        "type": "string",
                        "value": "91.11%"
                    }
                }
            },
            "text": "",
            "top": {
                "Default": {
                    "type": "string",
                    "value": "16dp"
                }
            },
            "width": {
                "Default": {
                    "type": "string",
                    "value": "90%"
                }
            }
        }
    },
    "id": "SubmitApplication",
    "info": null,
    "isdatareferenced": false,
    "isvisible": true,
    "kuid": "j8ca5c9ab5b44c97bf6e159c8d18e077",
    "layouttype": 2,
    "masterType": 0,
    "name": "kony.ui.UserWidgetInstance",
    "parent": "flxSubmitApplication",
    "pf": "frmNAO",
    "snapgridsize": 10,
    "snaptogrid": true,
    "sourceUserWidget": "i9cbaecb49054559b51622a83ab468ee",
    "vizprops": {
        "hidewidgethierarchy": false
    },
    "wType": "UserWidgetInstance"
}