{
    "@class": "com.kony.gen.viz.model.component.KVizButton",
    "DNDConfig": null,
    "__parentReadjusting__": false,
    "_height_": {
        "type": "string",
        "value": "50dp"
    },
    "_left_": {
        "type": "string",
        "value": "21.20%"
    },
    "_margin_": [
        6,
        6,
        6,
        6
    ],
    "_padding_": [
        0,
        0,
        0,
        0
    ],
    "_skin_": "s611bd2c5d324490aa9f7ed9d412984f",
    "_text_": "December 2018",
    "_top_": {
        "type": "string",
        "value": "0dp"
    },
    "_width_": {
        "type": "ref",
        "value": "preferred"
    },
    "accessibilityconfig": {
        "a11yLabel": "STATEMENTS (22K,PDF) "
    },
    "canUpdateUI": true,
    "containerId": true,
    "containerweight": 100,
    "contentalignment": 5,
    "desktopweb": {
        "psp": {}
    },
    "disabledSkins": {
        "focusSkin": "sf44d06ca8224832827ea7fdff757013",
        "hoverSkin": "s5606bce66e44c39a33fc23d07211059"
    },
    "displaytext": true,
    "id": "btnStatement1",
    "ide_onClick": "AS_Button_c756309e12f1422e8384d7ca57a3beae",
    "info": null,
    "isvisible": true,
    "kuid": "h74361b192b944ffa5e0f8becbeecf21",
    "name": "kony.ui.Button",
    "parent": "flxMonthStatements",
    "pf": "segMonthStatements",
    "wType": "Button",
    "zindex": 1
}