{
    "@class": "com.kony.gen.viz.model.component.KVizUserWidget",
    "DNDConfig": null,
    "__parentReadjusting__": false,
    "_android_": {},
    "_androidwearos_": {},
    "_bottom_": {
        "type": "string",
        "value": ""
    },
    "_children_": [],
    "_desktopweb_": {},
    "_height_": {
        "type": "string",
        "value": "103px"
    },
    "_ipad_": {},
    "_iphone_": {},
    "_kiosk_": {},
    "_left_": {
        "type": "string",
        "value": "0dp"
    },
    "_margin_": [
        0,
        0,
        0,
        0
    ],
    "_orientation_": 1,
    "_padding_": [
        0,
        0,
        0,
        0
    ],
    "_percent_": true,
    "_render_": true,
    "_skin_": "s576844bc0e148a9a02e6171eac305ac",
    "_spa_": {},
    "_spaan_": {},
    "_spaandroidtablet_": {},
    "_spabb_": {},
    "_spaip_": {},
    "_spaipad_": {},
    "_spamobile_": {},
    "_spatablet_": {},
    "_spawindowstablet_": {},
    "_spawinphone8_": {},
    "_tabrcandroid_": {},
    "_top_": {
        "type": "string",
        "value": "30dp"
    },
    "_vizProps_": {
        "hidewidgethierarchy": false
    },
    "_width_": {
        "type": "string",
        "value": "100%"
    },
    "_windows10_": {},
    "_windows8_": {},
    "_winphone10_": {},
    "_winphone8_": {},
    "areflexpropsreferenced": false,
    "autogrowmode": 0,
    "canUpdateUI": true,
    "centery": {
        "type": "string",
        "value": ""
    },
    "clipbounds": true,
    "containerweight": 0,
    "dataDiffs": {
        "btnCancel": {
            "__events__": {},
            "__info__": {
                "kuid": "c69dd70537134dca91d79ecfae2ab801",
                "srcKUID": "fe63955edbd24a4ea6b8cae6b9dc4e9d",
                "wType": "Button"
            },
            "right": {
                "Default": {
                    "type": "string",
                    "value": "30.83%"
                }
            }
        },
        "btnConfirm": {
            "__events__": {},
            "__info__": {
                "kuid": "id4ed79fda4946d7b788005be824b480",
                "srcKUID": "fce03529e50d441ea6385939a861c275",
                "wType": "Button"
            },
            "width": {
                "Default": {
                    "type": "string",
                    "value": "12.50%"
                }
            }
        },
        "btnModify": {
            "__events__": {},
            "__info__": {
                "kuid": "ib356fc7a2664bdfa2d82ba1e6d9bf5a",
                "srcKUID": "b0db2b5c6b0b4deb89afff129dc620f7",
                "wType": "Button"
            },
            "right": {
                "Default": {
                    "type": "string",
                    "value": "16.67%"
                }
            }
        },
        "confirmButtons": {
            "__events__": {},
            "__info__": {
                "isRoot": true,
                "kuid": "a17a72f78afc4a32b9a48a1f6dd53162",
                "srcKUID": "ddfb5a99e80b4d01b3e3abf4c1af4adc",
                "wType": "FlexContainer"
            },
            "bottom": {
                "Default": {
                    "type": "string",
                    "value": ""
                }
            },
            "centerY": {
                "Default": {
                    "type": "string",
                    "value": ""
                }
            },
            "left": {
                "Default": {
                    "type": "string",
                    "value": "0dp"
                }
            },
            "top": {
                "Default": {
                    "type": "string",
                    "value": "30dp"
                }
            },
            "zIndex": {
                "Default": 1
            }
        },
        "flxHorizontalLine": {
            "__events__": {},
            "__info__": {
                "kuid": "daa090bb00594a999e8dd106a8d4f9ec",
                "srcKUID": "ac533aa67f084f63ae00d6834110ffa8",
                "wType": "FlexContainer"
            }
        }
    },
    "id": "confirmButtons",
    "info": null,
    "isdatareferenced": false,
    "isvisible": true,
    "kuid": "dae49f78c3f9473ab14fbd0c451865a6",
    "layouttype": 2,
    "masterType": 0,
    "name": "kony.ui.UserWidgetInstance",
    "parent": "flxMain",
    "pf": "userwidgetmodel",
    "snapgridsize": 10,
    "snaptogrid": true,
    "sourceUserWidget": "ddfb5a99e80b4d01b3e3abf4c1af4adc",
    "wType": "UserWidgetInstance",
    "zindex": 1
}