{
    "@class": "com.kony.gen.viz.model.component.KVizUserWidget",
    "DNDConfig": null,
    "__parentReadjusting__": false,
    "_android_": {},
    "_androidwearos_": {},
    "_children_": [],
    "_desktopweb_": {},
    "_height_": {
        "type": "ref",
        "value": "preferred"
    },
    "_ipad_": {},
    "_iphone_": {},
    "_kiosk_": {},
    "_left_": {
        "type": "string",
        "value": "0dp"
    },
    "_margin_": [
        0,
        0,
        0,
        0
    ],
    "_orientation_": 1,
    "_padding_": [
        0,
        0,
        0,
        0
    ],
    "_percent_": true,
    "_render_": true,
    "_skin_": "s24c92fc23b14f5484b693ee9b8a9b35",
    "_spa_": {},
    "_spaan_": {},
    "_spaandroidtablet_": {},
    "_spabb_": {},
    "_spaip_": {},
    "_spaipad_": {},
    "_spamobile_": {},
    "_spatablet_": {},
    "_spawindowstablet_": {},
    "_spawinphone8_": {},
    "_tabrcandroid_": {},
    "_top_": {
        "type": "string",
        "value": "0dp"
    },
    "_vizProps_": {
        "hidewidgethierarchy": false
    },
    "_width_": {
        "type": "string",
        "value": "100%"
    },
    "_windows10_": {},
    "_windows8_": {},
    "_winphone10_": {},
    "_winphone8_": {},
    "areflexpropsreferenced": false,
    "autogrowmode": 1,
    "canUpdateUI": true,
    "clipbounds": true,
    "containerweight": 0,
    "dataDiffs": {
        "flxContainer": {
            "__events__": {},
            "__info__": {
                "kuid": "h7bdb7c990c44dc3b0cc486047664544",
                "srcKUID": "f13dc08cac9b42cf84a6cd0eb46e5de8",
                "wType": "FlexContainer"
            }
        },
        "flxInfo": {
            "__events__": {},
            "__info__": {
                "kuid": "he91db2ffab64642b9b2cb346f7b4d40",
                "srcKUID": "e95f6b8ffb5f415db6652af917c31c62",
                "wType": "FlexContainer"
            }
        },
        "flxKey": {
            "__events__": {},
            "__info__": {
                "kuid": "e84c3ad6f7a84dd6bef39d407f7dabc2",
                "srcKUID": "d4492c719df94445a861e97f34dc4949",
                "wType": "FlexContainer"
            }
        },
        "flxValue": {
            "__events__": {},
            "__info__": {
                "kuid": "g154b7e2769b43ba886411b388cf46cd",
                "srcKUID": "b141325e5e9048519b71af002cfee26a",
                "wType": "FlexContainer"
            }
        },
        "imgWhatIsSSN": {
            "__events__": {},
            "__info__": {
                "kuid": "e774dfb9b7914332a09c7453ad7efcd0",
                "srcKUID": "f54ec2da1e9d451d9345687646b48cc3",
                "wType": "Image"
            },
            "src": "info_grey.png"
        },
        "keyValue": {
            "__events__": {},
            "__info__": {
                "isRoot": true,
                "kuid": "hbe35314fe8f46f6b11c1e651e720568",
                "srcKUID": "cc43b83fad51498eaee44e391076b1e1",
                "wType": "FlexContainer"
            },
            "top": {
                "Default": {
                    "type": "string",
                    "value": "0dp"
                }
            }
        },
        "lblColon": {
            "__events__": {},
            "__info__": {
                "kuid": "ibd8c460c4e34ffca58923721a8647fc",
                "srcKUID": "c1b15d6a704e4365be1c4ff0a75c3f55",
                "wType": "Label"
            }
        },
        "lblKey": {
            "__events__": {},
            "__info__": {
                "kuid": "c060f9c4cea943e8b42651c8d23d78b7",
                "srcKUID": "daa1384a75084c57b8a708d751b05837",
                "wType": "Label"
            },
            "text": "Address"
        },
        "lblValue": {
            "__events__": {},
            "__info__": {
                "kuid": "ac788403c6a245b7afc02bddfb1bec53",
                "srcKUID": "had7006a19c947e7ae413b191f0cc841",
                "wType": "Label"
            },
            "text": "Lane 1, Austin Downtown, Austin, Texas, 600094."
        }
    },
    "id": "keyValueAddress",
    "info": null,
    "isdatareferenced": false,
    "isvisible": true,
    "kuid": "f3ec874f35534e388b4b2660d19faa74",
    "layouttype": 2,
    "masterType": 0,
    "name": "kony.ui.UserWidgetInstance",
    "parent": "flxaddress",
    "pf": "userwidgetmodel",
    "snaptogrid": true,
    "sourceUserWidget": "cc43b83fad51498eaee44e391076b1e1",
    "wType": "UserWidgetInstance"
}