{
    "DNDConfig": null,
    "__parentReadjusting__": false,
    "_height_": {
        "type": "string",
        "value": "30dp"
    },
    "_left_": {
        "type": "string",
        "value": "4%"
    },
    "_margin_": [
        0,
        0,
        0,
        0
    ],
    "_orientation_": 6,
    "_padding_": [
        0,
        0,
        0,
        0
    ],
    "_percent_": true,
    "_skin_": "sd8d02531529489a8d85487257bc0ccb",
    "_top_": {
        "type": "string",
        "value": "8px"
    },
    "_width_": {
        "type": "string",
        "value": "30dp"
    },
    "allboxes": [],
    "autogrowmode": 0,
    "canUpdateUI": true,
    "children": [
        "imgInfoIcon"
    ],
    "clipbounds": true,
    "containerweight": 100,
    "desktopweb": {
        "psp": {
            "hoverSkin": "s3e0ac30f9774278a868cb7c73908a76"
        }
    },
    "enablescrolling": true,
    "id": "flximgInfoIcon",
    "ide_onClick": "AS_FlexContainer_fee0b8c64cc448a7a0fc545c94a11671",
    "info": null,
    "isvisible": true,
    "kuid": "cccc4426b21c4bdead2339bcb8a49587",
    "layouttype": 3,
    "name": "kony.ui.FlexContainer",
    "parent": "flxFees",
    "pf": "userwidgetmodel",
    "snapgridsize": 10,
    "snaptogrid": true,
    "wType": "FlexContainer",
    "widgetalignment": 1,
    "zindex": 10
}