{
    "DNDConfig": null,
    "__parentReadjusting__": false,
    "_height_": {
        "type": "ref",
        "value": "preferred"
    },
    "_left_": {
        "type": "string",
        "value": "0dp"
    },
    "_margin_": [
        0,
        0,
        0,
        0
    ],
    "_orientation_": 6,
    "_padding_": [
        0,
        0,
        0,
        0
    ],
    "_percent_": true,
    "_skin_": "s24c92fc23b14f5484b693ee9b8a9b35",
    "_top_": {
        "type": "string",
        "value": "5dp"
    },
    "_width_": {
        "type": "string",
        "value": "100%"
    },
    "allboxes": [],
    "autogrowmode": 1,
    "canUpdateUI": true,
    "children": [
        "flxSeparator010",
        "flxImgChkSelfApprove",
        "lblSelfApprove",
        "flximgInfoSelfApprove",
        "flxSeparator011",
        "flxImgChkPayeeApprove",
        "lblPayeeTemplate",
        "flxImgInfoPayeeAprove"
    ],
    "clipbounds": true,
    "containerweight": 100,
    "enablescrolling": true,
    "id": "flxApproveOptions2",
    "info": null,
    "iscustomlayout": false,
    "isvisible": false,
    "kuid": "eb9b4527b0cf4b10ae765257db69be15",
    "layouttype": 2,
    "name": "kony.ui.FlexContainer",
    "parent": "flxTransferPermissions",
    "pf": "frmUserManagement",
    "retaincontentalignment": false,
    "retainflexpositionproperties": false,
    "snapgridsize": 10,
    "snaptogrid": true,
    "wType": "FlexContainer",
    "widgetalignment": 1,
    "zindex": 1
}