{
    "DNDConfig": null,
    "__parentReadjusting__": false,
    "_height_": {
        "type": "string",
        "value": "40dp"
    },
    "_left_": {
        "type": "string",
        "value": "67.30%"
    },
    "_margin_": [
        0,
        0,
        0,
        0
    ],
    "_orientation_": 6,
    "_padding_": [
        0,
        0,
        0,
        0
    ],
    "_percent_": true,
    "_right_": {
        "type": "number",
        "value": "20"
    },
    "_skin_": "s750125314a64894aaf08f9b6e43295e",
    "_top_": {
        "type": "string",
        "value": "24dp"
    },
    "_width_": {
        "type": "string",
        "value": "28.93%"
    },
    "allboxes": [],
    "autogrowmode": 0,
    "canUpdateUI": true,
    "children": [
        "tbLastName"
    ],
    "clipbounds": true,
    "containerweight": 100,
    "enablescrolling": true,
    "focusskin": "s111c18caca943be936e14370332f6fa",
    "id": "flxLastName",
    "info": null,
    "isvisible": true,
    "kuid": "e5d26fe749b74497951505bd279e0545",
    "layouttype": 2,
    "name": "kony.ui.FlexContainer",
    "parent": "flxNameDetails",
    "pf": "frmUserManagement",
    "responsiveData": {
        "b1": {
            "top": {
                "type": "string",
                "value": "26dp"
            }
        },
        "b2": {
            "top": {
                "type": "string",
                "value": "26dp"
            }
        },
        "b3": {
            "left": {
                "type": "string",
                "value": "2.51%"
            },
            "top": {
                "type": "string",
                "value": "218dp"
            },
            "width": {
                "type": "string",
                "value": "39.93%"
            }
        },
        "b4": {
            "top": {
                "type": "string",
                "value": "26dp"
            }
        }
    },
    "snapgridsize": 10,
    "snaptogrid": true,
    "wType": "FlexContainer",
    "widgetalignment": 1,
    "zindex": 1
}