{
    "DNDConfig": null,
    "__parentReadjusting__": false,
    "_height_": {
        "type": "ref",
        "value": "preferred"
    },
    "_left_": {
        "type": "string",
        "value": "36.72%"
    },
    "_margin_": [
        0,
        0,
        0,
        0
    ],
    "_orientation_": 6,
    "_padding_": [
        0,
        0,
        0,
        0
    ],
    "_percent_": true,
    "_skin_": "s24c92fc23b14f5484b693ee9b8a9b35",
    "_top_": {
        "type": "string",
        "value": "655dp"
    },
    "_width_": {
        "type": "string",
        "value": "50%"
    },
    "allboxes": [],
    "autogrowmode": 1,
    "canUpdateUI": true,
    "children": [
        "imgYesTransLImit",
        "lblYesTransLImit",
        "imgNoTransLImit",
        "lblNoTransLImit",
        "flxChkDefineTransLmts",
        "lblDefineTransactionLimits",
        "flxChkViewTransLmt",
        "lblViewTransactionLimits"
    ],
    "clipbounds": true,
    "containerweight": 100,
    "enablescrolling": true,
    "id": "flxTransactionLImit",
    "info": null,
    "iscustomlayout": false,
    "isvisible": true,
    "kuid": "bfbd0ddf223f4e949e0eeefbf105e550",
    "layouttype": 2,
    "name": "kony.ui.FlexContainer",
    "parent": "flxUserAdministration",
    "pf": "frmUserManagement",
    "retaincontentalignment": false,
    "retainflexpositionproperties": false,
    "snapgridsize": 10,
    "snaptogrid": true,
    "wType": "FlexContainer",
    "widgetalignment": 1,
    "zindex": 1
}