{
    "@class": "com.kony.gen.viz.model.component.KVizLabel",
    "DNDConfig": null,
    "__parentReadjusting__": false,
    "_height_": {
        "type": "ref",
        "value": "preferred"
    },
    "_left_": {
        "type": "string",
        "value": "64.90%"
    },
    "_margin_": [
        1,
        1,
        1,
        1
    ],
    "_padding_": [
        0,
        0,
        0,
        0
    ],
    "_skin_": "s30ffffdd3fd46a1a610adedd677eaf0",
    "_text_": "Update and Delete Payee/Templates",
    "_top_": {
        "type": "string",
        "value": "60dp"
    },
    "_width_": {
        "type": "ref",
        "value": "preferred"
    },
    "_wrapping_": 2,
    "android": {
        "textStyle": {
            "letterSpacing": 0,
            "strikeThrough": false
        }
    },
    "canUpdateUI": true,
    "containerweight": 100,
    "contentalignment": 4,
    "id": "lblUpdateDeletePayee",
    "info": null,
    "ipad": {
        "psp": {
            "wrapping": 2
        }
    },
    "iphone": {
        "psp": {
            "wrapping": 2
        }
    },
    "iscustomlayout": false,
    "isvisible": true,
    "kuid": "g7080bcb594745be820bbf0835198745",
    "name": "kony.ui.Label",
    "parent": "flxManagePayeeOptions",
    "pf": "frmUserManagement",
    "retaincontentalignment": false,
    "retainflexpositionproperties": false,
    "texti18n": "i18n.konybb.lblUpdateDeletePayee",
    "tooltip": "",
    "wType": "Label",
    "zindex": 1
}