{
    "@class": "com.kony.gen.viz.model.container.KVizSegment2",
    "DNDConfig": null,
    "__parentReadjusting__": false,
    "_data_": [
        {
            "imgChkAccountAccess": {
                "@class": "com.viz.ide.model.segment.ImageSegmentData",
                "src": "unchecked_box_1.png"
            },
            "lblAccountNameNumber": {
                "@class": "com.viz.ide.model.segment.SimpleTextSegmentData",
                "text": "View Access"
            },
            "lblAccountTitle": {
                "@class": "com.viz.ide.model.segment.SimpleTextSegmentData",
                "text": "Account 1"
            },
            "lblMaxLimit": {
                "@class": "com.viz.ide.model.segment.SimpleTextSegmentData",
                "text": "Max. Transaction Limit"
            },
            "lblMinLimit": {
                "@class": "com.viz.ide.model.segment.SimpleTextSegmentData",
                "text": "Max. Daily Limit "
            },
            "tbxMaxValue": {
                "@class": "com.viz.ide.model.segment.ComplexTextSegmentData",
                "text": ""
            },
            "tbxMinLimit": {
                "@class": "com.viz.ide.model.segment.ComplexTextSegmentData",
                "text": ""
            }
        },
        {
            "imgChkAccountAccess": {
                "@class": "com.viz.ide.model.segment.ImageSegmentData",
                "src": "unchecked_box_1.png"
            },
            "lblAccountNameNumber": {
                "@class": "com.viz.ide.model.segment.SimpleTextSegmentData",
                "text": "View Access"
            },
            "lblAccountTitle": {
                "@class": "com.viz.ide.model.segment.SimpleTextSegmentData",
                "text": "Account 1"
            },
            "lblMaxLimit": {
                "@class": "com.viz.ide.model.segment.SimpleTextSegmentData",
                "text": "Max. Transaction Limit"
            },
            "lblMinLimit": {
                "@class": "com.viz.ide.model.segment.SimpleTextSegmentData",
                "text": "Max. Daily Limit "
            },
            "tbxMaxValue": {
                "@class": "com.viz.ide.model.segment.ComplexTextSegmentData",
                "text": ""
            },
            "tbxMinLimit": {
                "@class": "com.viz.ide.model.segment.ComplexTextSegmentData",
                "text": ""
            }
        },
        {
            "imgChkAccountAccess": {
                "@class": "com.viz.ide.model.segment.ImageSegmentData",
                "src": "unchecked_box_1.png"
            },
            "lblAccountNameNumber": {
                "@class": "com.viz.ide.model.segment.SimpleTextSegmentData",
                "text": "View Access"
            },
            "lblAccountTitle": {
                "@class": "com.viz.ide.model.segment.SimpleTextSegmentData",
                "text": "Account 1"
            },
            "lblMaxLimit": {
                "@class": "com.viz.ide.model.segment.SimpleTextSegmentData",
                "text": "Max. Transaction Limit"
            },
            "lblMinLimit": {
                "@class": "com.viz.ide.model.segment.SimpleTextSegmentData",
                "text": "Max. Daily Limit "
            },
            "tbxMaxValue": {
                "@class": "com.viz.ide.model.segment.ComplexTextSegmentData",
                "text": ""
            },
            "tbxMinLimit": {
                "@class": "com.viz.ide.model.segment.ComplexTextSegmentData",
                "text": ""
            }
        }
    ],
    "_height_": {
        "type": "ref",
        "value": "preferred"
    },
    "_indicator_": "none",
    "_left_": {
        "type": "string",
        "value": "0dp"
    },
    "_margin_": [
        0,
        0,
        0,
        0
    ],
    "_orientation_": 2,
    "_padding_": [
        0,
        0,
        0,
        0
    ],
    "_top_": {
        "type": "string",
        "value": "0dp"
    },
    "_width_": {
        "type": "string",
        "value": "100%"
    },
    "autogrowmode": 1,
    "canUpdateUI": true,
    "containerweight": 100,
    "counter": "02",
    "focusedindex": null,
    "focuseditem": null,
    "groupcells": false,
    "hasSections": false,
    "id": "SegAccountTransactions",
    "info": null,
    "ipad": {
        "psp": {
            "indicator": "rowselect"
        }
    },
    "iphone": {
        "psp": {
            "indicator": "rowselect"
        }
    },
    "iscustomlayout": false,
    "isvisible": true,
    "kuid": "a36c53275e2f4c3295919d6c5c19a27c",
    "masterdata": {},
    "name": "kony.ui.SegmentedUI2",
    "needpageindicator": true,
    "pageoffdotimage": "pageoffdot.png",
    "pageondotimage": "pageondot.png",
    "paginationconfig": {
        "position": "bottom"
    },
    "parent": "flxAccountSegmentContainer",
    "pf": "frmUserManagement",
    "retaincontentalignment": false,
    "retainflexpositionproperties": false,
    "retainselection": false,
    "rowTemplateId": "aeb3924e21554501ba4c9c657a4e4ce4",
    "rowcounter": 2,
    "rowfocusskin": "scd5ddf27b94412ebe4ef9ea7757c89d",
    "rowskin": "scf5f90f6ac04976ab88b2a4f7153285",
    "rowtemplate": "flxAccountAccessLimit",
    "screenlevelwidget": false,
    "seccounter": 0,
    "sectionheaderskin": "sdc4ff4ed1584272be2ae69045dfb29d",
    "selectedRows": null,
    "selectedState": false,
    "selectedindex": null,
    "selectedindices": null,
    "selecteditems": null,
    "selectedsectionindex": null,
    "selectionbehavior": "default",
    "separatorcolor": "aaaaaa00",
    "separatorrequired": true,
    "separatorthickness": 1,
    "showscrollbars": false,
    "viewtype": "tableview",
    "vizProps": {},
    "wType": "Segment",
    "widgetalignment": 5,
    "widgetdatamap": {
        "flxAccountAccessLimit": "flxAccountAccessLimit",
        "flxChkAccountAccess": "flxChkAccountAccess",
        "flxMaxLimit": "flxMaxLimit",
        "flxMinLimit": "flxMinLimit",
        "imgChkAccountAccess": "imgChkAccountAccess",
        "lblAccountNameNumber": "lblAccountNameNumber",
        "lblAccountTitle": "lblAccountTitle",
        "lblMaxLimit": "lblMaxLimit",
        "lblMinLimit": "lblMinLimit",
        "tbxMaxValue": "tbxMaxValue",
        "tbxMinLimit": "tbxMinLimit"
    },
    "zindex": 1
}