{
    "@class": "com.kony.gen.viz.model.component.KVizTextBox2",
    "DNDConfig": null,
    "__parentReadjusting__": false,
    "_height_": {
        "type": "string",
        "value": "100%"
    },
    "_left_": {
        "type": "string",
        "value": "0%"
    },
    "_margin_": [
        0,
        0,
        0,
        0
    ],
    "_padding_": [
        2,
        0,
        2,
        0
    ],
    "_placeholder_": "$ 150,000.00",
    "_right_": {
        "type": "string",
        "value": "0%"
    },
    "_skin_": "s5fed1fa92e846d2b43ab73b00b33247",
    "_text_": "",
    "_width_": {
        "type": "string",
        "value": "100%"
    },
    "autocapitalize": "none",
    "autocomplete": false,
    "autocorrect": false,
    "autofilter": false,
    "canUpdateUI": true,
    "centery": {
        "type": "string",
        "value": "50%"
    },
    "containerheight": "",
    "containerheightmode": 1,
    "containerweight": 100,
    "contentalignment": 4,
    "focusskin": "s227f630b9654ae58fba655b8d7722fb",
    "id": "tbxMaxLimitApproval",
    "info": null,
    "isvisible": true,
    "keyboardtype": "A",
    "kiosk": {
        "render": false
    },
    "kuid": "c4f8bf9a596743a192e77a27caa3bf98",
    "maxtextlength": "",
    "mode": "A",
    "name": "kony.ui.TextBox2",
    "paddinginpixel": false,
    "parent": "flxMaxLimitApproval",
    "pf": "frmUserManagement",
    "placeholderi18n": "i18n.konybb.tbxMaxLimitApproval",
    "securetextentry": false,
    "textinputmode": "A",
    "viewtype": "default",
    "wType": "TextField",
    "watchos": {
        "render": false
    },
    "windows10": {
        "render": false
    },
    "winphone10": {
        "render": false
    },
    "zindex": 1
}