{
    "@class": "com.kony.gen.viz.model.component.KVizButton",
    "DNDConfig": null,
    "__parentReadjusting__": false,
    "_height_": {
        "type": "string",
        "value": "40dp"
    },
    "_left_": {
        "type": "string",
        "value": "67.12%"
    },
    "_margin_": [
        6,
        6,
        6,
        6
    ],
    "_padding_": [
        0,
        0,
        0,
        0
    ],
    "_skin_": "sdc7361203bc408faf7a175e392acef4",
    "_text_": "EDIT",
    "_top_": {
        "type": "string",
        "value": "20dp"
    },
    "_width_": {
        "type": "string",
        "value": "29.47%"
    },
    "accessibilityconfig": {
        "a11yLabel": "Edit"
    },
    "canUpdateUI": true,
    "containerweight": 100,
    "contentalignment": 5,
    "desktopweb": {
        "psp": {
            "hoverSkin": "s1adc431d69b4514a216da86d642889f"
        }
    },
    "disabledSkins": {
        "focusSkin": "sf44d06ca8224832827ea7fdff757013"
    },
    "displaytext": true,
    "id": "btnDefaultTransactionAccountEdit",
    "info": null,
    "isvisible": true,
    "kuid": "ibc9224b2fac4bf08239515892a8393f",
    "name": "kony.ui.Button",
    "parent": "flxDefaultTransactionButtons",
    "pf": "userwidgetmodel",
    "texti18n": "i18n.billPay.Edit",
    "tooltip": "Edit",
    "wType": "Button",
    "zindex": 1
}