{
    "@class": "com.kony.gen.viz.model.component.KVizButton",
    "DNDConfig": null,
    "__parentReadjusting__": false,
    "_height_": {
        "type": "string",
        "value": "40dp"
    },
    "_left_": {
        "type": "string",
        "value": "69.12%"
    },
    "_margin_": [
        6,
        6,
        6,
        6
    ],
    "_padding_": [
        0,
        0,
        0,
        0
    ],
    "_skin_": "sdc7361203bc408faf7a175e392acef4",
    "_text_": "SEND",
    "_top_": {
        "type": "string",
        "value": "20dp"
    },
    "_width_": {
        "type": "string",
        "value": "29.47%"
    },
    "accessibilityconfig": {
        "a11yLabel": "Send"
    },
    "canUpdateUI": true,
    "containerweight": 100,
    "contentalignment": 5,
    "desktopweb": {
        "psp": {
            "hoverSkin": "s1adc431d69b4514a216da86d642889f"
        }
    },
    "disabledSkins": {
        "focusSkin": "saefaf3143da4aabb5f35a6f3fb4e38c"
    },
    "displaytext": true,
    "id": "btnSecuritySettingVerificationSend",
    "info": null,
    "isvisible": true,
    "kuid": "ibfe51c767304c378eb84bca412533bc",
    "name": "kony.ui.Button",
    "parent": "flxSecuritySettingVerificationButtons",
    "pf": "userwidgetmodel",
    "texti18n": "i18n.common.send",
    "tooltip": "Send",
    "wType": "Button",
    "zindex": 1
}