{
    "@class": "com.kony.gen.viz.model.component.KVizImage2",
    "DNDConfig": null,
    "__parentReadjusting__": false,
    "_base64_": null,
    "_height_": {
        "type": "string",
        "value": "15dp"
    },
    "_left_": {
        "type": "number",
        "value": "0"
    },
    "_margin_": [
        0,
        0,
        0,
        0
    ],
    "_padding_": [
        0,
        0,
        0,
        0
    ],
    "_skin_": "s8ee487de5774c1eb668e74bf92f5cdd",
    "_src_": "arrow_up.png",
    "_width_": {
        "type": "string",
        "value": "15dp"
    },
    "accessibilityconfig": {
        "a11yLabel": "up_arrow"
    },
    "canUpdateUI": true,
    "centery": {
        "type": "string",
        "value": "50%"
    },
    "containerweight": 100,
    "context": {
        "channel": "desktop",
        "formID": "uwu886471e9ec64dfabf9345f176339ccd",
        "platform": "desktopweb",
        "templateType": "userwidgets",
        "topLevelBox": null
    },
    "id": "imgSecuritySettingsCollapse",
    "imagescalemode": 1,
    "imagewhiledownloading": "img_transparent.png",
    "info": null,
    "invokedProperty": "src",
    "isvisible": false,
    "kuid": "e3835b8903a646d18855100b6c22c893",
    "name": "kony.ui.Image2",
    "parent": "flxSecuritySettingsCollapse",
    "pf": "userwidgetmodel",
    "srcType": 1,
    "tooltip": "up_arrow",
    "wType": "Image",
    "widgetalignment": 5,
    "zindex": 1
}