{
    "@class": "com.kony.gen.viz.model.component.KVizLabel",
    "DNDConfig": null,
    "__parentReadjusting__": false,
    "_height_": {
        "type": "ref",
        "value": "preferred"
    },
    "_left_": {
        "type": "string",
        "value": "0%"
    },
    "_margin_": [
        1,
        1,
        1,
        1
    ],
    "_padding_": [
        0,
        0,
        0,
        0
    ],
    "_skin_": "scb4c8be66284fa6aef6f84d70b5c73f",
    "_text_": "You can go to Phone/E-mail setting and change the primary number/E-mail to recieve the same",
    "_top_": {
        "type": "number",
        "value": "6"
    },
    "_width_": {
        "type": "string",
        "value": "92.71%"
    },
    "_wrapping_": 2,
    "accessibilityconfig": {
        "a11yLabel": "You can go to your phone/email settings and change the primary number or email to change how you will receive the secure access codes."
    },
    "android": {
        "textStyle": {
            "letterSpacing": 0,
            "strikeThrough": false
        }
    },
    "canUpdateUI": true,
    "containerweight": 100,
    "contentalignment": 4,
    "id": "lblSecureAccessCodeText2",
    "info": null,
    "ipad": {
        "psp": {
            "wrapping": 2
        }
    },
    "iphone": {
        "psp": {
            "wrapping": 2
        }
    },
    "isvisible": true,
    "kuid": "d0df81d16c454e78a3aad3c856a955c6",
    "name": "kony.ui.Label",
    "parent": "flxSecureAccessCodeWarningContents",
    "pf": "userwidgetmodel",
    "texti18n": "i18n.ProfileManagement.SecureAccesscodetext2",
    "tooltip": "",
    "wType": "Label",
    "zindex": 1
}