{
    "@class": "com.kony.gen.viz.model.component.KVizLabel",
    "DNDConfig": null,
    "__parentReadjusting__": false,
    "_height_": {
        "type": "ref",
        "value": "preferred"
    },
    "_left_": {
        "type": "string",
        "value": "89dp"
    },
    "_margin_": [
        1,
        1,
        1,
        1
    ],
    "_padding_": [
        2,
        0,
        2,
        2
    ],
    "_skin_": "sae0cf896ede4c7ba35afb590323f58e",
    "_text_": "Your security questions was added sucessfully.",
    "_top_": {
        "type": "string",
        "value": "44px"
    },
    "_width_": {
        "type": "string",
        "value": "94.40%"
    },
    "_wrapping_": 2,
    "accessibilityconfig": {
        "a11yLabel": "Success! Your security questions have been updated."
    },
    "android": {
        "textStyle": {
            "letterSpacing": 0,
            "strikeThrough": false
        }
    },
    "canUpdateUI": true,
    "centerx": {
        "type": "string",
        "value": "50%"
    },
    "containerweight": 100,
    "contentalignment": 5,
    "id": "lblTransactionMessage",
    "info": null,
    "ipad": {
        "psp": {
            "wrapping": 2
        }
    },
    "iphone": {
        "psp": {
            "wrapping": 2
        }
    },
    "isvisible": true,
    "kuid": "adcad8331f0e43e3858656b0d4b51040",
    "name": "kony.ui.Label",
    "paddinginpixel": false,
    "parent": "flxAcknowledgementContainer",
    "pf": "userwidgetmodel",
    "texti18n": "i18n.ProfileManagement.YourSecurityQuestionswereupdatedSuccessfully",
    "tooltip": "",
    "wType": "Label",
    "zindex": 1
}