{
    "DNDConfig": null,
    "__parentReadjusting__": false,
    "_height_": {
        "type": "string",
        "value": "80%"
    },
    "_left_": {
        "type": "string",
        "value": "1%"
    },
    "_margin_": [
        0,
        0,
        0,
        0
    ],
    "_orientation_": 6,
    "_padding_": [
        0,
        0,
        0,
        0
    ],
    "_percent_": true,
    "_skin_": "scbd4cac3526468089bf3013adff0549",
    "_width_": {
        "type": "string",
        "value": "9.20%"
    },
    "allboxes": [],
    "autogrowmode": 0,
    "canUpdateUI": true,
    "centery": {
        "type": "string",
        "value": "50%"
    },
    "children": [
        "flxMoveUp",
        "lblMove",
        "flxMoveDown"
    ],
    "clipbounds": true,
    "containerId": true,
    "containerweight": 100,
    "enablescrolling": true,
    "id": "flxMenu",
    "ide_onClick": "AS_FlexContainer_de418b4b29e14eb28255740a42dd109d",
    "info": null,
    "isvisible": true,
    "kuid": "fccb2a48222f4154b013942ac52b4eb5",
    "layouttype": 2,
    "name": "kony.ui.FlexContainer",
    "parent": "flxAccountListItemWrapper",
    "pf": "segProfileManagementAccountsTablet",
    "snapgridsize": 10,
    "snaptogrid": true,
    "wType": "FlexContainer",
    "widgetalignment": 1,
    "zindex": 1
}