{
    "DNDConfig": null,
    "_height_": {
        "type": "string",
        "value": "90dp"
    },
    "_margin_": [
        0,
        0,
        0,
        0
    ],
    "_orientation_": 6,
    "_padding_": [
        0,
        0,
        0,
        0
    ],
    "_percent_": true,
    "_skin_": "sc681e20fcca47828a35daf1b6ea5496",
    "allboxes": [],
    "autogrowmode": 0,
    "canUpdateUI": true,
    "children": [
        "flxBillPayAllPayeesWrapper",
        "lblSeparator"
    ],
    "clipbounds": true,
    "containerId": true,
    "containerweight": 100,
    "controllerInfo": {
        "default": {
            "channel": "desktop",
            "name": "flxBillPayAllPayeesMobileController"
        }
    },
    "enablescrolling": true,
    "id": "flxBillPayAllPayeesMobile",
    "info": null,
    "isTemplate": true,
    "isvisible": true,
    "kuid": "e9a4456f06d14a26a2803a5d519d6061",
    "layouttype": 2,
    "name": "kony.ui.FlexContainer",
    "parent": "segBillPayAllPayeesMobile",
    "pf": "segBillPayAllPayeesMobile",
    "snapgridsize": 10,
    "snaptogrid": true,
    "wType": "FlexContainer",
    "widgetalignment": 1
}