{
    "@class": "com.kony.gen.viz.model.component.KVizButton",
    "DNDConfig": null,
    "__parentReadjusting__": false,
    "_height_": {
        "type": "string",
        "value": "50dp"
    },
    "_left_": {
        "type": "string",
        "value": "69%"
    },
    "_margin_": [
        6,
        6,
        6,
        6
    ],
    "_padding_": [
        0,
        0,
        0,
        0
    ],
    "_skin_": "sea1525e3fa24829a889b1fd650f3f24",
    "_text_": "]",
    "_top_": {
        "type": "string",
        "value": "30px"
    },
    "_width_": {
        "type": "string",
        "value": "28.97%"
    },
    "accessibilityconfig": {
        "a11yLabel": "Open New Account"
    },
    "canUpdateUI": true,
    "containerweight": 100,
    "contentalignment": 5,
    "disabledSkins": {
        "focusSkin": "sf44d06ca8224832827ea7fdff757013"
    },
    "displaytext": true,
    "id": "btnRequestMoney",
    "info": null,
    "isvisible": true,
    "kuid": "acc54073539b4736b1a632fffea90a33",
    "name": "kony.ui.Button",
    "parent": "flxButtons",
    "pf": "userwidgetmodel",
    "texti18n": "i18n.WireTransfer.CreateNewAccount",
    "tooltip": "Create New Account",
    "wType": "Button",
    "zindex": 2
}