{
    "DNDConfig": null,
    "__parentReadjusting__": false,
    "_height_": {
        "type": "string",
        "value": "30dp"
    },
    "_left_": {
        "type": "string",
        "value": "80.62%"
    },
    "_margin_": [
        0,
        0,
        0,
        0
    ],
    "_orientation_": 6,
    "_padding_": [
        0,
        0,
        0,
        0
    ],
    "_percent_": true,
    "_skin_": "s24c92fc23b14f5484b693ee9b8a9b35",
    "_width_": {
        "type": "string",
        "value": "25dp"
    },
    "allboxes": [],
    "autogrowmode": 0,
    "canUpdateUI": true,
    "centery": {
        "type": "string",
        "value": "50%"
    },
    "children": [
        "imgCheckTransaction",
        "lblCheckTransaction"
    ],
    "clipbounds": true,
    "containerId": true,
    "containerweight": 100,
    "enablescrolling": true,
    "id": "flxImgCheckTransaction",
    "ide_onClick": "AS_FlexContainer_c79054c1ee344071ba8e1d3535fba8f1",
    "info": null,
    "iscustomlayout": false,
    "isvisible": false,
    "kuid": "e8af0962ec4d43b483f2c7fc39e3e6e3",
    "layouttype": 2,
    "name": "kony.ui.FlexContainer",
    "parent": "flxAccountsCheckable",
    "pf": "segBBAccountsCheckable",
    "retaincontentalignment": false,
    "retainflexpositionproperties": false,
    "snapgridsize": 10,
    "snaptogrid": true,
    "wType": "FlexContainer",
    "widgetalignment": 1,
    "zindex": 1
}