{
    "@class": "com.kony.gen.viz.model.component.KVizUserWidget",
    "DNDConfig": null,
    "__parentReadjusting__": false,
    "_android_": {},
    "_androidwearos_": {},
    "_children_": [],
    "_desktopweb_": {},
    "_height_": {
        "type": "ref",
        "value": "preferred"
    },
    "_ipad_": {},
    "_iphone_": {},
    "_kiosk_": {},
    "_left_": {
        "type": "string",
        "value": "0dp"
    },
    "_margin_": [
        0,
        0,
        0,
        0
    ],
    "_orientation_": 1,
    "_padding_": [
        0,
        0,
        0,
        0
    ],
    "_percent_": true,
    "_render_": true,
    "_responsiveData_": {},
    "_skin_": "sdc143f0e5b64ae3a3f155f691c73fa7",
    "_spa_": {},
    "_spaan_": {},
    "_spaandroidtablet_": {},
    "_spabb_": {},
    "_spaip_": {},
    "_spaipad_": {},
    "_spamobile_": {},
    "_spatablet_": {},
    "_spawindowstablet_": {},
    "_spawinphone8_": {},
    "_tabrcandroid_": {},
    "_top_": {
        "type": "string",
        "value": "0dp"
    },
    "_vizProps_": {
        "hidewidgethierarchy": false
    },
    "_width_": {
        "type": "string",
        "value": "100%"
    },
    "_windows10_": {},
    "_windows8_": {},
    "_winphone10_": {},
    "_winphone8_": {},
    "areflexpropsreferenced": false,
    "autogrowmode": 1,
    "canUpdateUI": true,
    "clipbounds": false,
    "containerweight": 0,
    "dataDiffs": {
        "TermsAndConditions": {
            "__events__": {},
            "__info__": {
                "isRoot": true,
                "kuid": "fc13a5ac33fe44ecbfad2b2b54c51fab",
                "srcKUID": "a8480f15fde34d11bc6965fe0c8ecc99",
                "wType": "FlexContainer"
            }
        },
        "flxTwo": {
            "__events__": {},
            "__info__": {
                "kuid": "jbbcd8a231d744959705bde108effb9c",
                "srcKUID": "f26f991270e848e581148425d8b5c034",
                "wType": "FlexContainer"
            },
            "autogrowMode": {
                "Default": 0
            },
            "bottom": {
                "Default": {
                    "type": "string",
                    "value": "15dp"
                }
            },
            "height": {
                "Default": {
                    "type": "string",
                    "value": "40px"
                }
            },
            "responsiveData": {
                "b3": {
                    "top": {
                        "type": "string",
                        "value": "2dp"
                    }
                }
            },
            "top": {}
        },
        "flxbullet": {
            "__events__": {},
            "__info__": {
                "kuid": "j07693782c84428086149065adc5fc81",
                "srcKUID": "af9d0b87ab074dcca904dc67e3ad980f",
                "wType": "FlexContainer"
            },
            "centerY": {
                "Default": {
                    "type": "string",
                    "value": "65%"
                }
            }
        },
        "flxbulletTwo": {
            "__events__": {},
            "__info__": {
                "kuid": "h50938fdd6054941824d10f85fd2cfdb",
                "srcKUID": "j0f810a7b1654b1e944f574958cb01ff",
                "wType": "FlexContainer"
            }
        },
        "flxone": {
            "__events__": {},
            "__info__": {
                "kuid": "hfc4f223494d4070a42093f840b894bb",
                "srcKUID": "ha4037e46c2f4e028e9f09568f14d7dd",
                "wType": "FlexContainer"
            },
            "autogrowMode": {
                "Default": 0
            },
            "height": {},
            "responsiveData": {
                "b3": {
                    "height": {
                        "type": "string",
                        "value": "35px"
                    },
                    "width": {
                        "type": "string",
                        "value": "95%"
                    }
                }
            },
            "width": {}
        },
        "lblIns1": {
            "__events__": {},
            "__info__": {
                "kuid": "hbdba7cd3e804f1ea988fdecc84916f8",
                "srcKUID": "ada00d25eeb748f9a72213c91ddf3fd0",
                "wType": "Label"
            },
            "height": {},
            "i18n_text": "i18n.BillPay.TermsAndConditionsPoint1",
            "responsiveData": {
                "b3": {
                    "height": {
                        "type": "string",
                        "value": "100%"
                    },
                    "text": "Upto $500.00 can be sent through this service.",
                    "width": {
                        "type": "string",
                        "value": "98%"
                    }
                }
            },
            "text": "Upto $500.00 can be sent through this service.",
            "top": {
                "Default": {
                    "type": "string",
                    "value": "4dp"
                }
            },
            "width": {}
        },
        "lblInsTwo": {
            "__events__": {},
            "__info__": {
                "kuid": "e17baa32e0e4465eb651826ccdf68594",
                "srcKUID": "cd4650df46484705b2c865df9bbd297d",
                "wType": "Label"
            },
            "centerY": {},
            "height": {
                "Default": {
                    "type": "string",
                    "value": "40px"
                }
            },
            "i18n_text": "i18n.BillPay.TermsAndConditionsPoint2",
            "responsiveData": {
                "b3": {
                    "centerY": {
                        "type": "string",
                        "value": "50%"
                    },
                    "height": {
                        "type": "string",
                        "value": "100%"
                    },
                    "top": {
                        "type": "string",
                        "value": ""
                    }
                }
            },
            "text": "Upto $500.00 can be sent through this service.",
            "top": {
                "Default": {
                    "type": "string",
                    "value": "6dp"
                }
            },
            "width": {
                "Default": {
                    "type": "string",
                    "value": "93%"
                }
            }
        }
    },
    "id": "TermsAndConditions1",
    "info": null,
    "isdatareferenced": false,
    "isvisible": true,
    "kuid": "fc13a5ac33fe44ecbfad2b2b54c51fab",
    "layouttype": 4,
    "masterType": 0,
    "name": "kony.ui.UserWidgetInstance",
    "parent": "flxTermsCondition",
    "pf": "frmAddExternalAccountEur",
    "snaptogrid": true,
    "sourceUserWidget": "a8480f15fde34d11bc6965fe0c8ecc99",
    "vizprops": {
        "hidewidgethierarchy": false
    },
    "wType": "UserWidgetInstance"
}