{
    "@class": "com.kony.gen.viz.model.component.KVizUserWidget",
    "DNDConfig": null,
    "__parentReadjusting__": false,
    "_android_": {},
    "_androidwearos_": {},
    "_children_": [],
    "_desktopweb_": {},
    "_height_": {
        "type": "ref",
        "value": "preferred"
    },
    "_ipad_": {},
    "_iphone_": {},
    "_kiosk_": {},
    "_left_": {
        "type": "string",
        "value": "1dp"
    },
    "_margin_": [
        0,
        0,
        0,
        0
    ],
    "_orientation_": 1,
    "_padding_": [
        0,
        0,
        0,
        0
    ],
    "_percent_": true,
    "_render_": true,
    "_skin_": "s24c92fc23b14f5484b693ee9b8a9b35",
    "_spa_": {},
    "_spaan_": {},
    "_spaandroidtablet_": {},
    "_spabb_": {},
    "_spaip_": {},
    "_spaipad_": {},
    "_spamobile_": {},
    "_spatablet_": {},
    "_spawindowstablet_": {},
    "_spawinphone8_": {},
    "_tabrcandroid_": {},
    "_top_": {
        "type": "string",
        "value": "0dp"
    },
    "_vizProps_": {
        "hidewidgethierarchy": false
    },
    "_width_": {
        "type": "string",
        "value": "100%"
    },
    "_windows10_": {},
    "_windows8_": {},
    "_winphone10_": {},
    "_winphone8_": {},
    "areflexpropsreferenced": false,
    "autogrowmode": 1,
    "canUpdateUI": true,
    "clipbounds": true,
    "containerweight": 0,
    "dataDiffs": {
        "btnTermsAndConditions": {
            "__events__": {},
            "__info__": {
                "kuid": "j6eb8dcaca294c498084e4c5357e73ea",
                "srcKUID": "b32249983d064466bbd2af69bb0dad43",
                "wType": "Button"
            }
        },
        "flxCheckbox": {
            "__events__": {},
            "__info__": {
                "kuid": "beb97f5569dd47489fc0f1322c1f0d34",
                "srcKUID": "af87f60ad8d6489499b9f82e3227ff8c",
                "wType": "FlexContainer"
            }
        },
        "flxIAgree": {
            "__events__": {},
            "__info__": {
                "kuid": "fbc0058be28745e6a316a1d0dae219f6",
                "srcKUID": "j64abaf929ba44bcb473e9252461ec1f",
                "wType": "FlexContainer"
            }
        },
        "flxWarningText1": {
            "__events__": {},
            "__info__": {
                "kuid": "e7069bfbbab94fd0a54b16bd3c88ff8d",
                "srcKUID": "bbb2e3800f7e42f68533aaed3833652e",
                "wType": "FlexContainer"
            }
        },
        "flxWarningText2": {
            "__events__": {},
            "__info__": {
                "kuid": "jd1babebc1674fafbd1f846c469703ce",
                "srcKUID": "d71ed13f1b3f4248b1268f78ce90d324",
                "wType": "FlexContainer"
            }
        },
        "flxWarningText3": {
            "__events__": {},
            "__info__": {
                "kuid": "f98d291d14364c52a746caa0ad5683cb",
                "srcKUID": "aabd6eacb4504f98b51235a430b8573e",
                "wType": "FlexContainer"
            }
        },
        "flxWarningText4": {
            "__events__": {},
            "__info__": {
                "kuid": "dcb4e1e4b5fe48528a8348015dc77d73",
                "srcKUID": "fec5e7fd43bb4a80bc187d3416a5f3f4",
                "wType": "FlexContainer"
            }
        },
        "flxWarnings": {
            "__events__": {},
            "__info__": {
                "kuid": "bc26c777675e458a88ef62357fc18945",
                "srcKUID": "e564702bf2424a2cab808de213bb23fa",
                "wType": "FlexContainer"
            }
        },
        "imgChecbox": {
            "__events__": {},
            "__info__": {
                "kuid": "a860b3ef84ca484d9487dd73a43a9286",
                "srcKUID": "cafe4cbaf61b4ff3ba912aca67df971f",
                "wType": "Image"
            }
        },
        "imgDot1": {
            "__events__": {},
            "__info__": {
                "kuid": "i952be50f5094de1b2315875972d67aa",
                "srcKUID": "af67ea94da9d4fde827503835b93721a",
                "wType": "Image"
            },
            "src": "pageoffdot.png"
        },
        "imgDot2": {
            "__events__": {},
            "__info__": {
                "kuid": "a2c2141623f24d0ba639bc4629661b3d",
                "srcKUID": "a89c764e898248b09b0c8ac5eaa7f0b5",
                "wType": "Image"
            },
            "src": "pageoffdot.png"
        },
        "imgDot3": {
            "__events__": {},
            "__info__": {
                "kuid": "a2fceaa371ac45d4a6cf8828be367c15",
                "srcKUID": "a682ebb70bf44250bd9c1ddfb1f9dd95",
                "wType": "Image"
            },
            "src": "pageoffdot.png"
        },
        "imgDot4": {
            "__events__": {},
            "__info__": {
                "kuid": "e057e8eed21840adb740c4bfa02ff028",
                "srcKUID": "ja7024321ff94832af8b062fe3fa98dc",
                "wType": "Image"
            },
            "src": "pageoffdot.png"
        },
        "imgWarning": {
            "__events__": {},
            "__info__": {
                "kuid": "e2ed86e9be334e8993e50a012c7545dd",
                "srcKUID": "gebecb07c28d453ba96f0a77f078dd28",
                "wType": "Image"
            },
            "height": {
                "Default": {
                    "type": "string",
                    "value": "35dp"
                }
            },
            "src": "error_yellow.png",
            "width": {
                "Default": {
                    "type": "string",
                    "value": "35dp"
                }
            }
        },
        "lblAgree": {
            "__events__": {},
            "__info__": {
                "kuid": "cd1e78542d6040188309d8c431da0441",
                "srcKUID": "f6996cf171f74f399dee33995ff162db",
                "wType": "Label"
            }
        },
        "rtxWarningText1": {
            "__events__": {},
            "__info__": {
                "kuid": "f3e2f920526b42c39c339615b1df5ccd",
                "srcKUID": "aac6f59618d448c2902e1c34e037cbb3",
                "wType": "RichText"
            },
            "i18n_text": "i18n.manageCards.CardWillBeBlockedForAnyTransactionWithImmediateEffect.",
            "text": "Card will be blocked for any transaction with immediate effect."
        },
        "rtxWarningText2": {
            "__events__": {},
            "__info__": {
                "kuid": "bc34b19c2c4c4649874d27b1a5e5c28b",
                "srcKUID": "c9283dfe15ec48659d96297aa5df972d",
                "wType": "RichText"
            },
            "i18n_text": "i18n.manageCards.BankWillComeBackToYouWithFurtherReplacement.",
            "text": "Bank will come back to you with further replacement."
        },
        "rtxWarningText3": {
            "__events__": {},
            "__info__": {
                "kuid": "bc2c542f17874126b8741568fb3264c2",
                "srcKUID": "dd7e1028fa5a43ac819e9bbda29584da",
                "wType": "RichText"
            },
            "i18n_text": "i18n.manageCards.OptionallyYouCanGoAndOptForACardReplacemnt.",
            "text": "Optionally you can go and opt for a card replacement."
        },
        "rtxWarningText4": {
            "__events__": {},
            "__info__": {
                "kuid": "a38ae1398d2f4531990686d37737fefb",
                "srcKUID": "g328e1d4914d4d9ebe6c0b216b91fcd4",
                "wType": "RichText"
            },
            "i18n_text": null,
            "text": "All the pending balance/ completed transactions will carry forward in the new card."
        },
        "warning": {
            "__events__": {},
            "__info__": {
                "isRoot": true,
                "kuid": "e7499bda3fac414cb8811b240a10b216",
                "srcKUID": "b38f9d961cce4cfb84cf7b704b7bb413",
                "wType": "FlexContainer"
            },
            "left": {
                "Default": {
                    "type": "string",
                    "value": "1dp"
                }
            }
        }
    },
    "id": "WarningMessage",
    "info": null,
    "isdatareferenced": false,
    "issegmentchild": false,
    "isvisible": true,
    "kuid": "b80e852d5bb84e0982dbf91ef42cf070",
    "layouttype": 2,
    "masterType": 0,
    "name": "kony.ui.UserWidgetInstance",
    "parent": "flxWarning2",
    "pf": "userwidgetmodel",
    "snaptogrid": true,
    "sourceUserWidget": "b38f9d961cce4cfb84cf7b704b7bb413",
    "wType": "UserWidgetInstance"
}