{
    "@class": "com.kony.gen.viz.model.component.KVizUserWidget",
    "DNDConfig": null,
    "__parentReadjusting__": false,
    "_children_": [],
    "_desktopweb_": {},
    "_height_": {
        "type": "string",
        "value": "52dp"
    },
    "_left_": {
        "type": "string",
        "value": "0dp"
    },
    "_margin_": [
        0,
        0,
        0,
        0
    ],
    "_orientation_": 1,
    "_padding_": [
        0,
        0,
        0,
        0
    ],
    "_percent_": true,
    "_render_": true,
    "_responsiveData_": {},
    "_skin_": "s2ce93a13331476c8dd4bdd20e9a2e14",
    "_top_": {
        "type": "string",
        "value": "0dp"
    },
    "_vizProps_": {
        "hidewidgethierarchy": false
    },
    "_width_": {
        "type": "string",
        "value": "100%"
    },
    "areflexpropsreferenced": false,
    "autogrowmode": 0,
    "canUpdateUI": true,
    "clipbounds": true,
    "containerweight": 0,
    "dataDiffs": {
        "breadcrumb": {
            "__events__": {},
            "__info__": {
                "isRoot": true,
                "kuid": "bb4a80d031c34ee7b9456db45589b642",
                "srcKUID": "jdbd779e0c7743739197ebb17ae3c27e",
                "wType": "FlexContainer"
            },
            "autogrowMode": {
                "Default": 0
            },
            "height": {
                "Default": {
                    "type": "string",
                    "value": "52dp"
                }
            },
            "isVisible": false,
            "responsiveData": {}
        },
        "btnBreadcrumb1": {
            "__events__": {},
            "__info__": {
                "kuid": "f4033bf8a78a4e6fa274f47dbc245cb0",
                "srcKUID": "j8c10426f5ad4cc5abe5b3dafa2dbb1c",
                "wType": "Button"
            }
        },
        "btnBreadcrumb2": {
            "__events__": {},
            "__info__": {
                "kuid": "acd8c9a729de4367b048e67ef2e1173f",
                "srcKUID": "e8107b226c2b40cf90a9a46174bc7f1d",
                "wType": "Button"
            }
        },
        "flxBottomBorder": {
            "__events__": {},
            "__info__": {
                "kuid": "f4c9d3acb8f34ea9a6520e51be9a5a99",
                "srcKUID": "i0ec1627a998464aade04cd886ef46aa",
                "wType": "FlexContainer"
            }
        },
        "flxBreadcrumbcontainer": {
            "__events__": {},
            "__info__": {
                "kuid": "j1531d6040b3422a81f96e87db01793e",
                "srcKUID": "j0c7057677fd4a26b82f7fa59cdd360e",
                "wType": "FlexContainer"
            },
            "autogrowMode": {
                "Default": 0
            },
            "centerX": {
                "Default": {
                    "type": "string",
                    "value": "50%"
                }
            },
            "height": {
                "Default": {
                    "type": "string",
                    "value": "50dp"
                }
            },
            "top": {
                "Default": {
                    "type": "string",
                    "value": "1dp"
                }
            },
            "width": {
                "Default": {
                    "type": "string",
                    "value": "1366dp"
                }
            }
        },
        "flxTopBorder": {
            "__events__": {},
            "__info__": {
                "kuid": "cc3d6284dce743eeaab33245c7e4816b",
                "srcKUID": "bb6bda1822574264b7678002ffe888d6",
                "wType": "FlexContainer"
            },
            "top": {
                "Default": {
                    "type": "string",
                    "value": "0dp"
                }
            }
        },
        "imgBreadcrumb": {
            "__events__": {},
            "__info__": {
                "kuid": "e24e35e5ab3d4a1b9568c58595a4ea29",
                "srcKUID": "f5a4304fad2f41a3b5b783c4326dfc7f",
                "wType": "Image"
            }
        },
        "imgBreadcrumb2": {
            "__events__": {},
            "__info__": {
                "kuid": "e9c98a02b8ec47dab34a6c477eadac92",
                "srcKUID": "ec657451494941c9970301e279e7bf1a",
                "wType": "Image"
            }
        },
        "lblBreadcrumb2": {
            "__events__": {},
            "__info__": {
                "kuid": "jc2b5f34e88b46799e8e8788a35a18b6",
                "srcKUID": "c087aea595bb4c9fa3e64e58b7e245f9",
                "wType": "Label"
            }
        },
        "lblBreadcrumb3": {
            "__events__": {},
            "__info__": {
                "kuid": "a5b7897cc8ea48f08e0479f85484da61",
                "srcKUID": "ec107db8650a4c9db78a5676ab665c29",
                "wType": "Label"
            }
        }
    },
    "id": "breadcrumb",
    "info": null,
    "isdatareferenced": false,
    "isvisible": false,
    "kuid": "d73ed41a8eb04597816843d4889d5676",
    "layouttype": 2,
    "masterType": 0,
    "name": "kony.ui.UserWidgetInstance",
    "parent": "flxMainContainer",
    "pf": "frmVerifyAccount",
    "snaptogrid": true,
    "sourceUserWidget": "jdbd779e0c7743739197ebb17ae3c27e",
    "vizprops": {
        "hidewidgethierarchy": false
    },
    "wType": "UserWidgetInstance"
}