{
    "DNDConfig": null,
    "_height_": {
        "type": "string",
        "value": "50px"
    },
    "_margin_": [
        0,
        0,
        0,
        0
    ],
    "_orientation_": 6,
    "_padding_": [
        0,
        0,
        0,
        0
    ],
    "_percent_": true,
    "_skin_": "sf4c85c506de4687bf0645de2533a314",
    "allboxes": [],
    "autogrowmode": 0,
    "canUpdateUI": true,
    "children": [
        "flxRow",
        "lblSeparator"
    ],
    "clipbounds": false,
    "containerId": true,
    "containerweight": 100,
    "controllerInfo": {
        "default": {
            "channel": "desktop",
            "name": "flxSentController"
        }
    },
    "desktopweb": {
        "psp": {
            "hoverSkin": "s824f3ac025e47cfaf75ba9696b5ae0f"
        }
    },
    "disabledSkins": {},
    "enablescrolling": true,
    "id": "flxSent",
    "info": null,
    "isvisible": true,
    "kuid": "c005c38be0524f89b8b7c9eebfa91a6d",
    "layouttype": 2,
    "name": "kony.ui.FlexContainer",
    "parent": "segSent",
    "pf": "segSent",
    "snapgridsize": 10,
    "snaptogrid": true,
    "wType": "FlexContainer",
    "widgetalignment": 1
}