{
    "DNDConfig": null,
    "_height_": {
        "type": "string",
        "value": "90px"
    },
    "_margin_": [
        0,
        0,
        0,
        0
    ],
    "_orientation_": 6,
    "_padding_": [
        0,
        0,
        0,
        0
    ],
    "_percent_": true,
    "_skin_": "sf4c85c506de4687bf0645de2533a314",
    "allboxes": [],
    "autogrowmode": 0,
    "canUpdateUI": true,
    "children": [
        "flxRow",
        "lblSeparator"
    ],
    "clipbounds": true,
    "containerId": true,
    "containerweight": 100,
    "controllerInfo": {
        "default": {
            "channel": "desktop",
            "name": "flxSentMobileController"
        }
    },
    "enablescrolling": true,
    "id": "flxSentMobile",
    "info": null,
    "isvisible": true,
    "kuid": "f981b1dee7dc4048aab611ef5c18204d",
    "layouttype": 2,
    "name": "kony.ui.FlexContainer",
    "parent": "segSentMobile",
    "pf": "segSentMobile",
    "snapgridsize": 10,
    "snaptogrid": true,
    "wType": "FlexContainer",
    "widgetalignment": 1
}