{
    "DNDConfig": null,
    "__parentReadjusting__": false,
    "_bottom_": {
        "type": "string",
        "value": "20dp"
    },
    "_height_": {
        "type": "string",
        "value": "46dp"
    },
    "_left_": {
        "type": "string",
        "value": "5%"
    },
    "_margin_": [
        0,
        0,
        0,
        0
    ],
    "_orientation_": 6,
    "_padding_": [
        0,
        0,
        0,
        0
    ],
    "_percent_": true,
    "_skin_": "s2f1930e68bc4b258cfe821e7f0122cd",
    "_top_": {
        "type": "string",
        "value": "15dp"
    },
    "_width_": {
        "type": "string",
        "value": "321dp"
    },
    "allboxes": [],
    "autogrowmode": 0,
    "canUpdateUI": true,
    "children": [
        "tbxEnterTheCompany"
    ],
    "clipbounds": true,
    "containerweight": 100,
    "desktopweb": {
        "psp": {}
    },
    "disabledSkins": {
        "focusSkin": "s3308b031b8e4da8a5965b769840b865",
        "hoverSkin": "s8da4b873a6c42cb9da7a6c855529587"
    },
    "enablescrolling": true,
    "id": "flxEnterTheCompany",
    "info": null,
    "isvisible": true,
    "kuid": "a8b2a7911b8241cf8247dcecf9e2ed25",
    "layouttype": 2,
    "name": "kony.ui.FlexContainer",
    "parent": "flxChooseEligibilityCriteriaEmployer",
    "pf": "userwidgetmodel",
    "snapgridsize": 10,
    "snaptogrid": true,
    "wType": "FlexContainer",
    "widgetalignment": 1,
    "zindex": 1
}