{
    "@class": "com.kony.gen.viz.model.component.KVizLabel",
    "DNDConfig": null,
    "__parentReadjusting__": false,
    "_height_": {
        "type": "ref",
        "value": "preferred"
    },
    "_left_": {
        "type": "string",
        "value": "0%"
    },
    "_margin_": [
        1,
        1,
        1,
        1
    ],
    "_padding_": [
        0,
        0,
        0,
        0
    ],
    "_skin_": "saba7a95163a455f8f2f131435e16122",
    "_text_": "",
    "_top_": {
        "type": "string",
        "value": "28dp"
    },
    "_width_": {
        "type": "ref",
        "value": "preferred"
    },
    "_wrapping_": 2,
    "accessibilityconfig": {
        "a11yLabel": "I am related to a current Kony DBX member."
    },
    "android": {
        "textStyle": {
            "letterSpacing": 0,
            "strikeThrough": false
        }
    },
    "canUpdateUI": true,
    "containerweight": 100,
    "contentalignment": 4,
    "id": "lblChooseEligibilityCriteriaMessageBox1",
    "info": null,
    "ipad": {
        "psp": {
            "wrapping": 2
        }
    },
    "iphone": {
        "psp": {
            "wrapping": 2
        }
    },
    "isvisible": true,
    "kuid": "b018b4021cff4c23ae331210284b1a71",
    "name": "kony.ui.Label",
    "parent": "flxChooseEligibilityCriteriaMessageBox1",
    "pf": "userwidgetmodel",
    "texti18n": "i18n.NUO.IamRelatedToCurrentKonyUser",
    "tooltip": "",
    "wType": "Label",
    "zindex": 1
}