{
    "@class": "com.kony.gen.viz.model.component.KVizLabel",
    "DNDConfig": null,
    "__parentReadjusting__": false,
    "_height_": {
        "type": "ref",
        "value": "preferred"
    },
    "_margin_": [
        0,
        0,
        0,
        0
    ],
    "_padding_": [
        0,
        0,
        0,
        0
    ],
    "_skin_": "sbf892219fd04dbcae8a4a76f57b2ae0",
    "_text_": "D",
    "_width_": {
        "type": "string",
        "value": "22dp"
    },
    "_wrapping_": 2,
    "accessibilityconfig": {
        "a11yLabel": "D"
    },
    "android": {
        "textStyle": {
            "letterSpacing": 0,
            "strikeThrough": false
        }
    },
    "canUpdateUI": true,
    "centerx": {
        "type": "string",
        "value": "50%"
    },
    "centery": {
        "type": "string",
        "value": "50%"
    },
    "containerweight": 100,
    "contentalignment": 2,
    "id": "lblTCContentsCheckboxIcon",
    "info": null,
    "ipad": {
        "psp": {
            "wrapping": 2
        }
    },
    "iphone": {
        "psp": {
            "wrapping": 2
        }
    },
    "isvisible": true,
    "kuid": "dd36332901aa41baa9520ed8745e0e09",
    "name": "kony.ui.Label",
    "parent": "flxTCContentsCheckbox",
    "pf": "frmCardManagement",
    "tooltip": "",
    "wType": "Label",
    "zindex": 1
}