{
    "@class": "com.kony.gen.viz.model.container.KVizSegment2",
    "DNDConfig": null,
    "__parentReadjusting__": false,
    "_data_": [
        {},
        {},
        {}
    ],
    "_height_": {
        "type": "ref",
        "value": "preferred"
    },
    "_indicator_": "none",
    "_left_": {
        "type": "string",
        "value": "0dp"
    },
    "_margin_": [
        0,
        0,
        0,
        0
    ],
    "_orientation_": 2,
    "_padding_": [
        0,
        0,
        0,
        0
    ],
    "_top_": {
        "type": "string",
        "value": "0dp"
    },
    "_width_": {
        "type": "string",
        "value": "100%"
    },
    "autogrowmode": 1,
    "canUpdateUI": true,
    "containerweight": 100,
    "counter": "02",
    "desktop": {
        "_data_": [
            {
                "imgBank": {
                    "@class": "com.viz.ide.model.segment.ImageSegmentData",
                    "src": "bank_icon_boa.png"
                },
                "lblSeparator": {
                    "@class": "com.viz.ide.model.segment.SimpleTextSegmentData",
                    "text": "-"
                },
                "lblUsers": {
                    "@class": "com.viz.ide.model.segment.SimpleTextSegmentData",
                    "text": "Bank of America"
                }
            },
            {
                "imgBank": {
                    "@class": "com.viz.ide.model.segment.ImageSegmentData",
                    "src": "bank_icon_citi.png"
                },
                "lblSeparator": {
                    "@class": "com.viz.ide.model.segment.SimpleTextSegmentData",
                    "text": "-"
                },
                "lblUsers": {
                    "@class": "com.viz.ide.model.segment.SimpleTextSegmentData",
                    "text": "CITI Bank"
                }
            },
            {
                "imgBank": {
                    "@class": "com.viz.ide.model.segment.ImageSegmentData",
                    "src": "bank_icon_chase.png"
                },
                "lblSeparator": {
                    "@class": "com.viz.ide.model.segment.SimpleTextSegmentData",
                    "text": "-"
                },
                "lblUsers": {
                    "@class": "com.viz.ide.model.segment.SimpleTextSegmentData",
                    "text": "Chase Bank"
                }
            },
            {
                "imgBank": {
                    "@class": "com.viz.ide.model.segment.ImageSegmentData",
                    "src": "bank_icon_hdfc.png"
                },
                "lblSeparator": {
                    "@class": "com.viz.ide.model.segment.SimpleTextSegmentData",
                    "text": "-"
                },
                "lblUsers": {
                    "@class": "com.viz.ide.model.segment.SimpleTextSegmentData",
                    "text": "HDFC bank"
                }
            },
            {
                "imgBank": {
                    "@class": "com.viz.ide.model.segment.ImageSegmentData",
                    "src": "bank_icon_wf.png"
                },
                "lblSeparator": {
                    "@class": "com.viz.ide.model.segment.SimpleTextSegmentData",
                    "text": "-"
                },
                "lblUsers": {
                    "@class": "com.viz.ide.model.segment.SimpleTextSegmentData",
                    "text": "Wells Fargo"
                }
            }
        ],
        "rowTemplateId": "ab918ad6bb6d47e0a600f424efa853ce",
        "rowtemplate": "flxBankNames",
        "widgetdatamap": {
            "flxBankNames": "flxBankNames",
            "imgBank": "imgBank",
            "lblSeparator": "lblSeparator",
            "lblUsers": "lblUsers"
        }
    },
    "focusedindex": null,
    "focuseditem": null,
    "groupcells": false,
    "hasSections": false,
    "id": "segDestinationList",
    "ide_onRowClick": "AS_Segment_d43ef915b9634f1b84dfaf1d839333d1",
    "info": null,
    "ipad": {
        "psp": {
            "indicator": "rowselect"
        }
    },
    "iphone": {
        "psp": {
            "indicator": "rowselect"
        }
    },
    "isvisible": true,
    "kuid": "d9abb47b59374143aede7583d5a5735a",
    "masterdata": {},
    "name": "kony.ui.SegmentedUI2",
    "needpageindicator": true,
    "pageoffdotimage": "pageoffdot.png",
    "pageondotimage": "pageondot.png",
    "paginationconfig": {
        "position": "bottom"
    },
    "parent": "flxDestinationList",
    "pf": "frmCardManagement",
    "retainselection": false,
    "rowTemplateId": "f9974c2797cb4a9bb46f8d3ff8f6bc6a",
    "rowcounter": 2,
    "rowfocusskin": "s9f69e977910472eb44c62ae28c41fe1",
    "rowskin": "scf5f90f6ac04976ab88b2a4f7153285",
    "rowtemplate": "flxCustomListBox",
    "screenlevelwidget": false,
    "seccounter": 0,
    "sectionHeaderTemplateId": null,
    "sectionheaderskin": "sdc4ff4ed1584272be2ae69045dfb29d",
    "selectedRows": null,
    "selectedState": false,
    "selectedindex": null,
    "selectedindices": null,
    "selecteditems": null,
    "selectedsectionindex": 0,
    "selectionbehavior": "default",
    "separatorrequired": false,
    "showscrollbars": false,
    "viewtype": "tableview",
    "vizProps": {},
    "wType": "Segment",
    "widgetalignment": 5,
    "widgetdatamap": {
        "flxCustomListBox": "flxCustomListBox",
        "lblListBoxValues": "lblListBoxValues"
    },
    "zindex": 1
}