{
	"@class": "com.kony.gen.viz.model.component.KVizUserWidget",
	"DNDConfig": null,
	"__parentReadjusting__": false,
	"_children_": [],
	"_desktopweb_": {},
	"_height_": {
		"type": "string",
		"value": "121px"
	},
	"_kiosk_": {},
	"_left_": {
		"type": "string",
		"value": "0dp"
	},
	"_margin_": [
		0,
		0,
		0,
		0
	],
	"_orientation_": 1,
	"_padding_": [
		0,
		0,
		0,
		0
	],
	"_percent_": true,
	"_render_": true,
	"_responsiveData_": {
		"b3": {
			"height": {
				"type": "string",
				"value": "50px"
			}
		}
	},
	"_skin_": "s24c92fc23b14f5484b693ee9b8a9b35",
	"_top_": {
		"type": "string",
		"value": "0dp"
	},
	"_vizProps_": {
		"hidewidgethierarchy": false
	},
	"_width_": {
		"type": "string",
		"value": "100%"
	},
	"areflexpropsreferenced": false,
	"autogrowmode": 0,
	"canUpdateUI": true,
	"clipbounds": false,
	"containerweight": 0,
	"dataDiffs": {
		"CopyflxUserDetails0b35eb5be884043": {
			"__events__": {},
			"__info__": {
				"kuid": "d42be347867144eb97cb7e15b52a7147",
				"srcKUID": "b692716bd51e422ead7f111a1bfbe5cb",
				"wType": "FlexContainer"
			}
		},
		"CopyflxVerticalSeperator0b961fc23108f4b": {
			"__events__": {},
			"__info__": {
				"kuid": "b39a9954b44c4e6f8cdb3726082f94e4",
				"srcKUID": "b6e0434c2f904010bfff7590777daf67",
				"wType": "FlexContainer"
			}
		},
		"CopyflxVerticalSeperator0dbd20466efa64b": {
			"__events__": {},
			"__info__": {
				"kuid": "d4781d1a8a424484bb8495f6efeddac8",
				"srcKUID": "d06f368d0065481d81dc512212fd2b95",
				"wType": "FlexContainer"
			}
		},
		"CopyimgToolTip0i580d9acc07c42": {
			"__events__": {},
			"__info__": {
				"kuid": "jaca8fdd5d974e77af28b8b010a480bc",
				"srcKUID": "f5065fdfa2d0406bb7fafd4073fe33c5",
				"wType": "Image"
			}
		},
		"FlexContainer0e2898aa93bca45": {
			"__events__": {},
			"__info__": {
				"kuid": "c1f0b9836e8d441d8cf385a7c50388e3",
				"srcKUID": "f85d68fc07dd44c2938e507df0fe87fc",
				"wType": "FlexContainer"
			},
			"autogrowMode": {
				"Default": 0
			},
			"height": {},
			"responsiveData": {
				"b3": {
					"height": {
						"type": "string",
						"value": "50px"
					},
					"isVisible": true,
					"width": {
						"type": "string",
						"value": "100%"
					}
				},
				"b2": {
					"width": {
						"type": "string",
						"value": "100%"
					}
				},
				"b1": {
					"width": {
						"type": "string",
						"value": "100%"
					}
				}
			},
			"width": {}
		},
		"customhamburger": {
			"__events__": {},
			"__info__": {
				"kuid": "c11744290ccb4441a2f23c618136e0e8",
				"srcKUID": "dea66199c9fd433fab636de553a6116f",
				"wType": "UserWidgetInstance"
			}
		},
		"customhamburger.CopyFlexContainer0f46534a0a94e41": {
			"__events__": {},
			"__info__": {
				"kuid": "e0723ca280b1497aa908d93b030c96ff",
				"srcKUID": "ba7b5440b44f4e7a88be10a58c83104e",
				"wType": "FlexContainer"
			}
		},
		"customhamburger.CopyflxSeperator0a7fd02d026804c": {
			"__events__": {},
			"__info__": {
				"kuid": "c90bca3813df45acb7a74bb2a67cfba4",
				"srcKUID": "e6c67e99b0b64a4e83a34c312dc501a5",
				"wType": "FlexContainer"
			}
		},
		"customhamburger.CopyflxSeperator0ab6ff437e8524e": {
			"__events__": {},
			"__info__": {
				"kuid": "a0738eef3dea446f8100b68fc3a7c820",
				"srcKUID": "ca4dec9fb13344e8a9eaab7c89b68088",
				"wType": "FlexContainer"
			}
		},
		"customhamburger.CopyflxSeperator0acb2897e84374f": {
			"__events__": {},
			"__info__": {
				"kuid": "f802109a5e494099bfbe9edb34247b5d",
				"srcKUID": "h931230261a14f28817596d7d2bbfee2",
				"wType": "FlexContainer"
			}
		},
		"customhamburger.CopyflxSeperator0bd0b5a0f50074d": {
			"__events__": {},
			"__info__": {
				"kuid": "cf8734345d7f43a2818d293c116a0005",
				"srcKUID": "b8213949527b424f92c6600b3e792ecc",
				"wType": "FlexContainer"
			}
		},
		"customhamburger.CopyflxSeperator0c1fe53523f5e44": {
			"__events__": {},
			"__info__": {
				"kuid": "b109273247c44e0ea1d770ce704d7701",
				"srcKUID": "ffdae6459d5d450c9b5a5df56704081e",
				"wType": "FlexContainer"
			}
		},
		"customhamburger.CopyflxSeperator0dd0dea943f174f": {
			"__events__": {},
			"__info__": {
				"kuid": "ff6a3b49c1c844068e13026e295eda82",
				"srcKUID": "j5306d2984814d9d93c24f84d7db8ba7",
				"wType": "FlexContainer"
			}
		},
		"customhamburger.CopyflxSeperator0dfcbfe80de1946": {
			"__events__": {},
			"__info__": {
				"kuid": "hdb083c51d6f405b81af090ea60a41c5",
				"srcKUID": "ec5e9cdda1b4473aa156d59730730f65",
				"wType": "FlexContainer"
			}
		},
		"customhamburger.CopyflxSeperator0dfe0994effc642": {
			"__events__": {},
			"__info__": {
				"kuid": "edd46e5e85ec40b58bbd61a08d052088",
				"srcKUID": "c7eb127bdde140e382ab0f3726c08d48",
				"wType": "FlexContainer"
			}
		},
		"customhamburger.CopyflxSeperator0e0b844b2206d42": {
			"__events__": {},
			"__info__": {
				"kuid": "gc26d71a8ea8458c8ae126d350d41243",
				"srcKUID": "d407d1c0e2b74a5c8858107d1963ab91",
				"wType": "FlexContainer"
			}
		},
		"customhamburger.CopyflxSeperator0e9219bd0514c46": {
			"__events__": {},
			"__info__": {
				"kuid": "if93fd2c5b704b42b419b8fcdc36d685",
				"srcKUID": "g39fe81fa7b0498b87ae946e0e5daf27",
				"wType": "FlexContainer"
			}
		},
		"customhamburger.CopyflxSeperator0ef41d1ef612f4a": {
			"__events__": {},
			"__info__": {
				"kuid": "fb6159d17cd24980b9a5724be0f05f73",
				"srcKUID": "adeb509fbec84150b31a2aa4a215fb19",
				"wType": "FlexContainer"
			}
		},
		"customhamburger.CopyflxSeperator0ef56548331074b": {
			"__events__": {},
			"__info__": {
				"kuid": "if915fd5b2e146f788b68061b7e222e5",
				"srcKUID": "j62d0667a0e5431d94bbeb7127ae6e11",
				"wType": "FlexContainer"
			}
		},
		"customhamburger.CopyflxSeperator0f0efd703f4a84e": {
			"__events__": {},
			"__info__": {
				"kuid": "c8381fb1c6f049d7a9743416f6b5d757",
				"srcKUID": "jc0b907adf1f4e1ea39d354fc2e41d23",
				"wType": "FlexContainer"
			}
		},
		"customhamburger.CopyflxSeperator0f697b8a8bbcf46": {
			"__events__": {},
			"__info__": {
				"kuid": "ifd754e51204428499418172281a4ea7",
				"srcKUID": "d7122805ba3b40f493b7d79f749c5c1f",
				"wType": "FlexContainer"
			}
		},
		"customhamburger.CopyflxSeperator0f7229c978c5c47": {
			"__events__": {},
			"__info__": {
				"kuid": "c1bd5d56a7ab4a4c83a7cf3321036394",
				"srcKUID": "a87745dcb66b4f4c83b0725af5c1251b",
				"wType": "FlexContainer"
			}
		},
		"customhamburger.CopyflxSeperator0f85cfae3ca0048": {
			"__events__": {},
			"__info__": {
				"kuid": "d7cdddebba8f439e8c4c0731a876c2db",
				"srcKUID": "dc99871787d24ab28840acb5727529ca",
				"wType": "FlexContainer"
			}
		},
		"customhamburger.CopyflxSeperator0i4d31af56d2d40": {
			"__events__": {},
			"__info__": {
				"kuid": "b055b6112a264953bf2a22430f018121",
				"srcKUID": "f3f4b62efb0a4dd8bf89e2d38860cfd7",
				"wType": "FlexContainer"
			}
		},
		"customhamburger.CopyflxSeperator0j3213d9f303b41": {
			"__events__": {},
			"__info__": {
				"kuid": "c03f0acdda664f3d91ff35a0bcc6b07e",
				"srcKUID": "fe9c8dd71102415db76f64c461560080",
				"wType": "FlexContainer"
			}
		},
		"customhamburger.CopyflxSeperator0jc2b704f97fa4d": {
			"__events__": {},
			"__info__": {
				"kuid": "cfa34f4770a646e581a0c10e0d303414",
				"srcKUID": "d0c5fd0e52bf405ab3a5b62910c15dfc",
				"wType": "FlexContainer"
			}
		},
		"customhamburger.CopylblAddPayee0b508c1c7ac1342": {
			"__events__": {},
			"__info__": {
				"kuid": "e3436b26186b4842be652e89243727fe",
				"srcKUID": "gecce85ab70e458f8184668a61d2a72a",
				"wType": "Label"
			}
		},
		"customhamburger.CopylblAddPayee0bee2cf73d22b4d": {
			"__events__": {},
			"__info__": {
				"kuid": "c710cbc4fb15431cb1b4f9a6cd2c6716",
				"srcKUID": "e21a4f39e45c4ea4b684e82952e0da1f",
				"wType": "Label"
			}
		},
		"customhamburger.CopylblAddPayee0g70cc090ed6245": {
			"__events__": {},
			"__info__": {
				"kuid": "d209460055924e04933e05bcd291da86",
				"srcKUID": "f6dfffbbcd7d48ac80ff2d95331aeef0",
				"wType": "Label"
			}
		},
		"customhamburger.CopylblBillPay0a6bc0b0a48dd4b": {
			"__events__": {},
			"__info__": {
				"kuid": "a3d36f3ce61649beaa9554dab53d2a91",
				"srcKUID": "iece97379dcf4992bd7afc5f0ac6ed8a",
				"wType": "Label"
			}
		},
		"customhamburger.CopylblBillPay0e8e9903a20a440": {
			"__events__": {},
			"__info__": {
				"kuid": "i678011288fb4aeda57da52a987f2625",
				"srcKUID": "i5c72f4c617e4a9fa18d6460cc8c41cb",
				"wType": "Label"
			}
		},
		"customhamburger.CopylblBillPay0eda6178b407a4e": {
			"__events__": {},
			"__info__": {
				"kuid": "g8a8f11868164edca19622c56c46cae4",
				"srcKUID": "b5f49ce65f43422e8ba064d0383c8b60",
				"wType": "Label"
			}
		},
		"customhamburger.CopylblBillPayHistory0b38a2ee4fe0d47": {
			"__events__": {},
			"__info__": {
				"kuid": "ibb07871330d402292b536de8a6582df",
				"srcKUID": "hbc213bb8f7a4233b1396cd4bdabbaa3",
				"wType": "Label"
			}
		},
		"customhamburger.CopylblBillPayHistory0gc07c297701741": {
			"__events__": {},
			"__info__": {
				"kuid": "fb4c93d8b4cd4b0eac33377991a39182",
				"srcKUID": "cb22b1482ffc4bfb95ecec9f6a141fab",
				"wType": "Label"
			}
		},
		"customhamburger.CopylblMyPayee0dcb9e690692a4f": {
			"__events__": {},
			"__info__": {
				"kuid": "h37dcad5b5de40b0927c5048ea55303c",
				"srcKUID": "bed01243f6a547179d4bf810e22191f0",
				"wType": "Label"
			}
		},
		"customhamburger.CopylblMyPayee0e33403d7890441": {
			"__events__": {},
			"__info__": {
				"kuid": "f5859ebdd0be4532b95aa64fb7587888",
				"srcKUID": "bce63faed54a4d5f8189fb31de9e3ee7",
				"wType": "Label"
			}
		},
		"customhamburger.CopylblMyPayee0i8f11a9bf3734f": {
			"__events__": {},
			"__info__": {
				"kuid": "a480f8a8a181440a81edf3b54afa76dc",
				"srcKUID": "b43285cfc5b14a5ba8ac5b1edff46d10",
				"wType": "Label"
			}
		},
		"customhamburger.CopylblPayABill0d56ffee2b48f4c": {
			"__events__": {},
			"__info__": {
				"kuid": "ae589374590f43bdb3d195f44d56187a",
				"srcKUID": "a37d5172e5d04c99a7b381dbdb0c1f0e",
				"wType": "Label"
			}
		},
		"customhamburger.CopylblPayABill0g84c7aa6fce048": {
			"__events__": {},
			"__info__": {
				"kuid": "a0b1fc5652b5439bb22c56351734701d",
				"srcKUID": "e68c07ae9fae4911aa7ec55b76ac1d9e",
				"wType": "Label"
			}
		},
		"customhamburger.CopylblPayABill0h56a2d285cea46": {
			"__events__": {},
			"__info__": {
				"kuid": "f7d4927c45f84d60bfe70f99393b7308",
				"srcKUID": "ade9130b3841494c9f59781a7587c3e1",
				"wType": "Label"
			}
		},
		"customhamburger.FlexContainer0a82014659b0e48": {
			"__events__": {},
			"__info__": {
				"kuid": "j9590ac0785e4652a5300e33e7a45853",
				"srcKUID": "h7ad82c8fb9b437486ad6c4d49320ce2",
				"wType": "FlexContainer"
			}
		},
		"customhamburger.flxAboutUs": {
			"__events__": {},
			"__info__": {
				"kuid": "f96c9662a39e464fbdd62e9c052d94c8",
				"srcKUID": "cca79f5d16b045408f311a815ae6b289",
				"wType": "FlexContainer"
			}
		},
		"customhamburger.flxAboutUsCollapse": {
			"__events__": {},
			"__info__": {
				"kuid": "abd4756df4c243bbb47fdf7d2f613f9f",
				"srcKUID": "e41d16cfc04e458693670ae7e87e34aa",
				"wType": "FlexContainer"
			}
		},
		"customhamburger.flxAboutUsSubMenu": {
			"__events__": {},
			"__info__": {
				"kuid": "af376fba8c174ac388f502c1f22eaae8",
				"srcKUID": "ad066a23a8cd41e983c434b90da35923",
				"wType": "FlexContainer"
			}
		},
		"customhamburger.flxAccountSettings": {
			"__events__": {},
			"__info__": {
				"kuid": "gf25d7a801934cab9997c079262c160f",
				"srcKUID": "g69da15184e04d089b0f58da40a7157e",
				"wType": "FlexContainer"
			}
		},
		"customhamburger.flxAccountsCollapse": {
			"__events__": {},
			"__info__": {
				"kuid": "fa426be83b6b416e80b74da19d5468de",
				"srcKUID": "e0af0f6ab9614020b7fc5e89406a63dc",
				"wType": "FlexContainer"
			}
		},
		"customhamburger.flxAccountsMenu": {
			"__events__": {},
			"__info__": {
				"kuid": "a2bffe36dd0141b096c61f47a4ed52ba",
				"srcKUID": "cf43ccc491384cce8e692bf0c7b73f90",
				"wType": "FlexContainer"
			}
		},
		"customhamburger.flxAccountsSubMenu": {
			"__events__": {},
			"__info__": {
				"kuid": "bb6347b5f19f485f94be28f045339a7a",
				"srcKUID": "dc00eecfa1d34328ba4230f17db49066",
				"wType": "FlexContainer"
			}
		},
		"customhamburger.flxAddExternalBankAccounts": {
			"__events__": {},
			"__info__": {
				"kuid": "j0ca1d1f84fd4f0ba5884010c6fee481",
				"srcKUID": "d829e28813f643ab8cc7b53a38a11877",
				"wType": "FlexContainer"
			}
		},
		"customhamburger.flxAddKonyAccounts": {
			"__events__": {},
			"__info__": {
				"kuid": "gb805d6594d44f73958f734c934fd920",
				"srcKUID": "i7907247783340e6bd2e6d28ef1b46ee",
				"wType": "FlexContainer"
			}
		},
		"customhamburger.flxAddNonKonyAccounts": {
			"__events__": {},
			"__info__": {
				"kuid": "g1b8d52a71ff4f55bba5626031e302b8",
				"srcKUID": "ic3031f46db3438a903562f1278ef9cc",
				"wType": "FlexContainer"
			}
		},
		"customhamburger.flxAddPayee": {
			"__events__": {},
			"__info__": {
				"kuid": "a49bc5aececc4d7a8e780de6b38c1f82",
				"srcKUID": "aefd502a752f424387ac0e1a7d6cee42",
				"wType": "FlexContainer"
			}
		},
		"customhamburger.flxAddRecipients": {
			"__events__": {},
			"__info__": {
				"kuid": "ef061b20ffd444fc83db0f27ea2c2529",
				"srcKUID": "f96d8995e54f407cb41a20dbef08e36f",
				"wType": "FlexContainer"
			}
		},
		"customhamburger.flxAlerts": {
			"__events__": {},
			"__info__": {
				"kuid": "cb0591d280dc45febb7c6f278e8fde5f",
				"srcKUID": "habdea8c510a4db183a6c1d319dc26cf",
				"wType": "FlexContainer"
			}
		},
		"customhamburger.flxAlertsAndMessages": {
			"__events__": {},
			"__info__": {
				"kuid": "c4c0688e09df4ec287828a8383dcbe82",
				"srcKUID": "a6047045dc8a45488e4434ae31a9d04e",
				"wType": "FlexContainer"
			}
		},
		"customhamburger.flxAlertsAndMessagesCollapse": {
			"__events__": {},
			"__info__": {
				"kuid": "i539889e284844fcb7e4cfd3dfaeb9b2",
				"srcKUID": "b5b47f89075c4e738fdfbe5afa6a27a2",
				"wType": "FlexContainer"
			}
		},
		"customhamburger.flxAlertsAndMessagesSeperator": {
			"__events__": {},
			"__info__": {
				"kuid": "adb78ae6fc8042a38fb5068b217df4ba",
				"srcKUID": "g5f28c8fa61149299a48ec5562c1c35b",
				"wType": "FlexContainer"
			}
		},
		"customhamburger.flxAlertsAndMessagesSubMenu": {
			"__events__": {},
			"__info__": {
				"kuid": "ia4aa45e43df4158b12be276644e896d",
				"srcKUID": "ec498bbee2a54caf825c1cc57f8c0f46",
				"wType": "FlexContainer"
			}
		},
		"customhamburger.flxBillPay": {
			"__events__": {},
			"__info__": {
				"kuid": "g588629b46b44a39820609874cfdf130",
				"srcKUID": "bafa4dff778347ac84a9f492a0e5dff1",
				"wType": "FlexContainer"
			}
		},
		"customhamburger.flxBillPayCollapse": {
			"__events__": {},
			"__info__": {
				"kuid": "had082c9e93f40cfbd9b23e77e72014a",
				"srcKUID": "a0dcaee0ed354e579861b6fe542d4093",
				"wType": "FlexContainer"
			}
		},
		"customhamburger.flxBillPayHistory": {
			"__events__": {},
			"__info__": {
				"kuid": "ca8022fca550410b993538da04c6b305",
				"srcKUID": "f62b8e2cab074c0c9fa00cc1d81c39d0",
				"wType": "FlexContainer"
			}
		},
		"customhamburger.flxBillPaySubMenu": {
			"__events__": {},
			"__info__": {
				"kuid": "bef103a64c754597a56db92099461177",
				"srcKUID": "ea568784be934341979a1fd5e490e2cb",
				"wType": "FlexContainer"
			}
		},
		"customhamburger.flxCardManagement": {
			"__events__": {},
			"__info__": {
				"kuid": "a93a4126aeb544a08ffd83d93125b2c1",
				"srcKUID": "fca38cea39334c569e00cf833a296ff0",
				"wType": "FlexContainer"
			}
		},
		"customhamburger.flxClose": {
			"__events__": {},
			"__info__": {
				"kuid": "i893fbfe8dce48e68ac5f341c8b73523",
				"srcKUID": "c66fd7f3bd2c4e6e8f7bd01e6287550e",
				"wType": "FlexContainer"
			}
		},
		"customhamburger.flxCollapseTransfers": {
			"__events__": {},
			"__info__": {
				"kuid": "e4db94697995493cac3c88e5675532a1",
				"srcKUID": "h384e8dc0bd24e29af85efafe7e025fc",
				"wType": "FlexContainer"
			}
		},
		"customhamburger.flxContactUs": {
			"__events__": {},
			"__info__": {
				"kuid": "a3820eb89bd540698f184e49825b6c1b",
				"srcKUID": "abf11674e0d94d85a1fe50e46f4c51bc",
				"wType": "FlexContainer"
			}
		},
		"customhamburger.flxExternalAccounts": {
			"__events__": {},
			"__info__": {
				"kuid": "e6520575b7784cde943197437f631201",
				"srcKUID": "abc9ac58f56e4fb493c8d1f1bff47b24",
				"wType": "FlexContainer"
			}
		},
		"customhamburger.flxFaq": {
			"__events__": {},
			"__info__": {
				"kuid": "b09e5f8bdb05467880839266d97ea0ae",
				"srcKUID": "h28703eed887497abf8a3f907abdbc2e",
				"wType": "FlexContainer"
			}
		},
		"customhamburger.flxFeedback": {
			"__events__": {},
			"__info__": {
				"kuid": "ad2da80eb56d4f509776464476f6f5be",
				"srcKUID": "c27fd3af5ffb45b38c720480ef414290",
				"wType": "FlexContainer"
			}
		},
		"customhamburger.flxFeedbackCollapse": {
			"__events__": {},
			"__info__": {
				"kuid": "jf90ce40ec0e4391a83d3b9d6edf19f4",
				"srcKUID": "f324fdf8d1134c45bd40d2c9858e0c43",
				"wType": "FlexContainer"
			}
		},
		"customhamburger.flxHamburgerHeader": {
			"__events__": {},
			"__info__": {
				"kuid": "b43a72b972e94c27a9f86edec9186cf5",
				"srcKUID": "h465700017fe4781975045dab9ed41c5",
				"wType": "FlexContainer"
			}
		},
		"customhamburger.flxHistory": {
			"__events__": {},
			"__info__": {
				"kuid": "f43a98a76bc0494caec638b761eb4f07",
				"srcKUID": "af822cb01fd549e09ae70f7a5caf134d",
				"wType": "FlexContainer"
			}
		},
		"customhamburger.flxLocateUs": {
			"__events__": {},
			"__info__": {
				"kuid": "c6df623ba7454ef7accd6baf55424922",
				"srcKUID": "g85f2c9a423e42a58e10e8686c1fba74",
				"wType": "FlexContainer"
			}
		},
		"customhamburger.flxLogout": {
			"__events__": {},
			"__info__": {
				"kuid": "c59b0a1f405043e3a192044b1dd0a2a4",
				"srcKUID": "c9904c20e8a5464285e846a22514783d",
				"wType": "FlexContainer"
			}
		},
		"customhamburger.flxMenu": {
			"__events__": {},
			"__info__": {
				"kuid": "i4f7e84175624da3847e6a0ed3ed62fe",
				"srcKUID": "i1c684442e854218bc2c08f78c55f971",
				"wType": "FlexContainer"
			}
		},
		"customhamburger.flxMenuWrapper": {
			"__events__": {},
			"__info__": {
				"kuid": "e35b335abfa54d18849cd2532a539b9b",
				"srcKUID": "ad010d1f868d49eea330fb84586cbd46",
				"wType": "FlexScrollContainer"
			}
		},
		"customhamburger.flxMessages": {
			"__events__": {},
			"__info__": {
				"kuid": "d9ac088d949e4ebfb9bf485365769339",
				"srcKUID": "a8c136feada044d8aae02c45642a3aef",
				"wType": "FlexContainer"
			}
		},
		"customhamburger.flxMyAccounts": {
			"__events__": {},
			"__info__": {
				"kuid": "bbe340a205164278bd2ca4fe27aed00d",
				"srcKUID": "f7379b95da4148de8bad2885b68ce3c6",
				"wType": "FlexContainer"
			}
		},
		"customhamburger.flxMyPayeeList": {
			"__events__": {},
			"__info__": {
				"kuid": "c0f064215fab417198e8fdac32b6525c",
				"srcKUID": "j0ff9253248645ff8612f1090fabea1b",
				"wType": "FlexContainer"
			}
		},
		"customhamburger.flxMyRecipients": {
			"__events__": {},
			"__info__": {
				"kuid": "h4c54f6655274c92a05e1aa8b038641f",
				"srcKUID": "gc5138a3b6ed40e5a8d376d8900322ac",
				"wType": "FlexContainer"
			}
		},
		"customhamburger.flxNewMessages": {
			"__events__": {},
			"__info__": {
				"kuid": "c158a9d8c13e45f8b7cba58ae5fa45b0",
				"srcKUID": "bfad3abb96b54f6687ec8d8ae08b8a89",
				"wType": "FlexContainer"
			}
		},
		"customhamburger.flxPFM": {
			"__events__": {},
			"__info__": {
				"kuid": "i3e31fb88a0c40ca9beee0aaf5dbe62c",
				"srcKUID": "bfc8636c05da4c4e9131d447fb520a97",
				"wType": "FlexContainer"
			}
		},
		"customhamburger.flxPayABill": {
			"__events__": {},
			"__info__": {
				"kuid": "cd292adb135c48109ec04a8aa1dd644d",
				"srcKUID": "cabc5ae19734442ca472692f76360a26",
				"wType": "FlexContainer"
			}
		},
		"customhamburger.flxPayAPerson": {
			"__events__": {},
			"__info__": {
				"kuid": "acbc374323204ee19ab16ac6d646b637",
				"srcKUID": "c3c34d9fdac2420fb3cf01ada4338616",
				"wType": "FlexContainer"
			}
		},
		"customhamburger.flxPayAPersonCollapse": {
			"__events__": {},
			"__info__": {
				"kuid": "hd5dd161c1934f11b9404799b0698d6a",
				"srcKUID": "f0eb0c0751d7408db1c234c07637bb8f",
				"wType": "FlexContainer"
			}
		},
		"customhamburger.flxPayAPersonSubMenu": {
			"__events__": {},
			"__info__": {
				"kuid": "b9df56bfe1f74476a177a134722cdc0a",
				"srcKUID": "aeb2426f276a4cdc8c73046302e57323",
				"wType": "FlexContainer"
			}
		},
		"customhamburger.flxPrivacyPolicy": {
			"__events__": {},
			"__info__": {
				"kuid": "a49fc7b888384a5f9f504983ef687060",
				"srcKUID": "e53f0d53bf524807b19900124ae5e5cc",
				"wType": "FlexContainer"
			}
		},
		"customhamburger.flxProfileManagement": {
			"__events__": {},
			"__info__": {
				"kuid": "c736a1f143ab412587578890521952b8",
				"srcKUID": "c4c99abbdc854639a275f0d1966f9d2a",
				"wType": "FlexContainer"
			}
		},
		"customhamburger.flxProfileManagementCollapse": {
			"__events__": {},
			"__info__": {
				"kuid": "eb10ef24db5b47ef894b8aa11af63ea4",
				"srcKUID": "e3074e95c1584c26b3c00839871a8ec1",
				"wType": "FlexContainer"
			}
		},
		"customhamburger.flxProfileManagementSubMenu": {
			"__events__": {},
			"__info__": {
				"kuid": "d30146d374d14d21a8c6ec4f24fd03d2",
				"srcKUID": "dedf5323b4f04d9bb0857acaba413ed2",
				"wType": "FlexContainer"
			}
		},
		"customhamburger.flxProfileSettings": {
			"__events__": {},
			"__info__": {
				"kuid": "ad81300a21584dc59b076b3bfb192cc8",
				"srcKUID": "c9e266a61e794666abaa382a1974bd50",
				"wType": "FlexContainer"
			}
		},
		"customhamburger.flxSecuritySettings": {
			"__events__": {},
			"__info__": {
				"kuid": "f2675c37ef7344688a4c069687200eb7",
				"srcKUID": "h35c8ab7f8114eb883dbe77eb239d5bc",
				"wType": "FlexContainer"
			}
		},
		"customhamburger.flxSendRequest": {
			"__events__": {},
			"__info__": {
				"kuid": "df2a35c0c0d5413d9a53db24d97d653d",
				"srcKUID": "d977218b05dc49ada933fde699153602",
				"wType": "FlexContainer"
			}
		},
		"customhamburger.flxSeperator10": {
			"__events__": {},
			"__info__": {
				"kuid": "d2c07027dba7486e80f039da570d3748",
				"srcKUID": "f9bfa4fca0dd4125be7663cbecdaaee0",
				"wType": "FlexContainer"
			}
		},
		"customhamburger.flxSeperator11": {
			"__events__": {},
			"__info__": {
				"kuid": "i1296b5ae7324116acb99ae429dc0cac",
				"srcKUID": "f0e6a5bf00e24b55a131b00e736ad0f1",
				"wType": "FlexContainer"
			}
		},
		"customhamburger.flxSeperator12": {
			"__events__": {},
			"__info__": {
				"kuid": "e32fb4a8fe4340a1b2e95f4705875f39",
				"srcKUID": "c0ad725976704507a8aa1b268bc97087",
				"wType": "FlexContainer"
			}
		},
		"customhamburger.flxSeperator13": {
			"__events__": {},
			"__info__": {
				"kuid": "b62cfcd6078741bf89042929b1f794a0",
				"srcKUID": "j636db10e4604851913f33aee409ae48",
				"wType": "FlexContainer"
			}
		},
		"customhamburger.flxSeperator14": {
			"__events__": {},
			"__info__": {
				"kuid": "h5b27b14ac4c4a308042dc02a71f87fb",
				"srcKUID": "f671f1951bbd44bcbaea3b445e3c6c3b",
				"wType": "FlexContainer"
			}
		},
		"customhamburger.flxSeperator15": {
			"__events__": {},
			"__info__": {
				"kuid": "f8f464dcf832447ca7d23ede509f58bc",
				"srcKUID": "j11be2166fc34b419da967d077f32299",
				"wType": "FlexContainer"
			}
		},
		"customhamburger.flxSeperator16": {
			"__events__": {},
			"__info__": {
				"kuid": "a49471e87a2848608706d38ac0b7db81",
				"srcKUID": "if0c694e156a4703b7545e789492c020",
				"wType": "FlexContainer"
			}
		},
		"customhamburger.flxSeperator17": {
			"__events__": {},
			"__info__": {
				"kuid": "c689f6ea9c67492fbd7b6284389f6974",
				"srcKUID": "b50f7b34350e4dec8af632653ab083c5",
				"wType": "FlexContainer"
			}
		},
		"customhamburger.flxSeperator18": {
			"__events__": {},
			"__info__": {
				"kuid": "gfc3506df7a04687b75d5843069e3bcb",
				"srcKUID": "dccbe42cfb7b4494b0ef8aa3c4f6be41",
				"wType": "FlexContainer"
			}
		},
		"customhamburger.flxSeperator2": {
			"__events__": {},
			"__info__": {
				"kuid": "b6d3c78343334c57a83a805c8d45c686",
				"srcKUID": "c80156f4b587452bb66f7eeceecaf50a",
				"wType": "FlexContainer"
			}
		},
		"customhamburger.flxSeperator3": {
			"__events__": {},
			"__info__": {
				"kuid": "d5b9e3aad49d43bea7372d3ec3324afe",
				"srcKUID": "b6518efe46a64f52901e8c3d65c11ce9",
				"wType": "FlexContainer"
			}
		},
		"customhamburger.flxSeperator4": {
			"__events__": {},
			"__info__": {
				"kuid": "c58fc9d5b29c4b59b84c937acd2fdfe7",
				"srcKUID": "cc2eee43aa8a45d08bf13a5e5718afcd",
				"wType": "FlexContainer"
			}
		},
		"customhamburger.flxSeperator5": {
			"__events__": {},
			"__info__": {
				"kuid": "df3beec77b8a47fc91715200e14d500e",
				"srcKUID": "c8c3ef97147f40f2865efb0cb670d50b",
				"wType": "FlexContainer"
			}
		},
		"customhamburger.flxSeperator6": {
			"__events__": {},
			"__info__": {
				"kuid": "b798976ecfc14f539c286861eb4e1e91",
				"srcKUID": "jdcc06ffd6c140b09d7a452d4412adef",
				"wType": "FlexContainer"
			}
		},
		"customhamburger.flxSeperator7": {
			"__events__": {},
			"__info__": {
				"kuid": "e64f90c9c0274d869df1357fcb2fafc6",
				"srcKUID": "ga22cbc58a634b6fb13935ed90d0aced",
				"wType": "FlexContainer"
			}
		},
		"customhamburger.flxSeperator8": {
			"__events__": {},
			"__info__": {
				"kuid": "gc362ef146934a478a47cd4bb8c32080",
				"srcKUID": "c7558fdf51bf47fe824b91a07cf6b714",
				"wType": "FlexContainer"
			}
		},
		"customhamburger.flxSeperator9": {
			"__events__": {},
			"__info__": {
				"kuid": "a8d9b83594af499f9448029bf7646a19",
				"srcKUID": "b122e6579708465082812c6e7068d7f6",
				"wType": "FlexContainer"
			}
		},
		"customhamburger.flxSeperatorAlerts": {
			"__events__": {},
			"__info__": {
				"kuid": "e1b0ec85153d42319ef4fb3cc727fc38",
				"srcKUID": "b2fe1d61dbc64712ad4e576fb2bd332f",
				"wType": "FlexContainer"
			}
		},
		"customhamburger.flxSeperatorFeedback": {
			"__events__": {},
			"__info__": {
				"kuid": "dff4c08968eb4ab6845d01774e2d2d5c",
				"srcKUID": "d4e625f6ba7b40efad8d6cb88ccf89d7",
				"wType": "FlexContainer"
			}
		},
		"customhamburger.flxSeperatorMessages": {
			"__events__": {},
			"__info__": {
				"kuid": "d9098aa6b0aa4ee3a0cea175c6ef8606",
				"srcKUID": "c5a23363d5df48049106898aa405a723",
				"wType": "FlexContainer"
			}
		},
		"customhamburger.flxSeperatorNewMessage": {
			"__events__": {},
			"__info__": {
				"kuid": "b18a0c4d580342dda35a5aa83d668254",
				"srcKUID": "c929fa4f76ed416185ce33e12111609d",
				"wType": "FlexContainer"
			}
		},
		"customhamburger.flxStopPaymentRequests": {
			"__events__": {},
			"__info__": {
				"kuid": "b232ebec8b594ebd90033d42349f0401",
				"srcKUID": "c6e0f2b6aa1948688094395a053fa1d8",
				"wType": "FlexContainer"
			}
		},
		"customhamburger.flxTerms": {
			"__events__": {},
			"__info__": {
				"kuid": "ae33ae0171d34b69954b329f1ca77b89",
				"srcKUID": "a3d4d9ba1e264ec2a3de4b87bc4d7aa3",
				"wType": "FlexContainer"
			}
		},
		"customhamburger.flxTransferHistory": {
			"__events__": {},
			"__info__": {
				"kuid": "j1a863c3e9aa4ed1aed3abb89345b697",
				"srcKUID": "ib9de73a2bf246eeb639fa215853db61",
				"wType": "FlexContainer"
			}
		},
		"customhamburger.flxTransfers": {
			"__events__": {},
			"__info__": {
				"kuid": "hd799fae30c146f8a6deb3087c851807",
				"srcKUID": "jc0266e969b0495d868043c84bcc2ab8",
				"wType": "FlexContainer"
			}
		},
		"customhamburger.flxTransfersMoney": {
			"__events__": {},
			"__info__": {
				"kuid": "c13c8ebd0ce54bf0b87b4a9a52f4ca58",
				"srcKUID": "jf6d2609ea48459e90552691ca5777fe",
				"wType": "FlexContainer"
			}
		},
		"customhamburger.flxTransfersSubMenu": {
			"__events__": {},
			"__info__": {
				"kuid": "c85e1e64a7d54d07bddee8965d6b04cb",
				"srcKUID": "fbf8ca4f00d34558966f6061a5087f14",
				"wType": "FlexContainer"
			}
		},
		"customhamburger.flxWireTransfer": {
			"__events__": {},
			"__info__": {
				"kuid": "e44ef5373e2e4e7f90a1d16a10a29ced",
				"srcKUID": "aae2b1dec0f44ac0ae2c1e3063ff7ba4",
				"wType": "FlexContainer"
			}
		},
		"customhamburger.flxWireTransferCollapse": {
			"__events__": {},
			"__info__": {
				"kuid": "f0bfb8df4964499faee973bfce9dca36",
				"srcKUID": "bfc055b1e7c542d1bfa1c23419d834be",
				"wType": "FlexContainer"
			}
		},
		"customhamburger.flxWireTransferHistory": {
			"__events__": {},
			"__info__": {
				"kuid": "cf488d365dc24f56835f5c14b7eaf8f7",
				"srcKUID": "dffd4d61c8a144d4be8f8449855f4c6a",
				"wType": "FlexContainer"
			}
		},
		"customhamburger.flxWireTransferMakeTransfer": {
			"__events__": {},
			"__info__": {
				"kuid": "h5dd239819f14574b26a5de7b41f8b2d",
				"srcKUID": "f7a63b1bb18644bdbb1f0a7d1c1fc108",
				"wType": "FlexContainer"
			}
		},
		"customhamburger.flxWireTransferMyRecipients": {
			"__events__": {},
			"__info__": {
				"kuid": "b0e1fb8a66d1466e9a4bc20ba2c30c77",
				"srcKUID": "ic7afce86593464b830c20b7eaaa7000",
				"wType": "FlexContainer"
			}
		},
		"customhamburger.flxWireTransferSubMenu": {
			"__events__": {},
			"__info__": {
				"kuid": "hedb7e278d3f4f2a8f36e8fcdbc6eae4",
				"srcKUID": "c1b6035a15254cd380f2d7f0bccc1a35",
				"wType": "FlexContainer"
			}
		},
		"customhamburger.flxWireTransfersAddRecipient": {
			"__events__": {},
			"__info__": {
				"kuid": "a46254034d5747868ae574a980646e24",
				"srcKUID": "d8d7ecb1da3b431b8a8f09ecfd49dfb4",
				"wType": "FlexContainer"
			}
		},
		"customhamburger.imgAboutUs": {
			"__events__": {},
			"__info__": {
				"kuid": "f29f1f736bc54329a1403acfbae80057",
				"srcKUID": "aedf72df6b6646e4b0541f118b852737",
				"wType": "Image"
			}
		},
		"customhamburger.imgAboutUsCollapse": {
			"__events__": {},
			"__info__": {
				"kuid": "b9a6d82f2250444ea4390763d4105303",
				"srcKUID": "j47f6cdfaec144f1bc183fc1ee131f6f",
				"wType": "Image"
			}
		},
		"customhamburger.imgAlertsAndMessages": {
			"__events__": {},
			"__info__": {
				"kuid": "c2237972e89341acad9262dfa4abf210",
				"srcKUID": "j15a94b7920346d4bc2ad8031f893737",
				"wType": "Image"
			}
		},
		"customhamburger.imgAlertsAndMessagesCollapse": {
			"__events__": {},
			"__info__": {
				"kuid": "ic863af0685f4af5a3db1dd0a33df3c6",
				"srcKUID": "aca93ef7e22940b2934c21108b51accd",
				"wType": "Image"
			}
		},
		"customhamburger.imgBillBay": {
			"__events__": {},
			"__info__": {
				"kuid": "cd8e25560c314c6bb473ca4b1469faf4",
				"srcKUID": "d9d417ef42e34752838998db97365d9f",
				"wType": "Image"
			}
		},
		"customhamburger.imgBillPayCollapse": {
			"__events__": {},
			"__info__": {
				"kuid": "cc695a285f81425dbc1763146121c64f",
				"srcKUID": "e2c091a5a06b4bd99605cb431850b92a",
				"wType": "Image"
			}
		},
		"customhamburger.imgClose": {
			"__events__": {},
			"__info__": {
				"kuid": "g7dc2435ea904b30a3a451e61a9d5015",
				"srcKUID": "b16e44ed01844172894d7476bf054a4e",
				"wType": "Image"
			}
		},
		"customhamburger.imgCollapseAccounts": {
			"__events__": {},
			"__info__": {
				"kuid": "f817e1442cbe4ff3a11f8034049afd34",
				"srcKUID": "cc9717fdf0ce469aa167f4b79dc1f439",
				"wType": "Image"
			}
		},
		"customhamburger.imgCollapseTransfers": {
			"__events__": {},
			"__info__": {
				"kuid": "e9b4a05528e742f2be985761047ee9b7",
				"srcKUID": "g8ac7330ba6a4fcc94c6de0c85163b0a",
				"wType": "Image"
			}
		},
		"customhamburger.imgFeedback": {
			"__events__": {},
			"__info__": {
				"kuid": "f1233830e31a4bbf97a2b88675c68e1a",
				"srcKUID": "d1117d36d9224b2da0a328285c8f3299",
				"wType": "Image"
			}
		},
		"customhamburger.imgFeedbackCollapse": {
			"__events__": {},
			"__info__": {
				"kuid": "e70ed425188c436f97a31c06f23f0e51",
				"srcKUID": "cd3721b729f04176bb97d05262ad2ea9",
				"wType": "Image"
			}
		},
		"customhamburger.imgKony": {
			"__events__": {},
			"__info__": {
				"kuid": "f5338b3341e442f79ef4e2b8e569ae54",
				"srcKUID": "e51c8a8198184739b48a18c3fbc65273",
				"wType": "Image"
			}
		},
		"customhamburger.imgLogout": {
			"__events__": {},
			"__info__": {
				"kuid": "a710a672e2214ae0ab53354121fe7b14",
				"srcKUID": "g8c77dbeed3b43038e912f34fbe614fd",
				"wType": "Image"
			}
		},
		"customhamburger.imgPayAPerson": {
			"__events__": {},
			"__info__": {
				"kuid": "j139acb7da2f4525921e53aacd56cd2e",
				"srcKUID": "c40e76c18b114f96a40918df9e984c72",
				"wType": "Image"
			}
		},
		"customhamburger.imgPayAPersonCollapse": {
			"__events__": {},
			"__info__": {
				"kuid": "jc1399d72cd7409c81a13b687195b466",
				"srcKUID": "d4487e371bca4c0ab4fed6a829640f23",
				"wType": "Image"
			}
		},
		"customhamburger.imgProfileManagement": {
			"__events__": {},
			"__info__": {
				"kuid": "f6466694d2864047b5459d7118200585",
				"srcKUID": "c256c4de888b46eda952c16c301a26e6",
				"wType": "Image"
			}
		},
		"customhamburger.imgProfileManagementCollapse": {
			"__events__": {},
			"__info__": {
				"kuid": "h8c4fd9d78114b00aa6d24af3d9911c8",
				"srcKUID": "cc11b10b955f4de8ac2e1f5349683cdc",
				"wType": "Image"
			}
		},
		"customhamburger.imgTransfers": {
			"__events__": {},
			"__info__": {
				"kuid": "b76cbcb0aa4a4d5d84590688e25c7ebf",
				"srcKUID": "f226bd307bf34f2a8645072816db1907",
				"wType": "Image"
			}
		},
		"customhamburger.imgWireTransfer": {
			"__events__": {},
			"__info__": {
				"kuid": "hbf781e298684bb387f19f93ff9cc023",
				"srcKUID": "d1eaae0c6e784ef3b1eace4495b3f8f7",
				"wType": "Image"
			}
		},
		"customhamburger.imgWireTransferCollapse": {
			"__events__": {},
			"__info__": {
				"kuid": "i3d31292f419474886a55f978b9548cb",
				"srcKUID": "j64b6a202cfa4080a0cb2b9e0c591e00",
				"wType": "Image"
			}
		},
		"customhamburger.lbfonticonlLogout": {
			"__events__": {},
			"__info__": {
				"kuid": "g119f29658104702b71a08cac9d39209",
				"srcKUID": "cbdcdc5074da426f9d8d67372468d417",
				"wType": "Label"
			}
		},
		"customhamburger.lblAboutUs": {
			"__events__": {},
			"__info__": {
				"kuid": "b91baba7b7fd44839b70a6f559dc2df2",
				"srcKUID": "i493eec7d326462f92313816d7ae5961",
				"wType": "Label"
			}
		},
		"customhamburger.lblAccounts": {
			"__events__": {},
			"__info__": {
				"kuid": "g5680d39712e4122a00423938de7a231",
				"srcKUID": "aed697189cee47098907b5f830c7134b",
				"wType": "Label"
			}
		},
		"customhamburger.lblAddExternalBankAccounts": {
			"__events__": {},
			"__info__": {
				"kuid": "haf8f5e501be4f828fdb81d54af3d58b",
				"srcKUID": "edabb77d8ed2442ab7ed61fb91558f23",
				"wType": "Label"
			}
		},
		"customhamburger.lblAddKonyAccounts": {
			"__events__": {},
			"__info__": {
				"kuid": "b0197c352b2e4d66a448e012b12ade29",
				"srcKUID": "ff5d216a556e426ea0485d1305d1cdfc",
				"wType": "Label"
			}
		},
		"customhamburger.lblAddNonKonyAccounts": {
			"__events__": {},
			"__info__": {
				"kuid": "e064577aeac74c2191c6d70c7da9a6ec",
				"srcKUID": "c0b0a03608614e5f893ef37dabfa17a8",
				"wType": "Label"
			}
		},
		"customhamburger.lblAddPayee": {
			"__events__": {},
			"__info__": {
				"kuid": "cada6d29f137471187573f9823a2e988",
				"srcKUID": "b1ed43109a994044957b192e976111d5",
				"wType": "Label"
			}
		},
		"customhamburger.lblAlerts": {
			"__events__": {},
			"__info__": {
				"kuid": "cb20ea52cb2b4286a4bff688db03bffe",
				"srcKUID": "jdf83704ef2b4947a774852f4c514bb6",
				"wType": "Label"
			}
		},
		"customhamburger.lblAlertsAndMessages": {
			"__events__": {},
			"__info__": {
				"kuid": "j082ac3e42374ef09ef63b9f558ec459",
				"srcKUID": "c8bfe7de3cb1469aaef6d3ffee8c215e",
				"wType": "Label"
			}
		},
		"customhamburger.lblBillPay": {
			"__events__": {},
			"__info__": {
				"kuid": "b9d10e97e71a484ab670566079b1871e",
				"srcKUID": "e219504191c84becaee171477e34698a",
				"wType": "Label"
			}
		},
		"customhamburger.lblBillPayHistory": {
			"__events__": {},
			"__info__": {
				"kuid": "h7411b5521e14c6a92b201ff99a6ad1a",
				"srcKUID": "ce6923a7ee8b477bab3d1bfa0979246d",
				"wType": "Label"
			}
		},
		"customhamburger.lblCardManagement": {
			"__events__": {},
			"__info__": {
				"kuid": "e82d129959194fc58af649ab6567cf60",
				"srcKUID": "b0c732201f424826b31b883b5eec6956",
				"wType": "Label"
			}
		},
		"customhamburger.lblContactUs": {
			"__events__": {},
			"__info__": {
				"kuid": "f75abf1b46fd472692786afc212451d5",
				"srcKUID": "efd35344776642a49ef6e3aae807a692",
				"wType": "Label"
			}
		},
		"customhamburger.lblExternalAccounts": {
			"__events__": {},
			"__info__": {
				"kuid": "d7e2e14e9a314250905b395939893857",
				"srcKUID": "abc7e43bdfb142efb0d94a00a797f211",
				"wType": "Label"
			}
		},
		"customhamburger.lblFaq": {
			"__events__": {},
			"__info__": {
				"kuid": "d1109fc98ac045e28b4ed503e9d9b0c5",
				"srcKUID": "d8ba96ef5a2e4bf8be5c973713049dc0",
				"wType": "Label"
			}
		},
		"customhamburger.lblFeedback": {
			"__events__": {},
			"__info__": {
				"kuid": "f6f1ac156814459a96d58bc007cfe9e1",
				"srcKUID": "e6e5182ca0e14fed930fee7f4a16b05a",
				"wType": "Label"
			}
		},
		"customhamburger.lblImgAccounts": {
			"__events__": {},
			"__info__": {
				"kuid": "ebf7bb1877c643c29d9bd8f1a80779de",
				"srcKUID": "j1310b4359bd4b55a330313f954c89f4",
				"wType": "Label"
			}
		},
		"customhamburger.lblLocateUs": {
			"__events__": {},
			"__info__": {
				"kuid": "a9b6162c26d249e5a68a438e5f5c66f2",
				"srcKUID": "g3b7ff8590d0445197ae60ef7a93a17d",
				"wType": "Label"
			}
		},
		"customhamburger.lblLogout": {
			"__events__": {},
			"__info__": {
				"kuid": "d4f1066f3dec429e8a58aa7a3c444b97",
				"srcKUID": "h4feb1ebd1d844adbbb270e5f22582cd",
				"wType": "Label"
			}
		},
		"customhamburger.lblMessages": {
			"__events__": {},
			"__info__": {
				"kuid": "cc2adc7ec76545d9a6e29786513d95df",
				"srcKUID": "bc3a860393a642769c9453d52202a501",
				"wType": "Label"
			}
		},
		"customhamburger.lblMyAccounts": {
			"__events__": {},
			"__info__": {
				"kuid": "f0f79952d83f4ba19a003e0d3225c698",
				"srcKUID": "a202b406f5f04a1698b17c9f0f9e1694",
				"wType": "Label"
			}
		},
		"customhamburger.lblMyPayee": {
			"__events__": {},
			"__info__": {
				"kuid": "f3a9ba6829a94924a13bf1af0948b004",
				"srcKUID": "gac82f09141642e3bc00bf3a4c27e7a0",
				"wType": "Label"
			}
		},
		"customhamburger.lblNewMessage": {
			"__events__": {},
			"__info__": {
				"kuid": "cae215304bf34eacb6ff2539908910c3",
				"srcKUID": "d62536e6a959458a97d070c4fbc8bbcb",
				"wType": "Label"
			}
		},
		"customhamburger.lblPFM": {
			"__events__": {},
			"__info__": {
				"kuid": "af8355e68be44bc0a6f41dfaafddf3c9",
				"srcKUID": "e09127ede361436abb545b5527fba0e0",
				"wType": "Label"
			}
		},
		"customhamburger.lblPayABill": {
			"__events__": {},
			"__info__": {
				"kuid": "f30fdd8e93d845bcbfdced75d09d6c7e",
				"srcKUID": "dc6b9bef9ddf45c0864525e01b4b08d8",
				"wType": "Label"
			}
		},
		"customhamburger.lblPrivacyPolicy": {
			"__events__": {},
			"__info__": {
				"kuid": "fee18112b3ef43a5b99455f8cc5f7b86",
				"srcKUID": "ba595802100f49ed8ebfbfc56c559f36",
				"wType": "Label"
			}
		},
		"customhamburger.lblStopPaymentRequests": {
			"__events__": {},
			"__info__": {
				"kuid": "d7980560f2ca4fcdb21051a7e7dad899",
				"srcKUID": "a87770408c7e42698c673972b990dd6d",
				"wType": "Label"
			}
		},
		"customhamburger.lblTermsAndCondition": {
			"__events__": {},
			"__info__": {
				"kuid": "ed28794656cd4bb8aeb3227fd1fe38b9",
				"srcKUID": "dc7b8618b5ed4cf3ba5a013618d07063",
				"wType": "Label"
			}
		},
		"customhamburger.lblTransferHistory": {
			"__events__": {},
			"__info__": {
				"kuid": "c5af1539579b4f4fb7eaa50deb3df042",
				"srcKUID": "d62b43e095964b29b436135534a7afec",
				"wType": "Label"
			}
		},
		"customhamburger.lblTransferMoney": {
			"__events__": {},
			"__info__": {
				"kuid": "hd7c153ce37c41988ee5925f75b7c333",
				"srcKUID": "b61740e755f3405791224a340675e733",
				"wType": "Label"
			}
		},
		"customhamburger.lblTransfers": {
			"__events__": {},
			"__info__": {
				"kuid": "h42920129b014e8fac583e3611389b0c",
				"srcKUID": "d4c40832e9a140ab8fafbb30d4d1df1d",
				"wType": "Label"
			}
		},
		"customheader": {
			"__events__": {},
			"__info__": {
				"isRoot": true,
				"kuid": "j6ae4595928f47e4be8edc7e123f52a3",
				"srcKUID": "c04bbf50611342ca895c5e0a329aeb52",
				"wType": "FlexContainer"
			},
			"autogrowMode": {
				"Default": 0
			},
			"height": {},
			"responsiveData": {
				"b3": {
					"height": {
						"type": "string",
						"value": "50px"
					},
					"isVisible": true,
					"left": {
						"type": "string",
						"value": "0dp"
					},
					"top": {
						"type": "string",
						"value": "0dp"
					}
				},
				"b2": {
					"minWidth": {
						"type": "string",
						"value": ""
					},
					"top": {
						"type": "string",
						"value": "0dp"
					},
					"width": {
						"type": "string",
						"value": "100%"
					}
				},
				"b1": {
					"top": {
						"type": "string",
						"value": "0dp"
					}
				}
			},
			"left": {},
			"minWidth": {},
			"top": {},
			"width": {},
			"zIndex": {
				"Default": 1000
			}
		},
		"flxAccountTypesSegment": {
			"__events__": {},
			"__info__": {
				"kuid": "af4d8215c59444479bc18fc50c0883bc",
				"srcKUID": "d431114047984f3ba84cf9829500caf5",
				"wType": "FlexContainer"
			}
		},
		"flxBottomBlue": {
			"__events__": {},
			"__info__": {
				"kuid": "e239b564a8cc4b75be7b92be45bc0e14",
				"srcKUID": "a3c7c667e8bb4a0da597ebde4b02694b",
				"wType": "FlexContainer"
			}
		},
		"flxBottomContainer": {
			"__events__": {},
			"__info__": {
				"kuid": "de3c5d96ee784495be91decff6e291a1",
				"srcKUID": "h9bdf039c3f54878b18ff66171c8c6c6",
				"wType": "FlexContainer"
			},
			"autogrowMode": {
				"Default": 0
			},
			"height": {},
			"responsiveData": {
				"b3": {
					"height": {
						"type": "string",
						"value": "50dp"
					}
				}
			}
		},
		"flxHamburger": {
			"__events__": {},
			"__info__": {
				"kuid": "d584a7a351d4496fa9c86051974fcf35",
				"srcKUID": "f04c6e11e7da43b49dd181b8b47d93c4",
				"wType": "FlexContainer"
			},
			"left": {
				"Default": {
					"type": "string",
					"value": "-35%"
				}
			},
			"responsiveData": {
				"b3": {}
			},
			"width": {
				"Default": {
					"type": "string",
					"value": "35%"
				}
			},
			"zIndex": {
				"Default": 900
			}
		},
		"flxHamburgerBack": {
			"__events__": {},
			"__info__": {
				"kuid": "cb360073f844419b8872953668219d33",
				"srcKUID": "d74ea43244984beda96f3fdfd7e1de6b",
				"wType": "FlexContainer"
			}
		},
		"flxSeperatorHor2": {
			"__events__": {},
			"__info__": {
				"kuid": "b1a6ddede030459a98d8d465db8258f4",
				"srcKUID": "hadeefb9ccf84d75b58e19e7a860af8f",
				"wType": "FlexContainer"
			},
			"responsiveData": {
				"b3": {
					"top": {
						"type": "string",
						"value": "50dp"
					}
				}
			},
			"top": {}
		},
		"flxTopmenu": {
			"__events__": {},
			"__info__": {
				"kuid": "eb566b6368584bcaa8e4ca69fe9df781",
				"srcKUID": "ed60ec01cd4843d8acaf4c0c4767b493",
				"wType": "FlexContainer"
			},
			"responsiveData": {
				"b3": {
					"isVisible": true,
					"top": {
						"type": "string",
						"value": "0dp"
					},
					"width": {
						"type": "string",
						"value": "100%"
					}
				},
				"b2": {
					"width": {
						"type": "string",
						"value": "100%"
					}
				},
				"b1": {
					"width": {
						"type": "string",
						"value": "100%"
					}
				}
			},
			"top": {},
			"width": {}
		},
		"flxUserActions": {
			"__events__": {},
			"__info__": {
				"kuid": "ff348ae0801441828869597a386c5307",
				"srcKUID": "j914824243a446a18dc539def72a7642",
				"wType": "FlexContainer"
			},
			"responsiveData": {
				"b2": {
					"isVisible": false
				},
				"b3": {
					"isVisible": false
				},
				"b4": {
					"isVisible": false
				}
			},
			"isVisible": false
		},
		"headermenu": {
			"__events__": {},
			"__info__": {
				"kuid": "id13b47e472e4d93a2a8281637433d4c",
				"srcKUID": "haabafcdc12f4455b3af44d1e0d8f80b",
				"wType": "UserWidgetInstance"
			},
			"responsiveData": {
				"b3": {
					"isVisible": false
				},
				"b2": {
					"right": {
						"type": "string",
						"value": "24dp"
					},
					"width": {
						"type": "string",
						"value": "100%"
					}
				},
				"b1": {
					"right": {
						"type": "string",
						"value": "6%"
					}
				}
			},
			"right": {},
			"width": {}
		},
		"headermenu.btnLogout": {
			"__events__": {},
			"__info__": {
				"kuid": "dd6595ad95f0465e93cd441d284f316c",
				"srcKUID": "a766f3cd9f714697b54e4cdcbe1c544b",
				"wType": "Button"
			}
		},
		"headermenu.flxMessages": {
			"__events__": {},
			"__info__": {
				"kuid": "fee7b75cdde5477c96d1394ad716886d",
				"srcKUID": "ac3447a671db4ff79c563e385d237583",
				"wType": "FlexContainer"
			},
			"responsiveData": {
				"b2": {
					"right": {
						"type": "string",
						"value": "145dp"
					}
				},
				"b1": {
					"right": {
						"type": "string",
						"value": "145dp"
					}
				}
			},
			"right": {}
		},
		"headermenu.flxResetUserImg": {
			"__events__": {},
			"__info__": {
				"kuid": "j882d135793441829c1015e4ce59c2e3",
				"srcKUID": "adcf593a077c4c0cb56c90ee73238583",
				"wType": "FlexContainer"
			},
			"responsiveData": {},
			"right": {}
		},
		"headermenu.flxUserId": {
			"__events__": {},
			"__info__": {
				"kuid": "c9c5b1f2b8cb429c96dcea6e8dc009c7",
				"srcKUID": "c135ea56ffd24834a20c4f3af08e75ed",
				"wType": "FlexContainer"
			},
			"responsiveData": {},
			"right": {}
		},
		"headermenu.flxVerticalSeperator1": {
			"__events__": {},
			"__info__": {
				"kuid": "f7bb508ef97f4c5e80e75975a0cb1f11",
				"srcKUID": "g1cf2c5ea04748138b67069bf6443784",
				"wType": "FlexContainer"
			}
		},
		"headermenu.flxVerticalSeperator2": {
			"__events__": {},
			"__info__": {
				"kuid": "bebb4a6fdeaa4c18b9b637a250fa7591",
				"srcKUID": "i869d64f25f744c7a219ce87160f4fa9",
				"wType": "FlexContainer"
			}
		},
		"headermenu.flxWarning": {
			"__events__": {},
			"__info__": {
				"kuid": "h2947a58361d4d1ebf3bab4f29e609aa",
				"srcKUID": "a3f637c9fa154e6ca5621edf7af7f744",
				"wType": "FlexContainer"
			}
		},
		"headermenu.flximgUserResetWrapper": {
			"__events__": {},
			"__info__": {
				"kuid": "fbd747b782bc4d58be4710e5e4cfbdac",
				"srcKUID": "e3916b40967c456aa3942940472ad47e",
				"wType": "FlexContainer"
			}
		},
		"headermenu.imgDropdown": {
			"__events__": {},
			"__info__": {
				"kuid": "fe56a1d67b504d4f940c1475eade704d",
				"srcKUID": "h3d2b4b7f954464d931e34492064ab17",
				"wType": "Image"
			}
		},
		"headermenu.imgLogout": {
			"__events__": {},
			"__info__": {
				"kuid": "f817c52c32a84764b2542aefd7eec6ce",
				"srcKUID": "ea749115721c4958af968ab52ef8529f",
				"wType": "Image"
			},
			"responsiveData": {
				"b2": {
					"right": {
						"type": "string",
						"value": "0dp"
					}
				}
			},
			"right": {}
		},
		"headermenu.imgNotifications": {
			"__events__": {},
			"__info__": {
				"kuid": "d58ad7fc903a4b799bab6ff6eaf1c1f6",
				"srcKUID": "j053dc709b2c497681932e7129f70ddb",
				"wType": "Image"
			}
		},
		"headermenu.imgUserBoundary": {
			"__events__": {},
			"__info__": {
				"kuid": "d5fb9a2b94a94e78a0f40d9e81ac532c",
				"srcKUID": "g6047dd874ff440fab7ed86f7b808fdd",
				"wType": "Image"
			}
		},
		"headermenu.imgUserReset": {
			"__events__": {},
			"__info__": {
				"kuid": "beebd022885345439e070657da2e62ad",
				"srcKUID": "i9a593cdf8934086b62dd5b4b4d93eda",
				"wType": "Image"
			}
		},
		"headermenu.imgWarning": {
			"__events__": {},
			"__info__": {
				"kuid": "a43d521a802a4da697d6373729e77bb8",
				"srcKUID": "j00ce4f7525e4f2aa69884ac2cc7b8a0",
				"wType": "Image"
			}
		},
		"headermenu.imgheaderdefault": {
			"__events__": {},
			"__info__": {
				"kuid": "d92ad1960973411aa794fd7778c3d2cf",
				"srcKUID": "i589d54c00ef4b33bc0e54ccd9b1e9b9",
				"wType": "Image"
			}
		},
		"headermenu.lblNewMessages": {
			"__events__": {},
			"__info__": {
				"kuid": "d370c0914a634b88a28ec1996a681a68",
				"srcKUID": "bc2f4a9f76164bc18e8e1663bbba3a61",
				"wType": "Label"
			}
		},
		"headermenu.rtxWarning": {
			"__events__": {},
			"__info__": {
				"kuid": "e0fe758ebe9c4144872fedb4bc4dcf34",
				"srcKUID": "i05c5f9533194937886bb0d238f640e3",
				"wType": "RichText"
			}
		},
		"imgKony": {
			"__events__": {},
			"__info__": {
				"kuid": "ha042c7835e94ac793905c9c2898b630",
				"srcKUID": "i89a4c93ab68416c8f6a24b3e85d037c",
				"wType": "Image"
			},
			"left": {},
			"responsiveData": {
				"b3": {
					"isVisible": false
				},
				"b2": {
					"left": {
						"type": "string",
						"value": "24dp"
					},
					"top": {
						"type": "string",
						"value": "18px"
					}
				}
			},
			"top": {}
		},
		"imgToolTip": {
			"__events__": {},
			"__info__": {
				"kuid": "h897b9f1160843f3a8423ee90e22c33f",
				"srcKUID": "b05c4200ee7747f2b596bc0eafc18760",
				"wType": "Image"
			}
		},
		"lblHeaderMobile": {
			"__events__": {},
			"__info__": {
				"kuid": "jc11c905662e4c33a90e3764fff5dc20",
				"srcKUID": "f601c2dac7d4490fb32b2040ad16ca87",
				"wType": "Label"
			},
			"height": {},
			"responsiveData": {
				"b3": {
					"text": "Acknowledgement"
				}
			},
			"text": "Ac",
			"width": {},
			"isVisible": true
		},
		"lblHeaderMobileView": {
			"__events__": {},
			"__info__": {
				"kuid": "a53bce4bd05642e7b83398644394ac52",
				"srcKUID": "e845559aef0c4fb9b6a4354975cce47c",
				"wType": "Label"
			}
		},
		"lblName": {
			"__events__": {},
			"__info__": {
				"kuid": "cc0979da46d94c38911ad8c4a822c99e",
				"srcKUID": "e4ac7c6df45f47999b2250e0bcb58bcb",
				"wType": "Label"
			}
		},
		"lblUserEmail": {
			"__events__": {},
			"__info__": {
				"kuid": "a30ecb51980745c98b8e31bc370cb8f9",
				"srcKUID": "cd423535a51f4a4bb95d5056c43f5d13",
				"wType": "RichText"
			}
		},
		"lblUserEmail1": {
			"__events__": {},
			"__info__": {
				"kuid": "cc45761a422a41ab8ff8a2b9a9062f6a",
				"srcKUID": "j0ea4a96f1104289ad3d0312ed141d3b",
				"wType": "Label"
			}
		},
		"segUserActions": {
			"__events__": {},
			"__info__": {
				"kuid": "b78b4ab5aaf14da7bf23644a94f53251",
				"srcKUID": "h6bf423223694ef0be1f75d0abee1c0a",
				"wType": "Segment"
			},
			"isVisible": true
		},
		"topmenu": {
			"__events__": {},
			"__info__": {
				"kuid": "bea204450af845c5bbff442953e686ce",
				"srcKUID": "f3bc1d211a8342419317a1f649e456a0",
				"wType": "UserWidgetInstance"
			},
			"responsiveData": {
				"b3": {
					"isVisible": true
				},
				"b2": {
					"width": {
						"type": "string",
						"value": "100%"
					}
				}
			},
			"width": {}
		},
		"topmenu.CopyLabel0a8b12f7002084d": {
			"__events__": {},
			"__info__": {
				"kuid": "ad85e34d35c94213b235165aa1a05ef7",
				"srcKUID": "c6970a565fc545a99c0e118b2e0fd447",
				"wType": "Label"
			}
		},
		"topmenu.CopyLabel0bb648d916e554d": {
			"__events__": {},
			"__info__": {
				"kuid": "j37505561261439985eaa9e91eefac53",
				"srcKUID": "jff9fe4733df441da45df3e9e7077c16",
				"wType": "Label"
			}
		},
		"topmenu.CopyLabel0h9e71b8a76ad44": {
			"__events__": {},
			"__info__": {
				"kuid": "i53896e4bb8f4f13aad077c26832273e",
				"srcKUID": "db7ed17156b3455982f6d5e9ec649426",
				"wType": "Label"
			}
		},
		"topmenu.Label0dcf00103bdba46": {
			"__events__": {},
			"__info__": {
				"kuid": "b6112bf8ec7e4f6695467d40b981cdf5",
				"srcKUID": "f93434834b0144ffb8f03bbbe1edf740",
				"wType": "Label"
			}
		},
		"topmenu.flxContextualMenu": {
			"__events__": {},
			"__info__": {
				"kuid": "b9b2ca8c486342f6ac879f33ab3dd0d2",
				"srcKUID": "iaedc8bb3b254e219e0ec496d08636d8",
				"wType": "FlexContainer"
			},
			"responsiveData": {
				"b3": {}
			},
			"isVisible": false
		},
		"topmenu.flxFeedback": {
			"__events__": {},
			"__info__": {
				"kuid": "c80d96499fd442949fbcccb4d14bb15b",
				"srcKUID": "cd10d4b4f565433fb35f2d2d0a97fe1e",
				"wType": "FlexContainer"
			},
			"responsiveData": {
				"b3": {
					"isVisible": false
				},
				"b2": {
					"right": {
						"type": "string",
						"value": "75dp"
					},
					"width": {
						"type": "string",
						"value": "16%"
					}
				}
			},
			"right": {},
			"width": {}
		},
		"topmenu.flxFeedbackimg": {
			"__events__": {},
			"__info__": {
				"kuid": "g7971af136a84c84adac4d7c155f7fcc",
				"srcKUID": "g11b5488a8d343ae866e1de13660acda",
				"wType": "FlexContainer"
			},
			"responsiveData": {
				"b2": {
					"right": {
						"type": "string",
						"value": "5%"
					},
					"width": {
						"type": "string",
						"value": "85%"
					}
				},
				"b1": {
					"right": {
						"type": "string",
						"value": "10dp"
					},
					"width": {
						"type": "string",
						"value": "80%"
					}
				}
			},
			"right": {},
			"width": {}
		},
		"topmenu.flxHelp": {
			"__events__": {},
			"__info__": {
				"kuid": "af19e7358ab24a3f8bfc1c8ac8fda95e",
				"srcKUID": "i2d06c634cdc4172ba80e744bcdcfebb",
				"wType": "FlexContainer"
			},
			"responsiveData": {
				"b3": {
					"isVisible": false
				},
				"b2": {
					"right": {
						"type": "string",
						"value": "2.50%"
					},
					"width": {
						"type": "string",
						"value": "60dp"
					}
				},
				"b1": {
					"right": {
						"type": "string",
						"value": "6%"
					},
					"width": {
						"type": "string",
						"value": "55dp"
					}
				}
			},
			"right": {
				"Default": {
					"type": "string",
					"value": "5%"
				}
			},
			"width": {
				"Default": {
					"type": "string",
					"value": "70dp"
				}
			}
		},
		"topmenu.flxMenu": {
			"__events__": {},
			"__info__": {
				"kuid": "ea1ce6dc97454195bc266fba3def0208",
				"srcKUID": "e3be9a8fdce047e6bfc57c6134e9a975",
				"wType": "FlexContainer"
			},
			"left": {},
			"responsiveData": {
				"b3": {
					"isVisible": true,
					"left": {
						"type": "string",
						"value": "10dp"
					},
					"top": {
						"type": "string",
						"value": "0dp"
					}
				},
				"b2": {
					"left": {
						"type": "string",
						"value": "20dp"
					}
				},
				"b1": {
					"left": {
						"type": "string",
						"value": "78dp"
					}
				}
			},
			"top": {}
		},
		"topmenu.flxMenusMain": {
			"__events__": {},
			"__info__": {
				"kuid": "ce044c7ffba448a298245e918ec8b085",
				"srcKUID": "da5555fd4c164726bf9860ec53363048",
				"wType": "FlexContainer"
			},
			"autogrowMode": {
				"Default": 0
			},
			"height": {
				"Default": {
					"type": "string",
					"value": "51dp"
				}
			},
			"responsiveData": {
				"b3": {
					"isVisible": true,
					"top": {
						"type": "string",
						"value": "0dp"
					}
				}
			},
			"top": {}
		},
		"topmenu.flxPayBills": {
			"__events__": {},
			"__info__": {
				"kuid": "ce0f3c54beb04101a52526bf3b9a4c4a",
				"srcKUID": "ea97a9ae24004e468bb62c6e11cff833",
				"wType": "FlexContainer"
			}
		},
		"topmenu.flxSendMoney": {
			"__events__": {},
			"__info__": {
				"kuid": "daf76e0bc18a450fb9a47b1b319d762e",
				"srcKUID": "h1bb64a044404681858216ea0afef3cf",
				"wType": "FlexContainer"
			}
		},
		"topmenu.flxSeperator1": {
			"__events__": {},
			"__info__": {
				"kuid": "c3e88cde9a744b84a4a3efc2aa3ddaba",
				"srcKUID": "i09ec806e136452589e84e2f83e53e68",
				"wType": "FlexContainer"
			},
			"responsiveData": {
				"b3": {
					"isVisible": false
				}
			}
		},
		"topmenu.flxTransferMoney": {
			"__events__": {},
			"__info__": {
				"kuid": "j4d614e468af4045896887ab9fb1ac65",
				"srcKUID": "j0b6f93293e948bbaad52b4f16db8bea",
				"wType": "FlexContainer"
			}
		},
		"topmenu.flxTransfersAndPay": {
			"__events__": {},
			"__info__": {
				"kuid": "b17b55df267a4f988b3d9354595e8bf9",
				"srcKUID": "j83fe7fb58c04ec394a0d8313351f539",
				"wType": "FlexContainer"
			},
			"responsiveData": {
				"b3": {
					"isVisible": false
				}
			}
		},
		"topmenu.flxWireMoney": {
			"__events__": {},
			"__info__": {
				"kuid": "i028d96894bb471fb828b437316abb90",
				"srcKUID": "ed2961fbd05f4e8eb5ae5d530848a7da",
				"wType": "FlexContainer"
			}
		},
		"topmenu.flxaccounts": {
			"__events__": {},
			"__info__": {
				"kuid": "d0e0ec5c8a0840ce8592ca45afac99e8",
				"srcKUID": "b6366fc9b5854ca5aecefb68e89386e7",
				"wType": "FlexContainer"
			},
			"responsiveData": {
				"b3": {
					"isVisible": false
				}
			}
		},
		"topmenu.flxverseperator2": {
			"__events__": {},
			"__info__": {
				"kuid": "d771cfff99724a069f53e00de23b5e34",
				"srcKUID": "f9719a0b9d3f42b690d0b92a4477ec5d",
				"wType": "FlexContainer"
			}
		},
		"topmenu.imgLblTransfers": {
			"__events__": {},
			"__info__": {
				"kuid": "i4c4438bdba842579d91864b599394c8",
				"srcKUID": "i6ce4bbe9a904933bf2c217077d91a6f",
				"wType": "Label"
			}
		},
		"topmenu.imgMenu": {
			"__events__": {},
			"__info__": {
				"kuid": "d5cbfd549f0e489388db4713641f7b47",
				"srcKUID": "be1e045b3a3347d88509b7efc7d8015b",
				"wType": "Image"
			},
			"responsiveData": {
				"b3": {
					"width": {
						"type": "string",
						"value": "25dp"
					}
				}
			},
			"width": {}
		},
		"topmenu.lblAccounts": {
			"__events__": {},
			"__info__": {
				"kuid": "fd77b362ff5a4b4193c17033fe4a8e4e",
				"srcKUID": "bcf724a120b24fdbb2278444060c639c",
				"wType": "Label"
			}
		},
		"topmenu.lblFeedback": {
			"__events__": {},
			"__info__": {
				"kuid": "j56c3b1fb27d4278bfe2ff793f9622de",
				"srcKUID": "i45ffb2e674e425ba9e5542807008a2e",
				"wType": "Label"
			},
			"responsiveData": {}
		},
		"topmenu.lblHelp": {
			"__events__": {},
			"__info__": {
				"kuid": "g4070ccd3583400ba917cdacdd64ff8d",
				"srcKUID": "b910c72e31ac4950b9d4fcca565a1df4",
				"wType": "Label"
			},
			"centerX": {
				"Default": {
					"type": "string",
					"value": "50%"
				}
			},
			"centerY": {},
			"responsiveData": {
				"b2": {
					"centerX": {
						"type": "string",
						"value": ""
					},
					"right": {
						"type": "string",
						"value": "0dp"
					}
				},
				"b1": {
					"centerX": {
						"type": "string",
						"value": ""
					},
					"right": {
						"type": "string",
						"value": "0dp"
					}
				}
			},
			"right": {
				"Default": {
					"type": "string",
					"value": ""
				}
			},
			"width": {}
		},
		"topmenu.lblTransferAndPay": {
			"__events__": {},
			"__info__": {
				"kuid": "d8fd57b5b38c41088d2cfa82ed1614d3",
				"srcKUID": "gf970d4c8185498db726665e80e4fff7",
				"wType": "Label"
			}
		}
	},
	"id": "customheader",
	"info": null,
	"isdatareferenced": false,
	"isvisible": true,
	"kuid": "j6ae4595928f47e4be8edc7e123f52a3",
	"layouttype": 2,
	"masterType": 0,
	"name": "kony.ui.UserWidgetInstance",
	"parent": "flxMain",
	"pf": "frmAcknowledgement",
	"snaptogrid": true,
	"sourceUserWidget": "c04bbf50611342ca895c5e0a329aeb52",
	"vizprops": {
		"hidewidgethierarchy": false
	},
	"wType": "UserWidgetInstance",
	"zindex": 1000
}