{
    "@class": "com.kony.gen.viz.model.component.KVizImage2",
    "DNDConfig": null,
    "__parentReadjusting__": false,
    "_base64_": null,
    "_height_": {
        "type": "string",
        "value": "25dp"
    },
    "_margin_": [
        0,
        0,
        0,
        0
    ],
    "_padding_": [
        0,
        0,
        0,
        0
    ],
    "_right_": {
        "type": "string",
        "value": "0%"
    },
    "_skin_": "s78a5f26c9f14cec9ebed1bb46098f80",
    "_src_": "download_blue.png",
    "_width_": {
        "type": "string",
        "value": "18dp"
    },
    "accessibilityconfig": {
        "a11yLabel": "Download"
    },
    "canUpdateUI": true,
    "centerx": {
        "type": "string",
        "value": "50%"
    },
    "centery": {
        "type": "string",
        "value": "50%"
    },
    "containerweight": 100,
    "context": {
        "channel": "desktop",
        "formID": "frmAcknowledgement",
        "platform": "desktopweb",
        "templateType": "forms",
        "topLevelBox": null
    },
    "id": "imgDownloadACK",
    "imagescalemode": 1,
    "imagewhiledownloading": "img_transparent.png",
    "info": null,
    "invokedProperty": "src",
    "isvisible": true,
    "kuid": "ea70b2805b614ed6b46bb921216cbe51",
    "name": "kony.ui.Image2",
    "parent": "flxDownloadACK",
    "pf": "frmAcknowledgement",
    "srcType": 1,
    "tooltip": "Download",
    "wType": "Image",
    "widgetalignment": 5,
    "zindex": 1
}