{
    "@class": "com.kony.gen.viz.model.container.KVizSegment2",
    "DNDConfig": null,
    "__parentReadjusting__": false,
    "_data_": [
        {
            "btnEdit": {
                "@class": "com.viz.ide.model.segment.SimpleTextSegmentData",
                "text": "EDIT"
            },
            "imgDropdown": {
                "@class": "com.viz.ide.model.segment.ImageSegmentData",
                "src": "arrow_down.png"
            },
            "lblAmount": {
                "@class": "com.viz.ide.model.segment.SimpleTextSegmentData",
                "text": "$100.00"
            },
            "lblDeliverBy": {
                "@class": "com.viz.ide.model.segment.SimpleTextSegmentData",
                "text": "06/03/2017"
            },
            "lblEndingBalanceAccount": {
                "@class": "com.viz.ide.model.segment.SimpleTextSegmentData",
                "text": "Ending Balance:$12345"
            },
            "lblPayee": {
                "@class": "com.viz.ide.model.segment.SimpleTextSegmentData",
                "text": "ABCD.....1234"
            },
            "lblPayeeAddress": {
                "@class": "com.viz.ide.model.segment.SimpleTextSegmentData",
                "text": "Address : address line 1"
            },
            "lblPaymentAccount": {
                "@class": "com.viz.ide.model.segment.SimpleTextSegmentData",
                "text": "Club Savings Account ....9606 (Available:$102.90)"
            },
            "lblSendOn": {
                "@class": "com.viz.ide.model.segment.SimpleTextSegmentData",
                "text": "06/01/2017"
            }
        },
        {
            "btnEdit": {
                "@class": "com.viz.ide.model.segment.SimpleTextSegmentData",
                "text": "EDIT"
            },
            "imgDropdown": {
                "@class": "com.viz.ide.model.segment.ImageSegmentData",
                "src": "arrow_down.png"
            },
            "lblAmount": {
                "@class": "com.viz.ide.model.segment.SimpleTextSegmentData",
                "text": "$100.00"
            },
            "lblDeliverBy": {
                "@class": "com.viz.ide.model.segment.SimpleTextSegmentData",
                "text": "06/03/2017"
            },
            "lblEndingBalanceAccount": {
                "@class": "com.viz.ide.model.segment.SimpleTextSegmentData",
                "text": "Ending Balance:$12345"
            },
            "lblPayee": {
                "@class": "com.viz.ide.model.segment.SimpleTextSegmentData",
                "text": "ABCD.....1234"
            },
            "lblPayeeAddress": {
                "@class": "com.viz.ide.model.segment.SimpleTextSegmentData",
                "text": "Address : address line 1"
            },
            "lblPaymentAccount": {
                "@class": "com.viz.ide.model.segment.SimpleTextSegmentData",
                "text": "Club Savings Account ....9606 (Available:$102.90)"
            },
            "lblSendOn": {
                "@class": "com.viz.ide.model.segment.SimpleTextSegmentData",
                "text": "06/01/2017"
            }
        },
        {
            "btnEdit": {
                "@class": "com.viz.ide.model.segment.SimpleTextSegmentData",
                "text": "EDIT"
            },
            "imgDropdown": {
                "@class": "com.viz.ide.model.segment.ImageSegmentData",
                "src": "arrow_down.png"
            },
            "lblAmount": {
                "@class": "com.viz.ide.model.segment.SimpleTextSegmentData",
                "text": "$100.00"
            },
            "lblDeliverBy": {
                "@class": "com.viz.ide.model.segment.SimpleTextSegmentData",
                "text": "06/03/2017"
            },
            "lblEndingBalanceAccount": {
                "@class": "com.viz.ide.model.segment.SimpleTextSegmentData",
                "text": "Ending Balance:$12345"
            },
            "lblPayee": {
                "@class": "com.viz.ide.model.segment.SimpleTextSegmentData",
                "text": "ABCD.....1234"
            },
            "lblPayeeAddress": {
                "@class": "com.viz.ide.model.segment.SimpleTextSegmentData",
                "text": "Address : address line 1"
            },
            "lblPaymentAccount": {
                "@class": "com.viz.ide.model.segment.SimpleTextSegmentData",
                "text": "Club Savings Account ....9606 (Available:$102.90)"
            },
            "lblSendOn": {
                "@class": "com.viz.ide.model.segment.SimpleTextSegmentData",
                "text": "06/01/2017"
            }
        }
    ],
    "_height_": {
        "type": "ref",
        "value": "preferred"
    },
    "_indicator_": "none",
    "_margin_": [
        0,
        0,
        0,
        0
    ],
    "_orientation_": 2,
    "_padding_": [
        0,
        0,
        0,
        0
    ],
    "_top_": {
        "type": "string",
        "value": "0dp"
    },
    "_width_": {
        "type": "string",
        "value": "88%"
    },
    "autogrowmode": 1,
    "canUpdateUI": true,
    "centerx": {
        "type": "string",
        "value": "50%"
    },
    "containerweight": 100,
    "counter": "02",
    "focusedindex": null,
    "focuseditem": null,
    "groupcells": false,
    "hasSections": false,
    "id": "segConfirmBulkPay",
    "info": null,
    "ipad": {
        "psp": {
            "indicator": "rowselect"
        }
    },
    "iphone": {
        "psp": {
            "indicator": "rowselect"
        }
    },
    "isvisible": false,
    "kuid": "jd77570a5e2c4202b49cc2a1fb59c286",
    "masterdata": {},
    "name": "kony.ui.SegmentedUI2",
    "needpageindicator": true,
    "pageoffdotimage": "pageoffdot.png",
    "pageondotimage": "pageondot.png",
    "paginationconfig": {
        "position": "bottom"
    },
    "parent": "flxBulkPayContainer",
    "pf": "frmAcknowledgement",
    "responsiveData": {
        "b1": {
            "width": {
                "type": "string",
                "value": "100%"
            }
        },
        "b2": {
            "isVisible": false,
            "width": {
                "type": "string",
                "value": "100%"
            }
        },
        "b4": {
            "width": {
                "type": "string",
                "value": "100%"
            }
        }
    },
    "retainselection": false,
    "rowTemplateId": "f375fb0fde4643e68ee453551ec8ab36",
    "rowcounter": 2,
    "rowfocusskin": "s971af14e3cc4643bed5bb37c330e87a",
    "rowskin": "saf48a54e26b47cb883cedc832d03473",
    "rowtemplate": "flxSubHeader",
    "screenlevelwidget": false,
    "seccounter": 0,
    "sectionHeaderTemplateId": null,
    "sectionheaderskin": "sdc4ff4ed1584272be2ae69045dfb29d",
    "selectedRows": null,
    "selectedState": false,
    "selectedindex": null,
    "selectedindices": null,
    "selecteditems": null,
    "selectedsectionindex": 0,
    "selectionbehavior": "default",
    "separatorcolor": "d3d3d300",
    "separatorrequired": true,
    "separatorthickness": 1,
    "showscrollbars": false,
    "viewtype": "tableview",
    "vizProps": {},
    "wType": "Segment",
    "widgetalignment": 5,
    "widgetdatamap": {
        "btnEdit": "btnEdit",
        "flxSubHeader": "flxSubHeader",
        "imgDropdown": "imgDropdown",
        "lblAmount": "lblAmount",
        "lblDeliverBy": "lblDeliverBy",
        "lblEndingBalanceAccount": "lblEndingBalanceAccount",
        "lblPayee": "lblPayee",
        "lblPayeeAddress": "lblPayeeAddress",
        "lblPaymentAccount": "lblPaymentAccount",
        "lblSendOn": "lblSendOn"
    },
    "zindex": 5
}