{
    "DNDConfig": null,
    "__parentReadjusting__": false,
    "_height_": {
        "type": "ref",
        "value": "preferred"
    },
    "_margin_": [
        0,
        0,
        0,
        0
    ],
    "_orientation_": 6,
    "_padding_": [
        0,
        0,
        0,
        0
    ],
    "_percent_": true,
    "_skin_": "sfb907d7701b463298fa0890bc1cdf49",
    "_top_": {
        "type": "string",
        "value": "300px"
    },
    "_width_": {
        "type": "string",
        "value": "58.20%"
    },
    "allboxes": [],
    "autogrowmode": 1,
    "canUpdateUI": true,
    "centerx": {
        "type": "string",
        "value": "50%"
    },
    "children": [
        "flxHeader",
        "flxSeperator",
        "flxDowntimeWarning",
        "flxMiddle",
        "flxSeperator2",
        "flxButtons"
    ],
    "clipbounds": true,
    "containerweight": 100,
    "enablescrolling": true,
    "id": "flxPopup",
    "info": null,
    "isvisible": true,
    "kuid": "c04df78542d145009d060c27389ede6d",
    "layouttype": 4,
    "name": "kony.ui.FlexContainer",
    "parent": "downloadTransction",
    "pf": "userwidgetmodel",
    "snapgridsize": 10,
    "snaptogrid": true,
    "wType": "FlexContainer",
    "widgetalignment": 1,
    "zindex": 1
}