{
    "@class": "com.kony.gen.viz.model.component.KVizListBox",
    "DNDConfig": null,
    "__parentReadjusting__": false,
    "_height_": {
        "type": "string",
        "value": "40dp"
    },
    "_left_": {
        "type": "string",
        "value": "30.60%"
    },
    "_margin_": [
        0,
        0,
        0,
        0
    ],
    "_padding_": [
        0,
        0,
        0,
        0
    ],
    "_skin_": "s3bdd2043a464718a1f91154954f20e8",
    "_top_": {
        "type": "string",
        "value": "76px"
    },
    "_width_": {
        "type": "string",
        "value": "230dp"
    },
    "canUpdateUI": true,
    "containerweight": 100,
    "contentalignment": 4,
    "context": {
        "channel": "desktop",
        "formID": "uwuae22d5a6c0b4d8cad52b2e5ed3198a3",
        "platform": "desktopweb",
        "templateType": "userwidgets",
        "topLevelBox": null
    },
    "groupcells": false,
    "id": "lbxSelectFormat",
    "info": null,
    "isvisible": true,
    "kiosk": {
        "psp": {
            "placeholder": ""
        }
    },
    "kuid": "c9ebf629e1994f3d8924086f0d3b9046",
    "masterdata": [],
    "name": "kony.ui.ListBox",
    "parent": "flxMiddle",
    "pf": "userwidgetmodel",
    "selectedkeys": null,
    "selectedkeyvalue": null,
    "selectedkeyvalues": null,
    "size": 18,
    "viewconfig": {
        "toggleViewConfig": {
            "viewStyle": 0
        }
    },
    "viewtype": 0,
    "wType": "ListBox",
    "zindex": 1
}