{
    "@class": "com.kony.gen.viz.model.component.KVizUserWidget",
    "DNDConfig": null,
    "__parentReadjusting__": false,
    "_android_": {},
    "_androidwearos_": {},
    "_children_": [],
    "_desktopweb_": {},
    "_height_": {
        "type": "ref",
        "value": "preferred"
    },
    "_ipad_": {},
    "_iphone_": {},
    "_kiosk_": {},
    "_left_": {
        "type": "string",
        "value": "16dp"
    },
    "_margin_": [
        0,
        0,
        0,
        0
    ],
    "_orientation_": 1,
    "_padding_": [
        0,
        0,
        0,
        0
    ],
    "_percent_": true,
    "_render_": true,
    "_skin_": "scbd4cac3526468089bf3013adff0549",
    "_spa_": {},
    "_spaan_": {},
    "_spaandroidtablet_": {},
    "_spabb_": {},
    "_spaip_": {},
    "_spaipad_": {},
    "_spamobile_": {},
    "_spatablet_": {},
    "_spawindowstablet_": {},
    "_spawinphone8_": {},
    "_tabrcandroid_": {},
    "_top_": {
        "type": "string",
        "value": "275dp"
    },
    "_vizProps_": {
        "hidewidgethierarchy": false
    },
    "_width_": {
        "type": "string",
        "value": "270dp"
    },
    "_windows10_": {},
    "_windows8_": {},
    "_winphone10_": {},
    "_winphone8_": {},
    "areflexpropsreferenced": false,
    "autogrowmode": 1,
    "canUpdateUI": true,
    "clipbounds": true,
    "containerweight": 0,
    "dataDiffs": {
        "AllForms": {
            "__events__": {},
            "__info__": {
                "isRoot": true,
                "kuid": "jb5ea96a817940058507d1fb6cab2f69",
                "srcKUID": "aef6ac17436948abacbe12ea5a1d5e5b",
                "wType": "FlexContainer"
            },
            "isVisible": false,
            "left": {
                "Default": {
                    "type": "string",
                    "value": "16dp"
                }
            },
            "top": {
                "Default": {
                    "type": "string",
                    "value": "275dp"
                }
            },
            "width": {
                "Default": {
                    "type": "string",
                    "value": "270dp"
                }
            },
            "zIndex": {
                "Default": 20
            }
        },
        "RichTextInfo": {
            "__events__": {},
            "__info__": {
                "kuid": "f6f55bd2c76a4b81bd179337809c040c",
                "srcKUID": "i86f020750564f6ba173ce46ea601ab5",
                "wType": "RichText"
            },
            "i18n_text": "i18n.AddKonyBankAccount.AccountTypemsgInfo",
            "text": "Please specify if the payee account you are adding is a Savings or Checking Account.",
            "width": {
                "Default": {
                    "type": "string",
                    "value": "83%"
                }
            }
        },
        "flxAccountType": {
            "__events__": {},
            "__info__": {
                "kuid": "a52e7306b9fe4210a93f2d6fd8f7bfd9",
                "srcKUID": "ed52287fd449401ba9a5f005c99e3f35",
                "wType": "FlexContainer"
            }
        },
        "flxCross": {
            "__events__": {},
            "__info__": {
                "kuid": "d7b24bb7c5df49729e95ebe352c0135c",
                "srcKUID": "d452c358ed1445a58e5fdff55685498f",
                "wType": "FlexContainer"
            }
        },
        "flxInformation": {
            "__events__": {},
            "__info__": {
                "kuid": "b2b961f5d8de4db09d936bc9d75d77a1",
                "srcKUID": "be414255ea60408894eb2a9b719b864e",
                "wType": "FlexContainer"
            }
        },
        "flxInformationText": {
            "__events__": {},
            "__info__": {
                "kuid": "acc2256abde04f3c975ff48388d6e27b",
                "srcKUID": "fa4dbab87ecf4647a21060118b02bd03",
                "wType": "FlexContainer"
            }
        },
        "imgCross": {
            "__events__": {},
            "__info__": {
                "kuid": "d9d5f2717d164b998e7d20daae628c53",
                "srcKUID": "d86a08cea857467eae13f42ed033a771",
                "wType": "Image"
            }
        },
        "imgToolTip": {
            "__events__": {},
            "__info__": {
                "kuid": "fb193126bddb4e60a62f0952793fc494",
                "srcKUID": "f9274528aa6b41bfb057f17c510b73b5",
                "wType": "Image"
            },
            "left": {
                "Default": {
                    "type": "string",
                    "value": "39%"
                }
            }
        },
        "lblInfo": {
            "__events__": {},
            "__info__": {
                "kuid": "cb78f73504ee459589da5955f78bdafb",
                "srcKUID": "c6ecc9c129c943b396152e99a30763f6",
                "wType": "Label"
            }
        },
        "lblSeperator": {
            "__events__": {},
            "__info__": {
                "kuid": "g7882f238e494395b0eb75334fe9952b",
                "srcKUID": "f142d5aa44384a3fb94504a874cbbb95",
                "wType": "Label"
            }
        }
    },
    "id": "AllForms",
    "info": null,
    "isdatareferenced": false,
    "isvisible": false,
    "kuid": "jb5ea96a817940058507d1fb6cab2f69",
    "layouttype": 4,
    "masterType": 0,
    "name": "kony.ui.UserWidgetInstance",
    "parent": "flxToInternationalAccountsWrapper",
    "pf": "userwidgetmodel",
    "snaptogrid": true,
    "sourceUserWidget": "aef6ac17436948abacbe12ea5a1d5e5b",
    "wType": "UserWidgetInstance",
    "zindex": 20
}