{
    "@class": "com.kony.gen.viz.model.component.KVizTextBox2",
    "DNDConfig": null,
    "__parentReadjusting__": false,
    "_height_": {
        "type": "string",
        "value": "40dp"
    },
    "_left_": {
        "type": "string",
        "value": "53%"
    },
    "_margin_": [
        0,
        0,
        0,
        0
    ],
    "_padding_": [
        3,
        0,
        0,
        0
    ],
    "_placeholder_": "",
    "_right_": "0.00%",
    "_skin_": "s801872ac0264da098d8da59c1cea7f5",
    "_text_": "",
    "_top_": {
        "type": "string",
        "value": "30dp"
    },
    "_width_": {
        "type": "string",
        "value": "45.30%"
    },
    "accessibilityconfig": {
        "a11yLabel": "Recurrences"
    },
    "autocapitalize": "none",
    "autocomplete": false,
    "autocorrect": false,
    "autofilter": false,
    "canUpdateUI": true,
    "containerheight": "",
    "containerheightmode": 1,
    "containerweight": 100,
    "contentalignment": 4,
    "focusskin": "s5f5a9f8c3a548e281fa49915b760e95",
    "id": "tbxNoOfRecurrences",
    "info": null,
    "isvisible": true,
    "keyboardtype": "A",
    "kuid": "e16cea50fb0c4e7fb56543b84c6d108e",
    "mode": "A",
    "name": "kony.ui.TextBox2",
    "parent": "flxContainer5",
    "pf": "userwidgetmodel",
    "placeholderi18n": "i18n.transfers.lblRecurrences",
    "securetextentry": false,
    "textinputmode": "A",
    "viewtype": "default",
    "wType": "TextField",
    "zindex": 1
}