{
    "@class": "com.kony.gen.viz.model.component.KVizUserWidget",
    "DNDConfig": null,
    "__parentReadjusting__": false,
    "_android_": {},
    "_androidwearos_": {},
    "_children_": [],
    "_desktopweb_": {},
    "_height_": {
        "type": "ref",
        "value": "preferred"
    },
    "_ipad_": {},
    "_iphone_": {},
    "_kiosk_": {},
    "_left_": {
        "type": "string",
        "value": "1dp"
    },
    "_margin_": [
        0,
        0,
        0,
        0
    ],
    "_orientation_": 1,
    "_padding_": [
        0,
        0,
        0,
        0
    ],
    "_percent_": true,
    "_render_": true,
    "_responsiveData_": {
        "b3": {
            "isVisible": true
        }
    },
    "_skin_": "sdc143f0e5b64ae3a3f155f691c73fa7",
    "_spa_": {},
    "_spaan_": {},
    "_spaandroidtablet_": {},
    "_spabb_": {},
    "_spaip_": {},
    "_spaipad_": {},
    "_spamobile_": {},
    "_spatablet_": {},
    "_spawindowstablet_": {},
    "_spawinphone8_": {},
    "_tabrcandroid_": {},
    "_top_": "0dp",
    "_vizProps_": {
        "hidewidgethierarchy": false
    },
    "_width_": {
        "type": "string",
        "value": "100%"
    },
    "_windows10_": {},
    "_windows8_": {},
    "_winphone10_": {},
    "_winphone8_": {},
    "areflexpropsreferenced": false,
    "autogrowmode": 1,
    "canUpdateUI": true,
    "clipbounds": false,
    "containerweight": 0,
    "dataDiffs": {
        "EnterCVVModule": {
            "__events__": {},
            "__info__": {
                "isRoot": true,
                "kuid": "h53110dfe14d4426818242037f21255e",
                "srcKUID": "e35ac3c7ee6a4bffaf3be9527ab87a00",
                "wType": "FlexContainer"
            },
            "responsiveData": {
                "b3": {
                    "isVisible": true
                }
            }
        },
        "btnCancel": {
            "__events__": {},
            "__info__": {
                "kuid": "a204ecfbd9804e3f9dd53e27d3495e05",
                "srcKUID": "e2ce91e00ca3401991fa50eeaa0b6d7e",
                "wType": "Button"
            },
            "bottom": {},
            "height": {},
            "i18n_text": "i18n.transfers.Cancel",
            "left": {},
            "responsiveData": {
                "b3": {
                    "bottom": {
                        "type": "string",
                        "value": ""
                    },
                    "height": {
                        "type": "string",
                        "value": "40dp"
                    },
                    "left": {
                        "type": "string",
                        "value": "10dp"
                    },
                    "right": {
                        "type": "string",
                        "value": "10dp"
                    },
                    "top": {
                        "type": "string",
                        "value": "80dp"
                    },
                    "width": {
                        "type": "string",
                        "value": ""
                    }
                }
            },
            "right": {},
            "top": {},
            "width": {}
        },
        "btnProceed": {
            "__events__": {},
            "__info__": {
                "kuid": "g5d920d41a0c466984983138a7bf64fe",
                "srcKUID": "c151aa3ddb624eedb92dd23afd8cfa87",
                "wType": "Button"
            },
            "bottom": {},
            "height": {},
            "i18n_text": "i18n.common.proceed",
            "left": {
                "Default": {
                    "type": "string",
                    "value": "76.8%"
                }
            },
            "responsiveData": {
                "b3": {
                    "bottom": {
                        "type": "string",
                        "value": ""
                    },
                    "height": {
                        "type": "string",
                        "value": "40dp"
                    },
                    "left": {
                        "type": "string",
                        "value": "10dp"
                    },
                    "right": {
                        "type": "string",
                        "value": "10dp"
                    },
                    "top": {
                        "type": "string",
                        "value": "20dp"
                    },
                    "width": {
                        "type": "string",
                        "value": ""
                    }
                }
            },
            "right": {},
            "top": {},
            "width": {}
        },
        "flxActions": {
            "__events__": {},
            "__info__": {
                "kuid": "e9a67d70feca40fea9361cb0b84590e7",
                "srcKUID": "h23f0c4fa241458796efcd620e170f38",
                "wType": "FlexContainer"
            },
            "autogrowMode": {
                "Default": 0
            },
            "height": {},
            "responsiveData": {
                "b3": {
                    "height": {
                        "type": "string",
                        "value": "160dp"
                    }
                }
            }
        },
        "flxDefaultAccountForSending": {
            "__events__": {},
            "__info__": {
                "kuid": "e6b28e32bd094a1ea2452f4503a63e43",
                "srcKUID": "a718cba4d1764215818f061ee2fe0953",
                "wType": "FlexContainer"
            }
        },
        "flxDefaultAccountForSendingInfo": {
            "__events__": {},
            "__info__": {
                "kuid": "aa5b92b31ce5401b9701e74793781698",
                "srcKUID": "ade0ab4e99464b6da6109bcc65904e84",
                "wType": "FlexContainer"
            }
        },
        "flxEnterCVV": {
            "__events__": {},
            "__info__": {
                "kuid": "c4166f9de367475691cdb74d94d6d871",
                "srcKUID": "fe4a0780e0c94a2a8524c35610fc95c9",
                "wType": "FlexContainer"
            }
        },
        "flxEnterCVVCode": {
            "__events__": {},
            "__info__": {
                "kuid": "d11f4858b3a244d09e540ece713c78e4",
                "srcKUID": "ef49dec3b3a84058bbd5c19af61f6b78",
                "wType": "FlexContainer"
            }
        },
        "flxEnterCVVCodeInfo": {
            "__events__": {},
            "__info__": {
                "kuid": "jf4ab42f26b84568950a1ff31fff4722",
                "srcKUID": "b1150f1b137449f0a8f1de2b6ebf5995",
                "wType": "FlexContainer"
            }
        },
        "flxEnterCVVCodes": {
            "__events__": {},
            "__info__": {
                "kuid": "i1ee01df9bb04a898deade1cdf13ddcd",
                "srcKUID": "a06b1d8562e842d587411bbd0a217740",
                "wType": "FlexContainer"
            },
            "left": {},
            "responsiveData": {
                "b3": {
                    "left": {
                        "type": "string",
                        "value": "21%"
                    },
                    "width": {
                        "type": "string",
                        "value": "32%"
                    }
                }
            },
            "width": {}
        },
        "flxHeader": {
            "__events__": {},
            "__info__": {
                "kuid": "a8317bf5bee3478ea2d7f5a0c6219e1a",
                "srcKUID": "f1d567858793450eb9df6876df707c59",
                "wType": "FlexContainer"
            }
        },
        "flxSeparator": {
            "__events__": {},
            "__info__": {
                "kuid": "e15405d41e5c4b55a210a2af2e93f5c8",
                "srcKUID": "ac412654d8f6415a856df86bbc8c5e4e",
                "wType": "FlexContainer"
            }
        },
        "flxSeparator2": {
            "__events__": {},
            "__info__": {
                "kuid": "afb3172ee9f04ac88399b3421da869aa",
                "srcKUID": "e1073d1e81ea48a280a0722189f28bdf",
                "wType": "FlexContainer"
            }
        },
        "flxWarningEnterCVV": {
            "__events__": {},
            "__info__": {
                "kuid": "d795121766e54c40b79061ebc027d39e",
                "srcKUID": "h83862e1f7984212b6b82a590de7ff08",
                "wType": "FlexContainer"
            },
            "responsiveData": {
                "b3": {
                    "isVisible": true
                }
            }
        },
        "imgDefaultAccountForSendingInfo": {
            "__events__": {},
            "__info__": {
                "kuid": "c29668f042994b3bbcedee4fc36b1db1",
                "srcKUID": "i027b51a2b7a4239a559480c725f84f2",
                "wType": "Image"
            }
        },
        "imgEnterCVVCodeInfo": {
            "__events__": {},
            "__info__": {
                "kuid": "dbdfc0dd0bdb4dfda2bd6bb1a3d75f58",
                "srcKUID": "g595c322e54846be901beaa3389f68e8",
                "wType": "Image"
            }
        },
        "imgViewCVVCode": {
            "__events__": {
                "ide_onTouchEnd": "AS_Image_g0db6ac9e74540de9db3c0e123f05090",
                "ide_onTouchStart": "AS_Image_c57b68e2aaef4b22a4af5e88e7bfd274"
            },
            "__info__": {
                "kuid": "e3a2575724634bf2be2960e75ca3941b",
                "srcKUID": "j0ec1694f805480d9ec820515a410132",
                "wType": "Image"
            }
        },
        "imgWarningEnterCVV": {
            "__events__": {},
            "__info__": {
                "kuid": "b9cbde46766c40ab8b7ed04c42070fff",
                "srcKUID": "f745bb2abec24ad4ae6dc02520cec035",
                "wType": "Image"
            }
        },
        "lblDefaultAccountForSending": {
            "__events__": {},
            "__info__": {
                "kuid": "b9d4c18ea52d443d9b289419c08f8472",
                "srcKUID": "fa1e0d35a0704af48b4c8ea2329cd940",
                "wType": "Label"
            },
            "left": {},
            "responsiveData": {
                "b3": {
                    "left": {
                        "type": "string",
                        "value": "2.30%"
                    },
                    "width": {
                        "type": "string",
                        "value": "35%"
                    }
                }
            },
            "top": {
                "Default": {
                    "type": "number",
                    "value": "18"
                }
            },
            "width": {}
        },
        "lblEnterCVVCode": {
            "__events__": {},
            "__info__": {
                "kuid": "e2c8b873f99b4e3bade0d76bb617ba3d",
                "srcKUID": "bae9115121af4666b5ce91507b21c0cb",
                "wType": "Label"
            },
            "top": {
                "Default": {
                    "type": "number",
                    "value": "18"
                }
            }
        },
        "lblHeader": {
            "__events__": {},
            "__info__": {
                "kuid": "b169b98b3713496fa8f33db462ebb733",
                "srcKUID": "g862fe931c6f44c4bb592c1332e812e4",
                "wType": "Label"
            }
        },
        "lblHeading2": {
            "__events__": {},
            "__info__": {
                "kuid": "f94ff0837d824d3c991f99d6048aa27f",
                "srcKUID": "f52424e989344981bcac59610efeb494",
                "wType": "Label"
            },
            "responsiveData": {
                "b3": {
                    "right": {
                        "type": "string",
                        "value": ""
                    },
                    "width": {
                        "type": "string",
                        "value": "90%"
                    }
                }
            },
            "right": {},
            "width": {}
        },
        "lblNoteSecureAccessCode": {
            "__events__": {},
            "__info__": {
                "kuid": "b0b39b37d4ea45a28cd41d11ef5a3997",
                "srcKUID": "ee1cb4ea56754ff1a9c60de086f73566",
                "wType": "Label"
            }
        },
        "lblWarningEnterCVV": {
            "__events__": {},
            "__info__": {
                "kuid": "de5b6ed289704ad9b57bef473789b3f9",
                "srcKUID": "g59352b31c3b497a9537bd4bcde0e43d",
                "wType": "Label"
            },
            "responsiveData": {
                "b3": {
                    "width": {
                        "type": "string",
                        "value": "88%"
                    }
                }
            },
            "width": {}
        },
        "lbxDefaultAccountForSending": {
            "__events__": {},
            "__info__": {
                "kuid": "ccd8b5df50614cb39e3aeb4e4f8d62be",
                "srcKUID": "c75fc8c8da654c3dbdd9c2dea8265ac1",
                "wType": "ListBox"
            },
            "left": {},
            "responsiveData": {
                "b3": {
                    "width": {
                        "type": "string",
                        "value": "32%"
                    }
                }
            },
            "width": {}
        },
        "tbxEnterCVVCode": {
            "__events__": {
                "desktopweb": {
                    "ide_onEndEditing": "AS_TextField_h3d5808ece124e0e85c2b94b1c9c9f35",
                    "ide_onKeyUp": "AS_TextField_h2941e0be42c4675a2c9d12792cc1263"
                }
            },
            "__info__": {
                "kuid": "f3f9e4e21ef84c32a5148066d3abee3d",
                "srcKUID": "ab0ec0f903c4452689a68a7933f4313d",
                "wType": "TextField"
            }
        }
    },
    "id": "EnterCVVModule",
    "info": null,
    "isdatareferenced": false,
    "isvisible": true,
    "kuid": "d64256137b23406282302e4d3773257a",
    "layouttype": 4,
    "masterType": 0,
    "name": "kony.ui.UserWidgetInstance",
    "parent": "flxEnterCVVCode",
    "pf": "frmTransfers",
    "snaptogrid": true,
    "sourceUserWidget": "e35ac3c7ee6a4bffaf3be9527ab87a00",
    "vizprops": {
        "hidewidgethierarchy": false
    },
    "wType": "UserWidgetInstance"
}