{
    "@class": "com.kony.gen.viz.model.component.KVizLabel",
    "DNDConfig": null,
    "__parentReadjusting__": false,
    "_height_": {
        "type": "ref",
        "value": "preferred"
    },
    "_left_": {
        "type": "number",
        "value": ""
    },
    "_margin_": [
        1,
        1,
        1,
        1
    ],
    "_padding_": [
        0,
        0,
        0,
        0
    ],
    "_right_": {
        "type": "string",
        "value": "29dp"
    },
    "_skin_": "s5b2ae836f9d48878f7a7e388a361f08",
    "_text_": "VERIFY",
    "_width_": {
        "type": "ref",
        "value": "preferred"
    },
    "_wrapping_": 2,
    "accessibilityconfig": {
        "a11yLabel": "Verify"
    },
    "android": {
        "textStyle": {
            "letterSpacing": 0,
            "strikeThrough": false
        }
    },
    "canUpdateUI": true,
    "centerx": {
        "type": "number",
        "value": ""
    },
    "centery": {
        "type": "string",
        "value": "50%"
    },
    "containerweight": 100,
    "contentalignment": 4,
    "desktopweb": {
        "psp": {}
    },
    "disabledSkins": {
        "hoverSkin": "sb0b08db6e3a4193918761d40ba1d32a"
    },
    "hoverskin": "",
    "id": "lblVerifyButton",
    "info": null,
    "ipad": {
        "psp": {
            "wrapping": 2
        }
    },
    "iphone": {
        "psp": {
            "wrapping": 2
        }
    },
    "isvisible": true,
    "kuid": "a526f7d166ce43ee8f1589aea033cdec",
    "name": "kony.ui.Label",
    "parent": "flxVerifyAccount",
    "pf": "frmTransfers",
    "responsiveData": {
        "b1": {
            "centerX": {
                "type": "string",
                "value": ""
            },
            "left": {
                "type": "string",
                "value": ""
            },
            "right": {
                "type": "string",
                "value": "15dp"
            }
        },
        "b4": {
            "desktopweb": {
                "psp": {}
            }
        },
        "b5": {
            "right": {
                "type": "string",
                "value": "20dp"
            }
        }
    },
    "texti18n": "i18n.ProfileManagement.Verify",
    "tooltip": "Verify",
    "wType": "Label",
    "zindex": 1
}