{
    "@class": "com.kony.gen.viz.model.component.KVizLabel",
    "DNDConfig": null,
    "__parentReadjusting__": false,
    "_height_": {
        "type": "string",
        "value": "25px"
    },
    "_left_": {
        "type": "string",
        "value": "6.50%"
    },
    "_margin_": [
        1,
        1,
        1,
        1
    ],
    "_padding_": [
        0,
        0,
        0,
        0
    ],
    "_skin_": "sb1d00a7b9d74d2688d103b69c720fdc",
    "_text_": "t",
    "_top_": {
        "type": "string",
        "value": "8dp"
    },
    "_width_": {
        "type": "string",
        "value": "25px"
    },
    "_wrapping_": 2,
    "accessibilityconfig": {
        "a11yLabel": "t"
    },
    "android": {
        "textStyle": {
            "letterSpacing": 0,
            "strikeThrough": false
        }
    },
    "canUpdateUI": true,
    "centery": {
        "type": "string",
        "value": "57%"
    },
    "containerweight": 100,
    "contentalignment": 4,
    "id": "lblImgMenu2",
    "info": null,
    "ipad": {
        "psp": {
            "wrapping": 2
        }
    },
    "iphone": {
        "psp": {
            "wrapping": 2
        }
    },
    "isvisible": true,
    "kuid": "ee7a06445af443a68d62c5d33c0f81e5",
    "name": "kony.ui.Label",
    "parent": "flxMenu2",
    "pf": "userwidgetmodel",
    "tooltip": "",
    "wType": "Label",
    "zindex": 1
}