{
    "@class": "com.kony.gen.viz.model.component.KVizRichText",
    "DNDConfig": null,
    "__parentReadjusting__": false,
    "_bottom_": {
        "type": "string",
        "value": "16dp"
    },
    "_height_": {
        "type": "ref",
        "value": "preferred"
    },
    "_left_": {
        "type": "string",
        "value": "17.50%"
    },
    "_margin_": [
        0,
        0,
        0,
        0
    ],
    "_padding_": [
        0,
        0,
        0,
        0
    ],
    "_right_": {
        "type": "string",
        "value": "52%"
    },
    "_skin_": "sc4cc30bc71442ee9f8b2e9230a973fa",
    "_text_": "Billing error",
    "_top_": {
        "type": "string",
        "value": "17dp"
    },
    "_wrapping_": 2,
    "accessibilityconfig": {
        "a11yLabel": "Billing error"
    },
    "canUpdateUI": true,
    "containerweight": 100,
    "contentalignment": 4,
    "id": "rtxReason",
    "info": null,
    "isvisible": true,
    "kuid": "c3bd54bb58b04bc99111ce606bd0756d",
    "name": "kony.ui.RichText",
    "parent": "flxTransactionDetailsRow1",
    "pf": "userwidgetmodel",
    "wType": "RichText",
    "widgetalignment": 5,
    "zindex": 1
}