{
  "customCode" : {
    "responseProcessorName" : "com.kony.extaccounts.postprocessors.OtherBankAccountsPostProcessor"
  },
  "operationConfig" : {
    "name" : "getOtherBankAccount9297",
    "type" : "MappedToBackend",
    "cachable" : false,
    "smsEnabled" : false,
    "security" : "authorized_app_user",
    "responseEncoding" : "UTF-8",
    "httpMethod" : "GET",
    "decodeResponseBody" : false,
    "iMapping" : "<?xml version=\"1.0\" encoding=\"UTF-8\" standalone=\"yes\"?>\n<mapper xmlns=\"http://www.kony.com/ns/mapper\">\n    <map inputpath=\"request_in\" outputpath=\"request_out\"/>\n</mapper>\n",
    "oMapping" : "<?xml version=\"1.0\" encoding=\"UTF-8\" standalone=\"yes\"?><mapper xmlns=\"http://www.kony.com/ns/mapper\">        <map inputpath=\"response_in\" outputpath=\"response_out\">                <map inputpath=\"externalaccount\" outputpath=\"ExternalAccounts\">                        <set-param inputpath=\"accountNumber\" outputpath=\"accountNumber\"/>                        <set-param inputpath=\"accountType\" outputpath=\"accountType\"/>                        <set-param inputpath=\"bankName\" outputpath=\"bankName\"/>                        <set-param inputpath=\"beneficiaryName\" outputpath=\"beneficiaryName\"/>                        <set-param inputpath=\"countryName\" outputpath=\"countryName\"/>                        <set-param inputpath=\"createdOn\" outputpath=\"createdOn\"/>                        <set-param inputpath=\"firstName\" outputpath=\"firstName\"/>                        <set-param inputpath=\"isInternationalAccount\" outputpath=\"isInternationalAccount\"/>                        <set-param inputpath=\"isSameBankAccount\" outputpath=\"isSameBankAccount\"/>                        <set-param inputpath=\"isVerified\" outputpath=\"isVerified\"/>                        <set-param inputpath=\"lastName\" outputpath=\"lastName\"/>                        <set-param inputpath=\"nickName\" outputpath=\"nickName\"/>                        <set-param inputpath=\"notes\" outputpath=\"notes\"/>                        <set-param inputpath=\"routingNumber\" outputpath=\"routingNumber\"/>                        <set-param inputpath=\"swiftCode\" outputpath=\"swiftCode\"/>                    <set-param inputpath=\"IBAN\" outputpath=\"IBAN\"/>                              <set-param inputpath=\"sortCode\" outputpath=\"sortCode\"/>                    <set-param inputpath=\"phoneCountryCode\" outputpath=\"phoneCountryCode\"/>                    <set-param inputpath=\"phoneNumber\" outputpath=\"phoneNumber\"/>                    <set-param inputpath=\"phoneExtension\" outputpath=\"phoneExtension\"/>         </map>        </map></mapper>",
    "iVisualMappingData" : "{\"nodeDataArray\":[{\"isGroup\":true,\"key\":\"request_in\",\"text\":\"ExternalAccounts\",\"xy\":\"150 100\",\"__gohashid\":18550},{\"isGroup\":true,\"key\":\"request_out\",\"text\":\"dbpRbLocalServicesJava (1.0).getOtherBankAccount\",\"xy\":\"770 100\",\"__gohashid\":18551}],\"linkDataArray\":[],\"blockCount\":{\"variableCount\":0},\"variableMap\":{},\"xmlMappingOverride\":false}",
    "oVisualMappingData" : "{\"nodeDataArray\":[{\"isGroup\":true,\"key\":\"response_out\",\"text\":\"ExternalAccounts\",\"xy\":\"770 100\",\"__gohashid\":58759},{\"isGroup\":true,\"key\":\"response_in\",\"text\":\"dbpRbLocalServicesJava (1.0).getOtherBankAccount\",\"xy\":\"150 100\",\"__gohashid\":58760}],\"linkDataArray\":[{\"category\":\"Mapping\",\"from\":\"source:ExternalAccounts:accountNumber:\",\"to\":\"target:ExternalAccounts:accountNumber:\",\"fromPort\":\"source:ExternalAccounts:accountNumber:\",\"toPort\":\"target:ExternalAccounts:accountNumber:\",\"visible\":true,\"common\":true,\"__gohashid\":61757},{\"category\":\"Mapping\",\"from\":\"source:ExternalAccounts:accountType:\",\"to\":\"target:ExternalAccounts:accountType:\",\"fromPort\":\"source:ExternalAccounts:accountType:\",\"toPort\":\"target:ExternalAccounts:accountType:\",\"visible\":true,\"common\":true,\"__gohashid\":61764},{\"category\":\"Mapping\",\"from\":\"source:ExternalAccounts:bankName:\",\"to\":\"target:ExternalAccounts:bankName:\",\"fromPort\":\"source:ExternalAccounts:bankName:\",\"toPort\":\"target:ExternalAccounts:bankName:\",\"visible\":true,\"common\":true,\"__gohashid\":61771},{\"category\":\"Mapping\",\"from\":\"source:ExternalAccounts:beneficiaryName:\",\"to\":\"target:ExternalAccounts:beneficiaryName:\",\"fromPort\":\"source:ExternalAccounts:beneficiaryName:\",\"toPort\":\"target:ExternalAccounts:beneficiaryName:\",\"visible\":true,\"common\":true,\"__gohashid\":61778},{\"category\":\"Mapping\",\"from\":\"source:ExternalAccounts:countryName:\",\"to\":\"target:ExternalAccounts:countryName:\",\"fromPort\":\"source:ExternalAccounts:countryName:\",\"toPort\":\"target:ExternalAccounts:countryName:\",\"visible\":true,\"common\":true,\"__gohashid\":61785},{\"category\":\"Mapping\",\"from\":\"source:ExternalAccounts:createdOn:\",\"to\":\"target:ExternalAccounts:createdOn:\",\"fromPort\":\"source:ExternalAccounts:createdOn:\",\"toPort\":\"target:ExternalAccounts:createdOn:\",\"visible\":true,\"common\":true,\"__gohashid\":61792},{\"category\":\"Mapping\",\"from\":\"source:ExternalAccounts:firstName:\",\"to\":\"target:ExternalAccounts:firstName:\",\"fromPort\":\"source:ExternalAccounts:firstName:\",\"toPort\":\"target:ExternalAccounts:firstName:\",\"visible\":true,\"common\":true,\"__gohashid\":61799},{\"category\":\"Mapping\",\"from\":\"source:ExternalAccounts:isInternationalAccount:\",\"to\":\"target:ExternalAccounts:isInternationalAccount:\",\"fromPort\":\"source:ExternalAccounts:isInternationalAccount:\",\"toPort\":\"target:ExternalAccounts:isInternationalAccount:\",\"visible\":true,\"common\":true,\"__gohashid\":61806},{\"category\":\"Mapping\",\"from\":\"source:ExternalAccounts:isSameBankAccount:\",\"to\":\"target:ExternalAccounts:isSameBankAccount:\",\"fromPort\":\"source:ExternalAccounts:isSameBankAccount:\",\"toPort\":\"target:ExternalAccounts:isSameBankAccount:\",\"visible\":true,\"common\":true,\"__gohashid\":61813},{\"category\":\"Mapping\",\"from\":\"source:ExternalAccounts:isVerified:\",\"to\":\"target:ExternalAccounts:isVerified:\",\"fromPort\":\"source:ExternalAccounts:isVerified:\",\"toPort\":\"target:ExternalAccounts:isVerified:\",\"visible\":true,\"common\":true,\"__gohashid\":61820},{\"category\":\"Mapping\",\"from\":\"source:ExternalAccounts:lastName:\",\"to\":\"target:ExternalAccounts:lastName:\",\"fromPort\":\"source:ExternalAccounts:lastName:\",\"toPort\":\"target:ExternalAccounts:lastName:\",\"visible\":true,\"common\":true,\"__gohashid\":61827},{\"category\":\"Mapping\",\"from\":\"source:ExternalAccounts:nickName:\",\"to\":\"target:ExternalAccounts:nickName:\",\"fromPort\":\"source:ExternalAccounts:nickName:\",\"toPort\":\"target:ExternalAccounts:nickName:\",\"visible\":true,\"common\":true,\"__gohashid\":61834},{\"category\":\"Mapping\",\"from\":\"source:ExternalAccounts:notes:\",\"to\":\"target:ExternalAccounts:notes:\",\"fromPort\":\"source:ExternalAccounts:notes:\",\"toPort\":\"target:ExternalAccounts:notes:\",\"visible\":true,\"common\":true,\"__gohashid\":61841},{\"category\":\"Mapping\",\"from\":\"source:ExternalAccounts:routingNumber:\",\"to\":\"target:ExternalAccounts:routingNumber:\",\"fromPort\":\"source:ExternalAccounts:routingNumber:\",\"toPort\":\"target:ExternalAccounts:routingNumber:\",\"visible\":true,\"common\":true,\"__gohashid\":61848},{\"category\":\"Mapping\",\"from\":\"source:ExternalAccounts:swiftCode:\",\"to\":\"target:ExternalAccounts:swiftCode:\",\"fromPort\":\"source:ExternalAccounts:swiftCode:\",\"toPort\":\"target:ExternalAccounts:swiftCode:\",\"visible\":true,\"common\":true,\"__gohashid\":61855},{\"from\":\"target\",\"to\":\"target:ExternalAccounts\",\"fromPort\":\"target\",\"toPort\":\"target:ExternalAccounts\",\"visible\":true,\"common\":false,\"__gohashid\":956},{\"from\":\"target:ExternalAccounts\",\"to\":\"target:ExternalAccounts:fields\",\"fromPort\":\"target:ExternalAccounts\",\"toPort\":\"target:ExternalAccounts:fields\",\"visible\":true,\"common\":false,\"__gohashid\":957},{\"from\":\"target:ExternalAccounts:fields\",\"to\":\"target:ExternalAccounts:accountNumber:\",\"fromPort\":\"target:ExternalAccounts:fields\",\"toPort\":\"target:ExternalAccounts:accountNumber:\",\"visible\":true,\"common\":false,\"__gohashid\":958},{\"from\":\"target:ExternalAccounts:fields\",\"to\":\"target:ExternalAccounts:accountType:\",\"fromPort\":\"target:ExternalAccounts:fields\",\"toPort\":\"target:ExternalAccounts:accountType:\",\"visible\":true,\"common\":false,\"__gohashid\":959},{\"from\":\"target:ExternalAccounts:fields\",\"to\":\"target:ExternalAccounts:bankName:\",\"fromPort\":\"target:ExternalAccounts:fields\",\"toPort\":\"target:ExternalAccounts:bankName:\",\"visible\":true,\"common\":false,\"__gohashid\":960},{\"from\":\"target:ExternalAccounts:fields\",\"to\":\"target:ExternalAccounts:beneficiaryName:\",\"fromPort\":\"target:ExternalAccounts:fields\",\"toPort\":\"target:ExternalAccounts:beneficiaryName:\",\"visible\":true,\"common\":false,\"__gohashid\":961},{\"from\":\"target:ExternalAccounts:fields\",\"to\":\"target:ExternalAccounts:countryName:\",\"fromPort\":\"target:ExternalAccounts:fields\",\"toPort\":\"target:ExternalAccounts:countryName:\",\"visible\":true,\"common\":false,\"__gohashid\":962},{\"from\":\"target:ExternalAccounts:fields\",\"to\":\"target:ExternalAccounts:createdOn:\",\"fromPort\":\"target:ExternalAccounts:fields\",\"toPort\":\"target:ExternalAccounts:createdOn:\",\"visible\":true,\"common\":false,\"__gohashid\":963},{\"from\":\"target:ExternalAccounts:fields\",\"to\":\"target:ExternalAccounts:errmsg:\",\"fromPort\":\"target:ExternalAccounts:fields\",\"toPort\":\"target:ExternalAccounts:errmsg:\",\"visible\":true,\"common\":false,\"__gohashid\":964},{\"from\":\"target:ExternalAccounts:fields\",\"to\":\"target:ExternalAccounts:firstName:\",\"fromPort\":\"target:ExternalAccounts:fields\",\"toPort\":\"target:ExternalAccounts:firstName:\",\"visible\":true,\"common\":false,\"__gohashid\":965},{\"from\":\"target:ExternalAccounts:fields\",\"to\":\"target:ExternalAccounts:Id:\",\"fromPort\":\"target:ExternalAccounts:fields\",\"toPort\":\"target:ExternalAccounts:Id:\",\"visible\":true,\"common\":false,\"__gohashid\":966},{\"from\":\"target:ExternalAccounts:fields\",\"to\":\"target:ExternalAccounts:isInternationalAccount:\",\"fromPort\":\"target:ExternalAccounts:fields\",\"toPort\":\"target:ExternalAccounts:isInternationalAccount:\",\"visible\":true,\"common\":false,\"__gohashid\":967},{\"from\":\"target:ExternalAccounts:fields\",\"to\":\"target:ExternalAccounts:isSameBankAccount:\",\"fromPort\":\"target:ExternalAccounts:fields\",\"toPort\":\"target:ExternalAccounts:isSameBankAccount:\",\"visible\":true,\"common\":false,\"__gohashid\":968},{\"from\":\"target:ExternalAccounts:fields\",\"to\":\"target:ExternalAccounts:isVerified:\",\"fromPort\":\"target:ExternalAccounts:fields\",\"toPort\":\"target:ExternalAccounts:isVerified:\",\"visible\":true,\"common\":false,\"__gohashid\":969},{\"from\":\"target:ExternalAccounts:fields\",\"to\":\"target:ExternalAccounts:lastName:\",\"fromPort\":\"target:ExternalAccounts:fields\",\"toPort\":\"target:ExternalAccounts:lastName:\",\"visible\":true,\"common\":false,\"__gohashid\":970},{\"from\":\"target:ExternalAccounts:fields\",\"to\":\"target:ExternalAccounts:limit:\",\"fromPort\":\"target:ExternalAccounts:fields\",\"toPort\":\"target:ExternalAccounts:limit:\",\"visible\":true,\"common\":false,\"__gohashid\":971},{\"from\":\"target:ExternalAccounts:fields\",\"to\":\"target:ExternalAccounts:nickName:\",\"fromPort\":\"target:ExternalAccounts:fields\",\"toPort\":\"target:ExternalAccounts:nickName:\",\"visible\":true,\"common\":false,\"__gohashid\":972},{\"from\":\"target:ExternalAccounts:fields\",\"to\":\"target:ExternalAccounts:notes:\",\"fromPort\":\"target:ExternalAccounts:fields\",\"toPort\":\"target:ExternalAccounts:notes:\",\"visible\":true,\"common\":false,\"__gohashid\":973},{\"from\":\"target:ExternalAccounts:fields\",\"to\":\"target:ExternalAccounts:offset:\",\"fromPort\":\"target:ExternalAccounts:fields\",\"toPort\":\"target:ExternalAccounts:offset:\",\"visible\":true,\"common\":false,\"__gohashid\":974},{\"from\":\"target:ExternalAccounts:fields\",\"to\":\"target:ExternalAccounts:order:\",\"fromPort\":\"target:ExternalAccounts:fields\",\"toPort\":\"target:ExternalAccounts:order:\",\"visible\":true,\"common\":false,\"__gohashid\":975},{\"from\":\"target:ExternalAccounts:fields\",\"to\":\"target:ExternalAccounts:routingNumber:\",\"fromPort\":\"target:ExternalAccounts:fields\",\"toPort\":\"target:ExternalAccounts:routingNumber:\",\"visible\":true,\"common\":false,\"__gohashid\":976},{\"from\":\"target:ExternalAccounts:fields\",\"to\":\"target:ExternalAccounts:searchString:\",\"fromPort\":\"target:ExternalAccounts:fields\",\"toPort\":\"target:ExternalAccounts:searchString:\",\"visible\":true,\"common\":false,\"__gohashid\":977},{\"from\":\"target:ExternalAccounts:fields\",\"to\":\"target:ExternalAccounts:sortBy:\",\"fromPort\":\"target:ExternalAccounts:fields\",\"toPort\":\"target:ExternalAccounts:sortBy:\",\"visible\":true,\"common\":false,\"__gohashid\":978},{\"from\":\"target:ExternalAccounts:fields\",\"to\":\"target:ExternalAccounts:success:\",\"fromPort\":\"target:ExternalAccounts:fields\",\"toPort\":\"target:ExternalAccounts:success:\",\"visible\":true,\"common\":false,\"__gohashid\":979},{\"from\":\"target:ExternalAccounts:fields\",\"to\":\"target:ExternalAccounts:swiftCode:\",\"fromPort\":\"target:ExternalAccounts:fields\",\"toPort\":\"target:ExternalAccounts:swiftCode:\",\"visible\":true,\"common\":false,\"__gohashid\":980},{\"from\":\"target:ExternalAccounts:fields\",\"to\":\"target:ExternalAccounts:IBAN:\",\"fromPort\":\"target:ExternalAccounts:fields\",\"toPort\":\"target:ExternalAccounts:IBAN:\",\"visible\":true,\"common\":false,\"__gohashid\":981},{\"from\":\"target:ExternalAccounts:fields\",\"to\":\"target:ExternalAccounts:sortCode:\",\"fromPort\":\"target:ExternalAccounts:fields\",\"toPort\":\"target:ExternalAccounts:sortCode:\",\"visible\":true,\"common\":false,\"__gohashid\":982},{\"from\":\"target:ExternalAccounts:fields\",\"to\":\"target:ExternalAccounts:phoneExtension:\",\"fromPort\":\"target:ExternalAccounts:fields\",\"toPort\":\"target:ExternalAccounts:phoneExtension:\",\"visible\":true,\"common\":false,\"__gohashid\":983},{\"from\":\"target:ExternalAccounts:fields\",\"to\":\"target:ExternalAccounts:phoneNumber:\",\"fromPort\":\"target:ExternalAccounts:fields\",\"toPort\":\"target:ExternalAccounts:phoneNumber:\",\"visible\":true,\"common\":false,\"__gohashid\":984},{\"from\":\"target:ExternalAccounts:fields\",\"to\":\"target:ExternalAccounts:phoneCountryCode:\",\"fromPort\":\"target:ExternalAccounts:fields\",\"toPort\":\"target:ExternalAccounts:phoneCountryCode:\",\"visible\":true,\"common\":false,\"__gohashid\":985},{\"from\":\"source\",\"to\":\"source:parameters\",\"fromPort\":\"source\",\"toPort\":\"source:parameters\",\"visible\":true,\"common\":false,\"__gohashid\":986},{\"from\":\"source:parameters\",\"to\":\"source:errmsg:\",\"fromPort\":\"source:parameters\",\"toPort\":\"source:errmsg:\",\"visible\":true,\"common\":false,\"__gohashid\":987},{\"from\":\"source:parameters\",\"to\":\"source:Id:\",\"fromPort\":\"source:parameters\",\"toPort\":\"source:Id:\",\"visible\":true,\"common\":false,\"__gohashid\":988},{\"from\":\"source:parameters\",\"to\":\"source:success:\",\"fromPort\":\"source:parameters\",\"toPort\":\"source:success:\",\"visible\":true,\"common\":false,\"__gohashid\":989},{\"from\":\"source\",\"to\":\"source:ExternalAccounts\",\"fromPort\":\"source\",\"toPort\":\"source:ExternalAccounts\",\"visible\":true,\"common\":false,\"__gohashid\":990},{\"from\":\"source:ExternalAccounts\",\"to\":\"source:ExternalAccounts:parameters\",\"fromPort\":\"source:ExternalAccounts\",\"toPort\":\"source:ExternalAccounts:parameters\",\"visible\":true,\"common\":false,\"__gohashid\":991},{\"from\":\"source:ExternalAccounts:parameters\",\"to\":\"source:ExternalAccounts:accountNumber:\",\"fromPort\":\"source:ExternalAccounts:parameters\",\"toPort\":\"source:ExternalAccounts:accountNumber:\",\"visible\":true,\"common\":false,\"__gohashid\":992},{\"from\":\"source:ExternalAccounts:parameters\",\"to\":\"source:ExternalAccounts:accountType:\",\"fromPort\":\"source:ExternalAccounts:parameters\",\"toPort\":\"source:ExternalAccounts:accountType:\",\"visible\":true,\"common\":false,\"__gohashid\":993},{\"from\":\"source:ExternalAccounts:parameters\",\"to\":\"source:ExternalAccounts:bankName:\",\"fromPort\":\"source:ExternalAccounts:parameters\",\"toPort\":\"source:ExternalAccounts:bankName:\",\"visible\":true,\"common\":false,\"__gohashid\":994},{\"from\":\"source:ExternalAccounts:parameters\",\"to\":\"source:ExternalAccounts:beneficiaryName:\",\"fromPort\":\"source:ExternalAccounts:parameters\",\"toPort\":\"source:ExternalAccounts:beneficiaryName:\",\"visible\":true,\"common\":false,\"__gohashid\":995},{\"from\":\"source:ExternalAccounts:parameters\",\"to\":\"source:ExternalAccounts:countryName:\",\"fromPort\":\"source:ExternalAccounts:parameters\",\"toPort\":\"source:ExternalAccounts:countryName:\",\"visible\":true,\"common\":false,\"__gohashid\":996},{\"from\":\"source:ExternalAccounts:parameters\",\"to\":\"source:ExternalAccounts:createdOn:\",\"fromPort\":\"source:ExternalAccounts:parameters\",\"toPort\":\"source:ExternalAccounts:createdOn:\",\"visible\":true,\"common\":false,\"__gohashid\":997},{\"from\":\"source:ExternalAccounts:parameters\",\"to\":\"source:ExternalAccounts:firstName:\",\"fromPort\":\"source:ExternalAccounts:parameters\",\"toPort\":\"source:ExternalAccounts:firstName:\",\"visible\":true,\"common\":false,\"__gohashid\":998},{\"from\":\"source:ExternalAccounts:parameters\",\"to\":\"source:ExternalAccounts:isInternationalAccount:\",\"fromPort\":\"source:ExternalAccounts:parameters\",\"toPort\":\"source:ExternalAccounts:isInternationalAccount:\",\"visible\":true,\"common\":false,\"__gohashid\":999},{\"from\":\"source:ExternalAccounts:parameters\",\"to\":\"source:ExternalAccounts:isSameBankAccount:\",\"fromPort\":\"source:ExternalAccounts:parameters\",\"toPort\":\"source:ExternalAccounts:isSameBankAccount:\",\"visible\":true,\"common\":false,\"__gohashid\":1000},{\"from\":\"source:ExternalAccounts:parameters\",\"to\":\"source:ExternalAccounts:isVerified:\",\"fromPort\":\"source:ExternalAccounts:parameters\",\"toPort\":\"source:ExternalAccounts:isVerified:\",\"visible\":true,\"common\":false,\"__gohashid\":1001},{\"from\":\"source:ExternalAccounts:parameters\",\"to\":\"source:ExternalAccounts:lastName:\",\"fromPort\":\"source:ExternalAccounts:parameters\",\"toPort\":\"source:ExternalAccounts:lastName:\",\"visible\":true,\"common\":false,\"__gohashid\":1002},{\"from\":\"source:ExternalAccounts:parameters\",\"to\":\"source:ExternalAccounts:nickName:\",\"fromPort\":\"source:ExternalAccounts:parameters\",\"toPort\":\"source:ExternalAccounts:nickName:\",\"visible\":true,\"common\":false,\"__gohashid\":1003},{\"from\":\"source:ExternalAccounts:parameters\",\"to\":\"source:ExternalAccounts:notes:\",\"fromPort\":\"source:ExternalAccounts:parameters\",\"toPort\":\"source:ExternalAccounts:notes:\",\"visible\":true,\"common\":false,\"__gohashid\":1004},{\"from\":\"source:ExternalAccounts:parameters\",\"to\":\"source:ExternalAccounts:routingNumber:\",\"fromPort\":\"source:ExternalAccounts:parameters\",\"toPort\":\"source:ExternalAccounts:routingNumber:\",\"visible\":true,\"common\":false,\"__gohashid\":1005},{\"from\":\"source:ExternalAccounts:parameters\",\"to\":\"source:ExternalAccounts:swiftCode:\",\"fromPort\":\"source:ExternalAccounts:parameters\",\"toPort\":\"source:ExternalAccounts:swiftCode:\",\"visible\":true,\"common\":false,\"__gohashid\":1006}],\"blockCount\":{\"variableCount\":0},\"variableMap\":{},\"xmlMappingOverride\":true}",
    "applyCommonMapping" : false,
    "applyRequestCommonMapping" : false,
    "applyResponseCommonMapping" : false,
    "backendMeta" : {
      "serviceName" : "dbpRbLocalServicesJava",
      "serviceVersion" : "1.0",
      "operationName" : "getOtherBankAccount"
    },
    "relationshipHierarchyMapping" : {
      "children" : [ ],
      "name" : "ExternalAccounts",
      "actions" : { },
      "selected" : true
    },
    "requestXmlMappingOverride" : false,
    "responseXmlMappingOverride" : true
  }
}