{
    "DNDConfig": null,
    "__parentReadjusting__": false,
    "_height_": {
        "type": "string",
        "value": "60dp"
    },
    "_left_": {
        "type": "string",
        "value": "0dp"
    },
    "_margin_": [
        0,
        0,
        0,
        0
    ],
    "_orientation_": 6,
    "_padding_": [
        0,
        0,
        0,
        0
    ],
    "_percent_": true,
    "_skin_": "s85276800c964d0eb854a1bf18b1828b",
    "_top_": {
        "type": "string",
        "value": "0dp"
    },
    "_width_": {
        "type": "string",
        "value": "100%"
    },
    "allboxes": [],
    "autogrowmode": 0,
    "canUpdateUI": true,
    "children": [
        "imgPayAPerson",
        "CopylblBillPay0a6bc0b0a48dd4b",
        "flxPayAPersonCollapse",
        "CopyflxSeperator0ab6ff437e8524e"
    ],
    "clipbounds": true,
    "containerweight": 100,
    "desktopweb": {
        "psp": {
            "hoverSkin": "s6c4cbf31f7c4fc08f7236fc38f01a0e"
        }
    },
    "enablescrolling": true,
    "id": "flxPayAPerson",
    "info": null,
    "isvisible": true,
    "kuid": "b968cb2a6e1b46c788e7c9724a1e8448",
    "layouttype": 2,
    "name": "kony.ui.FlexContainer",
    "parent": "flxMenuWrapper",
    "pf": "userwidgetmodel",
    "snapgridsize": 10,
    "snaptogrid": true,
    "wType": "FlexContainer",
    "widgetalignment": 1,
    "zindex": 1
}