{
  "operationConfig" : {
    "name" : "createPhone5081",
    "type" : "MappedToBackend",
    "cachable" : false,
    "smsEnabled" : false,
    "security" : "authorized_app_user",
    "responseEncoding" : "UTF-8",
    "httpMethod" : "GET",
    "decodeResponseBody" : false,
    "iMapping" : "<?xml version=\"1.0\" encoding=\"UTF-8\" standalone=\"yes\"?><mapper xmlns=\"http://www.kony.com/ns/mapper\">        <map inputpath=\"request_in\" outputpath=\"request_out\">                <set-param inputpath=\"extension\" outputpath=\"Extension\"/>                <set-param inputpath=\"phoneNumber\" outputpath=\"Value\"/>                <set-param inputpath=\"isPrimary\" outputpath=\"isPrimary\"/>                <set-param inputpath=\"Description\" outputpath=\"Description\"/>                <set-param inputpath=\"IsPreferredContactMethod\" outputpath=\"IsPreferredContactMethod\"/>                <set-param inputpath=\"PreferredContactTime\" outputpath=\"PreferredContactTime\"/>    <set-param inputpath=\"receivePromotions\" outputpath=\"receivePromotions\"/>    <set-param inputpath=\"type\" outputpath=\"type\"/>    <set-param inputpath=\"countryType\" outputpath=\"countryType\"/>  </map></mapper>",
    "oMapping" : "<?xml version=\"1.0\" encoding=\"UTF-8\" standalone=\"yes\"?><mapper xmlns=\"http://www.kony.com/ns/mapper\"><map inputpath=\"response_in\" outputpath=\"response_out\"><set-param inputpath=\"result\" outputpath=\"result\"/><set-param inputpath=\"id\" outputpath=\"id\"/><set-param inputpath=\"error\" outputpath=\"error\"/></map></mapper>",
    "iVisualMappingData" : "{\"nodeDataArray\":[{\"isGroup\":true,\"key\":\"request_in\",\"text\":\"Phone\",\"xy\":\"150 100\",\"__gohashid\":820},{\"isGroup\":true,\"key\":\"request_out\",\"text\":\"dbpRbLocalServicesJava (1.0).createPhone\",\"xy\":\"770 100\",\"__gohashid\":821}],\"linkDataArray\":[{\"from\":\"source\",\"to\":\"source:Phone\",\"fromPort\":\"source\",\"toPort\":\"source:Phone\",\"visible\":true,\"common\":false,\"__gohashid\":19237},{\"from\":\"source:Phone\",\"to\":\"source:Phone:fields\",\"fromPort\":\"source:Phone\",\"toPort\":\"source:Phone:fields\",\"visible\":true,\"common\":false,\"__gohashid\":19238},{\"from\":\"source:Phone:fields\",\"to\":\"source:Phone:error:\",\"fromPort\":\"source:Phone:fields\",\"toPort\":\"source:Phone:error:\",\"visible\":true,\"common\":false,\"__gohashid\":19239},{\"from\":\"source:Phone:fields\",\"to\":\"source:Phone:Extension:\",\"fromPort\":\"source:Phone:fields\",\"toPort\":\"source:Phone:Extension:\",\"visible\":true,\"common\":false,\"__gohashid\":19240},{\"from\":\"source:Phone:fields\",\"to\":\"source:Phone:id:\",\"fromPort\":\"source:Phone:fields\",\"toPort\":\"source:Phone:id:\",\"visible\":true,\"common\":false,\"__gohashid\":19241},{\"from\":\"source:Phone:fields\",\"to\":\"source:Phone:isPrimary:\",\"fromPort\":\"source:Phone:fields\",\"toPort\":\"source:Phone:isPrimary:\",\"visible\":true,\"common\":false,\"__gohashid\":19242},{\"from\":\"source:Phone:fields\",\"to\":\"source:Phone:phoneNumber:\",\"fromPort\":\"source:Phone:fields\",\"toPort\":\"source:Phone:phoneNumber:\",\"visible\":true,\"common\":false,\"__gohashid\":19243},{\"from\":\"source:Phone:fields\",\"to\":\"source:Phone:Description:\",\"fromPort\":\"source:Phone:fields\",\"toPort\":\"source:Phone:Description:\",\"visible\":true,\"common\":false,\"__gohashid\":19244},{\"from\":\"source:Phone:fields\",\"to\":\"source:Phone:result:\",\"fromPort\":\"source:Phone:fields\",\"toPort\":\"source:Phone:result:\",\"visible\":true,\"common\":false,\"__gohashid\":19245},{\"from\":\"source:Phone:fields\",\"to\":\"source:Phone:IsPreferredContactMethod:\",\"fromPort\":\"source:Phone:fields\",\"toPort\":\"source:Phone:IsPreferredContactMethod:\",\"visible\":true,\"common\":false,\"__gohashid\":19246},{\"from\":\"source:Phone:fields\",\"to\":\"source:Phone:PreferredContactTime:\",\"fromPort\":\"source:Phone:fields\",\"toPort\":\"source:Phone:PreferredContactTime:\",\"visible\":true,\"common\":false,\"__gohashid\":19247},{\"from\":\"target\",\"to\":\"target:parameters\",\"fromPort\":\"target\",\"toPort\":\"target:parameters\",\"visible\":true,\"common\":false,\"__gohashid\":19248},{\"from\":\"target:parameters\",\"to\":\"target:Description:\",\"fromPort\":\"target:parameters\",\"toPort\":\"target:Description:\",\"visible\":true,\"common\":false,\"__gohashid\":19249},{\"from\":\"target:parameters\",\"to\":\"target:Extension:\",\"fromPort\":\"target:parameters\",\"toPort\":\"target:Extension:\",\"visible\":true,\"common\":false,\"__gohashid\":19250},{\"from\":\"target:parameters\",\"to\":\"target:IsPreferredContactMethod:\",\"fromPort\":\"target:parameters\",\"toPort\":\"target:IsPreferredContactMethod:\",\"visible\":true,\"common\":false,\"__gohashid\":19251},{\"from\":\"target:parameters\",\"to\":\"target:isPrimary:\",\"fromPort\":\"target:parameters\",\"toPort\":\"target:isPrimary:\",\"visible\":true,\"common\":false,\"__gohashid\":19252},{\"from\":\"target:parameters\",\"to\":\"target:PreferredContactTime:\",\"fromPort\":\"target:parameters\",\"toPort\":\"target:PreferredContactTime:\",\"visible\":true,\"common\":false,\"__gohashid\":19253},{\"from\":\"target:parameters\",\"to\":\"target:Value:\",\"fromPort\":\"target:parameters\",\"toPort\":\"target:Value:\",\"visible\":true,\"common\":false,\"__gohashid\":19254}],\"blockCount\":{\"variableCount\":0},\"variableMap\":{},\"xmlMappingOverride\":true}",
    "applyCommonMapping" : false,
    "applyRequestCommonMapping" : false,
    "applyResponseCommonMapping" : true,
    "backendMeta" : {
      "serviceName" : "dbpRbLocalServicesJava",
      "serviceVersion" : "1.0",
      "operationName" : "createPhone"
    },
    "relationshipHierarchyMapping" : {
      "children" : [ ],
      "name" : "Phone",
      "actions" : { },
      "selected" : true
    },
    "requestXmlMappingOverride" : true,
    "responseXmlMappingOverride" : false
  }
}