{
    "@class": "com.kony.gen.viz.model.component.KVizButton",
    "DNDConfig": null,
    "__parentReadjusting__": false,
    "_height_": {
        "type": "ref",
        "value": "preferred"
    },
    "_margin_": [
        6,
        6,
        6,
        6
    ],
    "_padding_": [
        0,
        0,
        0,
        0
    ],
    "_right_": {
        "type": "string",
        "value": "20dp"
    },
    "_skin_": "s611bd2c5d324490aa9f7ed9d412984f",
    "_text_": "Write a Message",
    "_width_": {
        "type": "ref",
        "value": "preferred"
    },
    "accessibilityconfig": {
        "a11yLabel": "Write a Message"
    },
    "canUpdateUI": true,
    "centery": {
        "type": "string",
        "value": "50%"
    },
    "containerweight": 100,
    "contentalignment": 4,
    "desktopweb": {
        "psp": {
            "hoverSkin": "s611bd2c5d324490aa9f7ed9d412984f"
        }
    },
    "disabledSkins": {},
    "displaytext": true,
    "focusskin": "sbf72662805b48f3b06b5cd3a5a6fdca",
    "id": "btnWriteNewMessage",
    "info": null,
    "isvisible": true,
    "kuid": "jd7f7ab2afea425186f957c3b6c5af98",
    "name": "kony.ui.Button",
    "parent": "flxHeader",
    "pf": "userwidgetmodel",
    "tooltip": "Write New Message",
    "wType": "Button",
    "zindex": 1
}