{
    "@class": "com.kony.gen.viz.model.component.KVizButton",
    "DNDConfig": null,
    "__parentReadjusting__": false,
    "_height_": {
        "type": "ref",
        "value": "preferred"
    },
    "_margin_": [
        6,
        6,
        6,
        6
    ],
    "_padding_": [
        0,
        0,
        0,
        0
    ],
    "_right_": {
        "type": "string",
        "value": "0dp"
    },
    "_skin_": "s611bd2c5d324490aa9f7ed9d412984f",
    "_text_": "Print",
    "_top_": {
        "type": "string",
        "value": "0dp"
    },
    "_width_": {
        "type": "ref",
        "value": "preferred"
    },
    "accessibilityconfig": {
        "a11yLabel": "Print"
    },
    "canUpdateUI": true,
    "containerId": true,
    "containerweight": 100,
    "contentalignment": 4,
    "disabledSkins": {
        "focusSkin": "sf44d06ca8224832827ea7fdff757013"
    },
    "displaytext": true,
    "id": "btnPrint",
    "ide_onClick": "AS_Button_g89a4ed5581347018aed99110d3dee60",
    "info": null,
    "isvisible": false,
    "kuid": "aa7e1aefae20475bb2e90006e3ecee01",
    "name": "kony.ui.Button",
    "parent": "flxActionsWrapper",
    "pf": "segTransactionsRowSelectedSavingsMobile",
    "tooltip": "Print",
    "wType": "Button",
    "zindex": 1
}