{
    "DNDConfig": null,
    "__parentReadjusting__": false,
    "_height_": {
        "type": "string",
        "value": "220dp"
    },
    "_left_": {
        "type": "string",
        "value": "0%"
    },
    "_margin_": [
        0,
        0,
        0,
        0
    ],
    "_orientation_": 6,
    "_padding_": [
        0,
        0,
        0,
        0
    ],
    "_percent_": true,
    "_skin_": "sfe7c6ddceef4b24a7f6bb890bb111a5",
    "_top_": {
        "type": "string",
        "value": "0dp"
    },
    "_width_": {
        "type": "string",
        "value": "100%"
    },
    "allboxes": [],
    "autogrowmode": 0,
    "canUpdateUI": true,
    "children": [
        "flxToHeader",
        "flxToData",
        "flxTypeHeader",
        "flxTypeData",
        "flxWithdrawalAmountHeader",
        "flxWithdrawalAmountData",
        "flxFrequencyTitle",
        "flxFrequencyValue",
        "flxNoteTitle",
        "flxNoteValue",
        "flxRecurrenceTitle",
        "flxRecurrenceValue"
    ],
    "clipbounds": false,
    "containerId": true,
    "containerweight": 100,
    "enablescrolling": true,
    "id": "flxInformation",
    "info": null,
    "isvisible": true,
    "kuid": "dbf759dd8ef44e04a2a71850d9dab94b",
    "layouttype": 4,
    "name": "kony.ui.FlexContainer",
    "parent": "flxDetail",
    "pf": "segTransactionsRowSelectedSavingsMobile",
    "snapgridsize": 10,
    "snaptogrid": true,
    "wType": "FlexContainer",
    "widgetalignment": 1,
    "zindex": 1
}