{
	"@class": "com.kony.gen.viz.model.component.KVizUserWidget",
	"DNDConfig": null,
	"__parentReadjusting__": false,
	"_android_": {},
	"_androidwearos_": {},
	"_children_": [],
	"_desktopweb_": {
		"render": true
	},
	"_height_": {
		"type": "string",
		"value": "150dp"
	},
	"_ipad_": {},
	"_iphone_": {},
	"_kiosk_": {
		"render": true
	},
	"_left_": {
		"type": "string",
		"value": "0dp"
	},
	"_margin_": [
		0,
		0,
		0,
		0
	],
	"_orientation_": 1,
	"_padding_": [
		0,
		0,
		0,
		0
	],
	"_percent_": true,
	"_render_": true,
	"_responsiveData_": {
		"b1": {
			"width": {
				"type": "string",
				"value": "100%"
			}
		},
		"b2": {
			"right": {
				"type": "string",
				"value": "0dp"
			},
			"width": {
				"type": "string",
				"value": "100%"
			}
		},
		"b3": {
			"isVisible": true,
			"right": {
				"type": "string",
				"value": "0dp"
			},
			"width": {
				"type": "string",
				"value": "100%"
			}
		},
		"b5": {
			"width": {
				"type": "string",
				"value": "100%"
			}
		}
	},
	"_skin_": "s24c92fc23b14f5484b693ee9b8a9b35",
	"_spa_": {},
	"_spaan_": {},
	"_spaandroidtablet_": {},
	"_spabb_": {},
	"_spaip_": {},
	"_spaipad_": {},
	"_spamobile_": {},
	"_spatablet_": {},
	"_spawindowstablet_": {},
	"_spawinphone8_": {},
	"_tabrcandroid_": {},
	"_top_": {
		"type": "string",
		"value": "0dp"
	},
	"_vizProps_": {
		"hidewidgethierarchy": false
	},
	"_width_": {
		"type": "string",
		"value": "1366dp"
	},
	"_windows10_": {},
	"_windows8_": {},
	"_winphone10_": {},
	"_winphone8_": {},
	"areflexpropsreferenced": false,
	"canUpdateUI": true,
	"centerx": {
		"type": "string",
		"value": "50%"
	},
	"clipbounds": true,
	"containerweight": 0,
	"dataDiffs": {
		"btnContactUs": {
			"__events__": {
				"ide_onClick": "AS_Button_bf811fdf2b484267a44b0b6f753a0bf1"
			},
			"__info__": {
				"kuid": "d0dbe42aef3c46ad9d98921eb2aa0561",
				"srcKUID": "c47b0c9af1b84e63aa01af59eb52124a",
				"wType": "Button"
			},
			"left": {},
			"responsiveData": {
				"b3": {
					"left": {
						"type": "string",
						"value": "20dp"
					}
				}
			}
		},
		"btnFaqs": {
			"__events__": {
				"ide_onClick": "AS_Button_b2591cff21bf494ebd6d4dc046034a7c"
			},
			"__info__": {
				"kuid": "cf6a2590b54640a6a5ad2b87b66c318f",
				"srcKUID": "ced702d00bc5426892e4632faec9df5d",
				"wType": "Button"
			},
			"responsiveData": {
				"b3": {
					"isVisible": false
				}
			}
		},
		"btnLocateUs": {
			"__events__": {
				"ide_onClick": "AS_Button_ac45ce2bd35c4da19c3dcd68b7456c1d"
			},
			"__info__": {
				"kuid": "bc4eb38d1f5e49b4923a87df6d150810",
				"srcKUID": "i52587cdcb68471f9e389671ddc5f138",
				"wType": "Button"
			},
			"left": {},
			"responsiveData": {
				"b3": {
					"centerX": {
						"type": "string",
						"value": ""
					},
					"left": {
						"type": "string",
						"value": "0%"
					}
				},
				"b5": {
					"left": {
						"type": "string",
						"value": "0dp"
					}
				}
			},
			"centerX": {}
		},
		"btnPrivacy": {
			"__events__": {
				"ide_onClick": "AS_Button_c2b935d36f424333a24a32fad777deee"
			},
			"__info__": {
				"kuid": "cb332a4f483647c7a311844411aabee4",
				"srcKUID": "c3810888a2304c409e04db4cd519b8ee",
				"wType": "Button"
			},
			"responsiveData": {
				"b3": {
					"isVisible": false
				}
			}
		},
		"btnTermsAndConditions": {
			"__events__": {
				"ide_onClick": "AS_Button_d955367a5a314c7dbde831eb4e039377"
			},
			"__info__": {
				"kuid": "f5877f7034f04a00929fa2ad46094223",
				"srcKUID": "baf7c8f817b34b618b7e1f148f49770a",
				"wType": "Button"
			},
			"responsiveData": {
				"b3": {
					"isVisible": false
				}
			}
		},
		"customfooter": {
			"__events__": {},
			"__info__": {
				"isRoot": true,
				"kuid": "de6a6baf724d48d4879ef93d413c5e3c",
				"srcKUID": "a142e816812a4b5b80f84484dcef7232",
				"wType": "FlexContainer"
			},
			"centerX": {
				"Default": {
					"type": "string",
					"value": "50%"
				}
			},
			"responsiveData": {
				"b3": {
					"width": {
						"type": "string",
						"value": "100%"
					}
				},
				"b5": {
					"width": {
						"type": "string",
						"value": "100%"
					}
				},
				"b1": {
					"width": {
						"type": "string",
						"value": "100%"
					}
				}
			},
			"right": {},
			"width": {
				"Default": {
					"type": "string",
					"value": "1366dp"
				}
			},
			"zIndex": {
				"Default": 2
			}
		},
		"flxFooterMenu": {
			"__events__": {},
			"__info__": {
				"kuid": "abefdcd1d85546719c1009fb02731faa",
				"srcKUID": "e6b5bc6faf00428680c4dedfe25a0b9a",
				"wType": "FlexContainer"
			},
			"centerX": {
				"Default": {
					"type": "string",
					"value": "50%"
				}
			},
			"left": {
				"Default": {
					"type": "string",
					"value": ""
				}
			},
			"responsiveData": {
				"b3": {
					"width": {
						"type": "string",
						"value": "180dp"
					}
				},
				"b5": {
					"centerX": {
						"type": "string",
						"value": ""
					},
					"left": {
						"type": "string",
						"value": "2.50%"
					},
					"width": {
						"type": "string",
						"value": "90%"
					}
				},
				"b1": {
					"centerX": {
						"type": "string",
						"value": ""
					},
					"left": {
						"type": "string",
						"value": "6%"
					},
					"width": {
						"type": "string",
						"value": "87%"
					}
				}
			},
			"top": {},
			"width": {
				"Default": {
					"type": "string",
					"value": "1200dp"
				}
			},
			"zIndex": {}
		},
		"flxVBar1": {
			"__events__": {},
			"__info__": {
				"kuid": "a0663dcb43864f0090d574892b994331",
				"srcKUID": "f31fd58a22cc496a93899a924cf2927d",
				"wType": "FlexContainer"
			},
			"centerX": {},
			"left": {},
			"responsiveData": {
				"b3": {
					"centerX": {
						"type": "string",
						"value": ""
					},
					"left": {
						"type": "string",
						"value": "20dp"
					}
				}
			}
		},
		"flxVBar2": {
			"__events__": {},
			"__info__": {
				"kuid": "ie75b5fb9eeb4e41907299d7755d4819",
				"srcKUID": "j39a662286e64bbc9be78a96bb491e27",
				"wType": "FlexContainer"
			},
			"responsiveData": {
				"b3": {
					"isVisible": false
				}
			}
		},
		"flxVBar3": {
			"__events__": {},
			"__info__": {
				"kuid": "ja8736e141fa4d71ab1a1d0fb7c5aebf",
				"srcKUID": "a6990ffd77914b8e8757540cb40cad1a",
				"wType": "FlexContainer"
			},
			"responsiveData": {
				"b3": {
					"isVisible": false
				}
			}
		},
		"flxVBar4": {
			"__events__": {},
			"__info__": {
				"kuid": "i09a6c9e91014335a49a8089fae69595",
				"srcKUID": "e75f96d248634147afa5b6848252df6e",
				"wType": "FlexContainer"
			},
			"responsiveData": {
				"b3": {
					"isVisible": false
				}
			}
		},
		"imgFooterIconOne": {
			"__events__": {},
			"__info__": {
				"kuid": "c655b8994921492682f40e2111d28f09",
				"srcKUID": "f2305e3d65bb448e9d68f5608421f28a",
				"wType": "Image"
			},
			"centerY": {},
			"responsiveData": {
				"b3": {
					"isVisible": false
				},
				"b5": {
					"centerY": {
						"type": "string",
						"value": "75%"
					},
					"isVisible": false,
					"right": {
						"type": "string",
						"value": "10dp"
					}
				}
			},
			"right": {},
			"top": {}
		},
		"imgFooterIconThree": {
			"__events__": {},
			"__info__": {
				"kuid": "fdab66c75272416492f83e045d1017dd",
				"srcKUID": "hc27193bc4d14f24b60f03ac3c2bddb7",
				"wType": "Image"
			},
			"centerY": {},
			"responsiveData": {
				"b3": {
					"isVisible": false
				},
				"b5": {
					"centerY": {
						"type": "string",
						"value": "40%"
					},
					"isVisible": false,
					"right": {
						"type": "string",
						"value": "60dp"
					}
				}
			},
			"right": {}
		},
		"imgFooterIconTwo": {
			"__events__": {},
			"__info__": {
				"kuid": "c76ba238a86b400ebf7aad72ffb0a37d",
				"srcKUID": "cf67ed169e364ace9f62b5aa10dcf1d8",
				"wType": "Image"
			},
			"centerY": {},
			"responsiveData": {
				"b3": {
					"isVisible": false
				},
				"b5": {
					"centerY": {
						"type": "string",
						"value": "40%"
					},
					"isVisible": false,
					"right": {
						"type": "string",
						"value": "10dp"
					}
				}
			},
			"right": {}
		},
		"lblCopyright": {
			"__events__": {},
			"__info__": {
				"kuid": "h303c6c6769843cc8b63c222f59a711d",
				"srcKUID": "a696ff4e198a4124810242908deae798",
				"wType": "Label"
			},
			"centerX": {
				"Default": {
					"type": "string",
					"value": ""
				}
			},
			"i18n_text": "i18n.footerEur.copyright",
			"left": {
				"Default": {
					"type": "string",
					"value": "6%"
				}
			},
			"responsiveData": {
				"b3": {},
				"b5": {
					"left": {
						"type": "string",
						"value": "2.50%"
					},
					"width": {
						"type": "string",
						"value": "90%"
					}
				},
				"b1": {}
			},
			"right": {
				"Default": {
					"type": "string",
					"value": "20dp"
				}
			},
			"text": "Your savings are federally insured to at least $250,000 and backed by the full faith and credit of the Government.",
			"width": {
				"Default": {
					"type": "ref",
					"value": "preferred"
				}
			}
		}
	},
	"id": "CustomFooterMain",
	"info": null,
	"isdatareferenced": false,
	"isvisible": true,
	"kuid": "gd7e7922c37f468287123915c676bc46",
	"layouttype": 2,
	"masterType": 0,
	"name": "kony.ui.UserWidgetInstance",
	"parent": "flxFooter",
	"pf": "frmTransfersEur",
	"snapgridsize": 10,
	"snaptogrid": true,
	"sourceUserWidget": "a142e816812a4b5b80f84484dcef7232",
	"vizprops": {
		"hidewidgethierarchy": false
	},
	"wType": "UserWidgetInstance",
	"zindex": 2
}