{
    "@class": "com.kony.gen.viz.model.component.KVizLabel",
    "DNDConfig": null,
    "__parentReadjusting__": false,
    "_height_": {
        "type": "ref",
        "value": "preferred"
    },
    "_left_": {
        "type": "string",
        "value": "19.69%"
    },
    "_margin_": [
        1,
        1,
        1,
        1
    ],
    "_padding_": [
        0,
        0,
        0,
        0
    ],
    "_skin_": "s415be662ebd4bc8b09a3193c2067ba6",
    "_text_": "You have one account verification pending",
    "_width_": {
        "type": "string",
        "value": "40%"
    },
    "_wrapping_": 2,
    "accessibilityconfig": {
        "a11yLabel": "You have one Account Verification Pending"
    },
    "android": {
        "textStyle": {
            "letterSpacing": 0,
            "strikeThrough": false
        }
    },
    "canUpdateUI": true,
    "centerx": {
        "type": "number",
        "value": ""
    },
    "centery": {
        "type": "string",
        "value": "49%"
    },
    "containerweight": 100,
    "contentalignment": 4,
    "id": "lblVerifyWarning",
    "info": null,
    "ipad": {
        "psp": {
            "wrapping": 2
        }
    },
    "iphone": {
        "psp": {
            "wrapping": 2
        }
    },
    "isvisible": true,
    "kuid": "d567370eb5524638830f4d114d86245e",
    "name": "kony.ui.Label",
    "parent": "flxVerifyAccount",
    "pf": "frmTransfersEur",
    "responsiveData": {
        "b1": {
            "centerX": {
                "type": "string",
                "value": ""
            },
            "left": {
                "type": "string",
                "value": "80dp"
            },
            "width": {
                "type": "string",
                "value": "55%"
            }
        },
        "b5": {
            "centerY": {
                "type": "string",
                "value": "50%"
            },
            "left": {
                "type": "string",
                "value": "22%"
            },
            "width": {
                "type": "string",
                "value": "55%"
            }
        }
    },
    "texti18n": "i18n.Transfers.Youhaveoneaccountverificationpending",
    "tooltip": "ADD ACCOUNT",
    "wType": "Label",
    "zindex": 1
}