{
    "@class": "com.kony.gen.viz.model.component.KVizUserWidget",
    "DNDConfig": null,
    "__parentReadjusting__": false,
    "_android_": {},
    "_androidwearos_": {},
    "_children_": [],
    "_desktopweb_": {},
    "_height_": {
        "type": "ref",
        "value": "preferred"
    },
    "_ipad_": {},
    "_iphone_": {},
    "_kiosk_": {},
    "_left_": {
        "type": "string",
        "value": "0dp"
    },
    "_margin_": [
        0,
        0,
        0,
        0
    ],
    "_orientation_": 1,
    "_padding_": [
        0,
        0,
        0,
        0
    ],
    "_percent_": true,
    "_render_": true,
    "_responsiveData_": {
        "b1": {
            "top": {
                "type": "string",
                "value": "5dp"
            }
        },
        "b2": {
            "bottom": {
                "type": "string",
                "value": ""
            },
            "top": {
                "type": "string",
                "value": "0dp"
            }
        },
        "b3": {
            "right": {
                "type": "string",
                "value": "0dp"
            },
            "width": {
                "type": "string",
                "value": ""
            }
        }
    },
    "_skin_": "sdc143f0e5b64ae3a3f155f691c73fa7",
    "_spa_": {},
    "_spaan_": {},
    "_spaandroidtablet_": {},
    "_spabb_": {},
    "_spaip_": {},
    "_spaipad_": {},
    "_spamobile_": {},
    "_spatablet_": {},
    "_spawindowstablet_": {},
    "_spawinphone8_": {},
    "_tabrcandroid_": {},
    "_top_": {
        "type": "string",
        "value": "0dp"
    },
    "_vizProps_": {
        "hidewidgethierarchy": false
    },
    "_width_": {
        "type": "string",
        "value": "100%"
    },
    "_windows10_": {},
    "_windows8_": {},
    "_winphone10_": {},
    "_winphone8_": {},
    "areflexpropsreferenced": false,
    "autogrowmode": 1,
    "canUpdateUI": true,
    "clipbounds": false,
    "containerweight": 0,
    "dataDiffs": {
        "TermsAndConditions": {
            "__events__": {},
            "__info__": {
                "isRoot": true,
                "kuid": "def4f84d19b549af9757813f57252ad7",
                "srcKUID": "a8480f15fde34d11bc6965fe0c8ecc99",
                "wType": "FlexContainer"
            },
            "bottom": {},
            "responsiveData": {
                "b1": {
                    "top": {
                        "type": "string",
                        "value": "5dp"
                    }
                },
                "b2": {
                    "bottom": {
                        "type": "string",
                        "value": ""
                    },
                    "top": {
                        "type": "string",
                        "value": "0dp"
                    }
                },
                "b3": {
                    "right": {
                        "type": "string",
                        "value": "0dp"
                    },
                    "width": {
                        "type": "string",
                        "value": ""
                    }
                }
            },
            "right": {},
            "top": {},
            "width": {}
        },
        "flxTwo": {
            "__events__": {},
            "__info__": {
                "kuid": "ac9f1aa8e256421b930577c95cf64d42",
                "srcKUID": "f26f991270e848e581148425d8b5c034",
                "wType": "FlexContainer"
            },
            "autogrowMode": {
                "Default": 0
            },
            "bottom": {
                "Default": {
                    "type": "string",
                    "value": "15dp"
                }
            },
            "height": {
                "Default": {
                    "type": "string",
                    "value": "50px"
                }
            },
            "responsiveData": {
                "b2": {
                    "height": {
                        "type": "string",
                        "value": "60px"
                    }
                },
                "b3": {
                    "height": {
                        "type": "string",
                        "value": "70px"
                    }
                }
            }
        },
        "flxbullet": {
            "__events__": {},
            "__info__": {
                "kuid": "a622bcca64d74818b604798809de5ae9",
                "srcKUID": "af9d0b87ab074dcca904dc67e3ad980f",
                "wType": "FlexContainer"
            },
            "centerY": {
                "Default": {
                    "type": "string",
                    "value": "63%"
                }
            },
            "responsiveData": {
                "b2": {
                    "centerY": {
                        "type": "string",
                        "value": "60%"
                    }
                },
                "b3": {
                    "width": {
                        "type": "string",
                        "value": "8dp"
                    }
                }
            },
            "width": {}
        },
        "flxbulletTwo": {
            "__events__": {},
            "__info__": {
                "kuid": "cca080a272bc4aa484ed874cb45ac13d",
                "srcKUID": "j0f810a7b1654b1e944f574958cb01ff",
                "wType": "FlexContainer"
            },
            "centerY": {
                "Default": {
                    "type": "string",
                    "value": "38%"
                }
            },
            "responsiveData": {
                "b1": {
                    "centerY": {
                        "type": "string",
                        "value": "51%"
                    }
                },
                "b2": {
                    "centerY": {
                        "type": "string",
                        "value": "51%"
                    }
                },
                "b3": {
                    "centerY": {
                        "type": "string",
                        "value": "49%"
                    },
                    "width": {
                        "type": "string",
                        "value": "8dp"
                    }
                },
                "b4": {
                    "centerY": {
                        "type": "string",
                        "value": "52%"
                    },
                    "top": {
                        "type": "string",
                        "value": ""
                    }
                },
                "b5": {
                    "centerY": {
                        "type": "string",
                        "value": "51%"
                    }
                }
            },
            "top": {},
            "width": {}
        },
        "flxone": {
            "__events__": {},
            "__info__": {
                "kuid": "j3aa228b96d9451faf5e3d6fc0ef0ae8",
                "srcKUID": "ha4037e46c2f4e028e9f09568f14d7dd",
                "wType": "FlexContainer"
            },
            "autogrowMode": {
                "Default": 0
            },
            "height": {},
            "left": {},
            "responsiveData": {
                "b2": {
                    "height": {
                        "type": "string",
                        "value": "40px"
                    }
                },
                "b3": {
                    "height": {
                        "type": "string",
                        "value": "30px"
                    },
                    "left": {
                        "type": "string",
                        "value": "15px"
                    },
                    "right": {
                        "type": "string",
                        "value": "15px"
                    }
                }
            },
            "right": {}
        },
        "lblIns1": {
            "__events__": {},
            "__info__": {
                "kuid": "fa9e9ce49c4d4020ac3450cf5ce9f004",
                "srcKUID": "ada00d25eeb748f9a72213c91ddf3fd0",
                "wType": "Label"
            },
            "height": {},
            "i18n_text": null,
            "left": {},
            "responsiveData": {
                "b2": {
                    "height": {
                        "type": "string",
                        "value": "30px"
                    },
                    "width": {
                        "type": "string",
                        "value": "93%"
                    }
                },
                "b3": {
                    "left": {
                        "type": "string",
                        "value": "5dp"
                    },
                    "width": {
                        "type": "string",
                        "value": "80%"
                    }
                }
            },
            "top": {
                "Default": {
                    "type": "string",
                    "value": "4dp"
                }
            },
            "width": {}
        },
        "lblInsTwo": {
            "__events__": {},
            "__info__": {
                "kuid": "fbf78a8643bb401abcb2576471d2a884",
                "srcKUID": "cd4650df46484705b2c865df9bbd297d",
                "wType": "Label"
            },
            "height": {
                "Default": {
                    "type": "string",
                    "value": "40px"
                }
            },
            "i18n_text": "i18n.BillPay.TermsAndConditionsPoint2",
            "left": {},
            "responsiveData": {
                "b2": {
                    "height": {
                        "type": "string",
                        "value": "50px"
                    }
                },
                "b3": {
                    "height": {
                        "type": "string",
                        "value": "50px"
                    },
                    "left": {
                        "type": "string",
                        "value": "5dp"
                    },
                    "right": {
                        "type": "string",
                        "value": ""
                    },
                    "text": "Upto $500.00 can be sent through this service."
                },
                "b4": {
                    "top": {
                        "type": "string",
                        "value": "6dp"
                    }
                }
            },
            "right": {},
            "top": {
                "Default": {
                    "type": "string",
                    "value": "6dp"
                }
            },
            "width": {
                "Default": {
                    "type": "string",
                    "value": "93%"
                }
            }
        }
    },
    "id": "TermsAndConditions1",
    "info": null,
    "isdatareferenced": false,
    "isvisible": true,
    "kuid": "def4f84d19b549af9757813f57252ad7",
    "layouttype": 4,
    "masterType": 0,
    "name": "kony.ui.UserWidgetInstance",
    "parent": "flxTermsAndConditions",
    "pf": "frmTransfersEur",
    "snaptogrid": true,
    "sourceUserWidget": "a8480f15fde34d11bc6965fe0c8ecc99",
    "vizprops": {
        "hidewidgethierarchy": false
    },
    "wType": "UserWidgetInstance"
}