{
    "@class": "com.kony.gen.viz.model.component.KVizLabel",
    "DNDConfig": null,
    "__parentReadjusting__": false,
    "_height_": {
        "type": "ref",
        "value": "preferred"
    },
    "_left_": {
        "type": "string",
        "value": "0%"
    },
    "_margin_": [
        1,
        1,
        1,
        1
    ],
    "_padding_": [
        0,
        0,
        0,
        0
    ],
    "_skin_": "sc30b371f40d4cd2979dfbd67c441409",
    "_text_": "",
    "_top_": {
        "type": "string",
        "value": "-3dp"
    },
    "_width_": {
        "type": "string",
        "value": "63%"
    },
    "_wrapping_": 2,
    "accessibilityconfig": {
        "a11yLabel": "Your credit check has failed. Please contact the bank at 1800-421-9686 or visit your nearest branch for more assistance. You'll need to share your username with the bank so that they can help you with your application."
    },
    "android": {
        "textStyle": {
            "letterSpacing": 0,
            "strikeThrough": false
        }
    },
    "canUpdateUI": true,
    "containerweight": 100,
    "contentalignment": 4,
    "id": "lblMessage",
    "info": null,
    "ipad": {
        "psp": {
            "wrapping": 2
        }
    },
    "iphone": {
        "psp": {
            "wrapping": 2
        }
    },
    "isvisible": true,
    "kuid": "g9304118ec7a49ddaff838e36c11b878",
    "name": "kony.ui.Label",
    "parent": "flxCreditCheckMessageBox",
    "pf": "userwidgetmodel",
    "texti18n": "i18n.NAO.CreditCheckErrorMessage",
    "tooltip": "",
    "wType": "Label",
    "zindex": 1
}