{
    "@class": "com.kony.gen.viz.model.component.KVizButton",
    "DNDConfig": null,
    "__parentReadjusting__": false,
    "_height_": {
        "type": "string",
        "value": "100%"
    },
    "_margin_": [
        6,
        6,
        6,
        6
    ],
    "_padding_": [
        0,
        0,
        0,
        0
    ],
    "_right_": {
        "type": "string",
        "value": "0.80%"
    },
    "_skin_": "sa3ae29cca1a4fdbbeb159a5bc7548e3",
    "_text_": "ACH Files",
    "_top_": {
        "type": "string",
        "value": "0dp"
    },
    "_width_": {
        "type": "string",
        "value": "15.40%"
    },
    "canUpdateUI": true,
    "centery": {
        "type": "string",
        "value": "50%"
    },
    "containerweight": 100,
    "contentalignment": 5,
    "displaytext": true,
    "focusskin": "sa3ae29cca1a4fdbbeb159a5bc7548e3",
    "id": "btnTab3",
    "ide_onClick": "AS_Button_g046e9a2d55c4272aba3864be1d61a12",
    "info": null,
    "iscustomlayout": false,
    "isvisible": true,
    "kuid": "u2e8bdd3d92a43749d9c15d0d28b1a15",
    "name": "kony.ui.Button",
    "parent": "TabsHeaderNewCopy",
    "pf": "userwidgetmodel",
    "retaincontentalignment": false,
    "retainflexpositionproperties": false,
    "wType": "Button",
    "zindex": 1
}