{
    "@class": "com.kony.gen.viz.model.component.KVizLabel",
    "DNDConfig": null,
    "__parentReadjusting__": false,
    "_height_": {
        "type": "ref",
        "value": "preferred"
    },
    "_left_": {
        "type": "string",
        "value": "0%"
    },
    "_margin_": [
        1,
        1,
        1,
        1
    ],
    "_padding_": [
        0,
        0,
        0,
        0
    ],
    "_skin_": "s6fb3a3aa82a4072b23f94e428a6e0c7",
    "_text_": "",
    "_top_": {
        "type": "string",
        "value": "29dp"
    },
    "_width_": {
        "type": "string",
        "value": "50%"
    },
    "_wrapping_": 2,
    "accessibilityconfig": {
        "a11yLabel": "Let\\u2019s get started. Please provide your phone number where we can send you the secure access code."
    },
    "android": {
        "textStyle": {
            "letterSpacing": 0,
            "strikeThrough": false
        }
    },
    "canUpdateUI": true,
    "containerweight": 100,
    "contentalignment": 4,
    "id": "flxSendOTPMessage",
    "info": null,
    "ipad": {
        "psp": {
            "wrapping": 2
        }
    },
    "iphone": {
        "psp": {
            "wrapping": 2
        }
    },
    "isvisible": true,
    "kuid": "b9a4f996c4dc491e9fdab24dbc702cd9",
    "name": "kony.ui.Label",
    "parent": "flxSendOTPMessageBox",
    "pf": "userwidgetmodel",
    "texti18n": "i18n.NUO.LetsGetStartedBy",
    "tooltip": "",
    "wType": "Label",
    "zindex": 1
}