{
    "@class": "com.kony.gen.viz.model.component.KVizUserWidget",
    "DNDConfig": null,
    "__parentReadjusting__": false,
    "_android_": {},
    "_androidwearos_": {},
    "_children_": [],
    "_desktopweb_": {},
    "_height_": {
        "type": "ref",
        "value": "preferred"
    },
    "_ipad_": {},
    "_iphone_": {},
    "_kiosk_": {},
    "_left_": {
        "type": "string",
        "value": "-2dp"
    },
    "_margin_": [
        0,
        0,
        0,
        0
    ],
    "_orientation_": 1,
    "_padding_": [
        0,
        0,
        0,
        0
    ],
    "_percent_": true,
    "_render_": true,
    "_responsiveData_": {},
    "_skin_": "s24c92fc23b14f5484b693ee9b8a9b35",
    "_spa_": {},
    "_spaan_": {},
    "_spaandroidtablet_": {},
    "_spabb_": {},
    "_spaip_": {},
    "_spaipad_": {},
    "_spamobile_": {},
    "_spatablet_": {},
    "_spawindowstablet_": {},
    "_spawinphone8_": {},
    "_tabrcandroid_": {},
    "_top_": {
        "type": "string",
        "value": "0dp"
    },
    "_vizProps_": {
        "hidewidgethierarchy": false
    },
    "_width_": {
        "type": "string",
        "value": "100%"
    },
    "_windows10_": {},
    "_windows8_": {},
    "_winphone10_": {},
    "_winphone8_": {},
    "areflexpropsreferenced": false,
    "autogrowmode": 1,
    "canUpdateUI": true,
    "clipbounds": false,
    "containerweight": 0,
    "dataDiffs": {
        "PreviouslyAddedListMod": {
            "__events__": {},
            "__info__": {
                "isRoot": true,
                "kuid": "aab77a6f92eb42a38a1242252e06645d",
                "srcKUID": "b4885dc6795849cc8a2ee669b7955987",
                "wType": "FlexContainer"
            }
        },
        "flxaddkonyaccnt": {
            "__events__": {},
            "__info__": {
                "kuid": "edd1bb1035284388ad3d60c2a4a5252e",
                "srcKUID": "c6916e48bfa74d4c84204f613452cb1e",
                "wType": "FlexContainer"
            },
            "responsiveData": {
                "b1": {
                    "top": {
                        "type": "string",
                        "value": "15px"
                    }
                },
                "b4": {
                    "top": {
                        "type": "string",
                        "value": "15px"
                    }
                }
            },
            "top": {
                "Default": {
                    "type": "string",
                    "value": "20px"
                }
            }
        },
        "flxheader": {
            "__events__": {},
            "__info__": {
                "kuid": "f3a46144d27c4cce8ac27320283f358d",
                "srcKUID": "ff7dae9290d14c3fb3087672d9d8782b",
                "wType": "FlexContainer"
            },
            "isVisible": true
        },
        "flxinfo": {
            "__events__": {},
            "__info__": {
                "kuid": "caff89e82fac4d33895600f219072fdd",
                "srcKUID": "c1fdb7d084c449aea7408c8130a61f53",
                "wType": "FlexContainer"
            },
            "width": {
                "Default": {
                    "type": "string",
                    "value": "25dp"
                }
            }
        },
        "flxmain": {
            "__events__": {},
            "__info__": {
                "kuid": "e3d345ae4a244cb0bc7b12aa00a80814",
                "srcKUID": "hd673ba955c8473b9a5b467505a63470",
                "wType": "FlexContainer"
            },
            "width": {
                "Default": {
                    "type": "string",
                    "value": "100%"
                }
            }
        },
        "flxseperator": {
            "__events__": {},
            "__info__": {
                "kuid": "e11a71281f8546b88b00ab663abd2bde",
                "srcKUID": "i447511060064e3181caf419dbfe8227",
                "wType": "FlexContainer"
            },
            "isVisible": true
        },
        "imginfo": {
            "__events__": {},
            "__info__": {
                "kuid": "jce207e3810c43c0bb6c51d94c27f283",
                "srcKUID": "g5c51cc1785c4bbe8c6939b4fba0356f",
                "wType": "Image"
            }
        },
        "lbladdkonyaccnt": {
            "__events__": {},
            "__info__": {
                "kuid": "h22cf574458b4dcd8ec34a25c1cf4939",
                "srcKUID": "s2a87b57d4c74bbd9330ca093b513b70",
                "wType": "Label"
            },
            "i18n_text": "i18n.transfers.add_non_kony_accountMod"
        },
        "lblnonkonyaccounts": {
            "__events__": {},
            "__info__": {
                "kuid": "dd66391e12c54a41bbeade280bfa1dd9",
                "srcKUID": "ia4090b121f640cea3d5a997ee12bf82",
                "wType": "Label"
            },
            "i18n_text": "i18n.AddExternalAccnt.Previously_Added_Kony_Beneficiary"
        },
        "segkonyaccounts": {
            "__events__": {},
            "__info__": {
                "kuid": "a23dffde3b454ece8ceb54f5281e6996",
                "srcKUID": "b2e4e5faab4a44f99e3f2f2f2f6a6e25",
                "wType": "Segment"
            },
            "isVisible": true,
            "maxHeight": {
                "Default": {
                    "type": "string",
                    "value": "510dp"
                }
            }
        }
    },
    "id": "previouslyAddedList",
    "info": null,
    "isdatareferenced": false,
    "isvisible": true,
    "kuid": "aab77a6f92eb42a38a1242252e06645d",
    "layouttype": 4,
    "masterType": 0,
    "name": "kony.ui.UserWidgetInstance",
    "parent": "flxPreviouslyAddedAcc",
    "pf": "frmAddInternalAccount",
    "snaptogrid": true,
    "sourceUserWidget": "b4885dc6795849cc8a2ee669b7955987",
    "vizprops": {
        "hidewidgethierarchy": false
    },
    "wType": "UserWidgetInstance"
}