{
  "operationConfig" : {
    "name" : "updatePreferredP2PAccounts7402",
    "type" : "MappedToBackend",
    "cachable" : false,
    "smsEnabled" : false,
    "security" : "authorized_app_user",
    "responseEncoding" : "UTF-8",
    "httpMethod" : "GET",
    "decodeResponseBody" : false,
    "iMapping" : "<?xml version=\"1.0\" encoding=\"UTF-8\" standalone=\"yes\"?><mapper xmlns=\"http://www.kony.com/ns/mapper\"><map inputpath=\"request_in\" outputpath=\"request_out\"><set-param inputpath=\"default_from_account_p2p\" outputpath=\"default_from_account_p2p\"/><set-param inputpath=\"phone\" outputpath=\"phone\"/><set-param inputpath=\"default_to_account_p2p\" outputpath=\"default_to_account_p2p\"/><set-param inputpath=\"userName\" outputpath=\"userName\"/><set-param inputpath=\"email\" outputpath=\"email\"/></map></mapper>",
    "oMapping" : "<?xml version=\"1.0\" encoding=\"UTF-8\" standalone=\"yes\"?><mapper xmlns=\"http://www.kony.com/ns/mapper\"><map inputpath=\"response_in\" outputpath=\"response_out\"><set-param inputpath=\"result\" outputpath=\"result\"/></map></mapper>",
    "applyCommonMapping" : true,
    "applyRequestCommonMapping" : true,
    "applyResponseCommonMapping" : true,
    "backendMeta" : {
      "serviceName" : "dbpRbLocalServicesJava",
      "serviceVersion" : "1.0",
      "operationName" : "updatePreferredP2PAccounts"
    },
    "relationshipHierarchyMapping" : {
      "children" : [ ],
      "name" : "User",
      "actions" : { },
      "selected" : true
    },
    "requestXmlMappingOverride" : false,
    "responseXmlMappingOverride" : false
  }
}