{
    "@class": "com.kony.gen.viz.model.component.KVizUserWidget",
    "DNDConfig": null,
    "__parentReadjusting__": false,
    "_children_": [],
    "_desktopweb_": {},
    "_height_": {
        "type": "ref",
        "value": "preferred"
    },
    "_left_": {
        "type": "string",
        "value": "0dp"
    },
    "_margin_": [
        0,
        0,
        0,
        0
    ],
    "_orientation_": 1,
    "_padding_": [
        0,
        0,
        0,
        0
    ],
    "_percent_": true,
    "_render_": true,
    "_responsiveData_": {},
    "_skin_": "s4d6392bface4761840338d65d827a61",
    "_top_": {
        "type": "string",
        "value": "0dp"
    },
    "_vizProps_": {
        "hidewidgethierarchy": false
    },
    "_width_": {
        "type": "string",
        "value": "100%"
    },
    "areflexpropsreferenced": false,
    "autogrowmode": 1,
    "canUpdateUI": true,
    "clipbounds": true,
    "containerweight": 0,
    "dataDiffs": {
        "confirmButtons": {
            "__events__": {},
            "__info__": {
                "kuid": "c53b2a7c16aa4204a64f1b79bc227de7",
                "srcKUID": "46405f5ce2fc4e9288872a67ffedc4e6",
                "wType": "UserWidgetInstance"
            },
            "autogrowMode": {
                "Default": 0
            },
            "height": {},
            "responsiveData": {
                "b1": {
                    "height": {
                        "type": "string",
                        "value": "103px"
                    }
                },
                "b2": {
                    "top": {
                        "type": "string",
                        "value": "30dp"
                    }
                },
                "b3": {
                    "height": {
                        "type": "string",
                        "value": "200dp"
                    }
                }
            },
            "top": {}
        },
        "confirmButtons.btnCancel": {
            "__events__": {
                "ide_onClick": "AS_Button_d8e7b3168db346f39279ccbf6797862c"
            },
            "__info__": {
                "kuid": "d117a3b8d85e4dad9ce1d9a382c97a00",
                "srcKUID": "c69dd70537134dca91d79ecfae2ab801",
                "wType": "Button"
            },
            "bottom": {},
            "centerX": {},
            "centerY": {},
            "left": {},
            "responsiveData": {
                "b2": {
                    "right": {
                        "type": "string",
                        "value": "51.60%"
                    },
                    "width": {
                        "type": "string",
                        "value": "20.92%"
                    }
                },
                "b3": {
                    "bottom": {
                        "type": "string",
                        "value": "20dp"
                    },
                    "centerX": {
                        "type": "string",
                        "value": "50%"
                    },
                    "centerY": {
                        "type": "string",
                        "value": ""
                    },
                    "left": {
                        "type": "string",
                        "value": "15dp"
                    },
                    "right": {
                        "type": "string",
                        "value": "15dp"
                    },
                    "top": {
                        "type": "string",
                        "value": "140dp"
                    },
                    "width": {
                        "type": "string",
                        "value": ""
                    }
                }
            },
            "right": {},
            "top": {},
            "width": {}
        },
        "confirmButtons.btnConfirm": {
            "__events__": {
                "ide_onClick": "AS_Button_dfaa3325fed64d1bb0df15af72f8cb4b"
            },
            "__info__": {
                "kuid": "f78520fea1314965a416b77eb784cb39",
                "srcKUID": "id4ed79fda4946d7b788005be824b480",
                "wType": "Button"
            },
            "centerX": {},
            "centerY": {},
            "i18n_text": "i18n.transfers.Confirm",
            "left": {},
            "responsiveData": {
                "b2": {
                    "right": {
                        "type": "string",
                        "value": "30dp"
                    },
                    "width": {
                        "type": "string",
                        "value": "20.92%"
                    }
                },
                "b3": {
                    "centerX": {
                        "type": "string",
                        "value": "50%"
                    },
                    "centerY": {
                        "type": "string",
                        "value": ""
                    },
                    "left": {
                        "type": "string",
                        "value": "15dp"
                    },
                    "right": {
                        "type": "string",
                        "value": "15dp"
                    },
                    "top": {
                        "type": "string",
                        "value": "20dp"
                    },
                    "width": {
                        "type": "string",
                        "value": ""
                    }
                }
            },
            "right": {},
            "top": {},
            "width": {}
        },
        "confirmButtons.btnModify": {
            "__events__": {
                "ide_onClick": "AS_Button_f2aea2570928401a874423c397f270f3"
            },
            "__info__": {
                "kuid": "e2bb96dae616433696aa0458cbdc374a",
                "srcKUID": "ib356fc7a2664bdfa2d82ba1e6d9bf5a",
                "wType": "Button"
            },
            "centerX": {},
            "centerY": {},
            "i18n_text": "i18n.transfers.Modify",
            "left": {},
            "responsiveData": {
                "b2": {
                    "right": {
                        "type": "string",
                        "value": "27.89%"
                    },
                    "width": {
                        "type": "string",
                        "value": "20.92%"
                    }
                },
                "b3": {
                    "centerX": {
                        "type": "string",
                        "value": "50%"
                    },
                    "centerY": {
                        "type": "string",
                        "value": ""
                    },
                    "left": {
                        "type": "string",
                        "value": "15dp"
                    },
                    "right": {
                        "type": "string",
                        "value": "15dp"
                    },
                    "top": {
                        "type": "string",
                        "value": "80dp"
                    },
                    "width": {
                        "type": "string",
                        "value": ""
                    }
                }
            },
            "right": {},
            "top": {},
            "width": {}
        },
        "confirmButtons.flxHorizontalLine": {
            "__events__": {},
            "__info__": {
                "kuid": "g3872f82bc6c4ae8a5a741a977d38a88",
                "srcKUID": "daa090bb00594a999e8dd106a8d4f9ec",
                "wType": "FlexContainer"
            },
            "responsiveData": {
                "b3": {
                    "isVisible": true
                }
            }
        },
        "confirmDialogAccounts": {
            "__events__": {},
            "__info__": {
                "isRoot": true,
                "kuid": "bf7842b395be4496ba902ca32e206d53",
                "srcKUID": "19af251ce6a24651a06e6dc65b2303e6",
                "wType": "FlexContainer"
            },
            "autogrowMode": {
                "Default": 1
            },
            "height": {
                "Default": {
                    "type": "ref",
                    "value": "preferred"
                }
            },
            "responsiveData": {},
            "top": {
                "Default": {
                    "type": "string",
                    "value": "0dp"
                }
            }
        },
        "confirmHeaders": {
            "__events__": {},
            "__info__": {
                "kuid": "c8a80b3fb99d46b0803d3928393e23bf",
                "srcKUID": "e84b5f5e33ca4e73aea45a50013ee6fd",
                "wType": "UserWidgetInstance"
            }
        },
        "confirmHeaders.flxHeader": {
            "__events__": {},
            "__info__": {
                "kuid": "e312b49a1e264cec84225faaf20fddaa",
                "srcKUID": "bfbfb9f59a6f415880f5ba35fbddd249",
                "wType": "FlexContainer"
            }
        },
        "confirmHeaders.lblHeading": {
            "__events__": {},
            "__info__": {
                "kuid": "d425210cf9ec43f6af51d155a6baa94f",
                "srcKUID": "b632c5d3e7934929bf29a1aa5ab625f2",
                "wType": "Label"
            },
            "left": {},
            "responsiveData": {
                "b2": {
                    "left": {
                        "type": "string",
                        "value": "30px"
                    }
                }
            }
        },
        "flxDescription": {
            "__events__": {},
            "__info__": {
                "kuid": "jd3f9ab219ca4242958cc436e6c09980",
                "srcKUID": "faa3f0e4ee5147b8ac07b4edde700b04",
                "wType": "UserWidgetInstance"
            },
            "responsiveData": {
                "b2": {
                    "isVisible": false
                }
            }
        },
        "flxDescription.flxContainer": {
            "__events__": {},
            "__info__": {
                "kuid": "ce33bc58b6224e239c2d7a0f7e29f18e",
                "srcKUID": "ff49ff9bb4ee45b2b5821234424992a0",
                "wType": "FlexContainer"
            },
            "left": {},
            "responsiveData": {
                "b2": {
                    "left": {
                        "type": "string",
                        "value": "0dp"
                    }
                }
            }
        },
        "flxDescription.flxInfo": {
            "__events__": {},
            "__info__": {
                "kuid": "cfdfc5bcaff44dd384361101667621f2",
                "srcKUID": "f66a96908d9c4b95a3b2ff67d602b1f4",
                "wType": "FlexContainer"
            }
        },
        "flxDescription.flxKey": {
            "__events__": {},
            "__info__": {
                "kuid": "a9c52938e1f640cda4459595f8ba27c6",
                "srcKUID": "ceece66d7a6e45bb984bbb91d3102c81",
                "wType": "FlexContainer"
            },
            "left": {},
            "responsiveData": {
                "b2": {
                    "left": {
                        "type": "string",
                        "value": "30px"
                    },
                    "width": {
                        "type": "string",
                        "value": "22%"
                    }
                }
            },
            "width": {}
        },
        "flxDescription.flxValue": {
            "__events__": {},
            "__info__": {
                "kuid": "a65c79d7f1a54fa49489bcd8dd019448",
                "srcKUID": "e3c0db4830384087aa0a62ffa4fcfd83",
                "wType": "FlexContainer"
            },
            "left": {},
            "responsiveData": {
                "b2": {
                    "left": {
                        "type": "string",
                        "value": "32%"
                    }
                }
            }
        },
        "flxDescription.imgWhatIsSSN": {
            "__events__": {},
            "__info__": {
                "kuid": "ib7cd6698b1244599c793937fd438e6f",
                "srcKUID": "g4087562aa2f49a5855a4c4e0b260c44",
                "wType": "Image"
            },
            "src": "info_grey.png"
        },
        "flxDescription.lblColon": {
            "__events__": {},
            "__info__": {
                "kuid": "bede7ed972484f7498eed7abc1b3c9b0",
                "srcKUID": "ed65bccd1dec4b4180178b9fa508a942",
                "wType": "Label"
            },
            "left": {},
            "responsiveData": {
                "b2": {
                    "left": {
                        "type": "string",
                        "value": "30%"
                    }
                }
            }
        },
        "flxDescription.lblKey": {
            "__events__": {},
            "__info__": {
                "kuid": "cecf09ef95bf4ed28051982352f69f3d",
                "srcKUID": "dd25a77e56bf49808fc369fe29bba72a",
                "wType": "Label"
            },
            "i18n_text": "i18n.StopPayments.Description"
        },
        "flxDescription.lblValue": {
            "__events__": {},
            "__info__": {
                "kuid": "b387ad7a185e42dbb380b69aae1df492",
                "srcKUID": "a900a811f5ef4f3cbcfc21f94bf06e28",
                "wType": "Label"
            }
        },
        "flxDileveryBy": {
            "__events__": {},
            "__info__": {
                "kuid": "ed20a4e32ab447a7ac1d551cb83e9ff1",
                "srcKUID": "df93703431024637940cde8b56f3db6d",
                "wType": "UserWidgetInstance"
            },
            "responsiveData": {
                "b3": {
                    "isVisible": false
                }
            }
        },
        "flxDileveryBy.flxContainer": {
            "__events__": {},
            "__info__": {
                "kuid": "a73170b1239f43aa8f01283d8c750f91",
                "srcKUID": "cbe312400bd04e07b5b5bca70c37beb6",
                "wType": "FlexContainer"
            }
        },
        "flxDileveryBy.flxInfo": {
            "__events__": {},
            "__info__": {
                "kuid": "j58333be652946b6a4a5155f51e528b5",
                "srcKUID": "a3b70dd23fc34e66a24bc73c733f793a",
                "wType": "FlexContainer"
            }
        },
        "flxDileveryBy.flxKey": {
            "__events__": {},
            "__info__": {
                "kuid": "a9baebf312d4445198ed9a5092fed5b8",
                "srcKUID": "c888755c3588439e9c7de8a15697b9ad",
                "wType": "FlexContainer"
            },
            "left": {},
            "responsiveData": {
                "b2": {
                    "left": {
                        "type": "string",
                        "value": "30px"
                    },
                    "width": {
                        "type": "string",
                        "value": "22%"
                    }
                }
            },
            "width": {}
        },
        "flxDileveryBy.flxValue": {
            "__events__": {},
            "__info__": {
                "kuid": "fee6559506ef4ed59721ea21fef9fb41",
                "srcKUID": "be3ff2d9e32d4932839d3dab378d8aab",
                "wType": "FlexContainer"
            },
            "left": {},
            "responsiveData": {
                "b2": {
                    "left": {
                        "type": "string",
                        "value": "32%"
                    }
                }
            }
        },
        "flxDileveryBy.imgWhatIsSSN": {
            "__events__": {},
            "__info__": {
                "kuid": "i5b3a02dac1d4145aa3613b3073ca903",
                "srcKUID": "cd51bd079c3f4124933d782ea15a9f10",
                "wType": "Image"
            },
            "src": "info_grey.png"
        },
        "flxDileveryBy.lblColon": {
            "__events__": {},
            "__info__": {
                "kuid": "b9b8b8a0cd074c1baa7e2ed7e68d9e6f",
                "srcKUID": "g1eae0a7a05d4a038cdc8a40c63ab0e3",
                "wType": "Label"
            },
            "left": {},
            "responsiveData": {
                "b2": {
                    "left": {
                        "type": "string",
                        "value": "30%"
                    }
                }
            }
        },
        "flxDileveryBy.lblKey": {
            "__events__": {},
            "__info__": {
                "kuid": "ade032759e3144d5912bfbe9371d95d1",
                "srcKUID": "e185e8c6d2a34988abf144769cb9c4f9",
                "wType": "Label"
            }
        },
        "flxDileveryBy.lblValue": {
            "__events__": {},
            "__info__": {
                "kuid": "b29bfc8c43754cb79e25f64a00de8ffd",
                "srcKUID": "bdded94f213d41719766dfa89abcba22",
                "wType": "Label"
            }
        },
        "flxHorizontalLine": {
            "__events__": {},
            "__info__": {
                "kuid": "i8be726000c947e3881c722dd31b9c59",
                "srcKUID": "9d6cf38f2ade4c17886307b58e8e1acb",
                "wType": "FlexContainer"
            }
        },
        "flxInfo": {
            "__events__": {},
            "__info__": {
                "kuid": "cbcba76348b24c01bb9e24f101d9faeb",
                "srcKUID": "ec0d4f68a70d4bb79f58d210b7afce8c",
                "wType": "FlexContainer"
            }
        },
        "flxMain": {
            "__events__": {},
            "__info__": {
                "kuid": "c1c95cad4afa468a94ea0661c8f89c32",
                "srcKUID": "4f1556f9dade42888f6b9e24f4f3c7a2",
                "wType": "FlexContainer"
            }
        },
        "flxSeperator": {
            "__events__": {},
            "__info__": {
                "kuid": "a497ff41f21648528d0851b03d779ad4",
                "srcKUID": "a4fbd55ad4b74278a72c2916b45f48b5",
                "wType": "FlexContainer"
            }
        },
        "flxTransactionFee": {
            "__events__": {},
            "__info__": {
                "kuid": "hc5713b7376c4909ab716fd6502d2e44",
                "srcKUID": "a7cea0ab9954482fa078b1697cfefe25",
                "wType": "FlexContainer"
            }
        },
        "imgInfo": {
            "__events__": {},
            "__info__": {
                "kuid": "fa10210c6ae746729a95350df3230094",
                "srcKUID": "f0c07882acb5403eb4b9439ea0797ad4",
                "wType": "Image"
            },
            "src": "info_grey.png"
        },
        "keyValue": {
            "__events__": {},
            "__info__": {
                "kuid": "eea011d73a904198813cd3d2aa673317",
                "srcKUID": "bf355de96c7d4037a3985abbd7de3bdf",
                "wType": "UserWidgetInstance"
            }
        },
        "keyValue.flxContainer": {
            "__events__": {},
            "__info__": {
                "kuid": "j5f44f61f72e4a94b26f307be152f3d2",
                "srcKUID": "aabf3d06eff94d97b5f7741067d34ac8",
                "wType": "FlexContainer"
            }
        },
        "keyValue.flxInfo": {
            "__events__": {},
            "__info__": {
                "kuid": "bad25623aa88492da6daa242e232ad0e",
                "srcKUID": "daf20a684de64cfabb191ccb0fd21dc7",
                "wType": "FlexContainer"
            }
        },
        "keyValue.flxKey": {
            "__events__": {},
            "__info__": {
                "kuid": "f5afa049ab874b84a78951ad2d9c67da",
                "srcKUID": "e27afbe3794143ec9b623f0bd0ab6bc0",
                "wType": "FlexContainer"
            }
        },
        "keyValue.flxValue": {
            "__events__": {},
            "__info__": {
                "kuid": "d3741eed2bf24eb1a182792656dd21bb",
                "srcKUID": "gc7068cd4138431fa6b4ce1ab9932359",
                "wType": "FlexContainer"
            }
        },
        "keyValue.imgWhatIsSSN": {
            "__events__": {},
            "__info__": {
                "kuid": "d190ebf2e812463281134db8046605e5",
                "srcKUID": "c4d131ae928d497291ab128b221305ee",
                "wType": "Image"
            },
            "src": "info_grey.png"
        },
        "keyValue.lblColon": {
            "__events__": {},
            "__info__": {
                "kuid": "ceb6016616314d13be772c1612f29bf7",
                "srcKUID": "fd7bea8dae5e4415aad587d191a56598",
                "wType": "Label"
            }
        },
        "keyValue.lblKey": {
            "__events__": {},
            "__info__": {
                "kuid": "b4732483039f4e47aa8fa9c255b60dbc",
                "srcKUID": "i0081a5444ce416c91a1d75a62042451",
                "wType": "Label"
            }
        },
        "keyValue.lblValue": {
            "__events__": {},
            "__info__": {
                "kuid": "d4d50feadc704e948993c72f3c89b00d",
                "srcKUID": "d8cfcb49d1c54ab6a287dbbd2b48790a",
                "wType": "Label"
            }
        },
        "keyValue1": {
            "__events__": {},
            "__info__": {
                "kuid": "ea137cbf96ea4d3ea6088dced4b6895c",
                "srcKUID": "b1b7e6fcee704b18a43af7aebaf24eb2",
                "wType": "UserWidgetInstance"
            }
        },
        "keyValue1.flxContainer": {
            "__events__": {},
            "__info__": {
                "kuid": "f46d1323c37a43afabf44735d0c2d4bf",
                "srcKUID": "ebc82d216f7f4dac845fccbe5eca0de9",
                "wType": "FlexContainer"
            }
        },
        "keyValue1.flxInfo": {
            "__events__": {},
            "__info__": {
                "kuid": "d019d42bb33242b3b7d2865b76303b31",
                "srcKUID": "i9f34aa540074e7cac767d28ea5d8406",
                "wType": "FlexContainer"
            }
        },
        "keyValue1.flxKey": {
            "__events__": {},
            "__info__": {
                "kuid": "g0e903b90d254901bc3d3de10d1bd12c",
                "srcKUID": "ce82054a5c0d412cb8c285e9c6698971",
                "wType": "FlexContainer"
            }
        },
        "keyValue1.flxValue": {
            "__events__": {},
            "__info__": {
                "kuid": "ebafea22a61046418b3eda6c168157b1",
                "srcKUID": "cc838a3f5c2c4472acc24bc28e09937b",
                "wType": "FlexContainer"
            }
        },
        "keyValue1.imgWhatIsSSN": {
            "__events__": {},
            "__info__": {
                "kuid": "f5a00132699644d8822c6d5ac5718e10",
                "srcKUID": "f30b601a4c924a7e9f8134290a9df64f",
                "wType": "Image"
            },
            "src": "info_grey.png"
        },
        "keyValue1.lblColon": {
            "__events__": {},
            "__info__": {
                "kuid": "i74059578ffc4c808b2274427618fb1f",
                "srcKUID": "e989919868a04b22a8b5b7d0fa1f0cb2",
                "wType": "Label"
            }
        },
        "keyValue1.lblKey": {
            "__events__": {},
            "__info__": {
                "kuid": "f2b03c1a77c34798b237b8dc7c699402",
                "srcKUID": "abb2ea5d12f64500ae451fcdf1a3dd7d",
                "wType": "Label"
            }
        },
        "keyValue1.lblValue": {
            "__events__": {},
            "__info__": {
                "kuid": "a22f543db25d437c9038c98b9984b3db",
                "srcKUID": "bebb9107f00743eca823735a9d80c86b",
                "wType": "Label"
            }
        },
        "keyValue2": {
            "__events__": {},
            "__info__": {
                "kuid": "b791c71582c84527afc42debb4d70c42",
                "srcKUID": "cc784e003fb449f2a45fa43f4df4f4f8",
                "wType": "UserWidgetInstance"
            }
        },
        "keyValue2.flxContainer": {
            "__events__": {},
            "__info__": {
                "kuid": "eebdf0932f404cb3b7804fa863f4a58c",
                "srcKUID": "f5a2eb61a8e344788e03080bfa31167d",
                "wType": "FlexContainer"
            }
        },
        "keyValue2.flxInfo": {
            "__events__": {},
            "__info__": {
                "kuid": "fd1df60667da40069991f7987606ccc7",
                "srcKUID": "b47e6271305d47bfba3b04876809acf0",
                "wType": "FlexContainer"
            }
        },
        "keyValue2.flxKey": {
            "__events__": {},
            "__info__": {
                "kuid": "e9794ef911994bc380ce6dcf6468da24",
                "srcKUID": "gf9b16ff2a7743b4b41280cbac86b194",
                "wType": "FlexContainer"
            }
        },
        "keyValue2.flxValue": {
            "__events__": {},
            "__info__": {
                "kuid": "caedb6263f054f55b231a5d27f297259",
                "srcKUID": "bdc6461f90c249f88603af4b4ac7b772",
                "wType": "FlexContainer"
            }
        },
        "keyValue2.imgWhatIsSSN": {
            "__events__": {},
            "__info__": {
                "kuid": "d93989db7266418e847dd5b4dc07eaae",
                "srcKUID": "da3ee9d9f55c48899182b7750152e801",
                "wType": "Image"
            },
            "src": "info_grey.png"
        },
        "keyValue2.lblColon": {
            "__events__": {},
            "__info__": {
                "kuid": "gb585b10c7f7432ca7188c527047f643",
                "srcKUID": "jbd9c2c8e61a45ab8b8233d591cdd33e",
                "wType": "Label"
            }
        },
        "keyValue2.lblKey": {
            "__events__": {},
            "__info__": {
                "kuid": "ebc82a5a951344f39299167afb3b5bb3",
                "srcKUID": "deb9aba63927434fa23ae2458800d359",
                "wType": "Label"
            }
        },
        "keyValue2.lblValue": {
            "__events__": {},
            "__info__": {
                "kuid": "ff2b91a975ce43f4be3fa3bc7600f4fd",
                "srcKUID": "jacf342ebdba484e9040354916f1808b",
                "wType": "Label"
            }
        },
        "keyValueAccountNickName": {
            "__events__": {},
            "__info__": {
                "kuid": "f60bb22dfb594edda8b60eeaeb5b5ee3",
                "srcKUID": "9a1e2df7e9834c56bd09b307616d66d3",
                "wType": "UserWidgetInstance"
            },
            "responsiveData": {
                "b3": {
                    "isVisible": false
                }
            }
        },
        "keyValueAccountNickName.flxContainer": {
            "__events__": {},
            "__info__": {
                "kuid": "ff8452feb2bd4d08a4f0e80f4ddbf1a4",
                "srcKUID": "af841be489334f9fbdd6c62a307b69e8",
                "wType": "FlexContainer"
            }
        },
        "keyValueAccountNickName.flxInfo": {
            "__events__": {},
            "__info__": {
                "kuid": "ff2a129a9df14ddb871b3ac6a6006682",
                "srcKUID": "c57c174ff76246f889b219bec6c0dea0",
                "wType": "FlexContainer"
            }
        },
        "keyValueAccountNickName.flxKey": {
            "__events__": {},
            "__info__": {
                "kuid": "fc2b0c0bf1a3401fb424a61fcbddeef5",
                "srcKUID": "c15f3713024d45169c5f40e8ba5e3f93",
                "wType": "FlexContainer"
            },
            "left": {},
            "responsiveData": {
                "b2": {
                    "left": {
                        "type": "string",
                        "value": "30px"
                    },
                    "width": {
                        "type": "string",
                        "value": "22%"
                    }
                }
            },
            "width": {}
        },
        "keyValueAccountNickName.flxValue": {
            "__events__": {},
            "__info__": {
                "kuid": "g7fade1fecf046b5baf15be49e1bf925",
                "srcKUID": "fc0f3d103da0487cbcd65392cd00ae1a",
                "wType": "FlexContainer"
            },
            "left": {},
            "responsiveData": {
                "b2": {
                    "left": {
                        "type": "string",
                        "value": "32%"
                    }
                }
            }
        },
        "keyValueAccountNickName.imgWhatIsSSN": {
            "__events__": {},
            "__info__": {
                "kuid": "e6b65f65c4414a069e6dae09311222d4",
                "srcKUID": "ecfb02fa255148c698dc1145472a3810",
                "wType": "Image"
            },
            "src": "info_grey.png"
        },
        "keyValueAccountNickName.lblColon": {
            "__events__": {},
            "__info__": {
                "kuid": "i028fe3f2ae34118b0b656c9d37b2ed7",
                "srcKUID": "gca0e285f2d143f8b78f03d9a9afc045",
                "wType": "Label"
            },
            "left": {},
            "responsiveData": {
                "b2": {
                    "left": {
                        "type": "string",
                        "value": "30%"
                    }
                }
            }
        },
        "keyValueAccountNickName.lblKey": {
            "__events__": {},
            "__info__": {
                "kuid": "h2309ffa0b8849738ad2dd7ac92543b8",
                "srcKUID": "f48d5d4a29694cfe8cb09dcad61dc38e",
                "wType": "Label"
            }
        },
        "keyValueAccountNickName.lblValue": {
            "__events__": {},
            "__info__": {
                "kuid": "c7ec646baaf14cb0a4c67ab7bc31e9ce",
                "srcKUID": "fea597d5c1854bd8b06382314bea3d7e",
                "wType": "Label"
            }
        },
        "keyValueAccountNumber": {
            "__events__": {},
            "__info__": {
                "kuid": "e121a514054e409f9da6bb8653cc66f6",
                "srcKUID": "22ed949384d444f9a88a5cbfffd216ad",
                "wType": "UserWidgetInstance"
            },
            "responsiveData": {
                "b3": {
                    "top": {
                        "type": "string",
                        "value": "20dp"
                    }
                }
            },
            "top": {}
        },
        "keyValueAccountNumber.flxContainer": {
            "__events__": {},
            "__info__": {
                "kuid": "i0dc0b6377cf4be780c652dfcb143c48",
                "srcKUID": "d62e8bcd90d6424cb416e9cae13213b9",
                "wType": "FlexContainer"
            },
            "responsiveData": {
                "b3": {
                    "layoutType": 4
                }
            }
        },
        "keyValueAccountNumber.flxInfo": {
            "__events__": {},
            "__info__": {
                "kuid": "dee1c3f07e3f485fbe402c1c6d84bc2d",
                "srcKUID": "ae76bb317f914fbd8892e888dcf890a0",
                "wType": "FlexContainer"
            }
        },
        "keyValueAccountNumber.flxKey": {
            "__events__": {},
            "__info__": {
                "kuid": "e15008bb73c84bebb3b9d453890647ae",
                "srcKUID": "d9683bd46fab45fa8f75f920b65133f3",
                "wType": "FlexContainer"
            },
            "left": {},
            "responsiveData": {
                "b2": {
                    "left": {
                        "type": "string",
                        "value": "30px"
                    },
                    "width": {
                        "type": "string",
                        "value": "22%"
                    }
                },
                "b3": {
                    "left": {
                        "type": "string",
                        "value": "15dp"
                    },
                    "width": {
                        "type": "string",
                        "value": "22%"
                    }
                }
            },
            "width": {}
        },
        "keyValueAccountNumber.flxValue": {
            "__events__": {},
            "__info__": {
                "kuid": "c0fa845af64644858fc40bfa1a550fc4",
                "srcKUID": "jba60477ef8e4d1f8381865bdca7138f",
                "wType": "FlexContainer"
            },
            "left": {},
            "responsiveData": {
                "b2": {
                    "left": {
                        "type": "string",
                        "value": "32%"
                    }
                },
                "b3": {
                    "left": {
                        "type": "string",
                        "value": "15dp"
                    },
                    "top": {
                        "type": "string",
                        "value": "5dp"
                    }
                }
            },
            "top": {}
        },
        "keyValueAccountNumber.imgWhatIsSSN": {
            "__events__": {},
            "__info__": {
                "kuid": "e434db17901f47a897bc5631a21df95c",
                "srcKUID": "b3abb15e8a234ee79bcf345e5d63528d",
                "wType": "Image"
            },
            "src": "info_grey.png"
        },
        "keyValueAccountNumber.lblColon": {
            "__events__": {},
            "__info__": {
                "kuid": "g9cbff4f85624c12b0237a30bc80b67b",
                "srcKUID": "df5e94d112b3438ebdb06511cdbdee99",
                "wType": "Label"
            },
            "left": {},
            "responsiveData": {
                "b2": {
                    "left": {
                        "type": "string",
                        "value": "30%"
                    }
                },
                "b3": {
                    "isVisible": false
                }
            }
        },
        "keyValueAccountNumber.lblKey": {
            "__events__": {},
            "__info__": {
                "kuid": "b670b72a931548aea5d13b4ffef2650f",
                "srcKUID": "be177026f995496bb8364e59c77966f3",
                "wType": "Label"
            }
        },
        "keyValueAccountNumber.lblValue": {
            "__events__": {},
            "__info__": {
                "kuid": "acb8527309584786a2fc20f9da027b4e",
                "srcKUID": "cbabed6cdde34c7b9fc687dc7eeba7d0",
                "wType": "Label"
            }
        },
        "keyValueAccountType": {
            "__events__": {},
            "__info__": {
                "kuid": "a4fdc3c29d3244ae95904dad0467ebc0",
                "srcKUID": "6c0f371ccb1c4b5ca7fc9b907232b033",
                "wType": "UserWidgetInstance"
            },
            "responsiveData": {
                "b3": {
                    "top": {
                        "type": "string",
                        "value": "20dp"
                    }
                }
            },
            "top": {}
        },
        "keyValueAccountType.flxContainer": {
            "__events__": {},
            "__info__": {
                "kuid": "j86c46d3d5254727ad1cafd4fea416b0",
                "srcKUID": "d567ce646fe94ac79399b9416191cd69",
                "wType": "FlexContainer"
            },
            "responsiveData": {
                "b3": {
                    "layoutType": 4
                }
            }
        },
        "keyValueAccountType.flxInfo": {
            "__events__": {},
            "__info__": {
                "kuid": "c607f8015a4b4bd5988e1a7c29f7eeac",
                "srcKUID": "eb46f56c32384c9ab5e9127311390428",
                "wType": "FlexContainer"
            }
        },
        "keyValueAccountType.flxKey": {
            "__events__": {},
            "__info__": {
                "kuid": "fed26e00ae5b4ce3b6e09aaa3cfbaebe",
                "srcKUID": "j7cae37097ce4cbd92f2f138209130c5",
                "wType": "FlexContainer"
            },
            "left": {},
            "responsiveData": {
                "b2": {
                    "left": {
                        "type": "string",
                        "value": "30px"
                    },
                    "width": {
                        "type": "string",
                        "value": "22%"
                    }
                },
                "b3": {
                    "left": {
                        "type": "string",
                        "value": "15dp"
                    }
                }
            },
            "width": {}
        },
        "keyValueAccountType.flxValue": {
            "__events__": {},
            "__info__": {
                "kuid": "g866b07b5cb14e959a18ec2267a501b8",
                "srcKUID": "e97c170540e54f9384a5791e431054fd",
                "wType": "FlexContainer"
            },
            "left": {},
            "responsiveData": {
                "b2": {
                    "left": {
                        "type": "string",
                        "value": "32%"
                    }
                },
                "b3": {
                    "left": {
                        "type": "string",
                        "value": "15dp"
                    },
                    "top": {
                        "type": "string",
                        "value": "5dp"
                    }
                }
            },
            "top": {}
        },
        "keyValueAccountType.imgWhatIsSSN": {
            "__events__": {},
            "__info__": {
                "kuid": "gd46779c3fbc4201890051349776e7e8",
                "srcKUID": "f4c2c5c1d4ea4f91b96e0e0f8310cbb5",
                "wType": "Image"
            },
            "src": "info_grey.png"
        },
        "keyValueAccountType.lblColon": {
            "__events__": {},
            "__info__": {
                "kuid": "f697341201524763b543ca8b51ad47be",
                "srcKUID": "ae64cdfeff7441f0ba7f265bed03ad70",
                "wType": "Label"
            },
            "left": {},
            "responsiveData": {
                "b2": {
                    "left": {
                        "type": "string",
                        "value": "30%"
                    }
                },
                "b3": {
                    "isVisible": false
                }
            }
        },
        "keyValueAccountType.lblKey": {
            "__events__": {},
            "__info__": {
                "kuid": "d2f042e5c51b42429cef8896903abc2f",
                "srcKUID": "ed5099b3c381499497e1773aabd83685",
                "wType": "Label"
            }
        },
        "keyValueAccountType.lblValue": {
            "__events__": {},
            "__info__": {
                "kuid": "af1f9ee131d6481c830360a6e4055d08",
                "srcKUID": "d86215b98d5b455ebaedde9ce960a851",
                "wType": "Label"
            }
        },
        "keyValueBankName": {
            "__events__": {},
            "__info__": {
                "kuid": "fd1fc57f60534e579e37cffb073926a9",
                "srcKUID": "08248eb44d834289aec120be1d98585b",
                "wType": "UserWidgetInstance"
            }
        },
        "keyValueBankName.flxContainer": {
            "__events__": {},
            "__info__": {
                "kuid": "f4483c2f555f4eccb51c8e24e7f106a5",
                "srcKUID": "df3fca97b5944da4b71458a9d4d38f93",
                "wType": "FlexContainer"
            },
            "responsiveData": {
                "b3": {
                    "layoutType": 4
                }
            }
        },
        "keyValueBankName.flxInfo": {
            "__events__": {},
            "__info__": {
                "kuid": "i1a48160e8444e13a5f40d5768abaf4a",
                "srcKUID": "b5005032891f4a8d8d7c4b48f2f69e6c",
                "wType": "FlexContainer"
            }
        },
        "keyValueBankName.flxKey": {
            "__events__": {},
            "__info__": {
                "kuid": "fa4056c23c8b441f928d3d82fd82417e",
                "srcKUID": "g687cdaed4554bf2b79243ba15955a74",
                "wType": "FlexContainer"
            },
            "left": {},
            "responsiveData": {
                "b2": {
                    "left": {
                        "type": "string",
                        "value": "30px"
                    },
                    "width": {
                        "type": "string",
                        "value": "22%"
                    }
                },
                "b3": {
                    "left": {
                        "type": "string",
                        "value": "15dp"
                    }
                }
            },
            "width": {}
        },
        "keyValueBankName.flxValue": {
            "__events__": {},
            "__info__": {
                "kuid": "c2ec11b341f54a4c9ea0fca17f1f921f",
                "srcKUID": "e780c25af1b54a5e939437c8e4c160c2",
                "wType": "FlexContainer"
            },
            "left": {},
            "responsiveData": {
                "b2": {
                    "left": {
                        "type": "string",
                        "value": "32%"
                    }
                },
                "b3": {
                    "left": {
                        "type": "string",
                        "value": "15dp"
                    },
                    "top": {
                        "type": "string",
                        "value": "5dp"
                    }
                }
            },
            "top": {}
        },
        "keyValueBankName.imgWhatIsSSN": {
            "__events__": {},
            "__info__": {
                "kuid": "b04b0c18ecc54999875fff652f9a3465",
                "srcKUID": "be6aa40039c543119065ed28b4f1f68d",
                "wType": "Image"
            },
            "src": "info_grey.png"
        },
        "keyValueBankName.lblColon": {
            "__events__": {},
            "__info__": {
                "kuid": "d9635a604354495bae0f7933675b403d",
                "srcKUID": "a41e6919283d4ac1bb48812352fa06da",
                "wType": "Label"
            },
            "left": {},
            "responsiveData": {
                "b2": {
                    "left": {
                        "type": "string",
                        "value": "30%"
                    }
                },
                "b3": {
                    "isVisible": false
                }
            }
        },
        "keyValueBankName.lblKey": {
            "__events__": {},
            "__info__": {
                "kuid": "b0c93efa3c7f420b995f70d0d0643c56",
                "srcKUID": "e7c0d7a6cb4d4361bd846506a78769e8",
                "wType": "Label"
            }
        },
        "keyValueBankName.lblValue": {
            "__events__": {},
            "__info__": {
                "kuid": "be6d67e7dc3049ef9e22d8e30da9ae20",
                "srcKUID": "ebcad4cf1d2b4537bf7359be280b2a58",
                "wType": "Label"
            }
        },
        "keyValueBenificiaryName": {
            "__events__": {},
            "__info__": {
                "kuid": "c605bde081494744bd8b3abcd744d961",
                "srcKUID": "2757a58421984b6d94ee6a54bc45ab53",
                "wType": "UserWidgetInstance"
            },
            "responsiveData": {
                "b3": {
                    "top": {
                        "type": "string",
                        "value": "20dp"
                    }
                }
            },
            "top": {}
        },
        "keyValueBenificiaryName.flxContainer": {
            "__events__": {},
            "__info__": {
                "kuid": "i436409d967948a5a399d24560fde1bf",
                "srcKUID": "d1571b44b2784eedb7e7935427fda840",
                "wType": "FlexContainer"
            },
            "responsiveData": {
                "b3": {
                    "layoutType": 4
                }
            }
        },
        "keyValueBenificiaryName.flxInfo": {
            "__events__": {},
            "__info__": {
                "kuid": "c280f4c9c0bd4c6b8ffe9cf39e84b18f",
                "srcKUID": "ab89a37495f24793925db2b4cddc4f57",
                "wType": "FlexContainer"
            }
        },
        "keyValueBenificiaryName.flxKey": {
            "__events__": {},
            "__info__": {
                "kuid": "b7059521dd19480b82e86abbee9ee17e",
                "srcKUID": "he5904cc80124f4497e795e561055b03",
                "wType": "FlexContainer"
            },
            "left": {},
            "responsiveData": {
                "b2": {
                    "left": {
                        "type": "string",
                        "value": "30px"
                    },
                    "width": {
                        "type": "string",
                        "value": "22%"
                    }
                },
                "b3": {
                    "left": {
                        "type": "string",
                        "value": "15dp"
                    },
                    "width": {
                        "type": "string",
                        "value": "22%"
                    }
                }
            },
            "width": {}
        },
        "keyValueBenificiaryName.flxValue": {
            "__events__": {},
            "__info__": {
                "kuid": "g5e408ff1ce144da96c22f0cda96304d",
                "srcKUID": "b4110976647f4b378d88aa133e0187bd",
                "wType": "FlexContainer"
            },
            "left": {},
            "responsiveData": {
                "b2": {
                    "left": {
                        "type": "string",
                        "value": "32%"
                    }
                },
                "b3": {
                    "left": {
                        "type": "string",
                        "value": "15dp"
                    },
                    "top": {
                        "type": "string",
                        "value": "5dp"
                    }
                }
            },
            "top": {}
        },
        "keyValueBenificiaryName.imgWhatIsSSN": {
            "__events__": {},
            "__info__": {
                "kuid": "aeb51c0255724a64b60d1b9002bbb2a1",
                "srcKUID": "d92f1ad94b324210a78bc529fb7fdc06",
                "wType": "Image"
            },
            "src": "info_grey.png"
        },
        "keyValueBenificiaryName.lblColon": {
            "__events__": {},
            "__info__": {
                "kuid": "h6d39d0e91fa4169bb02b2f21b1799f5",
                "srcKUID": "e857a4e72f574bdf98bfe99848b9251a",
                "wType": "Label"
            },
            "left": {},
            "responsiveData": {
                "b2": {
                    "left": {
                        "type": "string",
                        "value": "30%"
                    }
                },
                "b3": {
                    "isVisible": false
                }
            }
        },
        "keyValueBenificiaryName.lblKey": {
            "__events__": {},
            "__info__": {
                "kuid": "icf45581ba8a4f30a4f7d41025146bd9",
                "srcKUID": "i4c0053e0b084e51b4a862ee7657ded7",
                "wType": "Label"
            }
        },
        "keyValueBenificiaryName.lblValue": {
            "__events__": {},
            "__info__": {
                "kuid": "i1449e277fb94c43aaec63c8071b2e5c",
                "srcKUID": "j248fb9d8f934312b23c7149863f9d34",
                "wType": "Label"
            }
        },
        "keyValueCountryName": {
            "__events__": {},
            "__info__": {
                "kuid": "i9939c2fa2e445e3853e4bb1c36c25a5",
                "srcKUID": "47eb916454504d7085c0a963cbc72b69",
                "wType": "UserWidgetInstance"
            },
            "responsiveData": {
                "b3": {
                    "top": {
                        "type": "string",
                        "value": "20dp"
                    }
                }
            },
            "top": {}
        },
        "keyValueCountryName.flxContainer": {
            "__events__": {},
            "__info__": {
                "kuid": "ad0ded4dc1f14d1abc21c07dc6724785",
                "srcKUID": "aad170df77c24b4baeddece37f872410",
                "wType": "FlexContainer"
            },
            "responsiveData": {
                "b3": {
                    "layoutType": 4
                }
            }
        },
        "keyValueCountryName.flxInfo": {
            "__events__": {},
            "__info__": {
                "kuid": "db5444765a814cb3b76f762e93bce7a1",
                "srcKUID": "caba69c85de94b9aad24fccd6d01c6a9",
                "wType": "FlexContainer"
            }
        },
        "keyValueCountryName.flxKey": {
            "__events__": {},
            "__info__": {
                "kuid": "jba00bdf3a0d4116b7e8d145da9e716e",
                "srcKUID": "eb47a14df1c84c9cb7be416f721dccb5",
                "wType": "FlexContainer"
            },
            "left": {},
            "responsiveData": {
                "b2": {
                    "left": {
                        "type": "string",
                        "value": "30px"
                    },
                    "width": {
                        "type": "string",
                        "value": "22%"
                    }
                },
                "b3": {
                    "left": {
                        "type": "string",
                        "value": "15dp"
                    }
                }
            },
            "width": {}
        },
        "keyValueCountryName.flxValue": {
            "__events__": {},
            "__info__": {
                "kuid": "c974422fdb1745afa2a60bad5ae74557",
                "srcKUID": "be1a0d4555974b449edbd55ac7e205e3",
                "wType": "FlexContainer"
            },
            "left": {},
            "responsiveData": {
                "b2": {
                    "left": {
                        "type": "string",
                        "value": "32%"
                    }
                },
                "b3": {
                    "left": {
                        "type": "string",
                        "value": "15dp"
                    },
                    "top": {
                        "type": "string",
                        "value": "5dp"
                    }
                }
            },
            "top": {}
        },
        "keyValueCountryName.imgWhatIsSSN": {
            "__events__": {},
            "__info__": {
                "kuid": "f015a6115efe4955b7a6aeef7c39e516",
                "srcKUID": "d93d575ae36b43aeb51f7fd0b9ebd5f7",
                "wType": "Image"
            },
            "src": "info_grey.png"
        },
        "keyValueCountryName.lblColon": {
            "__events__": {},
            "__info__": {
                "kuid": "f9fbc639ae0b432d8f363a43ef103f16",
                "srcKUID": "dc01b1cc73274c119369c0e1fc5f2637",
                "wType": "Label"
            },
            "left": {},
            "responsiveData": {
                "b2": {
                    "left": {
                        "type": "string",
                        "value": "30%"
                    }
                },
                "b3": {
                    "isVisible": false
                }
            }
        },
        "keyValueCountryName.lblKey": {
            "__events__": {},
            "__info__": {
                "kuid": "ad20e8eb84f844abb2dbfcd6cfb0f03e",
                "srcKUID": "fc30ea9c1a6545ada1a75b911f32d41a",
                "wType": "Label"
            }
        },
        "keyValueCountryName.lblValue": {
            "__events__": {},
            "__info__": {
                "kuid": "i5ebbfaeb0474b6fb072958b9068bacc",
                "srcKUID": "jb025dc5e04645cc86095ca034d911bf",
                "wType": "Label"
            },
            "left": {},
            "responsiveData": {
                "b2": {
                    "left": {
                        "type": "string",
                        "value": "0dp"
                    }
                }
            }
        },
        "keyValueRoutingNumber": {
            "__events__": {},
            "__info__": {
                "kuid": "c6e8e5ac39f04e0582f48269d5b40af9",
                "srcKUID": "g5fac4670c1840f6a7ff7aea344b3941",
                "wType": "UserWidgetInstance"
            },
            "responsiveData": {
                "b3": {
                    "top": {
                        "type": "string",
                        "value": "20dp"
                    }
                }
            },
            "top": {}
        },
        "keyValueRoutingNumber.flxContainer": {
            "__events__": {},
            "__info__": {
                "kuid": "j2a56c0c35f744e1b8f6869ed0f59211",
                "srcKUID": "e028deccdbcd4205994ec664d8273ef3",
                "wType": "FlexContainer"
            },
            "responsiveData": {
                "b3": {
                    "layoutType": 4
                }
            }
        },
        "keyValueRoutingNumber.flxInfo": {
            "__events__": {},
            "__info__": {
                "kuid": "bb5ef268357c4e98a1c645cf83320c73",
                "srcKUID": "i1a1592208a846878a0f99bbeacfe023",
                "wType": "FlexContainer"
            }
        },
        "keyValueRoutingNumber.flxKey": {
            "__events__": {},
            "__info__": {
                "kuid": "g10b3b21e41d4c0d9e0307e7aff89af5",
                "srcKUID": "d3d267b58ad54ea5ba4c0a5b6e3d1b82",
                "wType": "FlexContainer"
            },
            "left": {},
            "responsiveData": {
                "b2": {
                    "left": {
                        "type": "string",
                        "value": "30px"
                    },
                    "width": {
                        "type": "string",
                        "value": "22%"
                    }
                },
                "b3": {
                    "left": {
                        "type": "string",
                        "value": "15dp"
                    },
                    "width": {
                        "type": "string",
                        "value": "22%"
                    }
                }
            },
            "width": {}
        },
        "keyValueRoutingNumber.flxValue": {
            "__events__": {},
            "__info__": {
                "kuid": "ff0f4c80a7af4658bb971aa6db93d9be",
                "srcKUID": "a058dc5d249940b095daaf4689719315",
                "wType": "FlexContainer"
            },
            "left": {},
            "responsiveData": {
                "b2": {
                    "left": {
                        "type": "string",
                        "value": "32%"
                    }
                },
                "b3": {
                    "left": {
                        "type": "string",
                        "value": "15dp"
                    },
                    "top": {
                        "type": "string",
                        "value": "5dp"
                    }
                }
            },
            "top": {}
        },
        "keyValueRoutingNumber.imgWhatIsSSN": {
            "__events__": {},
            "__info__": {
                "kuid": "hdafe1f5389440a994e46f13546b8036",
                "srcKUID": "d8b25e1cf40a449598a27c71f313a872",
                "wType": "Image"
            },
            "src": "info_grey.png"
        },
        "keyValueRoutingNumber.lblColon": {
            "__events__": {},
            "__info__": {
                "kuid": "ab806c48607d4f1b9aadbce93898365b",
                "srcKUID": "g6a424524d5e4f21b7b5b6316ce0e6c2",
                "wType": "Label"
            },
            "left": {},
            "responsiveData": {
                "b2": {
                    "left": {
                        "type": "string",
                        "value": "30%"
                    }
                },
                "b3": {
                    "isVisible": false
                }
            }
        },
        "keyValueRoutingNumber.lblKey": {
            "__events__": {},
            "__info__": {
                "kuid": "f246027248b14700b11500c4c7877c6d",
                "srcKUID": "c07f66d6e9a045388605ebe992b3399e",
                "wType": "Label"
            },
            "i18n_text": "i18n.accounts.routingNumber"
        },
        "keyValueRoutingNumber.lblValue": {
            "__events__": {},
            "__info__": {
                "kuid": "e20ee1c49ae44877a9998737e25bdb4b",
                "srcKUID": "f41ba9cf3ab540fd9ec24f64d78cf29f",
                "wType": "Label"
            }
        },
        "lblFee": {
            "__events__": {},
            "__info__": {
                "kuid": "a145310d73d54fdd908f24e31a31cd5a",
                "srcKUID": "a2491467273d482ea0ae30239caad061",
                "wType": "Label"
            }
        },
        "lblPaidByRecipient": {
            "__events__": {},
            "__info__": {
                "kuid": "fc9efcc214c04e69a4cc7f76b31eadec",
                "srcKUID": "e38631b3edde424fa5a0109500a150f6",
                "wType": "Label"
            }
        },
        "lblTransactioFee": {
            "__events__": {},
            "__info__": {
                "kuid": "b7c6732a6ef6425181b34c336ffb9224",
                "srcKUID": "h9eb4b411b6442e283f540230f77bbf5",
                "wType": "Label"
            },
            "i18n_text": "i18n.TransfersEuro.TransactionFeeColon",
            "responsiveData": {}
        }
    },
    "id": "confirmDialogAccounts",
    "info": null,
    "isdatareferenced": false,
    "isvisible": true,
    "kuid": "bf7842b395be4496ba902ca32e206d53",
    "layouttype": 2,
    "masterType": 0,
    "name": "kony.ui.UserWidgetInstance",
    "parent": "flxConfirmContainer",
    "pf": "frmConfirmAccountEur",
    "snaptogrid": true,
    "sourceUserWidget": "19af251ce6a24651a06e6dc65b2303e6",
    "vizprops": {
        "hidewidgethierarchy": false
    },
    "wType": "UserWidgetInstance"
}