{
    "DNDConfig": null,
    "__parentReadjusting__": false,
    "_height_": {
        "type": "string",
        "value": "80dp"
    },
    "_left_": {
        "type": "string",
        "value": "0%"
    },
    "_margin_": [
        0,
        0,
        0,
        0
    ],
    "_orientation_": 6,
    "_padding_": [
        0,
        0,
        0,
        0
    ],
    "_percent_": true,
    "_skin_": "s680c9bafb594fe4bfa388d84acc43b2",
    "_top_": {
        "type": "string",
        "value": "0dp"
    },
    "_width_": {
        "type": "string",
        "value": "100%"
    },
    "allboxes": [],
    "autogrowmode": 0,
    "canUpdateUI": true,
    "children": [
        "imgIdentifier",
        "flxIdentifier",
        "flxContent",
        "flxMenu"
    ],
    "clipbounds": false,
    "containerId": true,
    "containerweight": 100,
    "desktopweb": {
        "psp": {
            "hoverSkin": "s447077a87964089b4558c6cf328c0df"
        }
    },
    "enablescrolling": true,
    "id": "flxAccountListItemWrapper",
    "info": null,
    "isvisible": true,
    "kuid": "eda27bd7ca734313976dc353b509d379",
    "layouttype": 2,
    "name": "kony.ui.FlexContainer",
    "parent": "flxAccountListItemMobile",
    "pf": "segAccountListItemMobile",
    "snapgridsize": 10,
    "snaptogrid": true,
    "wType": "FlexContainer",
    "widgetalignment": 1,
    "zindex": 1
}