{
    "@class": "com.kony.gen.viz.model.component.KVizLabel",
    "DNDConfig": null,
    "__parentReadjusting__": false,
    "_height_": {
        "type": "string",
        "value": "15dp"
    },
    "_left_": {
        "type": "string",
        "value": "15dp"
    },
    "_margin_": [
        0,
        0,
        0,
        0
    ],
    "_padding_": [
        0,
        0,
        0,
        0
    ],
    "_right_": {
        "type": "string",
        "value": "2%"
    },
    "_skin_": "sbb5f9db8bad4b8c8dd2ace0ec2b931f",
    "_text_": "F",
    "_top_": {
        "type": "string",
        "value": "0dp"
    },
    "_width_": {
        "type": "string",
        "value": "15dp"
    },
    "_wrapping_": 2,
    "accessibilityconfig": {
        "a11yLabel": "F"
    },
    "android": {
        "textStyle": {
            "letterSpacing": 0,
            "strikeThrough": false
        }
    },
    "canUpdateUI": true,
    "centery": {
        "type": "string",
        "value": "50%"
    },
    "containerId": true,
    "containerweight": 100,
    "contentalignment": 4,
    "id": "imgStarIcon",
    "info": null,
    "ipad": {
        "psp": {
            "wrapping": 2
        }
    },
    "iphone": {
        "psp": {
            "wrapping": 2
        }
    },
    "isvisible": true,
    "kuid": "b458b39c17d14e07bf873619c1e4669d",
    "name": "kony.ui.Label",
    "parent": "flxFavourite",
    "pf": "segAccountListItemMobile",
    "tooltip": "",
    "wType": "Label",
    "zindex": 1
}