{
    "@class": "com.kony.gen.viz.model.container.KVizScrollFlexForm",
    "DNDConfig": null,
    "_margin_": [
        0,
        0,
        0,
        0
    ],
    "_orientation_": 1,
    "_padding_": [
        0,
        0,
        0,
        0
    ],
    "_percent_": true,
    "_skin_": "s2f58a140c5647b8a643edf5a6309600",
    "_title_": null,
    "addWidgetsdone": false,
    "allboxes": [],
    "android": {
        "psp": {
            "windowSoftInputMode": 2
        }
    },
    "breakpointInfo": {
        "b1": {
            "width": 1380
        },
        "b2": {
            "width": 1366
        },
        "b3": {
            "width": 640
        },
        "b4": {
            "width": 1024
        }
    },
    "canUpdateUI": true,
    "canvasWidth": 1400,
    "children": [
        "flxHeader",
        "flxFooter",
        "flxMain",
        "flxPopup",
        "flxLoading",
        "flxLogout",
        "flxTermsAndConditionsPopUp"
    ],
    "containerweight": 100,
    "controllerInfo": {
        "default": {
            "channel": "desktop",
            "name": "frmWireTransferController"
        }
    },
    "currentLocale": "default",
    "desktopweb": {
        "needAppMenu": false
    },
    "device": "desktopweb",
    "displayorientation": 1,
    "enabledforidletimeout": true,
    "friendlyName": "frmWireTransfer",
    "id": "frmWireTransfer",
    "ide_onDeviceBack": "AS_Form_i940b60fb529478d80eecd31abca40a1",
    "ide_onScrollEnd": "AS_Form_c03c3f4a12a34a9fa832ec4b9d0de8f0",
    "ide_onTouchEnd": "AS_Form_a3f85960f6584452949f79666367e4e9",
    "ide_postShow": "AS_Form_bd9ead963a0d4aa88c5a3391d95fe53b",
    "ide_preShow": "AS_Form_c3ba9435f751460a9db3346daf50c19d",
    "info": null,
    "initdone": false,
    "inputaccessoryviewtype": 4,
    "ipad": {
        "psp": {
            "inputAccessoryViewType": 4
        }
    },
    "iphone": {
        "psp": {
            "inputAccessoryViewType": 4
        }
    },
    "isvisible": true,
    "kuid": "g6761289d328438db40a889bdbda5720",
    "layouttype": 2,
    "name": "kony.ui.Form2",
    "needappmenu": true,
    "paddinginpixel": false,
    "platform": "desktopweb",
    "prevDevice": "desktopweb",
    "prevPlatform": "desktopweb",
    "retainscrollposition": false,
    "shellCSS": "desktop",
    "snapgridsize": 10,
    "snaptogrid": true,
    "titleBarSkin": "s2e24ee0a8ca46b089d8a5bea8a1a32e",
    "titlebar": true,
    "type": 3,
    "vizProps": {
        "globalRespDesignEnabled": false
    },
    "wType": "Form"
}