{
    "@class": "com.kony.gen.viz.model.component.KVizImage2",
    "DNDConfig": null,
    "__parentReadjusting__": false,
    "_base64_": null,
    "_height_": {
        "type": "string",
        "value": "15dp"
    },
    "_margin_": [
        0,
        0,
        0,
        0
    ],
    "_padding_": [
        0,
        0,
        0,
        0
    ],
    "_skin_": "s78a5f26c9f14cec9ebed1bb46098f80",
    "_src_": "info_grey.png",
    "_width_": {
        "type": "string",
        "value": "15dp"
    },
    "accessibilityconfig": {
        "a11yLabel": "Info"
    },
    "canUpdateUI": true,
    "centerx": {
        "type": "string",
        "value": "63%"
    },
    "centery": {
        "type": "string",
        "value": "51%"
    },
    "containerweight": 100,
    "context": {
        "channel": "desktop",
        "formID": "frmWireTransfer",
        "platform": "desktopweb",
        "templateType": "forms",
        "topLevelBox": null
    },
    "id": "imgInfo",
    "imagescalemode": 1,
    "info": null,
    "invokedProperty": "src",
    "isvisible": false,
    "kuid": "h67bc841028a421bb23410c835d16c81",
    "name": "kony.ui.Image2",
    "parent": "flxAddInternationalAccount",
    "pf": "frmWireTransfer",
    "srcType": 1,
    "tooltip": "Info",
    "wType": "Image",
    "widgetalignment": 5,
    "zindex": 1
}