{
    "@class": "com.kony.gen.viz.model.component.KVizLabel",
    "DNDConfig": null,
    "__parentReadjusting__": false,
    "_height_": {
        "type": "string",
        "value": "1px"
    },
    "_left_": {
        "type": "string",
        "value": "30dp"
    },
    "_margin_": [
        1,
        1,
        1,
        1
    ],
    "_padding_": [
        0,
        0,
        0,
        0
    ],
    "_right_": {
        "type": "string",
        "value": "30dp"
    },
    "_skin_": "s284604f72ed4720b0351eff49faadce",
    "_text_": "a",
    "_top_": {
        "type": "string",
        "value": "20dp"
    },
    "_width_": {
        "type": "string",
        "value": "93%"
    },
    "_wrapping_": 2,
    "accessibilityconfig": {
        "a11yLabel": "This number is already registered with a customer. Do you want to log in now?"
    },
    "android": {
        "textStyle": {
            "letterSpacing": 0,
            "strikeThrough": false
        }
    },
    "canUpdateUI": true,
    "containerweight": 100,
    "contentalignment": 4,
    "id": "lblReviewApplicationSeperator4",
    "info": null,
    "ipad": {
        "psp": {
            "wrapping": 2
        }
    },
    "iphone": {
        "psp": {
            "wrapping": 2
        }
    },
    "isvisible": true,
    "kuid": "e05113fafe32469ca106762e493b79ed",
    "name": "kony.ui.Label",
    "parent": "flxReviewApplicationMain",
    "pf": "userwidgetmodel",
    "texti18n": "i18n.NUO.ThisNumberIsAlreadyRegisteredWithCustomer",
    "tooltip": "",
    "wType": "Label",
    "zindex": 1
}