{
    "DNDConfig": null,
    "__parentReadjusting__": false,
    "_height_": {
        "type": "string",
        "value": "20dp"
    },
    "_left_": {
        "type": "string",
        "value": "4dp"
    },
    "_margin_": [
        0,
        0,
        0,
        0
    ],
    "_orientation_": 6,
    "_padding_": [
        0,
        0,
        0,
        0
    ],
    "_percent_": true,
    "_skin_": "s24c92fc23b14f5484b693ee9b8a9b35",
    "_top_": {
        "type": "string",
        "value": "0dp"
    },
    "_width_": {
        "type": "string",
        "value": "20dp"
    },
    "allboxes": [],
    "autogrowmode": 0,
    "canUpdateUI": true,
    "centery": {
        "type": "string",
        "value": "51%"
    },
    "children": [
        "imgInfo"
    ],
    "clipbounds": true,
    "containerId": true,
    "containerweight": 100,
    "desktopweb": {
        "psp": {
            "hoverSkin": "s3e0ac30f9774278a868cb7c73908a76"
        }
    },
    "enablescrolling": true,
    "id": "flxInfo",
    "ide_onClick": "AS_FlexContainer_i06bd1af517f437f880c40d7df2efbab",
    "info": null,
    "isvisible": true,
    "kuid": "a909a0c058a1408ab598ada9f0c41051",
    "layouttype": 3,
    "name": "kony.ui.FlexContainer",
    "parent": "flxPrimary",
    "pf": "segProfileManagementPhoneNumbers",
    "snapgridsize": 10,
    "snaptogrid": true,
    "wType": "FlexContainer",
    "widgetalignment": 1,
    "zindex": 1
}