{
    "@class": "com.kony.gen.viz.model.component.KVizButton",
    "DNDConfig": null,
    "__parentReadjusting__": false,
    "_height_": {
        "type": "string",
        "value": "40dp"
    },
    "_margin_": [
        6,
        6,
        6,
        6
    ],
    "_padding_": [
        0,
        0,
        0,
        0
    ],
    "_skin_": "sbb254ec64344072940fb411d755530a",
    "_text_": "Verify",
    "_top_": {
        "type": "string",
        "value": "54dp"
    },
    "_width_": {
        "type": "string",
        "value": "350dp"
    },
    "accessibilityconfig": {
        "a11yHint": "Click on Log In to log into your account",
        "a11yLabel": "Log in"
    },
    "canUpdateUI": true,
    "centerx": {
        "type": "string",
        "value": "50%"
    },
    "containerweight": 100,
    "contentalignment": 5,
    "desktopweb": {
        "psp": {
            "hoverSkin": "s81054b5e2b74f17a5261991df565427"
        }
    },
    "displaytext": true,
    "focusskin": "s5a4f67acd3e47b9be6d6910a7a6686f",
    "id": "btnLogin",
    "info": null,
    "isvisible": true,
    "kuid": "jb49e6f6f8b3446fb4d87e5d3dae49d8",
    "name": "kony.ui.Button",
    "parent": "flxEnterSecureAccessCode",
    "pf": "userwidgetmodel",
    "texti18n": "i18n.ProfileManagement.Verify",
    "tooltip": "Verify",
    "wType": "Button",
    "zindex": 1
}