{
    "@class": "com.kony.gen.viz.model.component.KVizLabel",
    "DNDConfig": null,
    "__parentReadjusting__": false,
    "_height_": {
        "type": "ref",
        "value": "preferred"
    },
    "_left_": {
        "type": "string",
        "value": "7dp"
    },
    "_margin_": [
        1,
        1,
        1,
        1
    ],
    "_padding_": [
        0,
        0,
        0,
        0
    ],
    "_skin_": "sf45ca27a4704285be2caf389f55adc3",
    "_text_": "Select any one or both mode of contact to get a secure access code.",
    "_width_": {
        "type": "string",
        "value": "80%"
    },
    "_wrapping_": 2,
    "accessibilityconfig": {
        "a11yLabel": "You have entered an incorrect secure access code. Please re-enter the code ask us to send you a new code."
    },
    "android": {
        "textStyle": {
            "letterSpacing": 0,
            "strikeThrough": false
        }
    },
    "canUpdateUI": true,
    "centery": {
        "type": "string",
        "value": "42%"
    },
    "containerweight": 100,
    "contentalignment": 4,
    "id": "lblHeader",
    "info": null,
    "ipad": {
        "psp": {
            "wrapping": 2
        }
    },
    "iphone": {
        "psp": {
            "wrapping": 2
        }
    },
    "isvisible": true,
    "kuid": "dc1a5270bad84fd1af595c0c86cc3f48",
    "name": "kony.ui.Label",
    "parent": "flxOTPHeader",
    "pf": "userwidgetmodel",
    "texti18n": "i18n.MFA.headerMessageForOTP",
    "tooltip": "",
    "wType": "Label",
    "zindex": 1
}