{
    "@class": "com.kony.gen.viz.model.component.KVizUserWidget",
    "DNDConfig": null,
    "__parentReadjusting__": false,
    "_android_": {},
    "_androidwearos_": {},
    "_children_": [],
    "_desktopweb_": {},
    "_height_": {
        "type": "ref",
        "value": "preferred"
    },
    "_ipad_": {},
    "_iphone_": {},
    "_kiosk_": {},
    "_left_": {
        "type": "string",
        "value": "1dp"
    },
    "_margin_": [
        0,
        0,
        0,
        0
    ],
    "_orientation_": 1,
    "_padding_": [
        0,
        0,
        0,
        0
    ],
    "_percent_": true,
    "_render_": true,
    "_responsiveData_": {},
    "_skin_": "sdc143f0e5b64ae3a3f155f691c73fa7",
    "_spa_": {},
    "_spaan_": {},
    "_spaandroidtablet_": {},
    "_spabb_": {},
    "_spaip_": {},
    "_spaipad_": {},
    "_spamobile_": {},
    "_spatablet_": {},
    "_spawindowstablet_": {},
    "_spawinphone8_": {},
    "_tabrcandroid_": {},
    "_top_": "0dp",
    "_vizProps_": {
        "hidewidgethierarchy": false
    },
    "_width_": {
        "type": "string",
        "value": "100%"
    },
    "_windows10_": {},
    "_windows8_": {},
    "_winphone10_": {},
    "_winphone8_": {},
    "areflexpropsreferenced": false,
    "autogrowmode": 1,
    "canUpdateUI": true,
    "clipbounds": false,
    "containerweight": 0,
    "dataDiffs": {
        "AnswerSecurityQuestionsModule": {
            "__events__": {},
            "__info__": {
                "isRoot": true,
                "kuid": "b452cc8bb1d14c09bdc7755a4c534e2d",
                "srcKUID": "ef14bbca92cd43968b962726c867a178",
                "wType": "FlexContainer"
            }
        },
        "btnCancel": {
            "__events__": {},
            "__info__": {
                "kuid": "d866e66e823e406799641367dd5393be",
                "srcKUID": "e09169027c584fa58a7050a22b0b60fc",
                "wType": "Button"
            }
        },
        "btnProceed": {
            "__events__": {},
            "__info__": {
                "kuid": "acf2a3edd93f44d5bc2878aa9bf0f75a",
                "srcKUID": "f66c5e1240774a71a6efa7aac96dc83b",
                "wType": "Button"
            },
            "left": {
                "Default": {
                    "type": "string",
                    "value": "76.8%"
                }
            }
        },
        "flxActions": {
            "__events__": {},
            "__info__": {
                "kuid": "a8f7bd1b32b640609e5276fbd1dc5e5d",
                "srcKUID": "bb03c7e29b534be38d4d610666713e07",
                "wType": "FlexContainer"
            }
        },
        "flxAnswerSecurityQuestions": {
            "__events__": {},
            "__info__": {
                "kuid": "j782d3c8160c47ce970801a53b2716d8",
                "srcKUID": "a9d2c0a5eedc4ecaa1419c072ac34e31",
                "wType": "FlexContainer"
            }
        },
        "flxAnswerSecurityQuestionsQASet1": {
            "__events__": {},
            "__info__": {
                "kuid": "c7cc87dd25ed4f5eb13fbd40486998c2",
                "srcKUID": "j0f9fb943e204afabc21192d424dfd37",
                "wType": "FlexContainer"
            }
        },
        "flxAnswerSecurityQuestionsQASet2": {
            "__events__": {},
            "__info__": {
                "kuid": "ad9ff639c7e94b9f95140336a90a2370",
                "srcKUID": "h5da2c54a542453db315861ede052b0e",
                "wType": "FlexContainer"
            },
            "left": {
                "Default": {
                    "type": "string",
                    "value": "2.29%"
                }
            }
        },
        "flxHeader": {
            "__events__": {},
            "__info__": {
                "kuid": "g79f38f5063544abb7285298bcdf703d",
                "srcKUID": "da42b088c374429693e78275c5caecc0",
                "wType": "FlexContainer"
            }
        },
        "flxSeparator": {
            "__events__": {},
            "__info__": {
                "kuid": "bf8cc0c28d6849f5b17e7476926074d8",
                "srcKUID": "e98d0d4265e6434682879632b2d35ad1",
                "wType": "FlexContainer"
            }
        },
        "flxSeparator2": {
            "__events__": {},
            "__info__": {
                "kuid": "if1aa8994fb348ffb8c0d713facc3ed5",
                "srcKUID": "a459ada44577453e9db596eaf717333c",
                "wType": "FlexContainer"
            }
        },
        "flxWarningSecurityQuestions": {
            "__events__": {},
            "__info__": {
                "kuid": "eb3cff5b5caa4f59bb7962f90f65d62b",
                "srcKUID": "cc24c270fe1943c7944d29c91bb26831",
                "wType": "FlexContainer"
            }
        },
        "imgWarningSecurityQuestions": {
            "__events__": {},
            "__info__": {
                "kuid": "c0b048f18fa74cfaa3e2d6b00c599051",
                "srcKUID": "jc943da044f04bc68a11e32ee6889d0e",
                "wType": "Image"
            },
            "src": "error_yellow.png"
        },
        "lblAnswerSecurityQuestion1": {
            "__events__": {},
            "__info__": {
                "kuid": "h081b14201044dbfa7ca3078f19c842a",
                "srcKUID": "fbd29941bb5c4b2eb58c8471ef66234d",
                "wType": "Label"
            }
        },
        "lblAnswerSecurityQuestion2": {
            "__events__": {},
            "__info__": {
                "kuid": "f4018eef1cc14f648dd1a713a7dbbf0e",
                "srcKUID": "he14f38fd34f47c1ba6d5d3af0fec4d4",
                "wType": "Label"
            }
        },
        "lblAnswers1": {
            "__events__": {},
            "__info__": {
                "kuid": "f5f6a3dc74434aa09b7a66770603a551",
                "srcKUID": "a139706dae6f4e3191c83267aea4f8c6",
                "wType": "Label"
            },
            "i18n_text": "i18n.ProfileManagement.Answer"
        },
        "lblAnswers2": {
            "__events__": {},
            "__info__": {
                "kuid": "d1a602489a8f4fc7881ab03ce5a9636d",
                "srcKUID": "feb323d1c7a3405f93aa659c3f3099e7",
                "wType": "Label"
            },
            "i18n_text": "i18n.ProfileManagement.Answer"
        },
        "lblHeader": {
            "__events__": {},
            "__info__": {
                "kuid": "f045e377c8c44cbea2780d2aabd821f6",
                "srcKUID": "f70576e27c484b40855fff52fe5311f4",
                "wType": "Label"
            }
        },
        "lblHeading2": {
            "__events__": {},
            "__info__": {
                "kuid": "ia0b452915654e5690ec9d6d2d14310d",
                "srcKUID": "id31f8362a7c4c8e921571f556a8e018",
                "wType": "Label"
            }
        },
        "lblNoteAnswerSecurityQuestions": {
            "__events__": {},
            "__info__": {
                "kuid": "d00b88bce0294c4387bee8f944a61e69",
                "srcKUID": "e47cb60faf4843f39bd4203727340f79",
                "wType": "Label"
            }
        },
        "lblQuestions1": {
            "__events__": {},
            "__info__": {
                "kuid": "f3d60c6aa26e46d69ab97e54be564d6a",
                "srcKUID": "a6ee69e945084a16b00e097bbf39d4d8",
                "wType": "Label"
            },
            "i18n_text": "i18n.MFA.Question1"
        },
        "lblQuestions2": {
            "__events__": {},
            "__info__": {
                "kuid": "h2e51516ff56446ba895416f2fbafb03",
                "srcKUID": "bd2520a1000e46b7af5170c8dc3386c4",
                "wType": "Label"
            },
            "i18n_text": "i18n.MFA.Question2"
        },
        "lblWarningSecurityQuestions": {
            "__events__": {},
            "__info__": {
                "kuid": "h307b72ee78d4769b2146f4c3a82a861",
                "srcKUID": "d58fb3ba98b44e24a90f16881cd2d168",
                "wType": "Label"
            }
        },
        "tbxAnswers1": {
            "__events__": {
                "desktopweb": {
                    "ide_onEndEditing": "AS_TextField_f4a97ba83dad4449a5b06a9cab771b2c",
                    "ide_onKeyUp": "AS_TextField_g69571ded423405b9dc951ca48f115e1"
                }
            },
            "__info__": {
                "kuid": "bfe3ccb9f5a545c6b30c0ea6676cd453",
                "srcKUID": "b8aeac8162874ed5887297d03e10217c",
                "wType": "TextField"
            },
            "i18n_placeholder": "i18n.MFA.TypeYourAnswerHere"
        },
        "tbxAnswers2": {
            "__events__": {
                "desktopweb": {
                    "ide_onEndEditing": "AS_TextField_e078a62143e14ffa9b70000f80946fa6",
                    "ide_onKeyUp": "AS_TextField_c2223a86ea724db7a29054904f7e4c0e"
                }
            },
            "__info__": {
                "kuid": "bf872fcfde6e474db3ae3f921e919415",
                "srcKUID": "haf5e68e293748f996dd381dbb02f6b6",
                "wType": "TextField"
            },
            "i18n_placeholder": "i18n.MFA.TypeYourAnswerHere"
        }
    },
    "id": "AnswerSecurityQuestionsModule",
    "info": null,
    "isdatareferenced": false,
    "isvisible": true,
    "kuid": "fbdbce990054441fb386a85a27141c59",
    "layouttype": 4,
    "masterType": 0,
    "name": "kony.ui.UserWidgetInstance",
    "parent": "flxAnswerSecurityQuestions",
    "pf": "frmBillPay",
    "sourceUserWidget": "ef14bbca92cd43968b962726c867a178",
    "vizprops": {
        "hidewidgethierarchy": false
    },
    "wType": "UserWidgetInstance"
}