{
    "DNDConfig": null,
    "__parentReadjusting__": false,
    "_height_": {
        "type": "string",
        "value": "800dp"
    },
    "_left_": {
        "type": "string",
        "value": "0%"
    },
    "_margin_": [
        0,
        0,
        0,
        0
    ],
    "_orientation_": 6,
    "_padding_": [
        0,
        0,
        0,
        0
    ],
    "_percent_": true,
    "_skin_": "s33fa12a911a45c49c6435621160a9c1",
    "_top_": {
        "type": "string",
        "value": "0dp"
    },
    "_width_": {
        "type": "string",
        "value": "100%"
    },
    "allboxes": [],
    "autogrowmode": 0,
    "canUpdateUI": true,
    "children": [
        "ActivateBiller"
    ],
    "clipbounds": false,
    "containerweight": 100,
    "enablescrolling": true,
    "id": "flxActivateBiller",
    "info": null,
    "isvisible": false,
    "kuid": "ce7cd6deaa2e4d699d60ea9d8935bb7b",
    "layouttype": 2,
    "name": "kony.ui.FlexContainer",
    "parent": "frmBillPay",
    "pf": "frmBillPay",
    "responsiveData": {
        "b3": {
            "isVisible": false,
            "left": {
                "type": "string",
                "value": "0.00%"
            },
            "top": {
                "type": "string",
                "value": "0dp"
            }
        },
        "b4": {}
    },
    "snapgridsize": 10,
    "snaptogrid": true,
    "wType": "FlexContainer",
    "widgetalignment": 1,
    "zindex": 1000
}