{
    "@class": "com.kony.gen.viz.model.component.KVizUserWidget",
    "DNDConfig": null,
    "__parentReadjusting__": false,
    "_android_": {},
    "_androidwearos_": {},
    "_children_": [],
    "_desktopweb_": {},
    "_height_": {
        "type": "ref",
        "value": "preferred"
    },
    "_ipad_": {},
    "_iphone_": {},
    "_kiosk_": {},
    "_left_": {
        "type": "string",
        "value": "0dp"
    },
    "_margin_": [
        0,
        0,
        0,
        0
    ],
    "_orientation_": 1,
    "_padding_": [
        0,
        0,
        0,
        0
    ],
    "_percent_": true,
    "_render_": true,
    "_responsiveData_": {
        "b3": {
            "top": {
                "type": "string",
                "value": "0dp"
            }
        }
    },
    "_skin_": "sdc143f0e5b64ae3a3f155f691c73fa7",
    "_spa_": {},
    "_spaan_": {},
    "_spaandroidtablet_": {},
    "_spabb_": {},
    "_spaip_": {},
    "_spaipad_": {},
    "_spamobile_": {},
    "_spatablet_": {},
    "_spawindowstablet_": {},
    "_spawinphone8_": {},
    "_tabrcandroid_": {},
    "_top_": {
        "type": "string",
        "value": "0dp"
    },
    "_vizProps_": {
        "hidewidgethierarchy": false
    },
    "_width_": {
        "type": "string",
        "value": "100%"
    },
    "_windows10_": {},
    "_windows8_": {},
    "_winphone10_": {},
    "_winphone8_": {},
    "areflexpropsreferenced": false,
    "autogrowmode": 1,
    "canUpdateUI": true,
    "clipbounds": false,
    "containerweight": 100,
    "dataDiffs": {
        "CopyflxHorizantalLineKA0d1f762eef0f846": {
            "__events__": {},
            "__info__": {
                "kuid": "cd32f3d093534d43a5139b723403a1cd",
                "srcKUID": "cc0c8dfdb977438b9cf3b24321022e61",
                "wType": "FlexContainer"
            },
            "responsiveData": {
                "b3": {
                    "isVisible": false
                }
            }
        },
        "btnCancel": {
            "__events__": {
                "ide_onClick": "AS_Button_e66195e19c9e415abd3d4b48f818b943"
            },
            "__info__": {
                "kuid": "de06bc369ced470db9ab3dfd20bb1bd2",
                "srcKUID": "17191a6741f648f085ec2d51f7ec94f0",
                "wType": "Button"
            },
            "bottom": {},
            "height": {
                "Default": {
                    "type": "string",
                    "value": "40px"
                }
            },
            "left": {},
            "responsiveData": {
                "b3": {
                    "bottom": {
                        "type": "string",
                        "value": "20dp"
                    },
                    "left": {
                        "type": "string",
                        "value": "2.50%"
                    },
                    "top": {
                        "type": "string",
                        "value": "20px"
                    },
                    "width": {
                        "type": "string",
                        "value": "95%"
                    }
                }
            },
            "top": {
                "Default": {
                    "type": "string",
                    "value": "5px"
                }
            },
            "width": {}
        },
        "btnNext": {
            "__events__": {
                "ide_onClick": "AS_Button_a2192d6acab84e8ab6102ab320a330eb"
            },
            "__info__": {
                "kuid": "a10cc8ea4c804361a0435e79e9979e80",
                "srcKUID": "af9e79f5e1f44ed7b386d9ee32f2be55",
                "wType": "Button"
            },
            "height": {
                "Default": {
                    "type": "string",
                    "value": "40px"
                }
            },
            "i18n_text": "i18n.common.proceed",
            "left": {},
            "responsiveData": {
                "b3": {
                    "left": {
                        "type": "string",
                        "value": "2.50%"
                    },
                    "top": {
                        "type": "string",
                        "value": "0px"
                    },
                    "width": {
                        "type": "string",
                        "value": "95%"
                    }
                }
            },
            "top": {
                "Default": {
                    "type": "string",
                    "value": "5px"
                }
            },
            "width": {}
        },
        "calEndingOn": {
            "__events__": {},
            "__info__": {
                "kuid": "e7eaea9fbef940a194e2bfefe716a560",
                "srcKUID": "d5f73769dea14786a2fb2e28c847b5d3",
                "wType": "Calendar"
            }
        },
        "calSendOn": {
            "__events__": {},
            "__info__": {
                "kuid": "ea0cd186bb46460b935745b8f277e9bc",
                "srcKUID": "h59ea00a6d744c438b73e922f5d24c49",
                "wType": "Calendar"
            }
        },
        "flxAccountNumber": {
            "__events__": {},
            "__info__": {
                "kuid": "e4a405a3941844528464f25553ffa1ed",
                "srcKUID": "c0bcb59f480f404bb47ce58c9770e7e1",
                "wType": "FlexContainer"
            },
            "responsiveData": {
                "b3": {
                    "isVisible": false
                }
            }
        },
        "flxAccountNumberAgainKA": {
            "__events__": {},
            "__info__": {
                "kuid": "bfd8f8ac8d244f05bfe668f7809a378d",
                "srcKUID": "eb42511c0910459a98ca7cb2f53c061f",
                "wType": "FlexContainer"
            }
        },
        "flxAccountNumberKA": {
            "__events__": {},
            "__info__": {
                "kuid": "c6e185c9b32b47bc9cccdc0c60450e19",
                "srcKUID": "9987524288ec4c199815dbc915752c09",
                "wType": "FlexContainer"
            }
        },
        "flxAddOrCancelKA": {
            "__events__": {},
            "__info__": {
                "kuid": "ac1e06f0b8144d9a8f51b88800ff0308",
                "srcKUID": "788f068d2296478f800adf72721c7e6e",
                "wType": "FlexContainer"
            },
            "autogrowMode": {
                "Default": 0
            },
            "bottom": {
                "Default": {
                    "type": "string",
                    "value": "30dp"
                }
            },
            "height": {},
            "responsiveData": {
                "b3": {
                    "bottom": {
                        "type": "string",
                        "value": "0dp"
                    },
                    "height": {
                        "type": "string",
                        "value": "120px"
                    },
                    "layoutType": 4,
                    "top": {
                        "type": "string",
                        "value": "20px"
                    }
                }
            },
            "top": {}
        },
        "flxCalEndingOn": {
            "__events__": {},
            "__info__": {
                "kuid": "e3717206729b471dbaaeabcfddbeb2a2",
                "srcKUID": "a04f57b49faa45499e5f71d17de8e50e",
                "wType": "FlexContainer"
            },
            "left": {
                "Default": {
                    "type": "string",
                    "value": "51%"
                }
            },
            "responsiveData": {
                "b3": {
                    "left": {
                        "type": "string",
                        "value": "10dp"
                    },
                    "right": {
                        "type": "string",
                        "value": "10dp"
                    },
                    "top": {
                        "type": "string",
                        "value": "274dp"
                    },
                    "width": {
                        "type": "string",
                        "value": ""
                    }
                }
            },
            "right": {},
            "top": {},
            "width": {}
        },
        "flxCalSendOn": {
            "__events__": {},
            "__info__": {
                "kuid": "f8c2ec0b96334e26addd257b147d2c6d",
                "srcKUID": "e72e4eb999ba41bba811556c7189af69",
                "wType": "FlexContainer"
            },
            "left": {
                "Default": {
                    "type": "string",
                    "value": "3.77%"
                }
            },
            "responsiveData": {
                "b3": {
                    "left": {
                        "type": "string",
                        "value": "10dp"
                    },
                    "right": {
                        "type": "string",
                        "value": "10dp"
                    },
                    "top": {
                        "type": "string",
                        "value": "195dp"
                    },
                    "width": {
                        "type": "string",
                        "value": ""
                    }
                }
            },
            "right": {},
            "top": {},
            "width": {}
        },
        "flxDetails": {
            "__events__": {},
            "__info__": {
                "kuid": "d49815ff4e7f4ce0afeb75788a7f58ad",
                "srcKUID": "b475f06ad15a4cc8bbee3b7f4d39c322",
                "wType": "FlexContainer"
            },
            "autogrowMode": {
                "Default": 0
            },
            "height": {
                "Default": {
                    "type": "string",
                    "value": "376px"
                }
            },
            "isVisible": false,
            "left": {},
            "responsiveData": {
                "b3": {
                    "height": {
                        "type": "string",
                        "value": "500dp"
                    },
                    "left": {
                        "type": "string",
                        "value": "10dp"
                    },
                    "width": {
                        "type": "string",
                        "value": "95%"
                    }
                }
            },
            "width": {
                "Default": {
                    "type": "string",
                    "value": "100%"
                }
            }
        },
        "flxDomesticDetailsKA": {
            "__events__": {},
            "__info__": {
                "kuid": "c20bca15f64b476bbec580bb2150f117",
                "srcKUID": "10ad3bc2ddf543d4832177ab691acd47",
                "wType": "FlexContainer"
            },
            "autogrowMode": {
                "Default": 1
            },
            "height": {
                "Default": {
                    "type": "ref",
                    "value": "preferred"
                }
            },
            "responsiveData": {
                "b3": {
                    "width": {
                        "type": "string",
                        "value": "100%"
                    }
                }
            },
            "width": {
                "Default": {
                    "type": "string",
                    "value": "100%"
                }
            }
        },
        "flxDowntimeWarning": {
            "__events__": {},
            "__info__": {
                "kuid": "c140dc16a21a46069f8908580e87e485",
                "srcKUID": "0f441f1810734abf9e615b4df9ab712e",
                "wType": "FlexContainer"
            }
        },
        "flxFrom": {
            "__events__": {},
            "__info__": {
                "kuid": "f0e1f16f3c7742f29f4a0fc7956ac2e0",
                "srcKUID": "c76e9207b0554912a7e8d6cd27142c5b",
                "wType": "FlexContainer"
            },
            "responsiveData": {
                "b3": {
                    "isVisible": false
                }
            }
        },
        "flxHeader": {
            "__events__": {},
            "__info__": {
                "kuid": "a0dfc57ffdc44b45be87c6f1b20efc57",
                "srcKUID": "d3a896756cef4548b30f9d2281df452a",
                "wType": "FlexContainer"
            },
            "responsiveData": {
                "b3": {
                    "isVisible": false
                }
            }
        },
        "flxHorizantalLineKA": {
            "__events__": {},
            "__info__": {
                "kuid": "bbdfedda2f1c4fdba63374ccae66c173",
                "srcKUID": "83331b221af0439e9e7ead89835ed897",
                "wType": "FlexContainer"
            },
            "top": {
                "Default": {
                    "type": "string",
                    "value": "5px"
                }
            }
        },
        "flxMainDesktopKA": {
            "__events__": {},
            "__info__": {
                "kuid": "je57847e02e5467c9ed958a5bbfaf7cf",
                "srcKUID": "d5b8a41e0da4413d81df8edb2e81baa1",
                "wType": "FlexContainer"
            },
            "autogrowMode": {
                "Default": 1
            },
            "height": {
                "Default": {
                    "type": "ref",
                    "value": "preferred"
                }
            },
            "responsiveData": {
                "b3": {
                    "top": {
                        "type": "string",
                        "value": "0px"
                    }
                }
            },
            "top": {}
        },
        "flxName": {
            "__events__": {},
            "__info__": {
                "kuid": "c2d7097658ca418babf0d839853a32e6",
                "srcKUID": "25b01df1163e455994935db2117138c3",
                "wType": "FlexContainer"
            }
        },
        "flxPayeeList": {
            "__events__": {},
            "__info__": {
                "kuid": "b719a986d6454661a2343bd535e40505",
                "srcKUID": "g7a763ac445f45f68a1f2d37af397034",
                "wType": "FlexContainer"
            }
        },
        "flxSearchPayee": {
            "__events__": {},
            "__info__": {
                "kuid": "a84fe31514034f0eb5a7e00f3d00c9d5",
                "srcKUID": "c25be30450704e64be8fa0e2a2dd6da1",
                "wType": "FlexContainer"
            },
            "left": {},
            "responsiveData": {
                "b3": {
                    "isVisible": false,
                    "left": {
                        "type": "string",
                        "value": "10dp"
                    },
                    "right": {
                        "type": "string",
                        "value": ""
                    },
                    "width": {
                        "type": "string",
                        "value": "95%"
                    }
                }
            },
            "right": {},
            "width": {}
        },
        "flxSeparator": {
            "__events__": {},
            "__info__": {
                "kuid": "e254133368ce41e496790029e560d966",
                "srcKUID": "b125e5a2c5af4a95a0967f9fefb61f5d",
                "wType": "FlexContainer"
            }
        },
        "flxZipCode": {
            "__events__": {},
            "__info__": {
                "kuid": "d02e3fe01653473482b7432a3d53dd4c",
                "srcKUID": "d1950492b6624a42b80c7cb5e98b3728",
                "wType": "FlexContainer"
            }
        },
        "flxmobilenumber": {
            "__events__": {},
            "__info__": {
                "kuid": "cfc9a0d0974c40ad9906264a021b07da",
                "srcKUID": "e4974a4955b04617a83519224daff1f2",
                "wType": "FlexContainer"
            }
        },
        "imgDowntimeWarning": {
            "__events__": {},
            "__info__": {
                "kuid": "f44729b3466e4ff48dc09f2f39123dec",
                "srcKUID": "14e0b0995ea24df3be1f7e671bd52012",
                "wType": "Image"
            },
            "src": "error_yellow.png"
        },
        "lblAccountNumber": {
            "__events__": {},
            "__info__": {
                "kuid": "f9564d48590b4dcb9c82304a3e00239f",
                "srcKUID": "0cffc7d895d643c996289090c34dcfc4",
                "wType": "Label"
            },
            "i18n_text": "i18n.common.accountNumber"
        },
        "lblAccountNumberAgain": {
            "__events__": {},
            "__info__": {
                "kuid": "f09b89d98498482fa441898c6f280894",
                "srcKUID": "206b26c6666748b995806aef36c74bc4",
                "wType": "Label"
            },
            "i18n_text": "i18n.common.accountNumber",
            "text": "Enter Account Number"
        },
        "lblAccountNumberTitle": {
            "__events__": {},
            "__info__": {
                "kuid": "f333af7ccf7943c2849b3f00fad8280a",
                "srcKUID": "d8e4d241257c4aa09fdd4f6c47140ce0",
                "wType": "Label"
            },
            "i18n_text": "i18n.common.accountNumber",
            "responsiveData": {
                "b3": {
                    "isVisible": false
                }
            }
        },
        "lblAccountNumberValue": {
            "__events__": {},
            "__info__": {
                "kuid": "ef8dc19825754de2b1758d44c11b1394",
                "srcKUID": "fd8f480095414bbe828fd17ecd1c65ca",
                "wType": "Label"
            }
        },
        "lblCategoryTitle": {
            "__events__": {},
            "__info__": {
                "kuid": "g11268fb751d4c4caa407f261f8d3e9e",
                "srcKUID": "bf128210361e4c45bfa73dab12c82727",
                "wType": "Label"
            },
            "i18n_text": "i18n.billPay.category",
            "left": {
                "Default": {
                    "type": "string",
                    "value": "51%"
                }
            },
            "responsiveData": {
                "b3": {
                    "left": {
                        "type": "string",
                        "value": "10dp"
                    },
                    "right": {
                        "type": "string",
                        "value": "10dp"
                    },
                    "top": {
                        "type": "string",
                        "value": "410dp"
                    },
                    "width": {
                        "type": "string",
                        "value": ""
                    }
                }
            },
            "right": {},
            "top": {},
            "width": {}
        },
        "lblDollar": {
            "__events__": {},
            "__info__": {
                "kuid": "c8d3268cad1f4229a4b6aee699295683",
                "srcKUID": "cb1c3602dce34d6bb0913657a3f5257a",
                "wType": "Label"
            },
            "i18n_text": "i18n.common.currencySymbol",
            "left": {},
            "responsiveData": {
                "b3": {
                    "left": {
                        "type": "string",
                        "value": "15dp"
                    },
                    "top": {
                        "type": "string",
                        "value": "123dp"
                    }
                }
            },
            "top": {}
        },
        "lblHeader": {
            "__events__": {},
            "__info__": {
                "kuid": "j82229362ea349239fbdae3a022e195f",
                "srcKUID": "b8b64d99d5fb47cf978f12b1723545db",
                "wType": "Label"
            },
            "i18n_text": "i18n.BillPay.ONETIMEPAYMENT",
            "left": {},
            "responsiveData": {
                "b3": {
                    "left": {
                        "type": "string",
                        "value": "10dp"
                    }
                }
            },
            "text": "ONE TIME PAYMENT"
        },
        "lblName": {
            "__events__": {},
            "__info__": {
                "kuid": "ja080fd3587f49d498e8a812ba3e967d",
                "srcKUID": "e8839ab2bcf14624a0ea7049627401a7",
                "wType": "Label"
            },
            "i18n_text": "i18n.ProfileManagement.Name"
        },
        "lblNoOfRecOrEndingOn": {
            "__events__": {},
            "__info__": {
                "kuid": "ed51495ecd1140e493e08a0baedc8a12",
                "srcKUID": "a2fa1be4e39748a59052028cc413f528",
                "wType": "Label"
            },
            "left": {
                "Default": {
                    "type": "string",
                    "value": "51%"
                }
            },
            "responsiveData": {
                "b3": {
                    "left": {
                        "type": "string",
                        "value": "10dp"
                    },
                    "right": {
                        "type": "string",
                        "value": "10dp"
                    },
                    "top": {
                        "type": "string",
                        "value": "251dp"
                    },
                    "width": {
                        "type": "string",
                        "value": ""
                    }
                }
            },
            "right": {},
            "top": {},
            "width": {}
        },
        "lblNotes": {
            "__events__": {},
            "__info__": {
                "kuid": "g7efd9ab041c4372b15a866e375affb5",
                "srcKUID": "d5f6ab631c2541df8f3758533f8ca168",
                "wType": "Label"
            },
            "i18n_text": "i18n.transfers.Description",
            "left": {
                "Default": {
                    "type": "string",
                    "value": "3.77%"
                }
            },
            "responsiveData": {
                "b3": {
                    "left": {
                        "type": "string",
                        "value": "10dp"
                    },
                    "right": {
                        "type": "string",
                        "value": "10dp"
                    },
                    "top": {
                        "type": "string",
                        "value": "331dp"
                    },
                    "width": {
                        "type": "string",
                        "value": ""
                    }
                }
            },
            "right": {},
            "top": {},
            "width": {}
        },
        "lblPayFrom": {
            "__events__": {},
            "__info__": {
                "kuid": "c42b3807b2f34ad2be00cdf05a3caae9",
                "srcKUID": "d4baf6d2a15648959a03fff1add6e5e1",
                "wType": "Label"
            },
            "i18n_text": "i18n.billPay.PayFrom",
            "left": {
                "Default": {
                    "type": "string",
                    "value": "3.77%"
                }
            },
            "responsiveData": {
                "b3": {
                    "left": {
                        "type": "string",
                        "value": "10dp"
                    },
                    "right": {
                        "type": "string",
                        "value": "10dp"
                    },
                    "top": {
                        "type": "string",
                        "value": "14dp"
                    },
                    "width": {
                        "type": "string",
                        "value": ""
                    }
                }
            },
            "right": {},
            "top": {},
            "width": {}
        },
        "lblPaymentAmount": {
            "__events__": {},
            "__info__": {
                "kuid": "f5bb2d005a984b3387dad6b68a67e9ed",
                "srcKUID": "d6ef954fd2cd4c0eaa16bed1d4bb236c",
                "wType": "Label"
            },
            "i18n_text": "i18n.transfers.PaymentAmount",
            "left": {
                "Default": {
                    "type": "string",
                    "value": "51%"
                }
            },
            "responsiveData": {
                "b3": {
                    "left": {
                        "type": "string",
                        "value": "10dp"
                    },
                    "right": {
                        "type": "string",
                        "value": "10dp"
                    },
                    "top": {
                        "type": "string",
                        "value": "92dp"
                    },
                    "width": {
                        "type": "string",
                        "value": ""
                    }
                }
            },
            "right": {},
            "top": {},
            "width": {}
        },
        "lblSendOn": {
            "__events__": {},
            "__info__": {
                "kuid": "hb0a61922dd444c9a3167d1d3cc2846e",
                "srcKUID": "i049ce845fdc424b9891dc4a021e82eb",
                "wType": "Label"
            },
            "left": {
                "Default": {
                    "type": "string",
                    "value": "3.77%"
                }
            },
            "responsiveData": {
                "b3": {
                    "left": {
                        "type": "string",
                        "value": "10dp"
                    },
                    "right": {
                        "type": "string",
                        "value": "10dp"
                    },
                    "top": {
                        "type": "string",
                        "value": "172dp"
                    },
                    "width": {
                        "type": "string",
                        "value": ""
                    }
                }
            },
            "right": {},
            "top": {},
            "width": {}
        },
        "lblToOne": {
            "__events__": {},
            "__info__": {
                "kuid": "d0b414287636474099674799b60e97a8",
                "srcKUID": "f5558767f47e44078cbd15f86478e274",
                "wType": "Label"
            },
            "i18n_text": "i18n.BillPay.ATTCommunications"
        },
        "lblToTitle": {
            "__events__": {},
            "__info__": {
                "kuid": "a501073f501443d69da9f3822952a448",
                "srcKUID": "e2f0f3a18dd841438c3706c2aa75bb9f",
                "wType": "Label"
            },
            "responsiveData": {
                "b3": {
                    "isVisible": false
                }
            }
        },
        "lblWarning": {
            "__events__": {},
            "__info__": {
                "kuid": "f36c0e10c32d4514818c90b004f9cba9",
                "srcKUID": "9ef5657388094840a546934751ccb0b3",
                "wType": "Label"
            },
            "i18n_text": "i18n.WireTransfer.EnterAccountNumber",
            "isVisible": false
        },
        "lblZipCode": {
            "__events__": {},
            "__info__": {
                "kuid": "eb810b4680594fc582277a3847a92740",
                "srcKUID": "160ac6b5c3234414bb5f636121f7be73",
                "wType": "Label"
            },
            "i18n_text": "i18n.common.zipcode"
        },
        "lblmobilenumeber": {
            "__events__": {},
            "__info__": {
                "kuid": "b0656918a60a4f55b70e12ce01488bdd",
                "srcKUID": "gbe3c1a3c70f4549afc7a835566b31a5",
                "wType": "Label"
            },
            "i18n_text": "i18n.common.MobilePhone"
        },
        "lbloTwo": {
            "__events__": {},
            "__info__": {
                "kuid": "bb62631d084542bdb51ba8547c04e2c6",
                "srcKUID": "ace24ad3c74b4e1cb9c11d9d1e449170",
                "wType": "Label"
            },
            "i18n_text": "i18n.BillPay.Lane1AustindowntownAustinTexas"
        },
        "lbxCategory": {
            "__events__": {},
            "__info__": {
                "kuid": "af07162c3ab84a159c9a10cbe22b0022",
                "srcKUID": "fe501039122f45749cff7d97cafc6d9f",
                "wType": "ListBox"
            },
            "left": {
                "Default": {
                    "type": "string",
                    "value": "51%"
                }
            },
            "responsiveData": {
                "b3": {
                    "left": {
                        "type": "string",
                        "value": "10dp"
                    },
                    "right": {
                        "type": "string",
                        "value": "10dp"
                    },
                    "top": {
                        "type": "string",
                        "value": "433dp"
                    },
                    "width": {
                        "type": "string",
                        "value": ""
                    }
                }
            },
            "right": {},
            "top": {},
            "width": {}
        },
        "lbxPayFrom": {
            "__events__": {},
            "__info__": {
                "kuid": "c59563970e814282a7c822e81405d45b",
                "srcKUID": "abce61fa4a4548d9982790b18c0e1d52",
                "wType": "ListBox"
            },
            "left": {
                "Default": {
                    "type": "string",
                    "value": "3.81%"
                }
            },
            "responsiveData": {
                "b3": {
                    "left": {
                        "type": "string",
                        "value": "10dp"
                    },
                    "right": {
                        "type": "string",
                        "value": "10dp"
                    },
                    "top": {
                        "type": "string",
                        "value": "35dp"
                    },
                    "width": {
                        "type": "string",
                        "value": ""
                    }
                }
            },
            "right": {},
            "top": {},
            "width": {}
        },
        "oneTimePay": {
            "__events__": {},
            "__info__": {
                "isRoot": true,
                "kuid": "jabeb84dc9724627812d9e5ac0a1066b",
                "srcKUID": "53f7b5c175ee42138a1a8841b03e73b9",
                "wType": "FlexContainer"
            },
            "autogrowMode": {
                "Default": 1
            },
            "height": {
                "Default": {
                    "type": "ref",
                    "value": "preferred"
                }
            },
            "responsiveData": {
                "b3": {
                    "top": {
                        "type": "string",
                        "value": "0dp"
                    }
                }
            },
            "top": {}
        },
        "rtxDowntimeWarningDomestic": {
            "__events__": {},
            "__info__": {
                "kuid": "a536c7dda637442f946e7fb9905088fa",
                "srcKUID": "e62f7cc66fa04556aa01d20ddb0189b2",
                "wType": "RichText"
            },
            "i18n_text": "i18n.Transfers.ThereisomeerrorintheserverWecouldnotcompleteyourrequestofaddingtheaccount"
        },
        "segPayeesName": {
            "__events__": {},
            "__info__": {
                "kuid": "ff7debe794444fc4934c740431964f55",
                "srcKUID": "i1b70f53790d4d6d8a696e285332ea42",
                "wType": "Segment"
            }
        },
        "tbxName": {
            "__events__": {},
            "__info__": {
                "kuid": "ce85cd8255f0473a91327b9cb346a12a",
                "srcKUID": "61238d9ca0844956bb413aec2f26e939",
                "wType": "TextField"
            },
            "i18n_placeholder": "i18n.BillPay.SearchforPayeebyCompanyNameExATTorComcast",
            "responsiveData": {
                "b3": {
                    "right": {
                        "type": "string",
                        "value": ""
                    }
                }
            },
            "right": {}
        },
        "txtAccountNumber": {
            "__events__": {},
            "__info__": {
                "kuid": "cfa237d601c94ba8923d932df0481776",
                "srcKUID": "15141d74641a43bb98e85d2ed96e3e3e",
                "wType": "TextField"
            },
            "i18n_placeholder": "i18n.addPayee.RelationshipNumberPlaceholder"
        },
        "txtAccountNumberAgain": {
            "__events__": {},
            "__info__": {
                "kuid": "e353f7c43356436e87a330ac31427836",
                "srcKUID": "b28d660a41704d2589be68c1fba156b1",
                "wType": "TextField"
            },
            "i18n_placeholder": "i18n.addPayee.RelationshipNumberPlaceholder"
        },
        "txtNotes": {
            "__events__": {},
            "__info__": {
                "kuid": "c66610e979e748d293b357df0b806c01",
                "srcKUID": "d1ff99a636e7472bb526905768a02d1d",
                "wType": "TextField"
            },
            "left": {
                "Default": {
                    "type": "string",
                    "value": "3.77%"
                }
            },
            "responsiveData": {
                "b3": {
                    "left": {
                        "type": "string",
                        "value": "10dp"
                    },
                    "right": {
                        "type": "string",
                        "value": "10dp"
                    },
                    "top": {
                        "type": "string",
                        "value": "354dp"
                    },
                    "width": {
                        "type": "string",
                        "value": ""
                    }
                }
            },
            "right": {},
            "top": {},
            "width": {}
        },
        "txtPaymentAmount": {
            "__events__": {},
            "__info__": {
                "kuid": "c4e4f04555704578a3200bff04366e1d",
                "srcKUID": "dac11b52db3b4101b9d7b8af28d3b22b",
                "wType": "TextField"
            },
            "i18n_placeholder": "i18n.transfers.PaymentAmount",
            "left": {
                "Default": {
                    "type": "string",
                    "value": "51%"
                }
            },
            "responsiveData": {
                "b3": {
                    "left": {
                        "type": "string",
                        "value": "10dp"
                    },
                    "right": {
                        "type": "string",
                        "value": "10dp"
                    },
                    "top": {
                        "type": "string",
                        "value": "115dp"
                    },
                    "width": {
                        "type": "string",
                        "value": ""
                    }
                }
            },
            "right": {},
            "top": {},
            "width": {}
        },
        "txtZipCode": {
            "__events__": {},
            "__info__": {
                "kuid": "d543c013619a4e51838a579371913d24",
                "srcKUID": "6ac4904554fa43f1bf5324f0fc88664e",
                "wType": "TextField"
            },
            "i18n_placeholder": "i18n.BillPay.EnterZipCode"
        },
        "txtmobilenumber": {
            "__events__": {},
            "__info__": {
                "kuid": "g379b4d9d5514f1da439a5788343db90",
                "srcKUID": "cea2278305e34a8da228080ca59db67d",
                "wType": "TextField"
            },
            "i18n_placeholder": "i18n.PayAPerson.EnterPhoneNumber"
        }
    },
    "id": "oneTimePayment",
    "info": null,
    "isdatareferenced": false,
    "isvisible": true,
    "kuid": "jabeb84dc9724627812d9e5ac0a1066b",
    "layouttype": 2,
    "masterType": 0,
    "name": "kony.ui.UserWidgetInstance",
    "parent": "flxOneTImePayment",
    "pf": "frmBillPay",
    "snaptogrid": true,
    "sourceUserWidget": "53f7b5c175ee42138a1a8841b03e73b9",
    "vizprops": {
        "hidewidgethierarchy": false
    },
    "wType": "UserWidgetInstance"
}