{
    "@class": "com.kony.gen.viz.model.container.KVizSegment2",
    "DNDConfig": null,
    "__parentReadjusting__": false,
    "_data_": [
        {},
        {},
        {}
    ],
    "_height_": {
        "type": "ref",
        "value": "preferred"
    },
    "_indicator_": "none",
    "_left_": {
        "type": "string",
        "value": "217dp"
    },
    "_margin_": [
        0,
        0,
        0,
        0
    ],
    "_orientation_": 2,
    "_padding_": [
        0,
        0,
        0,
        0
    ],
    "_top_": {
        "type": "string",
        "value": "81dp"
    },
    "_width_": {
        "type": "string",
        "value": "100%"
    },
    "autogrowmode": 1,
    "canUpdateUI": true,
    "containerweight": 100,
    "counter": "02",
    "focusedindex": null,
    "focuseditem": null,
    "groupcells": false,
    "hasSections": false,
    "id": "segEditBillerMobile",
    "info": null,
    "ipad": {
        "psp": {
            "indicator": "rowselect"
        }
    },
    "iphone": {
        "psp": {
            "indicator": "rowselect"
        }
    },
    "iscustomlayout": false,
    "isvisible": true,
    "kuid": "d1224f06bcf14c16a5aabda1b7cf14f7",
    "masterdata": {},
    "name": "kony.ui.SegmentedUI2",
    "needpageindicator": true,
    "pageoffdotimage": "pageoffdot.png",
    "pageondotimage": "pageondot.png",
    "paginationconfig": {
        "position": "bottom"
    },
    "parent": "flxEditBillerMobile",
    "pf": "frmBillPay",
    "responsiveData": {
        "b3": {
            "height": {
                "type": "ref",
                "value": "preferred"
            },
            "left": {
                "type": "string",
                "value": "0dp"
            },
            "top": {
                "type": "string",
                "value": "0dp"
            },
            "width": {
                "type": "string",
                "value": "100%"
            }
        }
    },
    "retaincontentalignment": false,
    "retainflexpositionproperties": false,
    "retainselection": false,
    "rowTemplateId": "da93af0e649d4856a5382acb6ce3c363",
    "rowcounter": 2,
    "rowfocusskin": "s0f9bf3c1b3e4a7bb6bf9fd18b0211f2",
    "rowskin": "scf5f90f6ac04976ab88b2a4f7153285",
    "rowtemplate": "flxBillPayManagePayeesEditMobile",
    "screenlevelwidget": false,
    "seccounter": 0,
    "sectionheaderskin": "sdc4ff4ed1584272be2ae69045dfb29d",
    "selectedRows": null,
    "selectedState": false,
    "selectedindex": null,
    "selectedindices": null,
    "selecteditems": null,
    "selectedsectionindex": 0,
    "selectionbehavior": "default",
    "separatorrequired": false,
    "showscrollbars": false,
    "viewtype": "tableview",
    "vizProps": {},
    "wType": "Segment",
    "widgetalignment": 5,
    "widgetdatamap": {
        "btnCancel": "btnCancel",
        "btnSave": "btnSave",
        "flxBillPayManagePayeesEditMobile": "flxBillPayManagePayeesEditMobile",
        "flxSaveCancelAction": "flxSaveCancelAction",
        "lblAddress": "lblAddress",
        "lblBillerName": "lblBillerName",
        "lblCity": "lblCity",
        "lblCountry": "lblCountry",
        "lblHeader": "lblHeader",
        "lblSeparatorOne": "lblSeparatorOne",
        "lblSeparatorTwo": "lblSeparatorTwo",
        "lblState": "lblState",
        "lblZipCode": "lblZipCode",
        "tbxPinCode": "tbxPinCode",
        "tbxState": "tbxState",
        "txtAddress": "txtAddress",
        "txtBankName": "txtBankName",
        "txtCity": "txtCity",
        "txtPayee": "txtPayee"
    },
    "zindex": 1
}