{
    "@class": "com.kony.gen.viz.model.component.KVizUserWidget",
    "DNDConfig": null,
    "__parentReadjusting__": false,
    "_children_": [],
    "_height_": {
        "type": "string",
        "value": "120dp"
    },
    "_left_": {
        "type": "string",
        "value": "0dp"
    },
    "_margin_": [
        0,
        0,
        0,
        0
    ],
    "_orientation_": 1,
    "_padding_": [
        0,
        0,
        0,
        0
    ],
    "_percent_": true,
    "_render_": true,
    "_skin_": "s24c92fc23b14f5484b693ee9b8a9b35",
    "_top_": {
        "type": "string",
        "value": "0dp"
    },
    "_width_": {
        "type": "string",
        "value": "100%"
    },
    "android": {},
    "androidwearos": {},
    "areflexpropsreferenced": false,
    "canUpdateUI": true,
    "clipbounds": false,
    "containerweight": 0,
    "dataDiffs": {
        "CopyflxUserDetails0b35eb5be884043": {
            "__events__": {},
            "__info__": {
                "kuid": "c1a16cc5c0e2416bb4eb4b33f3d589d9",
                "srcKUID": "b692716bd51e422ead7f111a1bfbe5cb",
                "wType": "FlexContainer"
            }
        },
        "CopyflxVerticalSeperator0b961fc23108f4b": {
            "__events__": {},
            "__info__": {
                "kuid": "bfa2a7694f7442a7bff87d588882be9b",
                "srcKUID": "b6e0434c2f904010bfff7590777daf67",
                "wType": "FlexContainer"
            }
        },
        "CopyflxVerticalSeperator0dbd20466efa64b": {
            "__events__": {},
            "__info__": {
                "kuid": "d4586f48c77644aa844b1fe896eb36e2",
                "srcKUID": "d06f368d0065481d81dc512212fd2b95",
                "wType": "FlexContainer"
            }
        },
        "CopyimgToolTip0i580d9acc07c42": {
            "__events__": {},
            "__info__": {
                "kuid": "f7fd0531cd634d87bcef606c713c340b",
                "srcKUID": "f5065fdfa2d0406bb7fafd4073fe33c5",
                "wType": "Image"
            }
        },
        "FlexContainer0e2898aa93bca45": {
            "__events__": {},
            "__info__": {
                "kuid": "a64faa3952ce4a76a06e643b4f824701",
                "srcKUID": "f85d68fc07dd44c2938e507df0fe87fc",
                "wType": "FlexContainer"
            },
            "autogrowMode": {
                "Default": 0
            },
            "height": {},
            "responsiveData": {
                "b2": {
                    "width": {
                        "type": "string",
                        "value": "100%"
                    }
                },
                "b3": {
                    "width": {
                        "type": "string",
                        "value": "100%"
                    }
                },
                "b4": {
                    "height": {
                        "type": "string",
                        "value": "50px"
                    },
                    "isVisible": true,
                    "width": {
                        "type": "string",
                        "value": "100%"
                    }
                }
            },
            "width": {}
        },
        "customhamburger": {
            "__events__": {},
            "__info__": {
                "kuid": "e751d0e170e848edbb2b1861e9631335",
                "srcKUID": "dea66199c9fd433fab636de553a6116f",
                "wType": "UserWidgetInstance"
            }
        },
        "customhamburger.CopyFlexContainer0f46534a0a94e41": {
            "__events__": {},
            "__info__": {
                "kuid": "j4b6372367c1442e8d4235aabaa710fa",
                "srcKUID": "ba7b5440b44f4e7a88be10a58c83104e",
                "wType": "FlexContainer"
            }
        },
        "customhamburger.CopyflxSeperator0a7fd02d026804c": {
            "__events__": {},
            "__info__": {
                "kuid": "d35ac3404d954b6c94f50ecb142423be",
                "srcKUID": "e6c67e99b0b64a4e83a34c312dc501a5",
                "wType": "FlexContainer"
            }
        },
        "customhamburger.CopyflxSeperator0ab6ff437e8524e": {
            "__events__": {},
            "__info__": {
                "kuid": "e4aa8569e6fd4e3c978e7b52811acc61",
                "srcKUID": "ca4dec9fb13344e8a9eaab7c89b68088",
                "wType": "FlexContainer"
            }
        },
        "customhamburger.CopyflxSeperator0acb2897e84374f": {
            "__events__": {},
            "__info__": {
                "kuid": "a2acc7e4bfba4784b39fdc1d8bcbb07b",
                "srcKUID": "h931230261a14f28817596d7d2bbfee2",
                "wType": "FlexContainer"
            }
        },
        "customhamburger.CopyflxSeperator0bd0b5a0f50074d": {
            "__events__": {},
            "__info__": {
                "kuid": "j698983c0b0542a2be8d8d5f896bf960",
                "srcKUID": "b8213949527b424f92c6600b3e792ecc",
                "wType": "FlexContainer"
            }
        },
        "customhamburger.CopyflxSeperator0c1fe53523f5e44": {
            "__events__": {},
            "__info__": {
                "kuid": "ba5e07b80c7841908d027b1269946fde",
                "srcKUID": "ffdae6459d5d450c9b5a5df56704081e",
                "wType": "FlexContainer"
            }
        },
        "customhamburger.CopyflxSeperator0dd0dea943f174f": {
            "__events__": {},
            "__info__": {
                "kuid": "a6f8c388ef5d45be99a64b6ce53eda43",
                "srcKUID": "j5306d2984814d9d93c24f84d7db8ba7",
                "wType": "FlexContainer"
            }
        },
        "customhamburger.CopyflxSeperator0dfcbfe80de1946": {
            "__events__": {},
            "__info__": {
                "kuid": "g6b03362dad9415485168f1b06872d3c",
                "srcKUID": "ec5e9cdda1b4473aa156d59730730f65",
                "wType": "FlexContainer"
            }
        },
        "customhamburger.CopyflxSeperator0dfe0994effc642": {
            "__events__": {},
            "__info__": {
                "kuid": "f1bca6ecd4c741088c39fbc22b108d1a",
                "srcKUID": "c7eb127bdde140e382ab0f3726c08d48",
                "wType": "FlexContainer"
            }
        },
        "customhamburger.CopyflxSeperator0e0b844b2206d42": {
            "__events__": {},
            "__info__": {
                "kuid": "ddcefcbb201743e6bf5d88e4bed80d09",
                "srcKUID": "d407d1c0e2b74a5c8858107d1963ab91",
                "wType": "FlexContainer"
            }
        },
        "customhamburger.CopyflxSeperator0e9219bd0514c46": {
            "__events__": {},
            "__info__": {
                "kuid": "d46c2a8851dc4197b041e1e1054ebeb4",
                "srcKUID": "g39fe81fa7b0498b87ae946e0e5daf27",
                "wType": "FlexContainer"
            }
        },
        "customhamburger.CopyflxSeperator0ef41d1ef612f4a": {
            "__events__": {},
            "__info__": {
                "kuid": "fa9e297b8e7840b6aa92b19fecba033e",
                "srcKUID": "adeb509fbec84150b31a2aa4a215fb19",
                "wType": "FlexContainer"
            }
        },
        "customhamburger.CopyflxSeperator0ef56548331074b": {
            "__events__": {},
            "__info__": {
                "kuid": "g393f4e8e07d4b4582a23dabf90f167d",
                "srcKUID": "j62d0667a0e5431d94bbeb7127ae6e11",
                "wType": "FlexContainer"
            }
        },
        "customhamburger.CopyflxSeperator0f0efd703f4a84e": {
            "__events__": {},
            "__info__": {
                "kuid": "cc1789c1505149b2bb79a746cd69097c",
                "srcKUID": "jc0b907adf1f4e1ea39d354fc2e41d23",
                "wType": "FlexContainer"
            }
        },
        "customhamburger.CopyflxSeperator0f697b8a8bbcf46": {
            "__events__": {},
            "__info__": {
                "kuid": "c3e31185b0f746c1b92f96dbbc6ed2d4",
                "srcKUID": "d7122805ba3b40f493b7d79f749c5c1f",
                "wType": "FlexContainer"
            }
        },
        "customhamburger.CopyflxSeperator0f7229c978c5c47": {
            "__events__": {},
            "__info__": {
                "kuid": "d799225fecd8480eaa42f4e8d303e6a6",
                "srcKUID": "a87745dcb66b4f4c83b0725af5c1251b",
                "wType": "FlexContainer"
            }
        },
        "customhamburger.CopyflxSeperator0f85cfae3ca0048": {
            "__events__": {},
            "__info__": {
                "kuid": "e2b311dd751a4dc1a812039120c5ee52",
                "srcKUID": "dc99871787d24ab28840acb5727529ca",
                "wType": "FlexContainer"
            }
        },
        "customhamburger.CopyflxSeperator0i4d31af56d2d40": {
            "__events__": {},
            "__info__": {
                "kuid": "fe6740569f90435f8b6bf9aa253324f9",
                "srcKUID": "f3f4b62efb0a4dd8bf89e2d38860cfd7",
                "wType": "FlexContainer"
            }
        },
        "customhamburger.CopyflxSeperator0j3213d9f303b41": {
            "__events__": {},
            "__info__": {
                "kuid": "fd146c88d99b496c87a01f99f4942b80",
                "srcKUID": "fe9c8dd71102415db76f64c461560080",
                "wType": "FlexContainer"
            }
        },
        "customhamburger.CopyflxSeperator0jc2b704f97fa4d": {
            "__events__": {},
            "__info__": {
                "kuid": "a2c3cf1897a143a9b8e99f40e4b3b583",
                "srcKUID": "d0c5fd0e52bf405ab3a5b62910c15dfc",
                "wType": "FlexContainer"
            }
        },
        "customhamburger.CopylblAddPayee0b508c1c7ac1342": {
            "__events__": {},
            "__info__": {
                "kuid": "d8a7a882cc0c48659b1c6b2defeec6ea",
                "srcKUID": "gecce85ab70e458f8184668a61d2a72a",
                "wType": "Label"
            }
        },
        "customhamburger.CopylblAddPayee0bee2cf73d22b4d": {
            "__events__": {},
            "__info__": {
                "kuid": "b5e26ede2563408c864a01bfaf5755a9",
                "srcKUID": "e21a4f39e45c4ea4b684e82952e0da1f",
                "wType": "Label"
            }
        },
        "customhamburger.CopylblAddPayee0g70cc090ed6245": {
            "__events__": {},
            "__info__": {
                "kuid": "e4e5f7ff6d5f4e1cbc765a9aa86b0284",
                "srcKUID": "f6dfffbbcd7d48ac80ff2d95331aeef0",
                "wType": "Label"
            }
        },
        "customhamburger.CopylblBillPay0a6bc0b0a48dd4b": {
            "__events__": {},
            "__info__": {
                "kuid": "cd384f97844f467aa81ec925fad341a2",
                "srcKUID": "iece97379dcf4992bd7afc5f0ac6ed8a",
                "wType": "Label"
            }
        },
        "customhamburger.CopylblBillPay0e8e9903a20a440": {
            "__events__": {},
            "__info__": {
                "kuid": "j2bdc5a5e21d4667a460a14239ede1b8",
                "srcKUID": "i5c72f4c617e4a9fa18d6460cc8c41cb",
                "wType": "Label"
            }
        },
        "customhamburger.CopylblBillPay0eda6178b407a4e": {
            "__events__": {},
            "__info__": {
                "kuid": "bcd1cd2bf40c496cb0acf166e10e4fba",
                "srcKUID": "b5f49ce65f43422e8ba064d0383c8b60",
                "wType": "Label"
            }
        },
        "customhamburger.CopylblBillPayHistory0b38a2ee4fe0d47": {
            "__events__": {},
            "__info__": {
                "kuid": "c04f845fa42941e6834386a5c26dadc7",
                "srcKUID": "hbc213bb8f7a4233b1396cd4bdabbaa3",
                "wType": "Label"
            }
        },
        "customhamburger.CopylblBillPayHistory0gc07c297701741": {
            "__events__": {},
            "__info__": {
                "kuid": "g782d1d8557a42a8a0ee2801c9fd0568",
                "srcKUID": "cb22b1482ffc4bfb95ecec9f6a141fab",
                "wType": "Label"
            }
        },
        "customhamburger.CopylblMyPayee0dcb9e690692a4f": {
            "__events__": {},
            "__info__": {
                "kuid": "ib927d8fa1924f07849a62be8ecac94c",
                "srcKUID": "bed01243f6a547179d4bf810e22191f0",
                "wType": "Label"
            }
        },
        "customhamburger.CopylblMyPayee0e33403d7890441": {
            "__events__": {},
            "__info__": {
                "kuid": "d1ad4e4b733845aca4986c0c88e0cf87",
                "srcKUID": "bce63faed54a4d5f8189fb31de9e3ee7",
                "wType": "Label"
            }
        },
        "customhamburger.CopylblMyPayee0i8f11a9bf3734f": {
            "__events__": {},
            "__info__": {
                "kuid": "hab71e0ecfcc4241a46484d54cfdbaa0",
                "srcKUID": "b43285cfc5b14a5ba8ac5b1edff46d10",
                "wType": "Label"
            }
        },
        "customhamburger.CopylblPayABill0d56ffee2b48f4c": {
            "__events__": {},
            "__info__": {
                "kuid": "g02a68b442f147abb443989fd6d82e30",
                "srcKUID": "a37d5172e5d04c99a7b381dbdb0c1f0e",
                "wType": "Label"
            }
        },
        "customhamburger.CopylblPayABill0g84c7aa6fce048": {
            "__events__": {},
            "__info__": {
                "kuid": "a927c8efdc734c3ba54f83d257806624",
                "srcKUID": "e68c07ae9fae4911aa7ec55b76ac1d9e",
                "wType": "Label"
            }
        },
        "customhamburger.CopylblPayABill0h56a2d285cea46": {
            "__events__": {},
            "__info__": {
                "kuid": "a2af3830c73a491897b870e16a08582c",
                "srcKUID": "ade9130b3841494c9f59781a7587c3e1",
                "wType": "Label"
            }
        },
        "customhamburger.FlexContainer0a82014659b0e48": {
            "__events__": {},
            "__info__": {
                "kuid": "d17ca13cc3844b559c9d0a4fd4562e3d",
                "srcKUID": "h7ad82c8fb9b437486ad6c4d49320ce2",
                "wType": "FlexContainer"
            }
        },
        "customhamburger.flxAboutUs": {
            "__events__": {},
            "__info__": {
                "kuid": "cde39cab10a54d499026d0359420ed63",
                "srcKUID": "cca79f5d16b045408f311a815ae6b289",
                "wType": "FlexContainer"
            }
        },
        "customhamburger.flxAboutUsCollapse": {
            "__events__": {},
            "__info__": {
                "kuid": "b15022e1c4c34806a173809aec4b51d1",
                "srcKUID": "e41d16cfc04e458693670ae7e87e34aa",
                "wType": "FlexContainer"
            }
        },
        "customhamburger.flxAboutUsSubMenu": {
            "__events__": {},
            "__info__": {
                "kuid": "d635aa8827f744eeaeba95209cd28ac9",
                "srcKUID": "ad066a23a8cd41e983c434b90da35923",
                "wType": "FlexContainer"
            }
        },
        "customhamburger.flxAccountSettings": {
            "__events__": {},
            "__info__": {
                "kuid": "e497bbd92f9b425a93f3573ccfae4aa4",
                "srcKUID": "g69da15184e04d089b0f58da40a7157e",
                "wType": "FlexContainer"
            }
        },
        "customhamburger.flxAccountsCollapse": {
            "__events__": {},
            "__info__": {
                "kuid": "d181bc4ecec4448f87a3d50f8b3a7e75",
                "srcKUID": "e0af0f6ab9614020b7fc5e89406a63dc",
                "wType": "FlexContainer"
            }
        },
        "customhamburger.flxAccountsMenu": {
            "__events__": {},
            "__info__": {
                "kuid": "h2b58c74ada842f4935b842a47c0ee1d",
                "srcKUID": "cf43ccc491384cce8e692bf0c7b73f90",
                "wType": "FlexContainer"
            }
        },
        "customhamburger.flxAccountsSubMenu": {
            "__events__": {},
            "__info__": {
                "kuid": "f7ba31d9ddf34305a0d26adf49c97da2",
                "srcKUID": "dc00eecfa1d34328ba4230f17db49066",
                "wType": "FlexContainer"
            }
        },
        "customhamburger.flxAddExternalBankAccounts": {
            "__events__": {},
            "__info__": {
                "kuid": "ja41b1f40142443d9e73773e34c0eb05",
                "srcKUID": "d829e28813f643ab8cc7b53a38a11877",
                "wType": "FlexContainer"
            }
        },
        "customhamburger.flxAddKonyAccounts": {
            "__events__": {},
            "__info__": {
                "kuid": "f88ef792b56d47aaa16c751c059aa007",
                "srcKUID": "i7907247783340e6bd2e6d28ef1b46ee",
                "wType": "FlexContainer"
            }
        },
        "customhamburger.flxAddNonKonyAccounts": {
            "__events__": {},
            "__info__": {
                "kuid": "bccd63cb0730467faf26d6b87d88b384",
                "srcKUID": "ic3031f46db3438a903562f1278ef9cc",
                "wType": "FlexContainer"
            }
        },
        "customhamburger.flxAddPayee": {
            "__events__": {},
            "__info__": {
                "kuid": "bd3e1b84283b438fa1f8f71032ede434",
                "srcKUID": "aefd502a752f424387ac0e1a7d6cee42",
                "wType": "FlexContainer"
            }
        },
        "customhamburger.flxAddRecipients": {
            "__events__": {},
            "__info__": {
                "kuid": "f0c7b12be7f04c4184bc4e9bf69ac022",
                "srcKUID": "f96d8995e54f407cb41a20dbef08e36f",
                "wType": "FlexContainer"
            }
        },
        "customhamburger.flxAlerts": {
            "__events__": {},
            "__info__": {
                "kuid": "b2cd3420547d43fa9fed9d78cb660218",
                "srcKUID": "habdea8c510a4db183a6c1d319dc26cf",
                "wType": "FlexContainer"
            }
        },
        "customhamburger.flxAlertsAndMessages": {
            "__events__": {},
            "__info__": {
                "kuid": "f2824eb181674aea90727cbe32d42d70",
                "srcKUID": "a6047045dc8a45488e4434ae31a9d04e",
                "wType": "FlexContainer"
            }
        },
        "customhamburger.flxAlertsAndMessagesCollapse": {
            "__events__": {},
            "__info__": {
                "kuid": "b834d0685ee845959572645ac06e66e6",
                "srcKUID": "b5b47f89075c4e738fdfbe5afa6a27a2",
                "wType": "FlexContainer"
            }
        },
        "customhamburger.flxAlertsAndMessagesSeperator": {
            "__events__": {},
            "__info__": {
                "kuid": "adb7ec1614fd442f8597b8e703a3adb9",
                "srcKUID": "g5f28c8fa61149299a48ec5562c1c35b",
                "wType": "FlexContainer"
            }
        },
        "customhamburger.flxAlertsAndMessagesSubMenu": {
            "__events__": {},
            "__info__": {
                "kuid": "hf93650aada84ae4adda1ac8261db752",
                "srcKUID": "ec498bbee2a54caf825c1cc57f8c0f46",
                "wType": "FlexContainer"
            }
        },
        "customhamburger.flxBillPay": {
            "__events__": {},
            "__info__": {
                "kuid": "d2b3a14c148f4aa6a9e39ce4841ff905",
                "srcKUID": "bafa4dff778347ac84a9f492a0e5dff1",
                "wType": "FlexContainer"
            }
        },
        "customhamburger.flxBillPayCollapse": {
            "__events__": {},
            "__info__": {
                "kuid": "gf1efc61b7f147b59babe6ebf3a73d0b",
                "srcKUID": "a0dcaee0ed354e579861b6fe542d4093",
                "wType": "FlexContainer"
            }
        },
        "customhamburger.flxBillPayHistory": {
            "__events__": {},
            "__info__": {
                "kuid": "h5cfa1b4e81840b3847e2deba106f472",
                "srcKUID": "f62b8e2cab074c0c9fa00cc1d81c39d0",
                "wType": "FlexContainer"
            }
        },
        "customhamburger.flxBillPaySubMenu": {
            "__events__": {},
            "__info__": {
                "kuid": "bbdf35cedf4e4cb1a271e4eff54c1939",
                "srcKUID": "ea568784be934341979a1fd5e490e2cb",
                "wType": "FlexContainer"
            }
        },
        "customhamburger.flxCardManagement": {
            "__events__": {},
            "__info__": {
                "kuid": "c4a126fa924640d1b06c0f08921e5e68",
                "srcKUID": "fca38cea39334c569e00cf833a296ff0",
                "wType": "FlexContainer"
            }
        },
        "customhamburger.flxClose": {
            "__events__": {},
            "__info__": {
                "kuid": "fa46d6f6ad244df8972a0bef4ce3bf4f",
                "srcKUID": "c66fd7f3bd2c4e6e8f7bd01e6287550e",
                "wType": "FlexContainer"
            }
        },
        "customhamburger.flxCollapseTransfers": {
            "__events__": {},
            "__info__": {
                "kuid": "be89b18d9549487fa7de9162a4ac1faa",
                "srcKUID": "h384e8dc0bd24e29af85efafe7e025fc",
                "wType": "FlexContainer"
            }
        },
        "customhamburger.flxContactUs": {
            "__events__": {},
            "__info__": {
                "kuid": "dd4daaafb0844018b5ef91f225bab44d",
                "srcKUID": "abf11674e0d94d85a1fe50e46f4c51bc",
                "wType": "FlexContainer"
            }
        },
        "customhamburger.flxExternalAccounts": {
            "__events__": {},
            "__info__": {
                "kuid": "b999c7d01ae143bd9942e1178fb3663c",
                "srcKUID": "abc9ac58f56e4fb493c8d1f1bff47b24",
                "wType": "FlexContainer"
            }
        },
        "customhamburger.flxFaq": {
            "__events__": {},
            "__info__": {
                "kuid": "ed8e18a174a24e78a84159a602212e75",
                "srcKUID": "h28703eed887497abf8a3f907abdbc2e",
                "wType": "FlexContainer"
            }
        },
        "customhamburger.flxFeedback": {
            "__events__": {},
            "__info__": {
                "kuid": "i8d7ca8ac65f4dc888fa1d879db7a7ce",
                "srcKUID": "c27fd3af5ffb45b38c720480ef414290",
                "wType": "FlexContainer"
            }
        },
        "customhamburger.flxFeedbackCollapse": {
            "__events__": {},
            "__info__": {
                "kuid": "g020d19bedf94071820e550d3392464c",
                "srcKUID": "f324fdf8d1134c45bd40d2c9858e0c43",
                "wType": "FlexContainer"
            }
        },
        "customhamburger.flxHamburgerHeader": {
            "__events__": {},
            "__info__": {
                "kuid": "bceee3d5f08d452fb67e304ba755f01f",
                "srcKUID": "h465700017fe4781975045dab9ed41c5",
                "wType": "FlexContainer"
            }
        },
        "customhamburger.flxHistory": {
            "__events__": {},
            "__info__": {
                "kuid": "ddb555f4b31749638be31421774dfdb4",
                "srcKUID": "af822cb01fd549e09ae70f7a5caf134d",
                "wType": "FlexContainer"
            }
        },
        "customhamburger.flxLocateUs": {
            "__events__": {},
            "__info__": {
                "kuid": "f5bfd43068154855babedc997521d20f",
                "srcKUID": "g85f2c9a423e42a58e10e8686c1fba74",
                "wType": "FlexContainer"
            }
        },
        "customhamburger.flxLogout": {
            "__events__": {},
            "__info__": {
                "kuid": "fb0732547d2a4221a942b2ba7ee8c9b0",
                "srcKUID": "c9904c20e8a5464285e846a22514783d",
                "wType": "FlexContainer"
            }
        },
        "customhamburger.flxMenu": {
            "__events__": {},
            "__info__": {
                "kuid": "dd15b38224664f48b86ce2207e352f5f",
                "srcKUID": "i1c684442e854218bc2c08f78c55f971",
                "wType": "FlexContainer"
            }
        },
        "customhamburger.flxMenuWrapper": {
            "__events__": {},
            "__info__": {
                "kuid": "a50f252915b44f8091993d24df05ad3b",
                "srcKUID": "ad010d1f868d49eea330fb84586cbd46",
                "wType": "FlexScrollContainer"
            }
        },
        "customhamburger.flxMessages": {
            "__events__": {},
            "__info__": {
                "kuid": "g4f26970f080410285f5e1696bbf05b1",
                "srcKUID": "a8c136feada044d8aae02c45642a3aef",
                "wType": "FlexContainer"
            }
        },
        "customhamburger.flxMyAccounts": {
            "__events__": {},
            "__info__": {
                "kuid": "fdf7bbec8615483f95508fcc7cff6bf6",
                "srcKUID": "f7379b95da4148de8bad2885b68ce3c6",
                "wType": "FlexContainer"
            }
        },
        "customhamburger.flxMyPayeeList": {
            "__events__": {},
            "__info__": {
                "kuid": "cb7e6c9b548c4e49816f7e368af5f03d",
                "srcKUID": "j0ff9253248645ff8612f1090fabea1b",
                "wType": "FlexContainer"
            }
        },
        "customhamburger.flxMyRecipients": {
            "__events__": {},
            "__info__": {
                "kuid": "i4f77bd07f8545f0a636ad156454e533",
                "srcKUID": "gc5138a3b6ed40e5a8d376d8900322ac",
                "wType": "FlexContainer"
            }
        },
        "customhamburger.flxNewMessages": {
            "__events__": {},
            "__info__": {
                "kuid": "a1de6ea168054fc2b5ea3f07b0872de1",
                "srcKUID": "bfad3abb96b54f6687ec8d8ae08b8a89",
                "wType": "FlexContainer"
            }
        },
        "customhamburger.flxPFM": {
            "__events__": {},
            "__info__": {
                "kuid": "f3b325e13cb04aeaaa6014e6308d254b",
                "srcKUID": "bfc8636c05da4c4e9131d447fb520a97",
                "wType": "FlexContainer"
            }
        },
        "customhamburger.flxPayABill": {
            "__events__": {},
            "__info__": {
                "kuid": "b32abd9c3e72456890bdb638fb68e78b",
                "srcKUID": "cabc5ae19734442ca472692f76360a26",
                "wType": "FlexContainer"
            }
        },
        "customhamburger.flxPayAPerson": {
            "__events__": {},
            "__info__": {
                "kuid": "ca73d6d43f4e41848a997d4d7411b683",
                "srcKUID": "c3c34d9fdac2420fb3cf01ada4338616",
                "wType": "FlexContainer"
            }
        },
        "customhamburger.flxPayAPersonCollapse": {
            "__events__": {},
            "__info__": {
                "kuid": "g43cafb97ef84c3bbbebe2a835298cae",
                "srcKUID": "f0eb0c0751d7408db1c234c07637bb8f",
                "wType": "FlexContainer"
            }
        },
        "customhamburger.flxPayAPersonSubMenu": {
            "__events__": {},
            "__info__": {
                "kuid": "i5a323772b5e465aabe6fdf99d8c8789",
                "srcKUID": "aeb2426f276a4cdc8c73046302e57323",
                "wType": "FlexContainer"
            }
        },
        "customhamburger.flxPrivacyPolicy": {
            "__events__": {},
            "__info__": {
                "kuid": "aae9acfe20d34146b010052e1b315c3b",
                "srcKUID": "e53f0d53bf524807b19900124ae5e5cc",
                "wType": "FlexContainer"
            }
        },
        "customhamburger.flxProfileManagement": {
            "__events__": {},
            "__info__": {
                "kuid": "h1343fa6c9bf407fa4f5c5541c6891d8",
                "srcKUID": "c4c99abbdc854639a275f0d1966f9d2a",
                "wType": "FlexContainer"
            }
        },
        "customhamburger.flxProfileManagementCollapse": {
            "__events__": {},
            "__info__": {
                "kuid": "cf4965970c41455d96a6c965732ff9b4",
                "srcKUID": "e3074e95c1584c26b3c00839871a8ec1",
                "wType": "FlexContainer"
            }
        },
        "customhamburger.flxProfileManagementSubMenu": {
            "__events__": {},
            "__info__": {
                "kuid": "jf1fd48615eb47e4b83af1407b54dfcd",
                "srcKUID": "dedf5323b4f04d9bb0857acaba413ed2",
                "wType": "FlexContainer"
            }
        },
        "customhamburger.flxProfileSettings": {
            "__events__": {},
            "__info__": {
                "kuid": "d74b3492ef8546ad841fcb9477e6d37a",
                "srcKUID": "c9e266a61e794666abaa382a1974bd50",
                "wType": "FlexContainer"
            }
        },
        "customhamburger.flxSecuritySettings": {
            "__events__": {},
            "__info__": {
                "kuid": "e415457bfcbc44cabbce4cea143d564d",
                "srcKUID": "h35c8ab7f8114eb883dbe77eb239d5bc",
                "wType": "FlexContainer"
            }
        },
        "customhamburger.flxSendRequest": {
            "__events__": {},
            "__info__": {
                "kuid": "bb8ff4e3ff794d01869539a4b33ab302",
                "srcKUID": "d977218b05dc49ada933fde699153602",
                "wType": "FlexContainer"
            }
        },
        "customhamburger.flxSeperator10": {
            "__events__": {},
            "__info__": {
                "kuid": "d061ecfdf73748a29bcc684b4622a4c7",
                "srcKUID": "f9bfa4fca0dd4125be7663cbecdaaee0",
                "wType": "FlexContainer"
            }
        },
        "customhamburger.flxSeperator11": {
            "__events__": {},
            "__info__": {
                "kuid": "cbaf7e99a16647448ee954d18b04cd87",
                "srcKUID": "f0e6a5bf00e24b55a131b00e736ad0f1",
                "wType": "FlexContainer"
            }
        },
        "customhamburger.flxSeperator12": {
            "__events__": {},
            "__info__": {
                "kuid": "cf0226782b194bdfb46ba11ed4c82388",
                "srcKUID": "c0ad725976704507a8aa1b268bc97087",
                "wType": "FlexContainer"
            }
        },
        "customhamburger.flxSeperator13": {
            "__events__": {},
            "__info__": {
                "kuid": "ea33e60e9e904ba4bcc2b5adc7128900",
                "srcKUID": "j636db10e4604851913f33aee409ae48",
                "wType": "FlexContainer"
            }
        },
        "customhamburger.flxSeperator14": {
            "__events__": {},
            "__info__": {
                "kuid": "e1ce1d63d40347989b9eb2559f55a4c9",
                "srcKUID": "f671f1951bbd44bcbaea3b445e3c6c3b",
                "wType": "FlexContainer"
            }
        },
        "customhamburger.flxSeperator15": {
            "__events__": {},
            "__info__": {
                "kuid": "cc276f939ad544ef992a4e051cb31a9a",
                "srcKUID": "j11be2166fc34b419da967d077f32299",
                "wType": "FlexContainer"
            }
        },
        "customhamburger.flxSeperator16": {
            "__events__": {},
            "__info__": {
                "kuid": "ae51fd6d6eaa41278e47c6f665ff0db9",
                "srcKUID": "if0c694e156a4703b7545e789492c020",
                "wType": "FlexContainer"
            }
        },
        "customhamburger.flxSeperator17": {
            "__events__": {},
            "__info__": {
                "kuid": "f59ccefbecd44f72a914590b2f82b551",
                "srcKUID": "b50f7b34350e4dec8af632653ab083c5",
                "wType": "FlexContainer"
            }
        },
        "customhamburger.flxSeperator18": {
            "__events__": {},
            "__info__": {
                "kuid": "d1c5ecd9a0294b7797aa99b432d1ef2c",
                "srcKUID": "dccbe42cfb7b4494b0ef8aa3c4f6be41",
                "wType": "FlexContainer"
            }
        },
        "customhamburger.flxSeperator2": {
            "__events__": {},
            "__info__": {
                "kuid": "cf939e2e59d3420eb29e5d6070404145",
                "srcKUID": "c80156f4b587452bb66f7eeceecaf50a",
                "wType": "FlexContainer"
            }
        },
        "customhamburger.flxSeperator3": {
            "__events__": {},
            "__info__": {
                "kuid": "b93c74b282954c2b849c3fecef126572",
                "srcKUID": "b6518efe46a64f52901e8c3d65c11ce9",
                "wType": "FlexContainer"
            }
        },
        "customhamburger.flxSeperator4": {
            "__events__": {},
            "__info__": {
                "kuid": "c14c4d3fcadd4ceb8590fe15542d424d",
                "srcKUID": "cc2eee43aa8a45d08bf13a5e5718afcd",
                "wType": "FlexContainer"
            }
        },
        "customhamburger.flxSeperator5": {
            "__events__": {},
            "__info__": {
                "kuid": "f033755531ca41fe859cd0b964cac71c",
                "srcKUID": "c8c3ef97147f40f2865efb0cb670d50b",
                "wType": "FlexContainer"
            }
        },
        "customhamburger.flxSeperator6": {
            "__events__": {},
            "__info__": {
                "kuid": "ef9c14c85e0c4ef999074f50373dbbb9",
                "srcKUID": "jdcc06ffd6c140b09d7a452d4412adef",
                "wType": "FlexContainer"
            }
        },
        "customhamburger.flxSeperator7": {
            "__events__": {},
            "__info__": {
                "kuid": "d8f3afaec9bf48338279dee3c4f79fab",
                "srcKUID": "ga22cbc58a634b6fb13935ed90d0aced",
                "wType": "FlexContainer"
            }
        },
        "customhamburger.flxSeperator8": {
            "__events__": {},
            "__info__": {
                "kuid": "i46c25c9f0a8415795066ab60f361a92",
                "srcKUID": "c7558fdf51bf47fe824b91a07cf6b714",
                "wType": "FlexContainer"
            }
        },
        "customhamburger.flxSeperator9": {
            "__events__": {},
            "__info__": {
                "kuid": "ebb7001f687f4b65aaf4f0ec025c167f",
                "srcKUID": "b122e6579708465082812c6e7068d7f6",
                "wType": "FlexContainer"
            }
        },
        "customhamburger.flxSeperatorAlerts": {
            "__events__": {},
            "__info__": {
                "kuid": "j1ec478214dd41e8be699f23165e14a3",
                "srcKUID": "b2fe1d61dbc64712ad4e576fb2bd332f",
                "wType": "FlexContainer"
            }
        },
        "customhamburger.flxSeperatorFeedback": {
            "__events__": {},
            "__info__": {
                "kuid": "f20022f3273d46af967e20e7c58800b9",
                "srcKUID": "d4e625f6ba7b40efad8d6cb88ccf89d7",
                "wType": "FlexContainer"
            }
        },
        "customhamburger.flxSeperatorMessages": {
            "__events__": {},
            "__info__": {
                "kuid": "b242d7f9d3db400fbb246a4187fd45e4",
                "srcKUID": "c5a23363d5df48049106898aa405a723",
                "wType": "FlexContainer"
            }
        },
        "customhamburger.flxSeperatorNewMessage": {
            "__events__": {},
            "__info__": {
                "kuid": "d74a2ce840ee4366b0ba9ad1ccda2826",
                "srcKUID": "c929fa4f76ed416185ce33e12111609d",
                "wType": "FlexContainer"
            }
        },
        "customhamburger.flxStopPaymentRequests": {
            "__events__": {},
            "__info__": {
                "kuid": "b3c47ef513044c9e9455ac2618e74a46",
                "srcKUID": "c6e0f2b6aa1948688094395a053fa1d8",
                "wType": "FlexContainer"
            }
        },
        "customhamburger.flxTerms": {
            "__events__": {},
            "__info__": {
                "kuid": "d698993d9cd64ad9adacd8e9e7b9e307",
                "srcKUID": "a3d4d9ba1e264ec2a3de4b87bc4d7aa3",
                "wType": "FlexContainer"
            }
        },
        "customhamburger.flxTransferHistory": {
            "__events__": {},
            "__info__": {
                "kuid": "j033bdaca4954bb5ba095567e567ecbd",
                "srcKUID": "ib9de73a2bf246eeb639fa215853db61",
                "wType": "FlexContainer"
            }
        },
        "customhamburger.flxTransfers": {
            "__events__": {},
            "__info__": {
                "kuid": "c101bf12902641c09b39a020df446e04",
                "srcKUID": "jc0266e969b0495d868043c84bcc2ab8",
                "wType": "FlexContainer"
            }
        },
        "customhamburger.flxTransfersMoney": {
            "__events__": {},
            "__info__": {
                "kuid": "a53c7ba002434c5baac80d93180c6346",
                "srcKUID": "jf6d2609ea48459e90552691ca5777fe",
                "wType": "FlexContainer"
            }
        },
        "customhamburger.flxTransfersSubMenu": {
            "__events__": {},
            "__info__": {
                "kuid": "eed52020e6d644e7a4f7185a3a3b7d25",
                "srcKUID": "fbf8ca4f00d34558966f6061a5087f14",
                "wType": "FlexContainer"
            }
        },
        "customhamburger.flxWireTransfer": {
            "__events__": {},
            "__info__": {
                "kuid": "aebfdd83096f43a28e8ccd3e5cc3441e",
                "srcKUID": "aae2b1dec0f44ac0ae2c1e3063ff7ba4",
                "wType": "FlexContainer"
            }
        },
        "customhamburger.flxWireTransferCollapse": {
            "__events__": {},
            "__info__": {
                "kuid": "ibe9a78f0912446ab31cfcc27fc2369f",
                "srcKUID": "bfc055b1e7c542d1bfa1c23419d834be",
                "wType": "FlexContainer"
            }
        },
        "customhamburger.flxWireTransferHistory": {
            "__events__": {},
            "__info__": {
                "kuid": "ef12bac93b724f8e9a86df35bbd71e60",
                "srcKUID": "dffd4d61c8a144d4be8f8449855f4c6a",
                "wType": "FlexContainer"
            }
        },
        "customhamburger.flxWireTransferMakeTransfer": {
            "__events__": {},
            "__info__": {
                "kuid": "c8ee41011658401e8c16f4add8c61a73",
                "srcKUID": "f7a63b1bb18644bdbb1f0a7d1c1fc108",
                "wType": "FlexContainer"
            }
        },
        "customhamburger.flxWireTransferMyRecipients": {
            "__events__": {},
            "__info__": {
                "kuid": "ec393f9586314ac2ac15a9c923a9f599",
                "srcKUID": "ic7afce86593464b830c20b7eaaa7000",
                "wType": "FlexContainer"
            }
        },
        "customhamburger.flxWireTransferSubMenu": {
            "__events__": {},
            "__info__": {
                "kuid": "a2abb41e71fa4b728e1ef437ebf65387",
                "srcKUID": "c1b6035a15254cd380f2d7f0bccc1a35",
                "wType": "FlexContainer"
            }
        },
        "customhamburger.flxWireTransfersAddRecipient": {
            "__events__": {},
            "__info__": {
                "kuid": "a17957b614e241d096e555bd4cc3c045",
                "srcKUID": "d8d7ecb1da3b431b8a8f09ecfd49dfb4",
                "wType": "FlexContainer"
            }
        },
        "customhamburger.imgAboutUs": {
            "__events__": {},
            "__info__": {
                "kuid": "f1e161abf77e470388507ec83a6a0ed9",
                "srcKUID": "aedf72df6b6646e4b0541f118b852737",
                "wType": "Image"
            }
        },
        "customhamburger.imgAboutUsCollapse": {
            "__events__": {},
            "__info__": {
                "kuid": "c43d4df2eaec49eeb89eefbfb66a4b73",
                "srcKUID": "j47f6cdfaec144f1bc183fc1ee131f6f",
                "wType": "Image"
            }
        },
        "customhamburger.imgAlertsAndMessages": {
            "__events__": {},
            "__info__": {
                "kuid": "f240fded9bf441f299ded9498e85cc6d",
                "srcKUID": "j15a94b7920346d4bc2ad8031f893737",
                "wType": "Image"
            }
        },
        "customhamburger.imgAlertsAndMessagesCollapse": {
            "__events__": {},
            "__info__": {
                "kuid": "a403a0f5302843e3a91100ac515bd5d7",
                "srcKUID": "aca93ef7e22940b2934c21108b51accd",
                "wType": "Image"
            }
        },
        "customhamburger.imgBillBay": {
            "__events__": {},
            "__info__": {
                "kuid": "j396b68e663e4f1fbfea1908b65a3e6b",
                "srcKUID": "d9d417ef42e34752838998db97365d9f",
                "wType": "Image"
            }
        },
        "customhamburger.imgBillPayCollapse": {
            "__events__": {},
            "__info__": {
                "kuid": "b93359554c424a1ab0cfa7fb21c952c6",
                "srcKUID": "e2c091a5a06b4bd99605cb431850b92a",
                "wType": "Image"
            }
        },
        "customhamburger.imgClose": {
            "__events__": {},
            "__info__": {
                "kuid": "ef6ae9efb3cd4956897dad81cc92869d",
                "srcKUID": "b16e44ed01844172894d7476bf054a4e",
                "wType": "Image"
            }
        },
        "customhamburger.imgCollapseAccounts": {
            "__events__": {},
            "__info__": {
                "kuid": "a097284217c34c148f7910bca28176a5",
                "srcKUID": "cc9717fdf0ce469aa167f4b79dc1f439",
                "wType": "Image"
            }
        },
        "customhamburger.imgCollapseTransfers": {
            "__events__": {},
            "__info__": {
                "kuid": "b4c28edce8af4e0ea8601e5ed337ee2a",
                "srcKUID": "g8ac7330ba6a4fcc94c6de0c85163b0a",
                "wType": "Image"
            }
        },
        "customhamburger.imgFeedback": {
            "__events__": {},
            "__info__": {
                "kuid": "b0dad4af9db84dbbae456a2130948814",
                "srcKUID": "d1117d36d9224b2da0a328285c8f3299",
                "wType": "Image"
            }
        },
        "customhamburger.imgFeedbackCollapse": {
            "__events__": {},
            "__info__": {
                "kuid": "ga50e24b66d640298551f5567230d0c2",
                "srcKUID": "cd3721b729f04176bb97d05262ad2ea9",
                "wType": "Image"
            }
        },
        "customhamburger.imgKony": {
            "__events__": {},
            "__info__": {
                "kuid": "b6e6369ec56d4a499634091595dbdf03",
                "srcKUID": "e51c8a8198184739b48a18c3fbc65273",
                "wType": "Image"
            }
        },
        "customhamburger.imgLogout": {
            "__events__": {},
            "__info__": {
                "kuid": "a9259e864a3d413e8511d049117cda0b",
                "srcKUID": "g8c77dbeed3b43038e912f34fbe614fd",
                "wType": "Image"
            }
        },
        "customhamburger.imgPayAPerson": {
            "__events__": {},
            "__info__": {
                "kuid": "ea7b8279702648488013290e66c43c4e",
                "srcKUID": "c40e76c18b114f96a40918df9e984c72",
                "wType": "Image"
            }
        },
        "customhamburger.imgPayAPersonCollapse": {
            "__events__": {},
            "__info__": {
                "kuid": "j274fb44bc664fca98951f0ed134d950",
                "srcKUID": "d4487e371bca4c0ab4fed6a829640f23",
                "wType": "Image"
            }
        },
        "customhamburger.imgProfileManagement": {
            "__events__": {},
            "__info__": {
                "kuid": "f135ef264ef94f928721c00f19b53a5d",
                "srcKUID": "c256c4de888b46eda952c16c301a26e6",
                "wType": "Image"
            }
        },
        "customhamburger.imgProfileManagementCollapse": {
            "__events__": {},
            "__info__": {
                "kuid": "f97ec1dc7e114abb8e4d1f1b40f46745",
                "srcKUID": "cc11b10b955f4de8ac2e1f5349683cdc",
                "wType": "Image"
            }
        },
        "customhamburger.imgTransfers": {
            "__events__": {},
            "__info__": {
                "kuid": "ea575332314d4ae4994a7cebe1f65ec6",
                "srcKUID": "f226bd307bf34f2a8645072816db1907",
                "wType": "Image"
            }
        },
        "customhamburger.imgWireTransfer": {
            "__events__": {},
            "__info__": {
                "kuid": "fb8ea7b653124c76bcedb5b2a502c0e5",
                "srcKUID": "d1eaae0c6e784ef3b1eace4495b3f8f7",
                "wType": "Image"
            }
        },
        "customhamburger.imgWireTransferCollapse": {
            "__events__": {},
            "__info__": {
                "kuid": "dce888b3e31d4728acf3c07ad9d6e46e",
                "srcKUID": "j64b6a202cfa4080a0cb2b9e0c591e00",
                "wType": "Image"
            }
        },
        "customhamburger.lbfonticonlLogout": {
            "__events__": {},
            "__info__": {
                "kuid": "c69fe41377384c4b8067b405724e4a87",
                "srcKUID": "cbdcdc5074da426f9d8d67372468d417",
                "wType": "Label"
            }
        },
        "customhamburger.lblAboutUs": {
            "__events__": {},
            "__info__": {
                "kuid": "h02c38aac6494bb4ad56cc4c345ffe49",
                "srcKUID": "i493eec7d326462f92313816d7ae5961",
                "wType": "Label"
            }
        },
        "customhamburger.lblAccounts": {
            "__events__": {},
            "__info__": {
                "kuid": "gf0fb6e6081c433eb3af3e310ef43c6f",
                "srcKUID": "aed697189cee47098907b5f830c7134b",
                "wType": "Label"
            }
        },
        "customhamburger.lblAddExternalBankAccounts": {
            "__events__": {},
            "__info__": {
                "kuid": "efaedd2af582469f9e6284e08fc1464e",
                "srcKUID": "edabb77d8ed2442ab7ed61fb91558f23",
                "wType": "Label"
            }
        },
        "customhamburger.lblAddKonyAccounts": {
            "__events__": {},
            "__info__": {
                "kuid": "d6fdb0be9def47a3bf1344fe19d2aa92",
                "srcKUID": "ff5d216a556e426ea0485d1305d1cdfc",
                "wType": "Label"
            }
        },
        "customhamburger.lblAddNonKonyAccounts": {
            "__events__": {},
            "__info__": {
                "kuid": "f7950907d864447b828aa3d8ada155dc",
                "srcKUID": "c0b0a03608614e5f893ef37dabfa17a8",
                "wType": "Label"
            }
        },
        "customhamburger.lblAddPayee": {
            "__events__": {},
            "__info__": {
                "kuid": "e9bf22f3e9f249e0aecec6af61f9f21a",
                "srcKUID": "b1ed43109a994044957b192e976111d5",
                "wType": "Label"
            }
        },
        "customhamburger.lblAlerts": {
            "__events__": {},
            "__info__": {
                "kuid": "ea8cc4e50bae46bab416cc80a01886fb",
                "srcKUID": "jdf83704ef2b4947a774852f4c514bb6",
                "wType": "Label"
            }
        },
        "customhamburger.lblAlertsAndMessages": {
            "__events__": {},
            "__info__": {
                "kuid": "b2d34abe905d49c985d418b8b9429015",
                "srcKUID": "c8bfe7de3cb1469aaef6d3ffee8c215e",
                "wType": "Label"
            }
        },
        "customhamburger.lblBillPay": {
            "__events__": {},
            "__info__": {
                "kuid": "a3cc445473694a9db8caa34facfc37b0",
                "srcKUID": "e219504191c84becaee171477e34698a",
                "wType": "Label"
            }
        },
        "customhamburger.lblBillPayHistory": {
            "__events__": {},
            "__info__": {
                "kuid": "acc16421e5bb41f58b8f0a6b5b00c420",
                "srcKUID": "ce6923a7ee8b477bab3d1bfa0979246d",
                "wType": "Label"
            }
        },
        "customhamburger.lblCardManagement": {
            "__events__": {},
            "__info__": {
                "kuid": "fdcdd1dfb1c9445fb25b918f31c3d644",
                "srcKUID": "b0c732201f424826b31b883b5eec6956",
                "wType": "Label"
            }
        },
        "customhamburger.lblContactUs": {
            "__events__": {},
            "__info__": {
                "kuid": "e9dfdff840be4b3cb61d5a24955ee1a1",
                "srcKUID": "efd35344776642a49ef6e3aae807a692",
                "wType": "Label"
            }
        },
        "customhamburger.lblExternalAccounts": {
            "__events__": {},
            "__info__": {
                "kuid": "e0b117fa24fe4d8f8b40be0972aaeecc",
                "srcKUID": "abc7e43bdfb142efb0d94a00a797f211",
                "wType": "Label"
            }
        },
        "customhamburger.lblFaq": {
            "__events__": {},
            "__info__": {
                "kuid": "eca3c0019fe249d29e8fa25c2da10ef0",
                "srcKUID": "d8ba96ef5a2e4bf8be5c973713049dc0",
                "wType": "Label"
            }
        },
        "customhamburger.lblFeedback": {
            "__events__": {},
            "__info__": {
                "kuid": "d74d158628304162975a33357fa21ed3",
                "srcKUID": "e6e5182ca0e14fed930fee7f4a16b05a",
                "wType": "Label"
            }
        },
        "customhamburger.lblImgAccounts": {
            "__events__": {},
            "__info__": {
                "kuid": "ee79d5a49a2f43efb9f52b56c831659d",
                "srcKUID": "j1310b4359bd4b55a330313f954c89f4",
                "wType": "Label"
            }
        },
        "customhamburger.lblLocateUs": {
            "__events__": {},
            "__info__": {
                "kuid": "b773bef90eef4e46b9807554acce96dd",
                "srcKUID": "g3b7ff8590d0445197ae60ef7a93a17d",
                "wType": "Label"
            }
        },
        "customhamburger.lblLogout": {
            "__events__": {},
            "__info__": {
                "kuid": "gd3e89d2078e4f11aeb786d8efeecb88",
                "srcKUID": "h4feb1ebd1d844adbbb270e5f22582cd",
                "wType": "Label"
            }
        },
        "customhamburger.lblMessages": {
            "__events__": {},
            "__info__": {
                "kuid": "jf63fb92f8b544e88b7e0e1caafff281",
                "srcKUID": "bc3a860393a642769c9453d52202a501",
                "wType": "Label"
            }
        },
        "customhamburger.lblMyAccounts": {
            "__events__": {},
            "__info__": {
                "kuid": "b04cfab8f2e849818657679a899d2588",
                "srcKUID": "a202b406f5f04a1698b17c9f0f9e1694",
                "wType": "Label"
            }
        },
        "customhamburger.lblMyPayee": {
            "__events__": {},
            "__info__": {
                "kuid": "f7a71f8e7e1d444ea5e01763951368bc",
                "srcKUID": "gac82f09141642e3bc00bf3a4c27e7a0",
                "wType": "Label"
            }
        },
        "customhamburger.lblNewMessage": {
            "__events__": {},
            "__info__": {
                "kuid": "hc5784948b1f4802931d16221f878861",
                "srcKUID": "d62536e6a959458a97d070c4fbc8bbcb",
                "wType": "Label"
            }
        },
        "customhamburger.lblPFM": {
            "__events__": {},
            "__info__": {
                "kuid": "a36645e53b7946d3b064c65c25da5c37",
                "srcKUID": "e09127ede361436abb545b5527fba0e0",
                "wType": "Label"
            }
        },
        "customhamburger.lblPayABill": {
            "__events__": {},
            "__info__": {
                "kuid": "ic09860a7b8446ebb4f235655a9e7933",
                "srcKUID": "dc6b9bef9ddf45c0864525e01b4b08d8",
                "wType": "Label"
            }
        },
        "customhamburger.lblPrivacyPolicy": {
            "__events__": {},
            "__info__": {
                "kuid": "bcb449aad01f4d329fc17d31af9fb78a",
                "srcKUID": "ba595802100f49ed8ebfbfc56c559f36",
                "wType": "Label"
            }
        },
        "customhamburger.lblStopPaymentRequests": {
            "__events__": {},
            "__info__": {
                "kuid": "j61fd8839a674c1683b62d490207f9b5",
                "srcKUID": "a87770408c7e42698c673972b990dd6d",
                "wType": "Label"
            }
        },
        "customhamburger.lblTermsAndCondition": {
            "__events__": {},
            "__info__": {
                "kuid": "h6cdda3172274d55be34117addeae5a3",
                "srcKUID": "dc7b8618b5ed4cf3ba5a013618d07063",
                "wType": "Label"
            }
        },
        "customhamburger.lblTransferHistory": {
            "__events__": {},
            "__info__": {
                "kuid": "e0161ed9084044b0aac07e3f64f6e4cb",
                "srcKUID": "d62b43e095964b29b436135534a7afec",
                "wType": "Label"
            }
        },
        "customhamburger.lblTransferMoney": {
            "__events__": {},
            "__info__": {
                "kuid": "af5cbbb8999f4952a1b4b3d99b38a0bd",
                "srcKUID": "b61740e755f3405791224a340675e733",
                "wType": "Label"
            }
        },
        "customhamburger.lblTransfers": {
            "__events__": {},
            "__info__": {
                "kuid": "i5f079a884b545b9b6226d5ab54b5351",
                "srcKUID": "d4c40832e9a140ab8fafbb30d4d1df1d",
                "wType": "Label"
            }
        },
        "customheader": {
            "__events__": {},
            "__info__": {
                "isRoot": true,
                "kuid": "ae3c866e5c8046be89aca8ff04b916d2",
                "srcKUID": "c04bbf50611342ca895c5e0a329aeb52",
                "wType": "FlexContainer"
            },
            "autogrowMode": {
                "Default": 0
            },
            "height": {
                "Default": {
                    "type": "string",
                    "value": "120dp"
                }
            },
            "left": {},
            "minWidth": {},
            "responsiveData": {
                "b1": {},
                "b2": {},
                "b3": {
                    "minWidth": {
                        "type": "string",
                        "value": ""
                    },
                    "width": {
                        "type": "string",
                        "value": "100%"
                    }
                },
                "b4": {
                    "height": {
                        "type": "string",
                        "value": "50dp"
                    },
                    "isVisible": true,
                    "top": {
                        "type": "string",
                        "value": "0dp"
                    }
                }
            },
            "top": {},
            "width": {},
            "zIndex": {
                "Default": 1000
            }
        },
        "flxAccountTypesSegment": {
            "__events__": {},
            "__info__": {
                "kuid": "a5e1da152f3e4bec827dedc3f859e43d",
                "srcKUID": "d431114047984f3ba84cf9829500caf5",
                "wType": "FlexContainer"
            }
        },
        "flxBottomBlue": {
            "__events__": {},
            "__info__": {
                "kuid": "a74265f37ddb40419d6011b8b69a83a8",
                "srcKUID": "a3c7c667e8bb4a0da597ebde4b02694b",
                "wType": "FlexContainer"
            }
        },
        "flxBottomContainer": {
            "__events__": {},
            "__info__": {
                "kuid": "bc4455dfcef94bc4b860a746dec5e2c8",
                "srcKUID": "h9bdf039c3f54878b18ff66171c8c6c6",
                "wType": "FlexContainer"
            },
            "autogrowMode": {
                "Default": 0
            },
            "height": {},
            "responsiveData": {
                "b4": {
                    "height": {
                        "type": "string",
                        "value": "50dp"
                    }
                }
            }
        },
        "flxHamburger": {
            "__events__": {},
            "__info__": {
                "kuid": "bd374749eb084cc3bd1ba5c712bad245",
                "srcKUID": "f04c6e11e7da43b49dd181b8b47d93c4",
                "wType": "FlexContainer"
            },
            "left": {
                "Default": {
                    "type": "string",
                    "value": "-35%"
                }
            },
            "responsiveData": {
                "b4": {}
            },
            "width": {
                "Default": {
                    "type": "string",
                    "value": "35%"
                }
            },
            "zIndex": {
                "Default": 900
            }
        },
        "flxHamburgerBack": {
            "__events__": {},
            "__info__": {
                "kuid": "f94bb1af91c34b95b046d0dbe07e261f",
                "srcKUID": "d74ea43244984beda96f3fdfd7e1de6b",
                "wType": "FlexContainer"
            }
        },
        "flxSeperatorHor2": {
            "__events__": {},
            "__info__": {
                "kuid": "idb2f99deb284ef99b7af9ef8d931f24",
                "srcKUID": "hadeefb9ccf84d75b58e19e7a860af8f",
                "wType": "FlexContainer"
            },
            "responsiveData": {
                "b4": {
                    "top": {
                        "type": "string",
                        "value": "50dp"
                    }
                }
            },
            "top": {}
        },
        "flxTopmenu": {
            "__events__": {},
            "__info__": {
                "kuid": "cf379c6c18d2409fa0b5d5998e0807fb",
                "srcKUID": "ed60ec01cd4843d8acaf4c0c4767b493",
                "wType": "FlexContainer"
            },
            "left": {},
            "responsiveData": {
                "b2": {
                    "width": {
                        "type": "string",
                        "value": "100%"
                    }
                },
                "b3": {
                    "width": {
                        "type": "string",
                        "value": "100%"
                    }
                },
                "b4": {
                    "isVisible": true,
                    "top": {
                        "type": "string",
                        "value": "0dp"
                    },
                    "width": {
                        "type": "string",
                        "value": "100%"
                    }
                }
            },
            "top": {},
            "width": {}
        },
        "flxUserActions": {
            "__events__": {},
            "__info__": {
                "kuid": "aad064538cd646748504bed8080a111d",
                "srcKUID": "j914824243a446a18dc539def72a7642",
                "wType": "FlexContainer"
            },
            "isVisible": false
        },
        "headermenu": {
            "__events__": {},
            "__info__": {
                "kuid": "d2b0947569f34f5c9dd2424be31082f3",
                "srcKUID": "haabafcdc12f4455b3af44d1e0d8f80b",
                "wType": "UserWidgetInstance"
            },
            "responsiveData": {
                "b2": {
                    "right": {
                        "type": "string",
                        "value": "6%"
                    }
                },
                "b3": {
                    "right": {
                        "type": "string",
                        "value": "24dp"
                    },
                    "width": {
                        "type": "string",
                        "value": "100%"
                    }
                },
                "b4": {
                    "isVisible": false
                }
            },
            "right": {},
            "width": {}
        },
        "headermenu.btnLogout": {
            "__events__": {},
            "__info__": {
                "kuid": "af1bac3f7f184138893fe8ba7d21df91",
                "srcKUID": "a766f3cd9f714697b54e4cdcbe1c544b",
                "wType": "Button"
            },
            "i18n_text": null,
            "responsiveData": {
                "b1": {},
                "b2": {},
                "b3": {}
            }
        },
        "headermenu.flxMessages": {
            "__events__": {},
            "__info__": {
                "kuid": "id71e99037474bc2b4b2375394e0f44a",
                "srcKUID": "ac3447a671db4ff79c563e385d237583",
                "wType": "FlexContainer"
            },
            "responsiveData": {
                "b1": {
                    "right": {
                        "type": "string",
                        "value": "145dp"
                    }
                },
                "b2": {
                    "right": {
                        "type": "string",
                        "value": "145dp"
                    }
                },
                "b3": {
                    "right": {
                        "type": "string",
                        "value": "145dp"
                    }
                }
            },
            "right": {}
        },
        "headermenu.flxResetUserImg": {
            "__events__": {},
            "__info__": {
                "kuid": "gb4e6de15cca4339bc4489d031119e37",
                "srcKUID": "adcf593a077c4c0cb56c90ee73238583",
                "wType": "FlexContainer"
            },
            "responsiveData": {
                "b1": {
                    "right": {
                        "type": "string",
                        "value": "75dp"
                    }
                }
            },
            "right": {}
        },
        "headermenu.flxUserId": {
            "__events__": {},
            "__info__": {
                "kuid": "ida45e6d5f34439fb3e888d0a01b44fb",
                "srcKUID": "c135ea56ffd24834a20c4f3af08e75ed",
                "wType": "FlexContainer"
            },
            "responsiveData": {
                "b1": {
                    "right": {
                        "type": "string",
                        "value": "55dp"
                    }
                }
            },
            "right": {}
        },
        "headermenu.flxVerticalSeperator1": {
            "__events__": {},
            "__info__": {
                "kuid": "b5639cab19094ddb868a56cce1caf5b1",
                "srcKUID": "g1cf2c5ea04748138b67069bf6443784",
                "wType": "FlexContainer"
            }
        },
        "headermenu.flxVerticalSeperator2": {
            "__events__": {},
            "__info__": {
                "kuid": "ha3cf655c49c4160b4dd8b1efcd348ca",
                "srcKUID": "i869d64f25f744c7a219ce87160f4fa9",
                "wType": "FlexContainer"
            }
        },
        "headermenu.flxWarning": {
            "__events__": {},
            "__info__": {
                "kuid": "daa96c2671bc43d4aab93fb550113846",
                "srcKUID": "a3f637c9fa154e6ca5621edf7af7f744",
                "wType": "FlexContainer"
            }
        },
        "headermenu.flximgUserResetWrapper": {
            "__events__": {},
            "__info__": {
                "kuid": "f6504a78a419422bac53fa9d5d7d5a3d",
                "srcKUID": "e3916b40967c456aa3942940472ad47e",
                "wType": "FlexContainer"
            }
        },
        "headermenu.imgDropdown": {
            "__events__": {},
            "__info__": {
                "kuid": "f78691e801fa41d484e14ed8bde623ef",
                "srcKUID": "h3d2b4b7f954464d931e34492064ab17",
                "wType": "Image"
            }
        },
        "headermenu.imgLogout": {
            "__events__": {},
            "__info__": {
                "kuid": "ha96957054a0497d9575705b66062fd0",
                "srcKUID": "ea749115721c4958af968ab52ef8529f",
                "wType": "Image"
            }
        },
        "headermenu.imgNotifications": {
            "__events__": {},
            "__info__": {
                "kuid": "cc845faf989341c3932729cd62f8223e",
                "srcKUID": "j053dc709b2c497681932e7129f70ddb",
                "wType": "Image"
            }
        },
        "headermenu.imgUserBoundary": {
            "__events__": {},
            "__info__": {
                "kuid": "a1a3dd6218b14c4c933b5440cafa605a",
                "srcKUID": "g6047dd874ff440fab7ed86f7b808fdd",
                "wType": "Image"
            }
        },
        "headermenu.imgUserReset": {
            "__events__": {},
            "__info__": {
                "kuid": "b908547010fe4655bc922a85694e04a3",
                "srcKUID": "i9a593cdf8934086b62dd5b4b4d93eda",
                "wType": "Image"
            }
        },
        "headermenu.imgWarning": {
            "__events__": {},
            "__info__": {
                "kuid": "fe522ffc5e08478b99c85178e434390a",
                "srcKUID": "j00ce4f7525e4f2aa69884ac2cc7b8a0",
                "wType": "Image"
            }
        },
        "headermenu.imgheaderdefault": {
            "__events__": {},
            "__info__": {
                "kuid": "i3daf9ad317a40b2850229b8d1f136b0",
                "srcKUID": "i589d54c00ef4b33bc0e54ccd9b1e9b9",
                "wType": "Image"
            }
        },
        "headermenu.lblNewMessages": {
            "__events__": {},
            "__info__": {
                "kuid": "h0406be0391241ca95b33225d1a08c37",
                "srcKUID": "bc2f4a9f76164bc18e8e1663bbba3a61",
                "wType": "Label"
            }
        },
        "headermenu.rtxWarning": {
            "__events__": {},
            "__info__": {
                "kuid": "a5a25433b00049558609e0bcec8d399a",
                "srcKUID": "i05c5f9533194937886bb0d238f640e3",
                "wType": "RichText"
            }
        },
        "imgKony": {
            "__events__": {},
            "__info__": {
                "kuid": "e309f9b7a0c04b588d04d6518406fdb2",
                "srcKUID": "i89a4c93ab68416c8f6a24b3e85d037c",
                "wType": "Image"
            },
            "left": {},
            "responsiveData": {
                "b1": {
                    "left": {
                        "type": "string",
                        "value": "85dp"
                    }
                },
                "b3": {
                    "left": {
                        "type": "string",
                        "value": "24dp"
                    },
                    "top": {
                        "type": "string",
                        "value": "18px"
                    }
                },
                "b4": {
                    "isVisible": false
                }
            },
            "top": {}
        },
        "imgToolTip": {
            "__events__": {},
            "__info__": {
                "kuid": "eba733caaf524911a7b442bfb1069317",
                "srcKUID": "b05c4200ee7747f2b596bc0eafc18760",
                "wType": "Image"
            }
        },
        "lblHeaderMobile": {
            "__events__": {},
            "__info__": {
                "kuid": "eb7a03abc8ab400b89f761f51815921b",
                "srcKUID": "f601c2dac7d4490fb32b2040ad16ca87",
                "wType": "Label"
            },
            "isVisible": true,
            "responsiveData": {
                "b4": {
                    "text": "Help"
                }
            },
            "text": ""
        },
        "lblHeaderMobileView": {
            "__events__": {},
            "__info__": {
                "kuid": "f1df641c9ea74c6e82c70614216f7211",
                "srcKUID": "e845559aef0c4fb9b6a4354975cce47c",
                "wType": "Label"
            }
        },
        "lblName": {
            "__events__": {},
            "__info__": {
                "kuid": "e7e97b7efeea437083dcdf81b27025c7",
                "srcKUID": "e4ac7c6df45f47999b2250e0bcb58bcb",
                "wType": "Label"
            }
        },
        "lblUserEmail": {
            "__events__": {},
            "__info__": {
                "kuid": "b1d1a9aa8c234ab3897da0f2faccbcdf",
                "srcKUID": "cd423535a51f4a4bb95d5056c43f5d13",
                "wType": "RichText"
            }
        },
        "lblUserEmail1": {
            "__events__": {},
            "__info__": {
                "kuid": "d6e72a868537470781c2ac47a3186ba1",
                "srcKUID": "j0ea4a96f1104289ad3d0312ed141d3b",
                "wType": "Label"
            }
        },
        "segUserActions": {
            "__events__": {},
            "__info__": {
                "kuid": "ee21de257df842cbac39217e229ad652",
                "srcKUID": "h6bf423223694ef0be1f75d0abee1c0a",
                "wType": "Segment"
            },
            "isVisible": true
        },
        "topmenu": {
            "__events__": {},
            "__info__": {
                "kuid": "ib7cad15ecb64c2a91b55858f402e642",
                "srcKUID": "f3bc1d211a8342419317a1f649e456a0",
                "wType": "UserWidgetInstance"
            },
            "responsiveData": {
                "b3": {
                    "width": {
                        "type": "string",
                        "value": "100%"
                    }
                },
                "b4": {
                    "isVisible": true
                }
            },
            "width": {}
        },
        "topmenu.CopyLabel0a8b12f7002084d": {
            "__events__": {},
            "__info__": {
                "kuid": "cd2db11a24d04bf0b0c8dbfd50382170",
                "srcKUID": "c6970a565fc545a99c0e118b2e0fd447",
                "wType": "Label"
            }
        },
        "topmenu.CopyLabel0bb648d916e554d": {
            "__events__": {},
            "__info__": {
                "kuid": "ia69961aa78e47798b92997560563827",
                "srcKUID": "jff9fe4733df441da45df3e9e7077c16",
                "wType": "Label"
            }
        },
        "topmenu.CopyLabel0h9e71b8a76ad44": {
            "__events__": {},
            "__info__": {
                "kuid": "f4b864eb8d794b51acaff286b92d5fce",
                "srcKUID": "db7ed17156b3455982f6d5e9ec649426",
                "wType": "Label"
            }
        },
        "topmenu.Label0dcf00103bdba46": {
            "__events__": {},
            "__info__": {
                "kuid": "d9412180d9214bba9a1a0d595c3ebd7f",
                "srcKUID": "f93434834b0144ffb8f03bbbe1edf740",
                "wType": "Label"
            }
        },
        "topmenu.flxContextualMenu": {
            "__events__": {},
            "__info__": {
                "kuid": "fd92305843bf428f9ddd0dc7cae0a278",
                "srcKUID": "iaedc8bb3b254e219e0ec496d08636d8",
                "wType": "FlexContainer"
            },
            "isVisible": false,
            "responsiveData": {
                "b4": {}
            }
        },
        "topmenu.flxFeedback": {
            "__events__": {},
            "__info__": {
                "kuid": "e0a2e3221e16468796350675924210bb",
                "srcKUID": "cd10d4b4f565433fb35f2d2d0a97fe1e",
                "wType": "FlexContainer"
            },
            "responsiveData": {
                "b3": {
                    "right": {
                        "type": "string",
                        "value": "75dp"
                    },
                    "width": {
                        "type": "string",
                        "value": "16%"
                    }
                },
                "b4": {
                    "isVisible": false
                }
            },
            "right": {},
            "width": {},
            "zIndex": {
                "Default": 1002
            }
        },
        "topmenu.flxFeedbackimg": {
            "__events__": {},
            "__info__": {
                "kuid": "da1dc9465cdb4f5db7c95ca2dc04805a",
                "srcKUID": "g11b5488a8d343ae866e1de13660acda",
                "wType": "FlexContainer"
            },
            "responsiveData": {
                "b1": {
                    "right": {
                        "type": "string",
                        "value": "10dp"
                    }
                },
                "b2": {
                    "right": {
                        "type": "string",
                        "value": "10dp"
                    },
                    "width": {
                        "type": "string",
                        "value": "80%"
                    }
                },
                "b3": {
                    "right": {
                        "type": "string",
                        "value": "5%"
                    },
                    "width": {
                        "type": "string",
                        "value": "85%"
                    }
                }
            },
            "right": {},
            "width": {}
        },
        "topmenu.flxHelp": {
            "__events__": {},
            "__info__": {
                "kuid": "dca715cb2bd344bbae85e5813f90ac98",
                "srcKUID": "i2d06c634cdc4172ba80e744bcdcfebb",
                "wType": "FlexContainer"
            },
            "responsiveData": {
                "b1": {
                    "right": {
                        "type": "string",
                        "value": "83dp"
                    },
                    "width": {
                        "type": "string",
                        "value": "55dp"
                    }
                },
                "b2": {
                    "right": {
                        "type": "string",
                        "value": "6%"
                    },
                    "width": {
                        "type": "string",
                        "value": "55dp"
                    }
                },
                "b3": {
                    "right": {
                        "type": "string",
                        "value": "2.50%"
                    },
                    "width": {
                        "type": "string",
                        "value": "60dp"
                    }
                },
                "b4": {
                    "isVisible": false
                }
            },
            "right": {
                "Default": {
                    "type": "string",
                    "value": "5%"
                }
            },
            "width": {
                "Default": {
                    "type": "string",
                    "value": "70dp"
                }
            },
            "zIndex": {
                "Default": 1040
            }
        },
        "topmenu.flxMenu": {
            "__events__": {},
            "__info__": {
                "kuid": "e0927b68f687412dbe85b22f89034b81",
                "srcKUID": "e3be9a8fdce047e6bfc57c6134e9a975",
                "wType": "FlexContainer"
            },
            "left": {},
            "responsiveData": {
                "b1": {
                    "left": {
                        "type": "string",
                        "value": "80dp"
                    }
                },
                "b2": {
                    "left": {
                        "type": "string",
                        "value": "78dp"
                    }
                },
                "b3": {
                    "left": {
                        "type": "string",
                        "value": "20dp"
                    }
                },
                "b4": {
                    "isVisible": true,
                    "left": {
                        "type": "string",
                        "value": "10dp"
                    },
                    "top": {
                        "type": "string",
                        "value": "0dp"
                    }
                }
            },
            "top": {}
        },
        "topmenu.flxMenusMain": {
            "__events__": {},
            "__info__": {
                "kuid": "dfe08b2c8b794ae6b7a73f89119f6476",
                "srcKUID": "da5555fd4c164726bf9860ec53363048",
                "wType": "FlexContainer"
            },
            "left": {},
            "responsiveData": {
                "b4": {
                    "isVisible": true,
                    "top": {
                        "type": "string",
                        "value": "0dp"
                    }
                }
            },
            "top": {},
            "zIndex": {
                "Default": 100
            }
        },
        "topmenu.flxPayBills": {
            "__events__": {},
            "__info__": {
                "kuid": "b0353fa5829e4a028b0aeaa7b796cb67",
                "srcKUID": "ea97a9ae24004e468bb62c6e11cff833",
                "wType": "FlexContainer"
            }
        },
        "topmenu.flxSendMoney": {
            "__events__": {},
            "__info__": {
                "kuid": "f399f3b91d17467e87b38e51df53ed39",
                "srcKUID": "h1bb64a044404681858216ea0afef3cf",
                "wType": "FlexContainer"
            }
        },
        "topmenu.flxSeperator1": {
            "__events__": {},
            "__info__": {
                "kuid": "d47ca7934c9d42de8824a7358b683637",
                "srcKUID": "i09ec806e136452589e84e2f83e53e68",
                "wType": "FlexContainer"
            },
            "responsiveData": {
                "b4": {
                    "isVisible": false
                }
            }
        },
        "topmenu.flxTransferMoney": {
            "__events__": {},
            "__info__": {
                "kuid": "j92a5aef56e049aabb19bab79a689269",
                "srcKUID": "j0b6f93293e948bbaad52b4f16db8bea",
                "wType": "FlexContainer"
            }
        },
        "topmenu.flxTransfersAndPay": {
            "__events__": {},
            "__info__": {
                "kuid": "j9fd16be46c649bb8432524a934f579a",
                "srcKUID": "j83fe7fb58c04ec394a0d8313351f539",
                "wType": "FlexContainer"
            },
            "responsiveData": {
                "b4": {
                    "isVisible": false
                }
            }
        },
        "topmenu.flxWireMoney": {
            "__events__": {},
            "__info__": {
                "kuid": "abcde435bc82431e8927bc0857210437",
                "srcKUID": "ed2961fbd05f4e8eb5ae5d530848a7da",
                "wType": "FlexContainer"
            }
        },
        "topmenu.flxaccounts": {
            "__events__": {},
            "__info__": {
                "kuid": "f71bf35f08204a369b93494c48e183a9",
                "srcKUID": "b6366fc9b5854ca5aecefb68e89386e7",
                "wType": "FlexContainer"
            },
            "responsiveData": {
                "b4": {
                    "isVisible": false
                }
            }
        },
        "topmenu.flxverseperator2": {
            "__events__": {},
            "__info__": {
                "kuid": "e3816575f85f44679b99b1762a5e0ba3",
                "srcKUID": "f9719a0b9d3f42b690d0b92a4477ec5d",
                "wType": "FlexContainer"
            }
        },
        "topmenu.imgLblTransfers": {
            "__events__": {},
            "__info__": {
                "kuid": "i6e737c5783b413cb6a32d83bdda86bb",
                "srcKUID": "i6ce4bbe9a904933bf2c217077d91a6f",
                "wType": "Label"
            }
        },
        "topmenu.imgMenu": {
            "__events__": {},
            "__info__": {
                "kuid": "b0e6f3b957ff4c02a035921baca5ceb8",
                "srcKUID": "be1e045b3a3347d88509b7efc7d8015b",
                "wType": "Image"
            },
            "left": {},
            "responsiveData": {
                "b4": {
                    "width": {
                        "type": "string",
                        "value": "25dp"
                    }
                }
            },
            "width": {}
        },
        "topmenu.lblAccounts": {
            "__events__": {},
            "__info__": {
                "kuid": "e1cf739302f349b7aff88e66b4478a6c",
                "srcKUID": "bcf724a120b24fdbb2278444060c639c",
                "wType": "Label"
            }
        },
        "topmenu.lblFeedback": {
            "__events__": {},
            "__info__": {
                "kuid": "c89e75e8f44746d08d1102bc2c6647a7",
                "srcKUID": "i45ffb2e674e425ba9e5542807008a2e",
                "wType": "Label"
            },
            "responsiveData": {}
        },
        "topmenu.lblHelp": {
            "__events__": {},
            "__info__": {
                "kuid": "h67b74d4eb0045cfa9da5d2d52abed07",
                "srcKUID": "b910c72e31ac4950b9d4fcca565a1df4",
                "wType": "Label"
            },
            "centerX": {
                "Default": {
                    "type": "string",
                    "value": "50%"
                }
            },
            "responsiveData": {
                "b1": {
                    "centerX": {
                        "type": "string",
                        "value": ""
                    },
                    "right": {
                        "type": "string",
                        "value": "0dp"
                    }
                },
                "b2": {
                    "centerX": {
                        "type": "string",
                        "value": ""
                    },
                    "right": {
                        "type": "string",
                        "value": "0dp"
                    }
                },
                "b3": {
                    "centerX": {
                        "type": "string",
                        "value": ""
                    },
                    "right": {
                        "type": "string",
                        "value": "0dp"
                    }
                }
            },
            "right": {
                "Default": {
                    "type": "string",
                    "value": ""
                }
            }
        },
        "topmenu.lblTransferAndPay": {
            "__events__": {},
            "__info__": {
                "kuid": "e62911e4f1e646beb114f6772fe23496",
                "srcKUID": "gf970d4c8185498db726665e80e4fff7",
                "wType": "Label"
            }
        }
    },
    "desktopweb": {},
    "id": "customheader",
    "info": null,
    "ipad": {},
    "iphone": {},
    "isdatareferenced": false,
    "isvisible": true,
    "kiosk": {},
    "kuid": "ae3c866e5c8046be89aca8ff04b916d2",
    "layouttype": 2,
    "masterType": 0,
    "name": "kony.ui.UserWidgetInstance",
    "parent": "flxHeader",
    "pf": "frmOnlineHelp",
    "responsiveData": {
        "b1": {},
        "b2": {},
        "b3": {
            "minWidth": {
                "type": "string",
                "value": ""
            },
            "width": {
                "type": "string",
                "value": "100%"
            }
        },
        "b4": {
            "height": {
                "type": "string",
                "value": "50dp"
            },
            "isVisible": true,
            "top": {
                "type": "string",
                "value": "0dp"
            }
        }
    },
    "snaptogrid": true,
    "sourceUserWidget": "c04bbf50611342ca895c5e0a329aeb52",
    "spa": {},
    "spaan": {},
    "spaandroidtablet": {},
    "spabb": {},
    "spaip": {},
    "spaipad": {},
    "spamobile": {},
    "spatablet": {},
    "spawindowstablet": {},
    "spawinphone8": {},
    "tabrcandroid": {},
    "vizProps": {
        "hidewidgethierarchy": false
    },
    "vizprops": {
        "hidewidgethierarchy": false
    },
    "wType": "UserWidgetInstance",
    "windows10": {},
    "windows8": {},
    "winphone10": {},
    "winphone8": {},
    "zindex": 1000
}