{
    "AS_Button_g046e9a2d55c4272aba3864be1d61a12": {
        "id": "AS_Button_g046e9a2d55c4272aba3864be1d61a12",
        "type": "ACTION_SEQUENCE",
        "params": [{
            "datatype": "collection",
            "name": "eventobject"
        }],
        "contextObj": {
            "KUID": "u146c2fcd43f4154b2be4f99a18c3a52",
            "name": "uwu146c2fcd43f4154b2be4f99a18c3a52",
            "type": "userwidgets"
        },
        "language": "js",
        "actions": [{
            "id": "ADD_SNIPPET__ae70f4243c2b42e094d6ea647018ce9f",
            "type": "ADD_SNIPPET",
            "codeSnippet": "this.clickTab(eventobject);",
            "parentId": null,
            "callbackType": null
        }]
    }
}