{
    "AS_Button_bf20f23cd8a44a1ba704ed6237534af0": {
        "id": "AS_Button_bf20f23cd8a44a1ba704ed6237534af0",
        "type": "ACTION_SEQUENCE",
        "params": [{
            "datatype": "collection",
            "name": "eventobject"
        }],
        "contextObj": {
            "KUID": "u3f47d4299ff42938009a5fe8fa46b87",
            "name": "uwu3f47d4299ff42938009a5fe8fa46b87",
            "type": "userwidgets"
        },
        "language": "js",
        "actions": [{
            "id": "ADD_SNIPPET__g00aec48874b4737a266fccd4d5a00e4",
            "type": "ADD_SNIPPET",
            "codeSnippet": "this.clickTab(eventobject);",
            "parentId": null,
            "callbackType": null
        }]
    }
}