{
    "AS_Button_g356e9dd5f2847bcb18f10b4425261a9": {
        "id": "AS_Button_g356e9dd5f2847bcb18f10b4425261a9",
        "type": "ACTION_SEQUENCE",
        "params": [{
            "datatype": "collection",
            "name": "eventobject"
        }],
        "contextObj": {
            "KUID": "uec644e263604e338bace78a52623720",
            "name": "uwuec644e263604e338bace78a52623720",
            "type": "userwidgets"
        },
        "language": "js",
        "actions": [{
            "id": "ADD_SNIPPET__d18aea445e6a40569e9bb4797fb9ec33",
            "type": "ADD_SNIPPET",
            "codeSnippet": "this.showLocateUsPage();",
            "parentId": null,
            "callbackType": null
        }]
    }
}