{
    "AS_Button_a614515ebdd9455792ca1649dcfd4f84": {
        "id": "AS_Button_a614515ebdd9455792ca1649dcfd4f84",
        "type": "ACTION_SEQUENCE",
        "params": [{
            "datatype": "collection",
            "name": "eventobject"
        }],
        "contextObj": {
            "KUID": "u3f47d4299ff42938009a5fe8fa46b87",
            "name": "uwu3f47d4299ff42938009a5fe8fa46b87",
            "type": "userwidgets"
        },
        "language": "js",
        "actions": [{
            "id": "ADD_SNIPPET__gf3804465c9f456aac68a6ed427d2d93",
            "type": "ADD_SNIPPET",
            "codeSnippet": "this.clickTab(eventobject);",
            "parentId": null,
            "callbackType": null
        }]
    }
}