{
    "AS_Button_c5a6eff96e4a41b8a56c8548cfeb4037": {
        "id": "AS_Button_c5a6eff96e4a41b8a56c8548cfeb4037",
        "type": "ACTION_SEQUENCE",
        "params": [{
            "datatype": "collection",
            "name": "eventobject"
        }],
        "contextObj": {
            "name": "uw294b249e1f264e78b48398d28b888f75",
            "type": "userwidgets",
            "KUID": "294b249e1f264e78b48398d28b888f75"
        },
        "language": "js",
        "actions": [{
            "id": "ADD_SNIPPET__dc4d1cc0208e4c9ba0ac2bc0d08a1dd0",
            "type": "ADD_SNIPPET",
            "codeSnippet": "onNavigate(\"SendRequest\");",
            "parentId": null,
            "callbackType": null
        }]
    }
}