{
    "AS_Button_he74c6df9aa94723a068442248dbdc05": {
        "id": "AS_Button_he74c6df9aa94723a068442248dbdc05",
        "type": "ACTION_SEQUENCE",
        "params": [{
            "datatype": "collection",
            "name": "eventobject"
        }],
        "contextObj": {
            "name": "uwu9a76cbfda804693ad6f231f09338179",
            "type": "userwidgets",
            "KUID": "u9a76cbfda804693ad6f231f09338179"
        },
        "language": "js",
        "actions": [{
            "id": "ADD_SNIPPET__j9f7a38027aa40d29e441e0ae5645f07",
            "type": "ADD_SNIPPET",
            "codeSnippet": "if(this.view.flxSearch.isVisible == false){\n  this.view.flxSearch.isVisible = true;\n}else{\n  this.view.flxSearch.isVisible = false;\n}",
            "parentId": null,
            "callbackType": null
        }]
    }
}