{
    "AS_Button_h42f483ad5ac4f86867a338bc2ddc820": {
        "id": "AS_Button_h42f483ad5ac4f86867a338bc2ddc820",
        "type": "ACTION_SEQUENCE",
        "params": [{
            "datatype": "collection",
            "name": "eventobject"
        }],
        "language": "js",
        "actions": [{
            "id": "ADD_SNIPPET__bcf7e98f4423473b9d45a8a38b398507",
            "type": "ADD_SNIPPET",
            "codeSnippet": "this.clickTab(eventobject);",
            "parentId": null,
            "callbackType": null
        }]
    }
}