{
    "AS_FlexScrollContainer_ga7e780938f7494c99f2508f378b9fbf": {
        "id": "AS_FlexScrollContainer_ga7e780938f7494c99f2508f378b9fbf",
        "type": "ACTION_SEQUENCE",
        "params": [{
            "datatype": "collection",
            "name": "eventobject"
        }],
        "contextObj": {
            "KUID": "u651451244884783a956e873ceb833db",
            "name": "uwu651451244884783a956e873ceb833db",
            "type": "userwidgets"
        },
        "language": "js",
        "actions": [{
            "id": "ADD_SNIPPET__gce84af61c6143418edf14238ebff6f7",
            "type": "ADD_SNIPPET",
            "codeSnippet": "//this.invokePreShow();",
            "parentId": null,
            "callbackType": null
        }]
    }
}