{
    "AS_FlexContainer_de9216fa02ba4477b9c5e05a11a854cf": {
        "id": "AS_FlexContainer_de9216fa02ba4477b9c5e05a11a854cf",
        "type": "ACTION_SEQUENCE",
        "params": [{
            "datatype": "collection",
            "name": "eventobject"
        }],
        "contextObj": {
            "name": "uwu061affc28134a43aad7bfab7786c25c",
            "type": "userwidgets",
            "KUID": "u061affc28134a43aad7bfab7786c25c"
        },
        "language": "js",
        "actions": [{
            "id": "ADD_SNIPPET__b596de395d4b44509f395eb99fad352e",
            "type": "ADD_SNIPPET",
            "codeSnippet": "this.toggle(this.view.flxAccountsSubMenu, this.view.imgCollapseAccounts)",
            "parentId": null,
            "callbackType": null
        }]
    }
}