{
    "AS_FlexContainer_g198b7d5bc0f411691c59b01f04cca80": {
        "id": "AS_FlexContainer_g198b7d5bc0f411691c59b01f04cca80",
        "type": "ACTION_SEQUENCE",
        "params": [{
            "datatype": "collection",
            "name": "eventobject"
        }],
        "contextObj": {
            "name": "uwu0c254ff60fd4759bdc3555b1eaef73d",
            "type": "userwidgets",
            "KUID": "u0c254ff60fd4759bdc3555b1eaef73d"
        },
        "language": "js",
        "actions": [{
            "id": "ADD_SNIPPET__c1506e8963c943c88cef679566c4846c",
            "type": "ADD_SNIPPET",
            "codeSnippet": "",
            "parentId": null,
            "callbackType": null
        }]
    }
}