{
    "AS_FlexContainer_c34a9de111bb4ee3b6e3d30bb0ccf858": {
        "id": "AS_FlexContainer_c34a9de111bb4ee3b6e3d30bb0ccf858",
        "type": "ACTION_SEQUENCE",
        "params": [{
            "datatype": "collection",
            "name": "eventobject"
        }],
        "contextObj": {
            "name": "uwu0cbd99fc4d94748a801faa82d1f10f0",
            "type": "userwidgets",
            "KUID": "u0cbd99fc4d94748a801faa82d1f10f0"
        },
        "language": "js",
        "actions": [{
            "id": "ADD_SNIPPET__d14f7118e8f0498983142a75222a86d9",
            "type": "ADD_SNIPPET",
            "codeSnippet": "//this.createACustomCalendarWidget();",
            "parentId": null,
            "callbackType": null
        }]
    }
}