{
    "AS_FlexContainer_i5a4f352ba634b6eaa07d5b435cb8e6f": {
        "id": "AS_FlexContainer_i5a4f352ba634b6eaa07d5b435cb8e6f",
        "type": "ACTION_SEQUENCE",
        "params": [{
            "datatype": "collection",
            "name": "eventobject"
        }],
        "contextObj": {
            "KUID": "u31c707da7774d75a292fd9004a81deb",
            "name": "uwu31c707da7774d75a292fd9004a81deb",
            "type": "userwidgets"
        },
        "language": "js",
        "actions": [{
            "id": "ADD_SNIPPET__jccc5a31fd404d52b51001d85c173d88",
            "type": "ADD_SNIPPET",
            "codeSnippet": "this.initHeader();",
            "parentId": null,
            "callbackType": null
        }]
    }
}