{
    "AS_FlexContainer_c2346212f206424ca6316507bbd3777a": {
        "id": "AS_FlexContainer_c2346212f206424ca6316507bbd3777a",
        "type": "ACTION_SEQUENCE",
        "params": [{
            "datatype": "collection",
            "name": "eventobject"
        }],
        "contextObj": {
            "name": "uwu0c254ff60fd4759bdc3555b1eaef73d",
            "type": "userwidgets",
            "KUID": "u0c254ff60fd4759bdc3555b1eaef73d"
        },
        "language": "js",
        "actions": [{
            "id": "ADD_SNIPPET__fdea04a35e4a47ca9eba143073e03f6b",
            "type": "ADD_SNIPPET",
            "codeSnippet": "",
            "parentId": null,
            "callbackType": null
        }]
    }
}