{
    "AS_FlexContainer_b6dca62c1e394899877c7a23d894fbd0": {
        "id": "AS_FlexContainer_b6dca62c1e394899877c7a23d894fbd0",
        "type": "ACTION_SEQUENCE",
        "params": [{
            "datatype": "collection",
            "name": "eventobject"
        }],
        "contextObj": {
            "name": "uwu061affc28134a43aad7bfab7786c25c",
            "type": "userwidgets",
            "KUID": "u061affc28134a43aad7bfab7786c25c"
        },
        "language": "js",
        "actions": [{
            "id": "ADD_SNIPPET__i482c42068234133b6246d8965a8365a",
            "type": "ADD_SNIPPET",
            "codeSnippet": "this.toggle(this.view.flxTransfersSubMenu, this.view.imgCollapseTransfers)",
            "parentId": null,
            "callbackType": null
        }]
    }
}