{
    "AS_FlexContainer_c09713def2af4deaa8f88a5eed2a642e": {
        "id": "AS_FlexContainer_c09713def2af4deaa8f88a5eed2a642e",
        "type": "ACTION_SEQUENCE",
        "params": [{
            "datatype": "collection",
            "name": "eventobject"
        }],
        "contextObj": {
            "KUID": "i2e37d44d4e642249678100679a70385",
            "name": "uwi2e37d44d4e642249678100679a70385",
            "type": "userwidgets"
        },
        "language": "js",
        "actions": [{
            "id": "ADD_SNIPPET__cf496ba74e8248fd986aead1cbb51906",
            "type": "ADD_SNIPPET",
            "codeSnippet": "this.toggleCheckbox(this.view.imgCheckBoxPhoneNo);",
            "parentId": null,
            "callbackType": null
        }]
    }
}