{
    "AS_Image_a16bf3b622a64e44845a3ece688f0bc0": {
        "id": "AS_Image_a16bf3b622a64e44845a3ece688f0bc0",
        "type": "ACTION_SEQUENCE",
        "params": [{
            "datatype": "collection",
            "name": "eventobject"
        }, {
            "datatype": "string",
            "name": "x"
        }, {
            "datatype": "string",
            "name": "y"
        }],
        "contextObj": {
            "KUID": "f8b1a5e2c4af465b9ab7db1625ac3395",
            "name": "uwf8b1a5e2c4af465b9ab7db1625ac3395",
            "type": "userwidgets"
        },
        "language": "js",
        "actions": [{
            "id": "ADD_SNIPPET__ce4f06e73d4a437098fcec9ec60f296f",
            "type": "ADD_SNIPPET",
            "codeSnippet": "if(this.view.imgOption1.src === \"radioinactivebb.png\")\n{\n  this.view.imgOption1.src = \"radioactivebb.png\";\n  this.view.imgOption0.src = \"radioinactivebb.png\";\n  this.view.flxToggleOptions.forceLayout();\n  if(this.onOptionToggle !== undefined && this.onOptionToggle !== null) \n  {\n    this.onOptionToggle();\n  }\n}",
            "parentId": null,
            "callbackType": null
        }]
    }
}