{
  "operationConfig" : {
    "name" : "ValidateTin7223",
    "type" : "MappedToBackend",
    "cachable" : false,
    "smsEnabled" : false,
    "security" : "public",
    "responseEncoding" : "UTF-8",
    "httpMethod" : "GET",
    "decodeResponseBody" : false,
    "iMapping" : "<?xml version=\"1.0\" encoding=\"UTF-8\" standalone=\"yes\"?><mapper xmlns=\"http://www.kony.com/ns/mapper\"><map inputpath=\"request_in\" outputpath=\"request_out\"><set-param inputpath=\"Tin\" outputpath=\"Tin\"/></map></mapper>",
    "oMapping" : "<?xml version=\"1.0\" encoding=\"UTF-8\" standalone=\"yes\"?><mapper xmlns=\"http://www.kony.com/ns/mapper\">        <map inputpath=\"response_in\" outputpath=\"response_out\">             <set-param inputpath=\"success\" outputpath=\"success\"/>                <set-param inputpath=\"dbpErrMsg\" outputpath=\"dbpErrMsg\"/>                <set-param inputpath=\"dbpErrCode\" outputpath=\"dbpErrCode\"/>             <set-param inputpath=\"isExists\" outputpath=\"isExists\"/>    </map></mapper>",
    "oVisualMappingData" : "{\"nodeDataArray\":[{\"isGroup\":true,\"key\":\"response_out\",\"text\":\"Organization\",\"xy\":\"770 100\",\"__gohashid\":46014},{\"isGroup\":true,\"key\":\"response_in\",\"text\":\"dbpRbLocalServicesJava (1.0).ValidateTin\",\"xy\":\"150 100\",\"__gohashid\":46015}],\"linkDataArray\":[{\"from\":\"target\",\"to\":\"target:Organization\",\"fromPort\":\"target\",\"toPort\":\"target:Organization\",\"visible\":true,\"common\":false,\"__gohashid\":30213},{\"from\":\"target:Organization\",\"to\":\"target:Organization:fields\",\"fromPort\":\"target:Organization\",\"toPort\":\"target:Organization:fields\",\"visible\":true,\"common\":false,\"__gohashid\":30214},{\"from\":\"target:Organization:fields\",\"to\":\"target:Organization:id:\",\"fromPort\":\"target:Organization:fields\",\"toPort\":\"target:Organization:id:\",\"visible\":true,\"common\":false,\"__gohashid\":30215},{\"from\":\"target:Organization:fields\",\"to\":\"target:Organization:Name:\",\"fromPort\":\"target:Organization:fields\",\"toPort\":\"target:Organization:Name:\",\"visible\":true,\"common\":false,\"__gohashid\":30216},{\"from\":\"target:Organization:fields\",\"to\":\"target:Organization:Description:\",\"fromPort\":\"target:Organization:fields\",\"toPort\":\"target:Organization:Description:\",\"visible\":true,\"common\":false,\"__gohashid\":30217},{\"from\":\"target:Organization:fields\",\"to\":\"target:Organization:Type_Id:\",\"fromPort\":\"target:Organization:fields\",\"toPort\":\"target:Organization:Type_Id:\",\"visible\":true,\"common\":false,\"__gohashid\":30218},{\"from\":\"target:Organization:fields\",\"to\":\"target:Organization:Organization_id:\",\"fromPort\":\"target:Organization:fields\",\"toPort\":\"target:Organization:Organization_id:\",\"visible\":true,\"common\":false,\"__gohashid\":30219},{\"from\":\"target:Organization:fields\",\"to\":\"target:Organization:Taxid:\",\"fromPort\":\"target:Organization:fields\",\"toPort\":\"target:Organization:Taxid:\",\"visible\":true,\"common\":false,\"__gohashid\":30220},{\"from\":\"target:Organization:fields\",\"to\":\"target:Organization:Membership_id:\",\"fromPort\":\"target:Organization:fields\",\"toPort\":\"target:Organization:Membership_id:\",\"visible\":true,\"common\":false,\"__gohashid\":30221},{\"from\":\"target:Organization:fields\",\"to\":\"target:Organization:Sequence:\",\"fromPort\":\"target:Organization:fields\",\"toPort\":\"target:Organization:Sequence:\",\"visible\":true,\"common\":false,\"__gohashid\":30222},{\"from\":\"target:Organization:fields\",\"to\":\"target:Organization:Value:\",\"fromPort\":\"target:Organization:fields\",\"toPort\":\"target:Organization:Value:\",\"visible\":true,\"common\":false,\"__gohashid\":30223},{\"from\":\"target:Organization:fields\",\"to\":\"target:Organization:Extension:\",\"fromPort\":\"target:Organization:fields\",\"toPort\":\"target:Organization:Extension:\",\"visible\":true,\"common\":false,\"__gohashid\":30224},{\"from\":\"target:Organization:fields\",\"to\":\"target:Organization:IsPreferredContactMethod:\",\"fromPort\":\"target:Organization:fields\",\"toPort\":\"target:Organization:IsPreferredContactMethod:\",\"visible\":true,\"common\":false,\"__gohashid\":30225},{\"from\":\"target:Organization:fields\",\"to\":\"target:Organization:PreferredContactTime:\",\"fromPort\":\"target:Organization:fields\",\"toPort\":\"target:Organization:PreferredContactTime:\",\"visible\":true,\"common\":false,\"__gohashid\":30226},{\"from\":\"target:Organization:fields\",\"to\":\"target:Organization:createdby:\",\"fromPort\":\"target:Organization:fields\",\"toPort\":\"target:Organization:createdby:\",\"visible\":true,\"common\":false,\"__gohashid\":30227},{\"from\":\"target:Organization:fields\",\"to\":\"target:Organization:modifiedby:\",\"fromPort\":\"target:Organization:fields\",\"toPort\":\"target:Organization:modifiedby:\",\"visible\":true,\"common\":false,\"__gohashid\":30228},{\"from\":\"target:Organization:fields\",\"to\":\"target:Organization:createdts:\",\"fromPort\":\"target:Organization:fields\",\"toPort\":\"target:Organization:createdts:\",\"visible\":true,\"common\":false,\"__gohashid\":30229},{\"from\":\"target:Organization:fields\",\"to\":\"target:Organization:lastmodifiedts:\",\"fromPort\":\"target:Organization:fields\",\"toPort\":\"target:Organization:lastmodifiedts:\",\"visible\":true,\"common\":false,\"__gohashid\":30230},{\"from\":\"target:Organization:fields\",\"to\":\"target:Organization:synctimestamp:\",\"fromPort\":\"target:Organization:fields\",\"toPort\":\"target:Organization:synctimestamp:\",\"visible\":true,\"common\":false,\"__gohashid\":30231},{\"from\":\"target:Organization:fields\",\"to\":\"target:Organization:softdeleteflag:\",\"fromPort\":\"target:Organization:fields\",\"toPort\":\"target:Organization:softdeleteflag:\",\"visible\":true,\"common\":false,\"__gohashid\":30232},{\"from\":\"target:Organization:fields\",\"to\":\"target:Organization:DurationOfStay:\",\"fromPort\":\"target:Organization:fields\",\"toPort\":\"target:Organization:DurationOfStay:\",\"visible\":true,\"common\":false,\"__gohashid\":30233},{\"from\":\"target:Organization:fields\",\"to\":\"target:Organization:IsPrimary:\",\"fromPort\":\"target:Organization:fields\",\"toPort\":\"target:Organization:IsPrimary:\",\"visible\":true,\"common\":false,\"__gohashid\":30234},{\"from\":\"target:Organization:fields\",\"to\":\"target:Organization:contactnumber:\",\"fromPort\":\"target:Organization:fields\",\"toPort\":\"target:Organization:contactnumber:\",\"visible\":true,\"common\":false,\"__gohashid\":30235},{\"from\":\"target:Organization:fields\",\"to\":\"target:Organization:emailid:\",\"fromPort\":\"target:Organization:fields\",\"toPort\":\"target:Organization:emailid:\",\"visible\":true,\"common\":false,\"__gohashid\":30236},{\"from\":\"target:Organization:fields\",\"to\":\"target:Organization:addressLine1:\",\"fromPort\":\"target:Organization:fields\",\"toPort\":\"target:Organization:addressLine1:\",\"visible\":true,\"common\":false,\"__gohashid\":30237},{\"from\":\"target:Organization:fields\",\"to\":\"target:Organization:addressLine2:\",\"fromPort\":\"target:Organization:fields\",\"toPort\":\"target:Organization:addressLine2:\",\"visible\":true,\"common\":false,\"__gohashid\":30238},{\"from\":\"target:Organization:fields\",\"to\":\"target:Organization:zipCode:\",\"fromPort\":\"target:Organization:fields\",\"toPort\":\"target:Organization:zipCode:\",\"visible\":true,\"common\":false,\"__gohashid\":30239},{\"from\":\"target:Organization:fields\",\"to\":\"target:Organization:cityName:\",\"fromPort\":\"target:Organization:fields\",\"toPort\":\"target:Organization:cityName:\",\"visible\":true,\"common\":false,\"__gohashid\":30240},{\"from\":\"target:Organization:fields\",\"to\":\"target:Organization:country:\",\"fromPort\":\"target:Organization:fields\",\"toPort\":\"target:Organization:country:\",\"visible\":true,\"common\":false,\"__gohashid\":30241},{\"from\":\"target:Organization:fields\",\"to\":\"target:Organization:state:\",\"fromPort\":\"target:Organization:fields\",\"toPort\":\"target:Organization:state:\",\"visible\":true,\"common\":false,\"__gohashid\":30242},{\"from\":\"target:Organization:fields\",\"to\":\"target:Organization:Email:\",\"fromPort\":\"target:Organization:fields\",\"toPort\":\"target:Organization:Email:\",\"visible\":true,\"common\":false,\"__gohashid\":30243},{\"from\":\"target:Organization:fields\",\"to\":\"target:Organization:Tin:\",\"fromPort\":\"target:Organization:fields\",\"toPort\":\"target:Organization:Tin:\",\"visible\":true,\"common\":false,\"__gohashid\":30244},{\"from\":\"target:Organization:fields\",\"to\":\"target:Organization:searchType:\",\"fromPort\":\"target:Organization:fields\",\"toPort\":\"target:Organization:searchType:\",\"visible\":true,\"common\":false,\"__gohashid\":30245},{\"from\":\"target:Organization:fields\",\"to\":\"target:Organization:errorCode:\",\"fromPort\":\"target:Organization:fields\",\"toPort\":\"target:Organization:errorCode:\",\"visible\":true,\"common\":false,\"__gohashid\":30246},{\"from\":\"target:Organization:fields\",\"to\":\"target:Organization:errorMessage:\",\"fromPort\":\"target:Organization:fields\",\"toPort\":\"target:Organization:errorMessage:\",\"visible\":true,\"common\":false,\"__gohashid\":30247},{\"from\":\"target:Organization:fields\",\"to\":\"target:Organization:success:\",\"fromPort\":\"target:Organization:fields\",\"toPort\":\"target:Organization:success:\",\"visible\":true,\"common\":false,\"__gohashid\":30248},{\"from\":\"target:Organization:fields\",\"to\":\"target:Organization:Phone:\",\"fromPort\":\"target:Organization:fields\",\"toPort\":\"target:Organization:Phone:\",\"visible\":true,\"common\":false,\"__gohashid\":30249},{\"from\":\"target:Organization:fields\",\"to\":\"target:Organization:searchString:\",\"fromPort\":\"target:Organization:fields\",\"toPort\":\"target:Organization:searchString:\",\"visible\":true,\"common\":false,\"__gohashid\":30250},{\"from\":\"target:Organization:fields\",\"to\":\"target:Organization:order:\",\"fromPort\":\"target:Organization:fields\",\"toPort\":\"target:Organization:order:\",\"visible\":true,\"common\":false,\"__gohashid\":30251},{\"from\":\"target:Organization:fields\",\"to\":\"target:Organization:sortBy:\",\"fromPort\":\"target:Organization:fields\",\"toPort\":\"target:Organization:sortBy:\",\"visible\":true,\"common\":false,\"__gohashid\":30252},{\"from\":\"target:Organization:fields\",\"to\":\"target:Organization:offset:\",\"fromPort\":\"target:Organization:fields\",\"toPort\":\"target:Organization:offset:\",\"visible\":true,\"common\":false,\"__gohashid\":30253},{\"from\":\"target:Organization:fields\",\"to\":\"target:Organization:limit:\",\"fromPort\":\"target:Organization:fields\",\"toPort\":\"target:Organization:limit:\",\"visible\":true,\"common\":false,\"__gohashid\":30254},{\"from\":\"target:Organization:fields\",\"to\":\"target:Organization:Type:\",\"fromPort\":\"target:Organization:fields\",\"toPort\":\"target:Organization:Type:\",\"visible\":true,\"common\":false,\"__gohashid\":30255},{\"from\":\"target:Organization:fields\",\"to\":\"target:Organization:Communication:\",\"fromPort\":\"target:Organization:fields\",\"toPort\":\"target:Organization:Communication:\",\"visible\":true,\"common\":false,\"__gohashid\":30256},{\"from\":\"target:Organization:fields\",\"to\":\"target:Organization:Address:\",\"fromPort\":\"target:Organization:fields\",\"toPort\":\"target:Organization:Address:\",\"visible\":true,\"common\":false,\"__gohashid\":30257},{\"from\":\"target:Organization:fields\",\"to\":\"target:Organization:Owner:\",\"fromPort\":\"target:Organization:fields\",\"toPort\":\"target:Organization:Owner:\",\"visible\":true,\"common\":false,\"__gohashid\":30258},{\"from\":\"target:Organization:fields\",\"to\":\"target:Organization:Membership:\",\"fromPort\":\"target:Organization:fields\",\"toPort\":\"target:Organization:Membership:\",\"visible\":true,\"common\":false,\"__gohashid\":30259},{\"from\":\"target:Organization:fields\",\"to\":\"target:Organization:AccountsList:\",\"fromPort\":\"target:Organization:fields\",\"toPort\":\"target:Organization:AccountsList:\",\"visible\":true,\"common\":false,\"__gohashid\":30260},{\"from\":\"target:Organization:fields\",\"to\":\"target:Organization:EAgreementRequired:\",\"fromPort\":\"target:Organization:fields\",\"toPort\":\"target:Organization:EAgreementRequired:\",\"visible\":true,\"common\":false,\"__gohashid\":30261},{\"from\":\"target:Organization:fields\",\"to\":\"target:Organization:LastName:\",\"fromPort\":\"target:Organization:fields\",\"toPort\":\"target:Organization:LastName:\",\"visible\":true,\"common\":false,\"__gohashid\":30262},{\"from\":\"target:Organization:fields\",\"to\":\"target:Organization:MiddleName:\",\"fromPort\":\"target:Organization:fields\",\"toPort\":\"target:Organization:MiddleName:\",\"visible\":true,\"common\":false,\"__gohashid\":30263},{\"from\":\"target:Organization:fields\",\"to\":\"target:Organization:FirstName:\",\"fromPort\":\"target:Organization:fields\",\"toPort\":\"target:Organization:FirstName:\",\"visible\":true,\"common\":false,\"__gohashid\":30264},{\"from\":\"target:Organization:fields\",\"to\":\"target:Organization:status:\",\"fromPort\":\"target:Organization:fields\",\"toPort\":\"target:Organization:status:\",\"visible\":true,\"common\":false,\"__gohashid\":30265},{\"from\":\"target:Organization:fields\",\"to\":\"target:Organization:Lastlogintime:\",\"fromPort\":\"target:Organization:fields\",\"toPort\":\"target:Organization:Lastlogintime:\",\"visible\":true,\"common\":false,\"__gohashid\":30266},{\"from\":\"target:Organization:fields\",\"to\":\"target:Organization:role_id:\",\"fromPort\":\"target:Organization:fields\",\"toPort\":\"target:Organization:role_id:\",\"visible\":true,\"common\":false,\"__gohashid\":30267},{\"from\":\"target:Organization:fields\",\"to\":\"target:Organization:DOB:\",\"fromPort\":\"target:Organization:fields\",\"toPort\":\"target:Organization:DOB:\",\"visible\":true,\"common\":false,\"__gohashid\":30268},{\"from\":\"target:Organization:fields\",\"to\":\"target:Organization:Ssn:\",\"fromPort\":\"target:Organization:fields\",\"toPort\":\"target:Organization:Ssn:\",\"visible\":true,\"common\":false,\"__gohashid\":30269},{\"from\":\"target:Organization:fields\",\"to\":\"target:Organization:TypeName:\",\"fromPort\":\"target:Organization:fields\",\"toPort\":\"target:Organization:TypeName:\",\"visible\":true,\"common\":false,\"__gohashid\":30270},{\"from\":\"target:Organization:fields\",\"to\":\"target:Organization:DrivingLicenseNumber:\",\"fromPort\":\"target:Organization:fields\",\"toPort\":\"target:Organization:DrivingLicenseNumber:\",\"visible\":true,\"common\":false,\"__gohashid\":30271},{\"from\":\"target:Organization:fields\",\"to\":\"target:Organization:DateOfBirth:\",\"fromPort\":\"target:Organization:fields\",\"toPort\":\"target:Organization:DateOfBirth:\",\"visible\":true,\"common\":false,\"__gohashid\":30272},{\"from\":\"target:Organization:fields\",\"to\":\"target:Organization:isExists:\",\"fromPort\":\"target:Organization:fields\",\"toPort\":\"target:Organization:isExists:\",\"visible\":true,\"common\":false,\"__gohashid\":30273},{\"from\":\"target:Organization:fields\",\"to\":\"target:Organization:Account_id:\",\"fromPort\":\"target:Organization:fields\",\"toPort\":\"target:Organization:Account_id:\",\"visible\":true,\"common\":false,\"__gohashid\":30274},{\"from\":\"target:Organization:fields\",\"to\":\"target:Organization:accountID:\",\"fromPort\":\"target:Organization:fields\",\"toPort\":\"target:Organization:accountID:\",\"visible\":true,\"common\":false,\"__gohashid\":30275},{\"from\":\"target:Organization:fields\",\"to\":\"target:Organization:addressId:\",\"fromPort\":\"target:Organization:fields\",\"toPort\":\"target:Organization:addressId:\",\"visible\":true,\"common\":false,\"__gohashid\":30276},{\"from\":\"source\",\"to\":\"source:parameters\",\"fromPort\":\"source\",\"toPort\":\"source:parameters\",\"visible\":true,\"common\":false,\"__gohashid\":30277},{\"from\":\"source:parameters\",\"to\":\"source:errorCode:\",\"fromPort\":\"source:parameters\",\"toPort\":\"source:errorCode:\",\"visible\":true,\"common\":false,\"__gohashid\":30278},{\"from\":\"source:parameters\",\"to\":\"source:errorMessage:\",\"fromPort\":\"source:parameters\",\"toPort\":\"source:errorMessage:\",\"visible\":true,\"common\":false,\"__gohashid\":30279},{\"from\":\"source:parameters\",\"to\":\"source:success:\",\"fromPort\":\"source:parameters\",\"toPort\":\"source:success:\",\"visible\":true,\"common\":false,\"__gohashid\":30280},{\"from\":\"source\",\"to\":\"source:orgmem_attributes\",\"fromPort\":\"source\",\"toPort\":\"source:orgmem_attributes\",\"visible\":true,\"common\":false,\"__gohashid\":30281},{\"from\":\"source:orgmem_attributes\",\"to\":\"source:orgmem_attributes:parameters\",\"fromPort\":\"source:orgmem_attributes\",\"toPort\":\"source:orgmem_attributes:parameters\",\"visible\":true,\"common\":false,\"__gohashid\":30282},{\"from\":\"source:orgmem_attributes:parameters\",\"to\":\"source:orgmem_attributes:id:\",\"fromPort\":\"source:orgmem_attributes:parameters\",\"toPort\":\"source:orgmem_attributes:id:\",\"visible\":true,\"common\":false,\"__gohashid\":30283},{\"from\":\"source:orgmem_attributes:parameters\",\"to\":\"source:orgmem_attributes:Membership_id:\",\"fromPort\":\"source:orgmem_attributes:parameters\",\"toPort\":\"source:orgmem_attributes:Membership_id:\",\"visible\":true,\"common\":false,\"__gohashid\":30284},{\"from\":\"source:orgmem_attributes:parameters\",\"to\":\"source:orgmem_attributes:Organization_id:\",\"fromPort\":\"source:orgmem_attributes:parameters\",\"toPort\":\"source:orgmem_attributes:Organization_id:\",\"visible\":true,\"common\":false,\"__gohashid\":30285},{\"from\":\"source:orgmem_attributes:parameters\",\"to\":\"source:orgmem_attributes:Taxid:\",\"fromPort\":\"source:orgmem_attributes:parameters\",\"toPort\":\"source:orgmem_attributes:Taxid:\",\"visible\":true,\"common\":false,\"__gohashid\":30286}],\"blockCount\":{\"variableCount\":0},\"variableMap\":{},\"xmlMappingOverride\":true}",
    "applyCommonMapping" : false,
    "applyRequestCommonMapping" : true,
    "applyResponseCommonMapping" : false,
    "backendMeta" : {
      "serviceName" : "dbpRbLocalServicesJava",
      "serviceVersion" : "1.0",
      "operationName" : "ValidateTin"
    },
    "relationshipHierarchyMapping" : {
      "children" : [ ],
      "name" : "Organization",
      "actions" : { },
      "selected" : true
    },
    "requestXmlMappingOverride" : false,
    "responseXmlMappingOverride" : true
  }
}