{
    "@class": "com.kony.gen.viz.model.component.KVizButton",
    "DNDConfig": null,
    "__parentReadjusting__": false,
    "_height_": {
        "type": "ref",
        "value": "preferred"
    },
    "_left_": {
        "type": "string",
        "value": "0dp"
    },
    "_margin_": [
        6,
        6,
        6,
        6
    ],
    "_padding_": [
        0,
        0,
        0,
        0
    ],
    "_skin_": "s611bd2c5d324490aa9f7ed9d412984f",
    "_text_": "Cancel",
    "_width_": {
        "type": "string",
        "value": "33.33%"
    },
    "accessibilityconfig": {
        "a11yLabel": "Cancel"
    },
    "canUpdateUI": true,
    "centery": {
        "type": "string",
        "value": "50%"
    },
    "containerId": true,
    "containerweight": 100,
    "contentalignment": 5,
    "desktopweb": {
        "psp": {
            "hoverSkin": "s611bd2c5d324490aa9f7ed9d412984f"
        }
    },
    "disabledSkins": {
        "focusSkin": "sf44d06ca8224832827ea7fdff757013"
    },
    "displaytext": true,
    "id": "btnCancel",
    "ide_onClick": "AS_Button_h59b4f4b9a104a90b857fb171cce5eb5",
    "info": null,
    "isvisible": true,
    "kuid": "eff6beee7b6c49d7aa8de71cabc5fc72",
    "name": "kony.ui.Button",
    "parent": "flxActions",
    "pf": "segExternalAccountsEdit",
    "tooltip": "DELETE",
    "wType": "Button",
    "zindex": 1
}