{
    "@class": "com.kony.gen.viz.model.component.KVizButton",
    "DNDConfig": null,
    "__parentReadjusting__": false,
    "_height_": {
        "type": "string",
        "value": "24dp"
    },
    "_left_": {
        "type": "string",
        "value": "29dp"
    },
    "_margin_": [
        6,
        6,
        6,
        6
    ],
    "_padding_": [
        2,
        0,
        2,
        0
    ],
    "_skin_": "s510cce5347c422abf42f58a54f26d0a",
    "_text_": "MODIFY SEARCH",
    "_top_": {
        "type": "string",
        "value": "10dp"
    },
    "_width_": {
        "type": "ref",
        "value": "preferred"
    },
    "accessibilityconfig": {
        "a11yLabel": "MODIFY SEARCH"
    },
    "canUpdateUI": true,
    "containerweight": 100,
    "contentalignment": 5,
    "disabledSkins": {
        "focusSkin": "sf44d06ca8224832827ea7fdff757013"
    },
    "displaytext": true,
    "id": "btnModifySearch",
    "info": null,
    "isvisible": true,
    "kuid": "cdd0a317a4f74ad88ed197edbd4295b5",
    "name": "kony.ui.Button",
    "paddinginpixel": false,
    "parent": "flxSearchResultActions",
    "pf": "userwidgetmodel",
    "tooltip": "Modify Search",
    "wType": "Button",
    "zindex": 1
}