{
    "DNDConfig": null,
    "__parentReadjusting__": false,
    "_height_": {
        "type": "string",
        "value": "50dp"
    },
    "_left_": {
        "type": "string",
        "value": "0dp"
    },
    "_margin_": [
        0,
        0,
        0,
        0
    ],
    "_orientation_": 6,
    "_padding_": [
        0,
        0,
        0,
        0
    ],
    "_percent_": true,
    "_skin_": "s6db1d1186504f23a98ee76a856c2b46",
    "_top_": {
        "type": "string",
        "value": "0dp"
    },
    "_width_": {
        "type": "string",
        "value": "100%"
    },
    "allboxes": [],
    "autogrowmode": 0,
    "canUpdateUI": true,
    "children": [
        "btnDummyLeftLoan",
        "btnAllLoan",
        "btnDummyRightLoan"
    ],
    "clipbounds": false,
    "containerweight": 100,
    "desktopweb": {
        "psp": {}
    },
    "disabledSkins": {
        "hoverSkin": "s62f323e960b4540899d500480c25a08"
    },
    "enablescrolling": true,
    "id": "flxTabsLoan",
    "info": null,
    "isvisible": false,
    "kuid": "a3dc139816384f9694bc3ab6893e0527",
    "layouttype": 3,
    "name": "kony.ui.FlexContainer",
    "parent": "transactions",
    "pf": "userwidgetmodel",
    "snapgridsize": 10,
    "snaptogrid": true,
    "wType": "FlexContainer",
    "widgetalignment": 1,
    "zindex": 2
}