{
    "DNDConfig": null,
    "__parentReadjusting__": false,
    "_height_": {
        "type": "ref",
        "value": "preferred"
    },
    "_left_": {
        "type": "string",
        "value": "0dp"
    },
    "_margin_": [
        0,
        0,
        0,
        0
    ],
    "_orientation_": 6,
    "_padding_": [
        0,
        0,
        0,
        0
    ],
    "_percent_": true,
    "_skin_": "sdc143f0e5b64ae3a3f155f691c73fa7",
    "_top_": {
        "type": "string",
        "value": "0dp"
    },
    "_width_": {
        "type": "string",
        "value": "750dp"
    },
    "allboxes": [],
    "autogrowmode": 1,
    "canUpdateUI": true,
    "children": [
        "flxHeader",
        "flxSeparator",
        "flxDetails",
        "flxSeparatorDetails",
        "flxSort",
        "flxsorttransfers",
        "flxSeparatorSort",
        "flxSegment",
        "flxSegmentBillPay",
        "flxNoRecords"
    ],
    "clipbounds": false,
    "containerweight": 100,
    "enablescrolling": true,
    "id": "flxtransferActivityWrapper",
    "info": null,
    "isvisible": true,
    "kuid": "a2dd390fcedc4bf196af1a82be5c6a8d",
    "layouttype": 4,
    "name": "kony.ui.FlexContainer",
    "parent": "transferActivitymod",
    "pf": "userwidgetmodel",
    "snapgridsize": 10,
    "snaptogrid": true,
    "wType": "FlexContainer",
    "widgetalignment": 1,
    "zindex": 1
}