{
    "@class": "com.kony.gen.viz.model.component.KVizRichText",
    "DNDConfig": null,
    "__parentReadjusting__": false,
    "_height_": {
        "type": "ref",
        "value": "preferred"
    },
    "_left_": {
        "type": "string",
        "value": "20px"
    },
    "_margin_": [
        0,
        0,
        0,
        0
    ],
    "_padding_": [
        0,
        0,
        0,
        0
    ],
    "_skin_": "sc4cc30bc71442ee9f8b2e9230a973fa",
    "_text_": "Phone: 0000-0021-0022",
    "_top_": {
        "type": "string",
        "value": "0dp"
    },
    "_width_": {
        "type": "string",
        "value": "95%"
    },
    "_wrapping_": 2,
    "accessibilityconfig": {
        "a11yLabel": "Phone: 0000-0021-0022"
    },
    "canUpdateUI": true,
    "containerId": true,
    "containerweight": 100,
    "contentalignment": 1,
    "id": "rtxPhoneNumber",
    "info": null,
    "isvisible": true,
    "kuid": "e12e0527c5b64af997d09dc09d6f1e91",
    "name": "kony.ui.RichText",
    "parent": "flxDetails",
    "pf": "segCustomerServiceMobile",
    "wType": "RichText",
    "watchos": {
        "render": false
    },
    "widgetalignment": 5,
    "windows10": {
        "render": false
    },
    "winphone10": {
        "render": false
    },
    "zindex": 1
}