{
    "@class": "com.kony.gen.viz.model.component.KVizButton",
    "DNDConfig": null,
    "__parentReadjusting__": false,
    "_height_": {
        "type": "string",
        "value": "40dp"
    },
    "_left_": {
        "type": "string",
        "value": "2.89%"
    },
    "_margin_": [
        6,
        6,
        6,
        6
    ],
    "_padding_": [
        0,
        0,
        0,
        0
    ],
    "_skin_": "sf6ca31ec68641e5a2df8232c58cd39a",
    "_text_": "Click here to know more",
    "_top_": {
        "type": "string",
        "value": "10dp"
    },
    "_width_": {
        "type": "string",
        "value": "90%"
    },
    "accessibilityconfig": {
        "a11yLabel": "Click here to know more"
    },
    "canUpdateUI": true,
    "containerweight": 100,
    "contentalignment": 4,
    "disabledSkins": {
        "focusSkin": "sf44d06ca8224832827ea7fdff757013"
    },
    "displaytext": true,
    "id": "btnClickhere",
    "info": null,
    "isvisible": true,
    "kuid": "a6f731ff81b3442eb71f0f51181903ee",
    "name": "kony.ui.Button",
    "parent": "flxMobilemessages",
    "pf": "userwidgetmodel",
    "tooltip": "Delete",
    "wType": "Button",
    "zindex": 1
}