{
    "@class": "com.kony.gen.viz.model.component.KVizButton",
    "DNDConfig": null,
    "__parentReadjusting__": false,
    "_height_": {
        "type": "string",
        "value": "100%"
    },
    "_left_": {
        "type": "string",
        "value": "0dp"
    },
    "_margin_": [
        6,
        6,
        6,
        6
    ],
    "_padding_": [
        2,
        0,
        2,
        0
    ],
    "_skin_": "s6cc32f783a048e98fcfb83f1b046c84",
    "_text_": "MY MESSAGES ()",
    "_width_": {
        "type": "ref",
        "value": "preferred"
    },
    "accessibilityconfig": {
        "a11yLabel": "MY MESSAGES ()"
    },
    "canUpdateUI": true,
    "centery": {
        "type": "string",
        "value": "50%"
    },
    "containerweight": 100,
    "contentalignment": 5,
    "disabledSkins": {
        "focusSkin": "sf44d06ca8224832827ea7fdff757013"
    },
    "displaytext": true,
    "id": "btnMyMessages",
    "ide_onClick": "AS_Button_d4f4d3819d5f484f957a21ee9ee8af5a",
    "info": null,
    "isvisible": true,
    "kuid": "c8e02ca2037c4b4cb8223f3c2440aaa0",
    "name": "kony.ui.Button",
    "paddinginpixel": false,
    "parent": "flxTabs1",
    "pf": "userwidgetmodel",
    "tooltip": "My Messages",
    "wType": "Button",
    "zindex": 1
}