{
    "@class": "com.kony.gen.viz.model.component.KVizButton",
    "DNDConfig": null,
    "__parentReadjusting__": false,
    "_height_": {
        "type": "string",
        "value": "100%"
    },
    "_left_": {
        "type": "string",
        "value": "15dp"
    },
    "_margin_": [
        6,
        6,
        6,
        6
    ],
    "_padding_": [
        2,
        0,
        2,
        0
    ],
    "_skin_": "s364791b23424563b19f89706acedb03",
    "_text_": "ALERTS ()",
    "_width_": {
        "type": "ref",
        "value": "preferred"
    },
    "accessibilityconfig": {
        "a11yLabel": "ALERTS ()"
    },
    "canUpdateUI": true,
    "centery": {
        "type": "string",
        "value": "50%"
    },
    "containerweight": 100,
    "contentalignment": 4,
    "disabledSkins": {
        "focusSkin": "sf44d06ca8224832827ea7fdff757013"
    },
    "displaytext": true,
    "id": "btnNotifications",
    "ide_onClick": "AS_Button_f7e70d19b178440d96c5c67f449cfb5a",
    "info": null,
    "isvisible": true,
    "kuid": "d5a1b52306024a089ff4a26141ca6d72",
    "name": "kony.ui.Button",
    "paddinginpixel": false,
    "parent": "flxTabs1",
    "pf": "userwidgetmodel",
    "tooltip": "Alerts",
    "wType": "Button",
    "zindex": 1
}