{
    "@class": "com.kony.gen.viz.model.component.KVizButton",
    "DNDConfig": null,
    "__parentReadjusting__": false,
    "_height_": {
        "type": "string",
        "value": "100%"
    },
    "_margin_": [
        6,
        6,
        6,
        6
    ],
    "_padding_": [
        0,
        0,
        0,
        0
    ],
    "_right_": {
        "type": "string",
        "value": "14%"
    },
    "_skin_": "s7fc7a5968394a5882dc2758c71a59a3",
    "_text_": "Button",
    "_width_": {
        "type": "ref",
        "value": "preferred"
    },
    "accessibilityconfig": {
        "a11yLabel": "Cancel"
    },
    "canUpdateUI": true,
    "centery": {
        "type": "string",
        "value": "50%"
    },
    "containerweight": 100,
    "contentalignment": 5,
    "desktopweb": {
        "psp": {
            "hoverSkin": "sb13d7d59686429aa4fbca8527b63942"
        }
    },
    "displaytext": true,
    "focusskin": "s7fc7a5968394a5882dc2758c71a59a3",
    "id": "btnSearchCancel",
    "info": null,
    "isvisible": false,
    "kuid": "ba9e43571d6647cd82856f6b820c1dcb",
    "name": "kony.ui.Button",
    "parent": "btnSearch",
    "pf": "userwidgetmodel",
    "texti18n": "i18n.transfers.Cancel",
    "tooltip": "Can't Login",
    "wType": "Button",
    "zindex": 1
}