{
    "@class": "com.kony.gen.viz.model.component.KVizLabel",
    "DNDConfig": null,
    "__parentReadjusting__": false,
    "_height_": {
        "type": "ref",
        "value": "preferred"
    },
    "_left_": {
        "type": "string",
        "value": "60dp"
    },
    "_margin_": [
        1,
        1,
        1,
        1
    ],
    "_padding_": [
        0,
        0,
        0,
        0
    ],
    "_skin_": "s05b16abec144a35a8e1aac6c20fa53e",
    "_text_": "",
    "_width_": {
        "type": "string",
        "value": "55%"
    },
    "_wrapping_": 2,
    "accessibilityconfig": {
        "a11yLabel": "Maximum of five attachments allowed."
    },
    "android": {
        "textStyle": {
            "letterSpacing": 0,
            "strikeThrough": false
        }
    },
    "canUpdateUI": true,
    "centery": {
        "type": "string",
        "value": "50%"
    },
    "containerweight": 100,
    "contentalignment": 4,
    "id": "lblWarningNewMessage",
    "info": null,
    "ipad": {
        "psp": {
            "wrapping": 2
        }
    },
    "iphone": {
        "psp": {
            "wrapping": 2
        }
    },
    "isvisible": true,
    "kuid": "f41654b0336a4a7a9dba48c1af932f78",
    "name": "kony.ui.Label",
    "parent": "flxSendNewMessage",
    "pf": "userwidgetmodel",
    "texti18n": "i18n.NotificationsAndMessages.Maximum5AttachmentsAllowed",
    "tooltip": "",
    "wType": "Label",
    "zindex": 1
}