{
    "@class": "com.kony.gen.viz.model.component.KVizButton",
    "DNDConfig": null,
    "__parentReadjusting__": false,
    "_height_": {
        "type": "string",
        "value": "50dp"
    },
    "_left_": {
        "type": "string",
        "value": "76.8%"
    },
    "_margin_": [
        6,
        6,
        6,
        6
    ],
    "_padding_": [
        0,
        0,
        0,
        0
    ],
    "_skin_": "sea1525e3fa24829a889b1fd650f3f24",
    "_text_": "",
    "_top_": {
        "type": "string",
        "value": "30dp"
    },
    "_width_": {
        "type": "string",
        "value": "260dp"
    },
    "accessibilityconfig": {
        "a11yLabel": "Activate"
    },
    "canUpdateUI": true,
    "containerweight": 100,
    "contentalignment": 5,
    "desktopweb": {
        "psp": {
            "hoverSkin": "s3681a7211a345fba79d7013af78ba93"
        }
    },
    "disabledSkins": {
        "focusSkin": "sf44d06ca8224832827ea7fdff757013"
    },
    "displaytext": true,
    "id": "btnProceed",
    "info": null,
    "isvisible": true,
    "kuid": "ic78ef85592c41c696e7839e688483cd",
    "name": "kony.ui.Button",
    "parent": "flxActions",
    "pf": "userwidgetmodel",
    "texti18n": "i18n.WireTransfer.ACTIVATE",
    "tooltip": "Activate",
    "wType": "Button",
    "zindex": 2
}