{
    "@class": "com.kony.gen.viz.model.component.KVizButton",
    "DNDConfig": null,
    "__parentReadjusting__": false,
    "_height_": {
        "type": "string",
        "value": "25dp"
    },
    "_left_": {
        "type": "string",
        "value": "0%"
    },
    "_margin_": [
        6,
        6,
        6,
        6
    ],
    "_padding_": [
        0,
        0,
        0,
        0
    ],
    "_skin_": "se4cbdf6e51f48eda9966caa941c6a19",
    "_text_": "EDIT",
    "_top_": {
        "type": "string",
        "value": "13px"
    },
    "_width_": {
        "type": "ref",
        "value": "preferred"
    },
    "accessibilityconfig": {
        "a11yLabel": "EDIT"
    },
    "canUpdateUI": true,
    "containerId": true,
    "containerweight": 100,
    "contentalignment": 5,
    "desktopweb": {
        "psp": {
            "hoverSkin": "sd36babbd8f6461f8b492698ab830d13"
        }
    },
    "disabledSkins": {
        "focusSkin": "sf44d06ca8224832827ea7fdff757013"
    },
    "displaytext": true,
    "id": "btnEdit",
    "ide_onClick": "AS_Button_f79d4f3c9c074c0287b516da1bb36737",
    "info": null,
    "isvisible": true,
    "kuid": "bca77eb4d0014f7eab37e578b3d77b5a",
    "name": "kony.ui.Button",
    "parent": "flxEditAction",
    "pf": "segManageRecipientSelected",
    "wType": "Button",
    "zindex": 1
}