{
    "@class": "com.kony.gen.viz.model.component.KVizButton",
    "DNDConfig": null,
    "__parentReadjusting__": false,
    "_height_": {
        "type": "ref",
        "value": "preferred"
    },
    "_left_": {
        "type": "string",
        "value": "0%"
    },
    "_margin_": [
        6,
        6,
        6,
        6
    ],
    "_padding_": [
        0,
        0,
        0,
        0
    ],
    "_skin_": "s8629dca0a2e40e582d8268f1e70d64f",
    "_text_": "",
    "_top_": {
        "type": "number",
        "value": "2"
    },
    "_width_": {
        "type": "ref",
        "value": "preferred"
    },
    "canUpdateUI": true,
    "centery": {
        "type": "string",
        "value": "50%"
    },
    "containerweight": 100,
    "contentalignment": 5,
    "disabledSkins": {
        "focusSkin": "sf44d06ca8224832827ea7fdff757013"
    },
    "displaytext": true,
    "id": "btnStatus",
    "info": null,
    "iscustomlayout": false,
    "isvisible": true,
    "kuid": "b98670b4b2ce48a8b35ea0fc97d8f735",
    "name": "kony.ui.Button",
    "parent": "flxStatus",
    "pf": "userwidgetmodel",
    "retaincontentalignment": false,
    "retainflexpositionproperties": false,
    "texti18n": "i18n.konybb.myRequests.status",
    "wType": "Button",
    "zindex": 1
}