{
  "operationConfig" : {
    "name" : "getUserAlerts1437",
    "type" : "MappedToBackend",
    "cachable" : false,
    "smsEnabled" : false,
    "security" : "authorized_app_user",
    "responseEncoding" : "UTF-8",
    "httpMethod" : "GET",
    "decodeResponseBody" : false,
    "odata" : [ {
      "id" : "$select",
      "dataType" : "string",
      "encode" : true,
      "accessType" : "readonly"
    }, {
      "id" : "$filter",
      "dataType" : "string",
      "encode" : true,
      "accessType" : "readonly"
    }, {
      "id" : "$orderby",
      "dataType" : "string",
      "encode" : true,
      "accessType" : "readonly"
    }, {
      "id" : "$top",
      "dataType" : "string",
      "encode" : true,
      "accessType" : "readonly"
    }, {
      "id" : "$skip",
      "dataType" : "string",
      "encode" : true,
      "accessType" : "readonly"
    }, {
      "id" : "$expand",
      "dataType" : "string",
      "encode" : true,
      "accessType" : "readonly"
    }, {
      "id" : "$batchsize",
      "dataType" : "string",
      "encode" : true,
      "accessType" : "readonly"
    }, {
      "id" : "$batchid",
      "dataType" : "string",
      "encode" : true,
      "accessType" : "readonly"
    } ],
    "oMapping" : "<?xml version=\"1.0\" encoding=\"UTF-8\" standalone=\"yes\"?><mapper xmlns=\"http://www.kony.com/ns/mapper\">      <map inputpath=\"response_in\" outputpath=\"response_out\">            <map inputpath=\"useralerts\" outputpath=\"UserAlerts\">                  <set-param inputpath=\"id\" outputpath=\"alertid\"/>                  <set-param inputpath=\"bankingIDChange\" outputpath=\"bankingIDChange\"/>                  <set-param inputpath=\"communicationChange\" outputpath=\"communicationChange\"/>                  <set-param inputpath=\"dealsExpiring\" outputpath=\"dealsExpiring\"/>                  <set-param inputpath=\"newDealsAvailable\" outputpath=\"newDealsAvailable\"/>                  <set-param inputpath=\"newPayeeAdded\" outputpath=\"newPayeeAdded\"/>                  <set-param inputpath=\"passwordChange\" outputpath=\"passwordChange\"/>                  <set-param inputpath=\"passwordExpired\" outputpath=\"passwordExpired\"/>                  <set-param inputpath=\"payeeDetailsUpdated\" outputpath=\"payeeDetailsUpdated\"/>            </map>  \t    <set-param inputpath=\"errmsg\" outputpath=\"errmsg\"/>          <set-param inputpath=\"success\" outputpath=\"success\"/>        </map></mapper>",
    "oVisualMappingData" : "{\"nodeDataArray\":[{\"isGroup\":true,\"key\":\"response_out\",\"text\":\"UserAlerts\",\"xy\":\"770 100\",\"__gohashid\":264980},{\"isGroup\":true,\"key\":\"response_in\",\"text\":\"dbpRbLocalServicesJava.getUserAlerts\",\"xy\":\"150 100\",\"__gohashid\":264981}],\"linkDataArray\":[{\"category\":\"Mapping\",\"from\":\"source:UserAlerts:alertid:\",\"to\":\"target:UserAlerts:alertid:\",\"fromPort\":\"source:UserAlerts:alertid:\",\"toPort\":\"target:UserAlerts:alertid:\",\"visible\":true,\"common\":true,\"__gohashid\":267910},{\"category\":\"Mapping\",\"from\":\"source:UserAlerts:bankingIDChange:\",\"to\":\"target:UserAlerts:bankingIDChange:\",\"fromPort\":\"source:UserAlerts:bankingIDChange:\",\"toPort\":\"target:UserAlerts:bankingIDChange:\",\"visible\":true,\"common\":true,\"__gohashid\":267917},{\"category\":\"Mapping\",\"from\":\"source:UserAlerts:communicationChange:\",\"to\":\"target:UserAlerts:communicationChange:\",\"fromPort\":\"source:UserAlerts:communicationChange:\",\"toPort\":\"target:UserAlerts:communicationChange:\",\"visible\":true,\"common\":true,\"__gohashid\":267924},{\"category\":\"Mapping\",\"from\":\"source:UserAlerts:dealsExpiring:\",\"to\":\"target:UserAlerts:dealsExpiring:\",\"fromPort\":\"source:UserAlerts:dealsExpiring:\",\"toPort\":\"target:UserAlerts:dealsExpiring:\",\"visible\":true,\"common\":true,\"__gohashid\":267931},{\"category\":\"Mapping\",\"from\":\"source:UserAlerts:newDealsAvailable:\",\"to\":\"target:UserAlerts:newDealsAvailable:\",\"fromPort\":\"source:UserAlerts:newDealsAvailable:\",\"toPort\":\"target:UserAlerts:newDealsAvailable:\",\"visible\":true,\"common\":true,\"__gohashid\":267938},{\"category\":\"Mapping\",\"from\":\"source:UserAlerts:newPayeeAdded:\",\"to\":\"target:UserAlerts:newPayeeAdded:\",\"fromPort\":\"source:UserAlerts:newPayeeAdded:\",\"toPort\":\"target:UserAlerts:newPayeeAdded:\",\"visible\":true,\"common\":true,\"__gohashid\":267945},{\"category\":\"Mapping\",\"from\":\"source:UserAlerts:passwordChange:\",\"to\":\"target:UserAlerts:passwordChange:\",\"fromPort\":\"source:UserAlerts:passwordChange:\",\"toPort\":\"target:UserAlerts:passwordChange:\",\"visible\":true,\"common\":true,\"__gohashid\":267952},{\"category\":\"Mapping\",\"from\":\"source:UserAlerts:passwordExpired:\",\"to\":\"target:UserAlerts:passwordExpired:\",\"fromPort\":\"source:UserAlerts:passwordExpired:\",\"toPort\":\"target:UserAlerts:passwordExpired:\",\"visible\":true,\"common\":true,\"__gohashid\":267959},{\"category\":\"Mapping\",\"from\":\"source:UserAlerts:payeeDetailsUpdated:\",\"to\":\"target:UserAlerts:payeeDetailsUpdated:\",\"fromPort\":\"source:UserAlerts:payeeDetailsUpdated:\",\"toPort\":\"target:UserAlerts:payeeDetailsUpdated:\",\"visible\":true,\"common\":true,\"__gohashid\":267966},{\"from\":\"target\",\"to\":\"target:UserAlerts\",\"fromPort\":\"target\",\"toPort\":\"target:UserAlerts\",\"visible\":true,\"common\":false,\"__gohashid\":70465},{\"from\":\"target:UserAlerts\",\"to\":\"target:UserAlerts:fields\",\"fromPort\":\"target:UserAlerts\",\"toPort\":\"target:UserAlerts:fields\",\"visible\":true,\"common\":false,\"__gohashid\":70466},{\"from\":\"target:UserAlerts:fields\",\"to\":\"target:UserAlerts:alertid:\",\"fromPort\":\"target:UserAlerts:fields\",\"toPort\":\"target:UserAlerts:alertid:\",\"visible\":true,\"common\":false,\"__gohashid\":70467},{\"from\":\"target:UserAlerts:fields\",\"to\":\"target:UserAlerts:bankingIDChange:\",\"fromPort\":\"target:UserAlerts:fields\",\"toPort\":\"target:UserAlerts:bankingIDChange:\",\"visible\":true,\"common\":false,\"__gohashid\":70468},{\"from\":\"target:UserAlerts:fields\",\"to\":\"target:UserAlerts:communicationChange:\",\"fromPort\":\"target:UserAlerts:fields\",\"toPort\":\"target:UserAlerts:communicationChange:\",\"visible\":true,\"common\":false,\"__gohashid\":70469},{\"from\":\"target:UserAlerts:fields\",\"to\":\"target:UserAlerts:dealsExpiring:\",\"fromPort\":\"target:UserAlerts:fields\",\"toPort\":\"target:UserAlerts:dealsExpiring:\",\"visible\":true,\"common\":false,\"__gohashid\":70470},{\"from\":\"target:UserAlerts:fields\",\"to\":\"target:UserAlerts:errmsg:\",\"fromPort\":\"target:UserAlerts:fields\",\"toPort\":\"target:UserAlerts:errmsg:\",\"visible\":true,\"common\":false,\"__gohashid\":70471},{\"from\":\"target:UserAlerts:fields\",\"to\":\"target:UserAlerts:newDealsAvailable:\",\"fromPort\":\"target:UserAlerts:fields\",\"toPort\":\"target:UserAlerts:newDealsAvailable:\",\"visible\":true,\"common\":false,\"__gohashid\":70472},{\"from\":\"target:UserAlerts:fields\",\"to\":\"target:UserAlerts:newPayeeAdded:\",\"fromPort\":\"target:UserAlerts:fields\",\"toPort\":\"target:UserAlerts:newPayeeAdded:\",\"visible\":true,\"common\":false,\"__gohashid\":70473},{\"from\":\"target:UserAlerts:fields\",\"to\":\"target:UserAlerts:passwordChange:\",\"fromPort\":\"target:UserAlerts:fields\",\"toPort\":\"target:UserAlerts:passwordChange:\",\"visible\":true,\"common\":false,\"__gohashid\":70474},{\"from\":\"target:UserAlerts:fields\",\"to\":\"target:UserAlerts:passwordExpired:\",\"fromPort\":\"target:UserAlerts:fields\",\"toPort\":\"target:UserAlerts:passwordExpired:\",\"visible\":true,\"common\":false,\"__gohashid\":70475},{\"from\":\"target:UserAlerts:fields\",\"to\":\"target:UserAlerts:payeeDetailsUpdated:\",\"fromPort\":\"target:UserAlerts:fields\",\"toPort\":\"target:UserAlerts:payeeDetailsUpdated:\",\"visible\":true,\"common\":false,\"__gohashid\":70476},{\"from\":\"target:UserAlerts:fields\",\"to\":\"target:UserAlerts:success:\",\"fromPort\":\"target:UserAlerts:fields\",\"toPort\":\"target:UserAlerts:success:\",\"visible\":true,\"common\":false,\"__gohashid\":70477},{\"from\":\"target:UserAlerts:fields\",\"to\":\"target:UserAlerts:userName:\",\"fromPort\":\"target:UserAlerts:fields\",\"toPort\":\"target:UserAlerts:userName:\",\"visible\":true,\"common\":false,\"__gohashid\":70478},{\"from\":\"target:UserAlerts:fields\",\"to\":\"target:UserAlerts:canBeSelected:\",\"fromPort\":\"target:UserAlerts:fields\",\"toPort\":\"target:UserAlerts:canBeSelected:\",\"visible\":true,\"common\":false,\"__gohashid\":70479},{\"from\":\"target:UserAlerts:fields\",\"to\":\"target:UserAlerts:alertTypes:\",\"fromPort\":\"target:UserAlerts:fields\",\"toPort\":\"target:UserAlerts:alertTypes:\",\"visible\":true,\"common\":false,\"__gohashid\":70480},{\"from\":\"target:UserAlerts:fields\",\"to\":\"target:UserAlerts:isSelected:\",\"fromPort\":\"target:UserAlerts:fields\",\"toPort\":\"target:UserAlerts:isSelected:\",\"visible\":true,\"common\":false,\"__gohashid\":70481},{\"from\":\"target:UserAlerts:fields\",\"to\":\"target:UserAlerts:canSmsBeSelected:\",\"fromPort\":\"target:UserAlerts:fields\",\"toPort\":\"target:UserAlerts:canSmsBeSelected:\",\"visible\":true,\"common\":false,\"__gohashid\":70482},{\"from\":\"target:UserAlerts:fields\",\"to\":\"target:UserAlerts:name:\",\"fromPort\":\"target:UserAlerts:fields\",\"toPort\":\"target:UserAlerts:name:\",\"visible\":true,\"common\":false,\"__gohashid\":70483},{\"from\":\"target:UserAlerts:fields\",\"to\":\"target:UserAlerts:isSmsActive:\",\"fromPort\":\"target:UserAlerts:fields\",\"toPort\":\"target:UserAlerts:isSmsActive:\",\"visible\":true,\"common\":false,\"__gohashid\":70484},{\"from\":\"target:UserAlerts:fields\",\"to\":\"target:UserAlerts:canPushBeSelected:\",\"fromPort\":\"target:UserAlerts:fields\",\"toPort\":\"target:UserAlerts:canPushBeSelected:\",\"visible\":true,\"common\":false,\"__gohashid\":70485},{\"from\":\"target:UserAlerts:fields\",\"to\":\"target:UserAlerts:isEmailActive:\",\"fromPort\":\"target:UserAlerts:fields\",\"toPort\":\"target:UserAlerts:isEmailActive:\",\"visible\":true,\"common\":false,\"__gohashid\":70486},{\"from\":\"target:UserAlerts:fields\",\"to\":\"target:UserAlerts:isPushActive:\",\"fromPort\":\"target:UserAlerts:fields\",\"toPort\":\"target:UserAlerts:isPushActive:\",\"visible\":true,\"common\":false,\"__gohashid\":70487},{\"from\":\"target:UserAlerts:fields\",\"to\":\"target:UserAlerts:value:\",\"fromPort\":\"target:UserAlerts:fields\",\"toPort\":\"target:UserAlerts:value:\",\"visible\":true,\"common\":false,\"__gohashid\":70488},{\"from\":\"target:UserAlerts:fields\",\"to\":\"target:UserAlerts:canEmailBeSelected:\",\"fromPort\":\"target:UserAlerts:fields\",\"toPort\":\"target:UserAlerts:canEmailBeSelected:\",\"visible\":true,\"common\":false,\"__gohashid\":70489},{\"from\":\"target:UserAlerts:fields\",\"to\":\"target:UserAlerts:alertTypeName:\",\"fromPort\":\"target:UserAlerts:fields\",\"toPort\":\"target:UserAlerts:alertTypeName:\",\"visible\":true,\"common\":false,\"__gohashid\":70490},{\"from\":\"target:UserAlerts:fields\",\"to\":\"target:UserAlerts:alertTypeId:\",\"fromPort\":\"target:UserAlerts:fields\",\"toPort\":\"target:UserAlerts:alertTypeId:\",\"visible\":true,\"common\":false,\"__gohashid\":70491},{\"from\":\"target:UserAlerts:fields\",\"to\":\"target:UserAlerts:alerts:\",\"fromPort\":\"target:UserAlerts:fields\",\"toPort\":\"target:UserAlerts:alerts:\",\"visible\":true,\"common\":false,\"__gohashid\":70492},{\"from\":\"source\",\"to\":\"source:parameters\",\"fromPort\":\"source\",\"toPort\":\"source:parameters\",\"visible\":true,\"common\":false,\"__gohashid\":70493},{\"from\":\"source:parameters\",\"to\":\"source:errmsg:\",\"fromPort\":\"source:parameters\",\"toPort\":\"source:errmsg:\",\"visible\":true,\"common\":false,\"__gohashid\":70494},{\"from\":\"source:parameters\",\"to\":\"source:success:\",\"fromPort\":\"source:parameters\",\"toPort\":\"source:success:\",\"visible\":true,\"common\":false,\"__gohashid\":70495},{\"from\":\"source\",\"to\":\"source:UserAlerts\",\"fromPort\":\"source\",\"toPort\":\"source:UserAlerts\",\"visible\":true,\"common\":false,\"__gohashid\":70496},{\"from\":\"source:UserAlerts\",\"to\":\"source:UserAlerts:parameters\",\"fromPort\":\"source:UserAlerts\",\"toPort\":\"source:UserAlerts:parameters\",\"visible\":true,\"common\":false,\"__gohashid\":70497},{\"from\":\"source:UserAlerts:parameters\",\"to\":\"source:UserAlerts:alertid:\",\"fromPort\":\"source:UserAlerts:parameters\",\"toPort\":\"source:UserAlerts:alertid:\",\"visible\":true,\"common\":false,\"__gohashid\":70498},{\"from\":\"source:UserAlerts:parameters\",\"to\":\"source:UserAlerts:bankingIDChange:\",\"fromPort\":\"source:UserAlerts:parameters\",\"toPort\":\"source:UserAlerts:bankingIDChange:\",\"visible\":true,\"common\":false,\"__gohashid\":70499},{\"from\":\"source:UserAlerts:parameters\",\"to\":\"source:UserAlerts:communicationChange:\",\"fromPort\":\"source:UserAlerts:parameters\",\"toPort\":\"source:UserAlerts:communicationChange:\",\"visible\":true,\"common\":false,\"__gohashid\":70500},{\"from\":\"source:UserAlerts:parameters\",\"to\":\"source:UserAlerts:dealsExpiring:\",\"fromPort\":\"source:UserAlerts:parameters\",\"toPort\":\"source:UserAlerts:dealsExpiring:\",\"visible\":true,\"common\":false,\"__gohashid\":70501},{\"from\":\"source:UserAlerts:parameters\",\"to\":\"source:UserAlerts:newDealsAvailable:\",\"fromPort\":\"source:UserAlerts:parameters\",\"toPort\":\"source:UserAlerts:newDealsAvailable:\",\"visible\":true,\"common\":false,\"__gohashid\":70502},{\"from\":\"source:UserAlerts:parameters\",\"to\":\"source:UserAlerts:newPayeeAdded:\",\"fromPort\":\"source:UserAlerts:parameters\",\"toPort\":\"source:UserAlerts:newPayeeAdded:\",\"visible\":true,\"common\":false,\"__gohashid\":70503},{\"from\":\"source:UserAlerts:parameters\",\"to\":\"source:UserAlerts:passwordChange:\",\"fromPort\":\"source:UserAlerts:parameters\",\"toPort\":\"source:UserAlerts:passwordChange:\",\"visible\":true,\"common\":false,\"__gohashid\":70504},{\"from\":\"source:UserAlerts:parameters\",\"to\":\"source:UserAlerts:passwordExpired:\",\"fromPort\":\"source:UserAlerts:parameters\",\"toPort\":\"source:UserAlerts:passwordExpired:\",\"visible\":true,\"common\":false,\"__gohashid\":70505},{\"from\":\"source:UserAlerts:parameters\",\"to\":\"source:UserAlerts:payeeDetailsUpdated:\",\"fromPort\":\"source:UserAlerts:parameters\",\"toPort\":\"source:UserAlerts:payeeDetailsUpdated:\",\"visible\":true,\"common\":false,\"__gohashid\":70506}],\"blockCount\":{\"variableCount\":0},\"variableMap\":{},\"xmlMappingOverride\":true}",
    "applyCommonMapping" : false,
    "applyRequestCommonMapping" : true,
    "applyResponseCommonMapping" : false,
    "backendMeta" : {
      "serviceName" : "dbpRbLocalServicesJava",
      "serviceVersion" : "1.0",
      "operationName" : "getUserAlerts"
    },
    "relationshipHierarchyMapping" : {
      "children" : [ ],
      "name" : "UserAlerts",
      "actions" : {
        "get" : true
      },
      "selected" : true
    },
    "requestXmlMappingOverride" : false,
    "responseXmlMappingOverride" : true
  }
}