{
    "@class": "com.kony.gen.viz.model.component.KVizUserWidget",
    "DNDConfig": null,
    "__parentReadjusting__": false,
    "_children_": [],
    "_height_": {
        "type": "ref",
        "value": "preferred"
    },
    "_left_": {
        "type": "string",
        "value": "0dp"
    },
    "_margin_": [
        0,
        0,
        0,
        0
    ],
    "_orientation_": 1,
    "_padding_": [
        0,
        0,
        0,
        0
    ],
    "_percent_": true,
    "_render_": true,
    "_skin_": "s24c92fc23b14f5484b693ee9b8a9b35",
    "_top_": {
        "type": "string",
        "value": "70dp"
    },
    "_width_": {
        "type": "string",
        "value": "50%"
    },
    "areflexpropsreferenced": false,
    "autogrowmode": 1,
    "canUpdateUI": true,
    "clipbounds": true,
    "containerweight": 0,
    "dataDiffs": {
        "flxContainer": {
            "__events__": {},
            "__info__": {
                "kuid": "f47571fd17ac4bfe8535afecbc94c849",
                "srcKUID": "a89d10d03d164ca596378e2275f4831c",
                "wType": "FlexContainer"
            }
        },
        "flxKey": {
            "__events__": {},
            "__info__": {
                "kuid": "i82d50cbb4b8462d8d8f32cda715045e",
                "srcKUID": "a1e80497c7ef4276bc9919bb5a614f55",
                "wType": "FlexContainer"
            }
        },
        "flxValue": {
            "__events__": {},
            "__info__": {
                "kuid": "a264fbe9c83d49e39b65fd6fa91d0acf",
                "srcKUID": "e8e7f97235ac43268fd27e58321521c0",
                "wType": "FlexContainer"
            }
        },
        "keyValue": {
            "__events__": {},
            "__info__": {
                "isRoot": true,
                "kuid": "ec9bfdba5b0c447eb10d58e966c246f3",
                "srcKUID": "a717a1935c9241f9a1ae2ce4200e1fcb",
                "wType": "FlexContainer"
            },
            "top": {
                "Default": {
                    "type": "string",
                    "value": "70dp"
                }
            },
            "width": {
                "Default": {
                    "type": "string",
                    "value": "50%"
                }
            }
        },
        "lblKey": {
            "__events__": {},
            "__info__": {
                "kuid": "a1e6970aa3ce4119ad356ea2d9c665ca",
                "srcKUID": "c38b8affae5c4770890d34485f75409b",
                "wType": "Label"
            },
            "text": "Account Holder Name: "
        },
        "lblValue": {
            "__events__": {},
            "__info__": {
                "kuid": "c0fbfe9ceee04af9923377bc9a5cfc84",
                "srcKUID": "g4f2b8a9448e420da2a5166927543d27",
                "wType": "Label"
            },
            "text": "John Bailey"
        }
    },
    "id": "keyValueAccHolderName",
    "info": null,
    "isdatareferenced": false,
    "isvisible": true,
    "kuid": "ec9bfdba5b0c447eb10d58e966c246f3",
    "layouttype": 2,
    "masterType": 0,
    "name": "kony.ui.UserWidgetInstance",
    "parent": "flxCheckingAccountSummary",
    "pf": "frmPrintTransaction",
    "snaptogrid": true,
    "sourceUserWidget": "a717a1935c9241f9a1ae2ce4200e1fcb",
    "wType": "UserWidgetInstance"
}