{
    "DNDConfig": null,
    "_height_": {
        "type": "string",
        "value": "260dp"
    },
    "_margin_": [
        0,
        0,
        0,
        0
    ],
    "_orientation_": 6,
    "_padding_": [
        0,
        0,
        0,
        0
    ],
    "_percent_": true,
    "_skin_": "s32db308af9e4770a9ccf700cbe81176",
    "allboxes": [],
    "autogrowmode": 0,
    "canUpdateUI": true,
    "children": [
        "flxBottom",
        "flxIdentifier",
        "flxMain",
        "lblSeperatorone"
    ],
    "clipbounds": false,
    "containerId": true,
    "containerweight": 100,
    "controllerInfo": {
        "default": {
            "channel": "desktop",
            "name": "flxBillPayHistoryDetailsMobileController"
        }
    },
    "enablescrolling": true,
    "id": "flxBillPayHistoryDetailsMobile",
    "info": null,
    "isvisible": true,
    "kuid": "fb61f9cdf4fe46a4b0d7792a705c46b9",
    "layouttype": 2,
    "name": "kony.ui.FlexContainer",
    "parent": "segBillPayHistoryDetailsMobile",
    "pf": "segBillPayHistoryDetailsMobile",
    "snapgridsize": 10,
    "snaptogrid": true,
    "wType": "FlexContainer",
    "widgetalignment": 1
}