{
    "AS_AppEvents_f5dafde5e96a4991ae16f91a08b8a8bc": {
        "id": "AS_AppEvents_f5dafde5e96a4991ae16f91a08b8a8bc",
        "type": "ACTION_SEQUENCE",
        "params": [{
            "datatype": "collection",
            "name": "eventobject"
        }],
        "language": "js",
        "actions": [{
            "id": "ADD_SNIPPET__c7308b1259b84ba8b0916241626c86fb",
            "type": "ADD_SNIPPET",
            "codeSnippet": "kony.print(\"Testing JS Load\");\nvar isIOS13 = (/(iPad|iPhone);.*CPU.*OS 13_\\d/i).test(navigator.userAgent);\nif(isIOS13){\n    kony.application.setApplicationBehaviors({disableForceRepaint: true});\n}\nrequire([\"AccountsModule/frmAccountsLanding\", \"AccountsModule/frmAccountsLandingController\"], function (){});\nvar authModule = kony.mvc.MDAApplication.getSharedInstance().getModuleManager().getModule(\"AuthModule\");\nvar ApplicationManager = require('ApplicationManager');\napplicationManager =  ApplicationManager.getApplicationManager();\nvar config = applicationManager.getConfigurationManager();\nif(performance.navigation.type===1){\n  config.setBrowserRefreshProperty(\"true\");\n}\nvar sm = applicationManager.getStorageManager();\nvar langObjFromStorage = sm.getStoredItem(\"langObj\");\nif (!kony.sdk.isNullOrUndefined(langObjFromStorage)) {\n  config.configurations.setItem(\"LOCALE\", config.locale[langObjFromStorage.language]);\n  config.configurations.setItem('DATEFORMAT', config.frontendDateFormat[config.getLocale()]);\n} else {\n  config.configurations.setItem(\"LOCALE\", \"en_US\");\n  config.configurations.setItem('DATEFORMAT', config.frontendDateFormat[\"en_US\"]);\n}\nkony.i18n.setCurrentLocaleAsync(config.configurations.getItem(\"LOCALE\"), function(){}, function(){});\napplicationManager.getConfigurationManager().fetchApplicationProperties(function(res) {\n\t\t\tapplicationManager.getNavigationManager().updateForm({isLanguageSelectionEnabled : res.isLanguageSelectionEnabled}, \"frmLogin\");\n            if(config.isAppPropertiesLoaded === \"false\"){     \n               config.setAppProperties(\"true\");\n               kony.application.dismissLoadingScreen();\n            }\n\t\t}, function() {\n     kony.application.dismissLoadingScreen();\n})\ndocument.body.addEventListener('contextmenu', function(e) {\n  e.preventDefault();         \n  alert(kony.i18n.getLocalizedString(\"i18n.general.rightclickdisabled\"));\n});\n",
            "parentId": null,
            "callbackType": null
        }]
    }
}