{
    "AS_Button_h74a797605f348ac987d3c3291395f9e": {
        "id": "AS_Button_h74a797605f348ac987d3c3291395f9e",
        "type": "ACTION_SEQUENCE",
        "params": [{
            "datatype": "collection",
            "name": "eventobject"
        }],
        "contextObj": {
            "name": "frmVerifyAccount",
            "type": "forms",
            "platform": "",
            "KUID": "cd9d334f742c4ef3addf06485fd42e4c"
        },
        "language": "js",
        "actions": [{
            "id": "ADD_SNIPPET_ide_onClick_j47d96363a8c4ebeb20d687e58cb8bd9",
            "type": "ADD_SNIPPET",
            "codeSnippet": "var transferModule = kony.mvc.MDAApplication.getSharedInstance().getModuleManager().getModule(\"TransferModule\");\ntransferModule.presentationController.addAnotherAccount();",
            "callbackType": null
        }]
    }
}