{
    "AS_Button_efa3d27e9c5e44afaf3396be665d378e": {
        "id": "AS_Button_efa3d27e9c5e44afaf3396be665d378e",
        "type": "ACTION_SEQUENCE",
        "params": [{
            "datatype": "collection",
            "name": "eventobject"
        }],
        "contextObj": {
            "name": "frmAcknowledgementEur",
            "type": "forms",
            "platform": null,
            "KUID": "e2cae5afb56745e6a52230a4491e7b40"
        },
        "language": "js",
        "actions": [{
            "id": "ADD_SNIPPET_ide_onClick_j899c35360884d79a44749d51e27b084",
            "type": "ADD_SNIPPET",
            "codeSnippet": "this.showPrivacyPolicyPage();",
            "callbackType": null
        }]
    }
}