{
    "AS_Button_a12d349bb94f408299a71096f6577fb2": {
        "id": "AS_Button_a12d349bb94f408299a71096f6577fb2",
        "type": "ACTION_SEQUENCE",
        "params": [{
            "datatype": "collection",
            "name": "eventobject"
        }, {
            "datatype": "collection",
            "name": "context"
        }],
        "language": "js",
        "actions": [{
            "id": "ADD_SNIPPET_ide_onClick_i02f103102ff4fd199d668be1c3c862d",
            "type": "ADD_SNIPPET",
            "codeSnippet": "this.showPayABill();",
            "callbackType": null
        }]
    }
}