{
    "AS_Button_c44b756098da4482951498480bc0c899": {
        "id": "AS_Button_c44b756098da4482951498480bc0c899",
        "type": "ACTION_SEQUENCE",
        "params": [{
            "datatype": "collection",
            "name": "eventobject"
        }, {
            "datatype": "collection",
            "name": "context"
        }],
        "contextObj": {
            "name": "segBillPayAllPayeesMobile",
            "type": "templates",
            "platform": null,
            "KUID": "ca19227e83fb4b3a8eac3e9cef824d34"
        },
        "language": "js",
        "actions": [{
            "id": "ADD_SNIPPET_ide_onClick_becadb337e2647bda37b0b7b502e17d9",
            "type": "ADD_SNIPPET",
            "codeSnippet": "this.viewEBill();",
            "callbackType": null
        }]
    }
}