{
    "AS_Button_a09f87c1d0784a8f8df8dd35d563e674": {
        "id": "AS_Button_a09f87c1d0784a8f8df8dd35d563e674",
        "type": "ACTION_SEQUENCE",
        "params": [{
            "datatype": "collection",
            "name": "eventobject"
        }, {
            "datatype": "collection",
            "name": "context"
        }],
        "contextObj": {
            "name": "segBillPayManagePayeesSelected",
            "type": "templates",
            "platform": "",
            "KUID": "i6b4ba8f0c5e418e8f5082c832ec6a6a"
        },
        "language": "js",
        "actions": [{
            "id": "ADD_SNIPPET__a282db0464a14ddd94532ffd99b79420",
            "type": "ADD_SNIPPET",
            "codeSnippet": "//comment",
            "parentId": null,
            "callbackType": null
        }]
    }
}