{
    "AS_Button_e5f19d7e12a04dfa8e3f50935a42a56c": {
        "id": "AS_Button_e5f19d7e12a04dfa8e3f50935a42a56c",
        "type": "ACTION_SEQUENCE",
        "params": [{
            "datatype": "collection",
            "name": "eventobject"
        }],
        "contextObj": {
            "name": "frmLogin",
            "type": "forms",
            "platform": "",
            "KUID": "j0329c6c64654440bf366abc8de81b74"
        },
        "language": "js",
        "actions": [{
            "id": "ADD_SNIPPET__b8b201e766784c17ac61b413a3ca14e5",
            "type": "ADD_SNIPPET",
            "codeSnippet": "this.showResetPasswordPage();",
            "parentId": null,
            "callbackType": null
        }]
    }
}