{
    "AS_Button_hfc9d6b653334b6faeb2c9f641ed064e": {
        "id": "AS_Button_hfc9d6b653334b6faeb2c9f641ed064e",
        "type": "ACTION_SEQUENCE",
        "params": [{
            "datatype": "collection",
            "name": "eventobject"
        }, {
            "datatype": "collection",
            "name": "context"
        }],
        "language": "js",
        "actions": [{
            "id": "ADD_SNIPPET_ide_onClick_c7dbb7c9e845479faddea90a4ad8af34",
            "type": "ADD_SNIPPET",
            "codeSnippet": "var currForm = kony.application.getCurrentForm();\ncurrForm.flxLogoutStopCheckPayment.setVisibility(true);\ncurrForm.forceLayout();",
            "callbackType": null
        }]
    }
}