{
    "AS_Button_dc060cb63d754e2c9c5c95fd8bac079f": {
        "id": "AS_Button_dc060cb63d754e2c9c5c95fd8bac079f",
        "type": "ACTION_SEQUENCE",
        "params": [{
            "datatype": "collection",
            "name": "eventobject"
        }, {
            "datatype": "collection",
            "name": "context"
        }],
        "contextObj": {
            "name": "segBillPayHistory",
            "type": "templates",
            "platform": "",
            "KUID": "f427f8d461d840c7a1e2793f519058d9"
        },
        "language": "js",
        "actions": [{
            "id": "ADD_SNIPPET__j8406d910a10455b8c7d6bd653b1d7b8",
            "type": "ADD_SNIPPET",
            "codeSnippet": "var currForm = kony.application.getCurrentForm();\n_kony.mvc.GetController(currForm.id, true).presenter.onloadPayABill()",
            "parentId": null,
            "callbackType": null
        }]
    }
}