{
    "AS_Button_b09785b8bea64faaae8d770958c7022d": {
        "id": "AS_Button_b09785b8bea64faaae8d770958c7022d",
        "type": "ACTION_SEQUENCE",
        "params": [{
            "datatype": "collection",
            "name": "eventobject"
        }],
        "contextObj": {
            "type": "forms",
            "platform": null,
            "KUID": "e4fe1a12814546a2a3fe8fae1a02d68d"
        },
        "language": "js",
        "actions": [{
            "id": "ADD_SNIPPET_ide_onClick_a65dfb040aa542d2b16c4758a181e92e",
            "type": "ADD_SNIPPET",
            "codeSnippet": "this.checkVerificationOptions();",
            "callbackType": null
        }]
    }
}