{
    "AS_Button_fe5f1386ac154efab5ad4101d8e69112": {
        "id": "AS_Button_fe5f1386ac154efab5ad4101d8e69112",
        "type": "ACTION_SEQUENCE",
        "params": [{
            "datatype": "collection",
            "name": "eventobject"
        }],
        "contextObj": {
            "name": "frmAddInternalAccount",
            "type": "forms",
            "platform": null,
            "KUID": "i0c7320b49fe40e1a3a168c136395e15"
        },
        "language": "js",
        "actions": [{
            "id": "ADD_SNIPPET_ide_onClick_a9f1368de47f44bca910d58a450ba074",
            "type": "ADD_SNIPPET",
            "codeSnippet": "this.addDomesticAccount();",
            "callbackType": null
        }]
    }
}