{
    "AS_Button_cbc3fb1b28c849949f072697d2e4e3ef": {
        "id": "AS_Button_cbc3fb1b28c849949f072697d2e4e3ef",
        "type": "ACTION_SEQUENCE",
        "params": [{
            "datatype": "collection",
            "name": "eventobject"
        }],
        "contextObj": {
            "name": "frmBillPay",
            "type": "forms",
            "platform": "",
            "KUID": "h754f638fe6d4c56aac376a2f3adf18b"
        },
        "language": "js",
        "actions": [{
            "id": "ADD_SNIPPET__a70e9c36330e4310b448ecc315a7af66",
            "type": "ADD_SNIPPET",
            "codeSnippet": "this.setManagePayeesSegmentData();",
            "parentId": null,
            "callbackType": null
        }]
    }
}