{
    "AS_Button_e8855f94419846a3b5eaa5b3231110a3": {
        "id": "AS_Button_e8855f94419846a3b5eaa5b3231110a3",
        "type": "ACTION_SEQUENCE",
        "params": [{
            "datatype": "collection",
            "name": "eventobject"
        }, {
            "datatype": "collection",
            "name": "context"
        }],
        "language": "js",
        "actions": [{
            "id": "ADD_SNIPPET_ide_onClick_j28995b75ae348378d2cbcab54cbb400",
            "type": "ADD_SNIPPET",
            "codeSnippet": "this.viewactivitypopup();",
            "callbackType": null
        }]
    }
}