{
    "AS_Button_hc1d32a7766549559ad5e0b8ec237745": {
        "id": "AS_Button_hc1d32a7766549559ad5e0b8ec237745",
        "type": "ACTION_SEQUENCE",
        "name": "AS_Button_b35f1d64dc214c29bce77deb47ea56ce",
        "params": [{
            "datatype": "collection",
            "name": "eventobject"
        }],
        "contextObj": {
            "name": "frmAccountsDetails",
            "type": "forms",
            "platform": "",
            "KUID": "f22d64f7cb454ad980b530de61c4240a"
        },
        "language": "js",
        "actions": [{
            "id": "ADD_SNIPPET__fee634b27d424ae6b229c82f3ad7f0bb",
            "type": "ADD_SNIPPET",
            "codeSnippet": "this.presenter.Transactions.showTransfers();",
            "parentId": null,
            "callbackType": null
        }]
    }
}