{
    "AS_Button_db7d0b21de7d41a7829d7bad04d9e3d3": {
        "id": "AS_Button_db7d0b21de7d41a7829d7bad04d9e3d3",
        "type": "ACTION_SEQUENCE",
        "params": [{
            "datatype": "collection",
            "name": "eventobject"
        }],
        "contextObj": {
            "name": "frmLogin",
            "type": "forms",
            "platform": "",
            "KUID": "j0329c6c64654440bf366abc8de81b74"
        },
        "language": "js",
        "actions": [{
            "id": "ADD_SNIPPET__a53a059cc1754c01a34f4e9acfe7955e",
            "type": "ADD_SNIPPET",
            "codeSnippet": "this.showResetPasswordPage();",
            "parentId": null,
            "callbackType": null
        }]
    }
}