{
    "AS_Button_d1dd18489eab4a788c2588949b040ffa": {
        "id": "AS_Button_d1dd18489eab4a788c2588949b040ffa",
        "type": "ACTION_SEQUENCE",
        "params": [{
            "datatype": "collection",
            "name": "eventobject"
        }, {
            "datatype": "collection",
            "name": "context"
        }],
        "contextObj": {
            "name": "segSendRequest",
            "type": "templates",
            "platform": "",
            "KUID": "ebca1cd8c322497fb0217d088b56bc03"
        },
        "language": "js",
        "actions": [{
            "id": "ADD_SNIPPET__icc5ff7d1dbf4ecb9d7adfed04cfa137",
            "type": "ADD_SNIPPET",
            "codeSnippet": "this.showRequestMoney();",
            "parentId": null,
            "callbackType": null
        }]
    }
}