{
    "AS_Button_fbb60b7889f94b3d939dcafb89f24731": {
        "id": "AS_Button_fbb60b7889f94b3d939dcafb89f24731",
        "type": "ACTION_SEQUENCE",
        "params": [{
            "datatype": "collection",
            "name": "eventobject"
        }],
        "contextObj": {
            "name": "frmAccountsDetails",
            "type": "forms",
            "platform": "",
            "KUID": "f22d64f7cb454ad980b530de61c4240a"
        },
        "language": "js",
        "actions": []
    }
}