{
    "AS_Button_dbca8da8d004422d9f532c449e1abbd4": {
        "id": "AS_Button_dbca8da8d004422d9f532c449e1abbd4",
        "type": "ACTION_SEQUENCE",
        "params": [{
            "datatype": "collection",
            "name": "eventobject"
        }],
        "contextObj": {
            "name": "frmBillPay",
            "type": "forms",
            "platform": "",
            "KUID": "h754f638fe6d4c56aac376a2f3adf18b"
        },
        "language": "js",
        "actions": [{
            "id": "ADD_SNIPPET__bea8b305ea824e479ff9dc4255c38200",
            "type": "ADD_SNIPPET",
            "codeSnippet": "this.setManagePayeesSegmentData();",
            "parentId": null,
            "callbackType": null
        }]
    }
}