{
    "AS_Button_e0f1fe2d73d2412aaa09d3ab795661d3": {
        "id": "AS_Button_e0f1fe2d73d2412aaa09d3ab795661d3",
        "type": "ACTION_SEQUENCE",
        "params": [{
            "datatype": "collection",
            "name": "eventobject"
        }, {
            "datatype": "collection",
            "name": "context"
        }],
        "language": "js",
        "actions": [{
            "id": "ADD_SNIPPET_ide_onClick_aead20262d334ff48075b97d031a7498",
            "type": "ADD_SNIPPET",
            "codeSnippet": "this.viewEBill();",
            "callbackType": null
        }]
    }
}