{
    "AS_Button_df2c333a96ff4777ad5a16529d2e7320": {
        "id": "AS_Button_df2c333a96ff4777ad5a16529d2e7320",
        "type": "ACTION_SEQUENCE",
        "params": [{
            "datatype": "collection",
            "name": "eventobject"
        }],
        "contextObj": {
            "name": "frmNotificationsAndMessages",
            "type": "forms",
            "platform": "",
            "KUID": "a83a23bb52bc4894a44b027a89964c1b"
        },
        "language": "js",
        "actions": [{
            "id": "ADD_SNIPPET__g6fa52f5508246ed9ad4d969ea41f89f",
            "type": "ADD_SNIPPET",
            "codeSnippet": "this.setMessagesSegmentData();",
            "parentId": null,
            "callbackType": null
        }]
    }
}