{
    "AS_Button_f79d4f3c9c074c0287b516da1bb36737": {
        "id": "AS_Button_f79d4f3c9c074c0287b516da1bb36737",
        "type": "ACTION_SEQUENCE",
        "params": [{
            "datatype": "collection",
            "name": "eventobject"
        }, {
            "datatype": "collection",
            "name": "context"
        }],
        "contextObj": {
            "name": "segManageRecipientSelected",
            "type": "templates",
            "platform": "",
            "KUID": "i2f31261efb34380a16f1580bf86966f"
        },
        "language": "js",
        "actions": [{
            "id": "ADD_SNIPPET__e9bfff5eac564f7c869a65857ed6f885",
            "type": "ADD_SNIPPET",
            "codeSnippet": "//adding this comment due to platform bug.",
            "parentId": null,
            "callbackType": null
        }]
    }
}