{
    "AS_Button_g762e9d0e0884e55a7a0b0ac4093c113": {
        "id": "AS_Button_g762e9d0e0884e55a7a0b0ac4093c113",
        "type": "ACTION_SEQUENCE",
        "params": [{
            "datatype": "collection",
            "name": "eventobject"
        }],
        "contextObj": {
            "name": "frmConfirmAccountEur",
            "type": "forms",
            "platform": null,
            "KUID": "c1e84d4df00943fea19243d209ebb20d"
        },
        "language": "js",
        "actions": [{
            "id": "ADD_SNIPPET_ide_onClick_g344651f21cb470dba8d612b40e77fee",
            "type": "ADD_SNIPPET",
            "codeSnippet": "this.showLocateUsPage();",
            "callbackType": null
        }]
    }
}