{
    "AS_Button_j492643e92cd4884a15045fb5a62fd8d": {
        "id": "AS_Button_j492643e92cd4884a15045fb5a62fd8d",
        "type": "ACTION_SEQUENCE",
        "params": [{
            "datatype": "collection",
            "name": "eventobject"
        }],
        "contextObj": {
            "name": "frmAddPayee",
            "type": "forms",
            "platform": "",
            "KUID": "a6f26a85f86b40cca7b9347666e596a5"
        },
        "language": "js",
        "actions": [{
            "id": "ADD_SNIPPET__f7857f96a6f74dfaac1f9820a2fecf4c",
            "type": "ADD_SNIPPET",
            "codeSnippet": "this.resetPayeeInformation();",
            "parentId": null,
            "callbackType": null
        }]
    }
}