{
    "AS_Button_c086465b8ada4ee8b1f99b4b8a9b9e16": {
        "id": "AS_Button_c086465b8ada4ee8b1f99b4b8a9b9e16",
        "type": "ACTION_SEQUENCE",
        "params": [{
            "datatype": "collection",
            "name": "eventobject"
        }, {
            "datatype": "collection",
            "name": "context"
        }],
        "language": "js",
        "actions": [{
            "id": "ADD_SNIPPET_ide_onClick_d402232fe9c7438d8ff2a90d3673c8eb",
            "type": "ADD_SNIPPET",
            "codeSnippet": "this.showOneTimeTransfer();\nthis.view.oneTimeTransfer.lblHeader.text = \"EDIT RECIPIENT\";\nthis.view.oneTimeTransfer.flxAccountType.setVisibility(false);\nthis.setOneTimeTransferStep(1);\nthis.view.breadcrumb.btnBreadcrumb2.text = \"EDIT RECIPIENT\";\nthis.detailsJson.isDomesticVar = \"false\";\nthis.detailsJson.isInternationalVar = \"true\";",
            "callbackType": null
        }]
    }
}