{
    "AS_Button_a6df4aadaa61437fb07985f99082e6af": {
        "id": "AS_Button_a6df4aadaa61437fb07985f99082e6af",
        "type": "ACTION_SEQUENCE",
        "params": [{
            "datatype": "collection",
            "name": "eventobject"
        }],
        "contextObj": {
            "name": "frmEnrollNow",
            "type": "forms",
            "platform": "",
            "KUID": "bd78051f2239477699cd5b3d036cf72a"
        },
        "language": "js",
        "actions": [{
            "id": "ADD_SNIPPET__d735058f1ae443f680f0c62ac68bfb3e",
            "type": "ADD_SNIPPET",
            "codeSnippet": "this.showUsernamePasswordAck();",
            "parentId": null,
            "callbackType": null
        }]
    }
}