{
    "AS_Button_c86fbf7b80404cfbb38374a55f9ab7c1": {
        "id": "AS_Button_c86fbf7b80404cfbb38374a55f9ab7c1",
        "type": "ACTION_SEQUENCE",
        "params": [{
            "datatype": "collection",
            "name": "eventobject"
        }],
        "contextObj": {
            "name": "frmWireTransfer",
            "type": "forms",
            "platform": "",
            "KUID": "g6761289d328438db40a889bdbda5720"
        },
        "language": "js",
        "actions": [{
            "id": "ADD_SNIPPET__i1c70867a06e4486a4c55008eb2b0b8e",
            "type": "ADD_SNIPPET",
            "codeSnippet": "this.onActivationCancel();",
            "parentId": null,
            "callbackType": null
        }]
    }
}