{
    "AS_Button_c3ca2f123d7c45a986a41cd0a53ba885": {
        "id": "AS_Button_c3ca2f123d7c45a986a41cd0a53ba885",
        "type": "ACTION_SEQUENCE",
        "params": [{
            "datatype": "collection",
            "name": "eventobject"
        }, {
            "datatype": "collection",
            "name": "context"
        }],
        "contextObj": {
            "name": "segTransactionsRowSelectedSavings",
            "type": "templates",
            "platform": "",
            "KUID": "df7eada892a641b38a57fd60b23c9c59"
        },
        "language": "js",
        "actions": [{
            "id": "ADD_SNIPPET__c3506d3d48624c1696d46d7265802704",
            "type": "ADD_SNIPPET",
            "codeSnippet": "this.showEditRule();",
            "parentId": null,
            "callbackType": null
        }]
    }
}