{
    "AS_Button_a32395ee8eb04f36a68723057259cc0d": {
        "id": "AS_Button_a32395ee8eb04f36a68723057259cc0d",
        "type": "ACTION_SEQUENCE",
        "params": [{
            "datatype": "collection",
            "name": "eventobject"
        }],
        "contextObj": {
            "name": "frmAddExternalAccountEur",
            "type": "forms",
            "platform": null,
            "KUID": "afe51522323e4a0c8857c1ef70ef41f4"
        },
        "language": "js",
        "actions": [{
            "id": "ADD_SNIPPET_ide_onClick_eb4bc54ee631433791000fbaadf8964e",
            "type": "ADD_SNIPPET",
            "codeSnippet": "//this.addDomesticAccount();\nvar transferModule = kony.mvc.MDAApplication.getSharedInstance().getModuleManager().getModule(\"TransferModule\");\ntransferModule.presentationController.showDomesticAccounts();",
            "callbackType": null
        }]
    }
}