{
    "AS_Button_d2a9a99fd98a47f79f2e02b4cc2f9795": {
        "id": "AS_Button_d2a9a99fd98a47f79f2e02b4cc2f9795",
        "type": "ACTION_SEQUENCE",
        "params": [{
            "datatype": "collection",
            "name": "eventobject"
        }],
        "contextObj": {
            "name": "frmAccountsDetails",
            "type": "forms",
            "platform": "",
            "KUID": "f22d64f7cb454ad980b530de61c4240a"
        },
        "language": "js",
        "actions": [{
            "id": "ADD_SNIPPET__e4511e4663dd4a6e98ce3ac042bbc974",
            "type": "ADD_SNIPPET",
            "codeSnippet": "this.showAccountSummary();",
            "parentId": null,
            "callbackType": null
        }]
    }
}