{
    "AS_Button_cdc468d9742b4e53bed4af36d8568cbf": {
        "id": "AS_Button_cdc468d9742b4e53bed4af36d8568cbf",
        "type": "ACTION_SEQUENCE",
        "params": [{
            "datatype": "collection",
            "name": "eventobject"
        }],
        "contextObj": {
            "name": "frmNotificationsAndMessages",
            "type": "forms",
            "platform": null,
            "KUID": "a83a23bb52bc4894a44b027a89964c1b"
        },
        "language": "js",
        "actions": [{
            "id": "ADD_SNIPPET_ide_onClick_c9ae042e6ce948d0906fa8f6f75322f3",
            "type": "ADD_SNIPPET",
            "codeSnippet": "this.cancelPayDueAmount();",
            "callbackType": null
        }]
    }
}