{
    "AS_Button_ac00c0ab7b114403b083f7a1fbd8fe66": {
        "id": "AS_Button_ac00c0ab7b114403b083f7a1fbd8fe66",
        "type": "ACTION_SEQUENCE",
        "params": [{
            "datatype": "collection",
            "name": "eventobject"
        }, {
            "datatype": "collection",
            "name": "context"
        }],
        "contextObj": {
            "name": "segBillPayScheduledSelected",
            "type": "templates",
            "platform": null,
            "KUID": "db5fd25280ef4080b52f7d22be11760a"
        },
        "language": "js",
        "actions": [{
            "id": "ADD_SNIPPET_ide_onClick_b653c00702084e71b62a04a88b5f24b5",
            "type": "ADD_SNIPPET",
            "codeSnippet": "this.showPayABill();",
            "callbackType": null
        }]
    }
}