{
    "AS_Button_b69c13c643644c4d9072f33a34f8baaf": {
        "id": "AS_Button_b69c13c643644c4d9072f33a34f8baaf",
        "type": "ACTION_SEQUENCE",
        "params": [{
            "datatype": "collection",
            "name": "eventobject"
        }],
        "contextObj": {
            "name": "frmLogin",
            "type": "forms",
            "platform": "",
            "KUID": "j0329c6c64654440bf366abc8de81b74"
        },
        "language": "js",
        "actions": [{
            "id": "ADD_SNIPPET__j1a80344a54f4c0a846b07b605047405",
            "type": "ADD_SNIPPET",
            "codeSnippet": "//this.login();\nvar status=true;\nif(this.view.main.imgRememberMe.src=='unchecked_box.png')\n {\n   status=false;\n }\nthis.view.main.lblWelcome.isVisible = true;\nthis.view.main.rtxErrorMsg.setVisibility(false);\nthis.view.flxMain.flxLogoutMsg.setVisibility(false);\nthis.view.flxMain.skin = \"sknFlexLoginMainBackgroundKA\"; \nvar enteredUserName = this.view.main.tbxUserName.text;\nif (this.checkMasked(enteredUserName) === true){\n    var unMaskedUserName = this.getUnMaskedUserName(enteredUserName);\n    if (unMaskedUserName != null)\n    \tthis.presenter.onLogin(this,{\"username\":unMaskedUserName,\"password\":this.view.main.tbxPassword.text,\"rememberme\":status});     \n}\nelse   \nthis.presenter.onLogin(this,{\"username\":enteredUserName,\"password\":this.view.main.tbxPassword.text,\"rememberme\":status});",
            "parentId": null,
            "callbackType": null
        }]
    }
}