{
    "AS_Button_bb838ca301d84c0a8c29cf7d020345dc": {
        "id": "AS_Button_bb838ca301d84c0a8c29cf7d020345dc",
        "type": "ACTION_SEQUENCE",
        "params": [{
            "datatype": "collection",
            "name": "eventobject"
        }, {
            "datatype": "collection",
            "name": "context"
        }],
        "language": "js",
        "actions": [{
            "id": "ADD_SNIPPET_ide_onClick_f0cba0ee78964278986d18a2b50849ec",
            "type": "ADD_SNIPPET",
            "codeSnippet": "this.executeOnParent(\"viewTransactionReport\");",
            "callbackType": null
        }]
    }
}