{
    "AS_Button_c63ef1ba5fdf456fac4496c7143db3ea": {
        "id": "AS_Button_c63ef1ba5fdf456fac4496c7143db3ea",
        "type": "ACTION_SEQUENCE",
        "params": [{
            "datatype": "collection",
            "name": "eventobject"
        }, {
            "datatype": "collection",
            "name": "context"
        }],
        "contextObj": {
            "name": "segManageRecipientSelectedMobile",
            "type": "templates",
            "platform": null,
            "KUID": "i8808782f80f40558e5dfa3578785ec9"
        },
        "language": "js",
        "actions": [{
            "id": "ADD_SNIPPET_ide_onClick_fadafa028b4540478775dfeba4f2b71e",
            "type": "ADD_SNIPPET",
            "codeSnippet": "this.showRequestMoney();",
            "callbackType": null
        }]
    }
}