{
    "AS_Button_g413108cbdaf4439928dcef97cd9d84f": {
        "id": "AS_Button_g413108cbdaf4439928dcef97cd9d84f",
        "type": "ACTION_SEQUENCE",
        "params": [{
            "datatype": "collection",
            "name": "eventobject"
        }, {
            "datatype": "collection",
            "name": "context"
        }],
        "contextObj": {
            "name": "segSelectProductsNUO",
            "type": "templates",
            "platform": "",
            "KUID": "b0827d8d209e4e768342d77ba1cbed79"
        },
        "language": "js",
        "actions": [{
            "id": "ADD_SNIPPET__c649b4ab057940babfaa496e50c17c94",
            "type": "ADD_SNIPPET",
            "codeSnippet": "this.KnowMoreAction();",
            "parentId": null,
            "callbackType": null
        }]
    }
}