{
    "AS_Button_f07351fa4d754674b696d9f699f637e2": {
        "id": "AS_Button_f07351fa4d754674b696d9f699f637e2",
        "type": "ACTION_SEQUENCE",
        "params": [{
            "datatype": "collection",
            "name": "eventobject"
        }, {
            "datatype": "collection",
            "name": "context"
        }],
        "contextObj": {
            "name": "segMonthStatements",
            "type": "templates",
            "platform": "",
            "KUID": "d5581abc18234373861512c42232ee58"
        },
        "language": "js",
        "actions": [{
            "id": "ADD_SNIPPET__addd190fc768473baff6d1a57ec268c1",
            "type": "ADD_SNIPPET",
            "codeSnippet": null,
            "parentId": null,
            "callbackType": null
        }]
    }
}