{
    "AS_Button_j60c1368db30438c8e13e61d2ae9f4df": {
        "id": "AS_Button_j60c1368db30438c8e13e61d2ae9f4df",
        "type": "ACTION_SEQUENCE",
        "params": [{
            "datatype": "collection",
            "name": "eventobject"
        }],
        "contextObj": {
            "name": "frmAccountsDetails",
            "type": "forms",
            "platform": "",
            "KUID": "f22d64f7cb454ad980b530de61c4240a"
        },
        "language": "js",
        "actions": [{
            "id": "ADD_SNIPPET__gda27a24c83346d3919089f9e0cbace0",
            "type": "ADD_SNIPPET",
            "codeSnippet": "this.presenter.Transactions.showDeposits();",
            "parentId": null,
            "callbackType": null
        }]
    }
}