{
    "AS_Button_f56b3986fe6f4f73bd3b0907fb19baee": {
        "id": "AS_Button_f56b3986fe6f4f73bd3b0907fb19baee",
        "type": "ACTION_SEQUENCE",
        "params": [{
            "datatype": "collection",
            "name": "eventobject"
        }],
        "contextObj": {
            "name": "frmTransfersEur",
            "type": "forms",
            "platform": null,
            "KUID": "fd8c83b1fe4e4deebe923e6b4b790fa1"
        },
        "language": "js",
        "actions": [{
            "id": "ADD_SNIPPET_ide_onClick_f9e036bf1d294dab88a28694e8c4fc75",
            "type": "ADD_SNIPPET",
            "codeSnippet": "this.showTermsAndConditions();",
            "callbackType": null
        }]
    }
}