{
    "AS_Button_g1aaaff1a954446c969f9113518d07ad": {
        "id": "AS_Button_g1aaaff1a954446c969f9113518d07ad",
        "type": "ACTION_SEQUENCE",
        "params": [{
            "datatype": "collection",
            "name": "eventobject"
        }],
        "contextObj": {
            "type": "forms",
            "platform": null,
            "KUID": "h76e5b804db249f3bed8bdb45f507766"
        },
        "language": "js",
        "actions": [{
            "id": "SET_FORM_WIDGET_PROPERTY____a2650402c30043cca0de6daa1992d79f",
            "type": "SET_WIDGET_PROPERTY",
            "itemType": "FORM",
            "itemId": "frmPayDueAmount",
            "widgetId": "flxQuitPayment",
            "propertyName": "isVisible",
            "propertyValue": "true",
            "itemKUID": "ba0b4f38b88d4ad7a2c69bb7d0d38c44",
            "widgetKUID": "ea5e783e9bac451f91384a3cd36f013b",
            "isSkinProperty": false,
            "wType": "FlexContainer",
            "forkedPlatform": "all",
            "callbackType": null,
            "widgetPath": "this.view.flxQuitPayment"
        }]
    }
}