{
    "AS_Button_fd4c843a5cf84930bd0f97d4493359ff": {
        "id": "AS_Button_fd4c843a5cf84930bd0f97d4493359ff",
        "type": "ACTION_SEQUENCE",
        "params": [{
            "datatype": "collection",
            "name": "eventobject"
        }],
        "contextObj": {
            "type": "forms",
            "platform": null,
            "KUID": "f373e26114dc459d857e321468336666"
        },
        "language": "js",
        "actions": [{
            "id": "ADD_SNIPPET_ide_onClick_a0989f45ba5048519a2d0a5dadcc6d9b",
            "type": "ADD_SNIPPET",
            "codeSnippet": "this.openAddPayeeForm();",
            "callbackType": null
        }]
    }
}