{
    "AS_Button_j68fa86ee4584bfc82ef3208d65f336b": {
        "id": "AS_Button_j68fa86ee4584bfc82ef3208d65f336b",
        "type": "ACTION_SEQUENCE",
        "params": [{
            "datatype": "collection",
            "name": "eventobject"
        }],
        "contextObj": {
            "name": "frmAddPayee",
            "type": "forms",
            "platform": "",
            "KUID": "a6f26a85f86b40cca7b9347666e596a5"
        },
        "language": "js",
        "actions": [{
            "id": "ADD_SNIPPET__a378eae7b6fc4575aff5f5bdb96d60ca",
            "type": "ADD_SNIPPET",
            "codeSnippet": "//this.showFlxAddPayeeAck();\nthis.goToAddPayeeAcknowledgement();",
            "parentId": null,
            "callbackType": null
        }]
    }
}