{
    "AS_Button_a384223153a44867906db532b84be005": {
        "id": "AS_Button_a384223153a44867906db532b84be005",
        "type": "ACTION_SEQUENCE",
        "params": [{
            "datatype": "collection",
            "name": "eventobject"
        }],
        "contextObj": {
            "name": "frmNotificationsAndMessages",
            "type": "forms",
            "platform": "",
            "KUID": "a83a23bb52bc4894a44b027a89964c1b"
        },
        "language": "js",
        "actions": [{
            "id": "ADD_SNIPPET__e9a8ec983529415eb6ba890b200b7f16",
            "type": "ADD_SNIPPET",
            "codeSnippet": "this.setMessagesSegmentData();",
            "parentId": null,
            "callbackType": null
        }]
    }
}