{
    "AS_Button_f360c5e34c69406fa2c86fae24ace2a8": {
        "id": "AS_Button_f360c5e34c69406fa2c86fae24ace2a8",
        "type": "ACTION_SEQUENCE",
        "params": [{
            "datatype": "collection",
            "name": "eventobject"
        }],
        "contextObj": {
            "name": "frmAddExternalAccount",
            "type": "forms",
            "platform": "",
            "KUID": "g44e89ee0cb445b982945b6b358d77eb"
        },
        "language": "js",
        "actions": [{
            "id": "ADD_SNIPPET__ab1d156353ad4685965c6003a41a06da",
            "type": "ADD_SNIPPET",
            "codeSnippet": "var transferModule = kony.mvc.MDAApplication.getSharedInstance().getModuleManager().getModule(\"TransferModule\");\ntransferModule.presentationController.cancelTransaction();",
            "parentId": null,
            "callbackType": null
        }]
    }
}