{
    "AS_Button_hcb3f2b3207c40f6a785f196ba328291": {
        "id": "AS_Button_hcb3f2b3207c40f6a785f196ba328291",
        "type": "ACTION_SEQUENCE",
        "params": [{
            "datatype": "collection",
            "name": "eventobject"
        }, {
            "datatype": "collection",
            "name": "context"
        }],
        "contextObj": {
            "name": "segManageRecipientsWireTransfersSelected",
            "type": "templates",
            "platform": "",
            "KUID": "ac032eecfc1746f488255418256eb8f3"
        },
        "language": "js",
        "actions": [{
            "id": "ADD_SNIPPET__j835a68019b04a7ba9405f725a78b288",
            "type": "ADD_SNIPPET",
            "codeSnippet": "this.MakeTransferAction();",
            "parentId": null,
            "callbackType": null
        }]
    }
}