{
    "AS_Button_f296a655794a4abb95bd6fd8b9aa9381": {
        "id": "AS_Button_f296a655794a4abb95bd6fd8b9aa9381",
        "type": "ACTION_SEQUENCE",
        "params": [{
            "datatype": "collection",
            "name": "eventobject"
        }],
        "contextObj": {
            "name": "frmAccountsDetails",
            "type": "forms",
            "platform": "",
            "KUID": "f22d64f7cb454ad980b530de61c4240a"
        },
        "language": "js",
        "actions": [{
            "id": "ADD_SNIPPET__a5d87ab6ca0f40c784d7c01b499db901",
            "type": "ADD_SNIPPET",
            "codeSnippet": "this.toggleSearchResults();",
            "parentId": null,
            "callbackType": null
        }]
    }
}