{
    "AS_Button_f699b6010b2d44da8e46785598ad9ad0": {
        "id": "AS_Button_f699b6010b2d44da8e46785598ad9ad0",
        "type": "ACTION_SEQUENCE",
        "params": [{
            "datatype": "collection",
            "name": "eventobject"
        }],
        "contextObj": {
            "name": "frmAccountsDetails",
            "type": "forms",
            "platform": "",
            "KUID": "f22d64f7cb454ad980b530de61c4240a"
        },
        "language": "js",
        "actions": [{
            "id": "ADD_SNIPPET__d32186a1d727486898f316dc56829c9b",
            "type": "ADD_SNIPPET",
            "codeSnippet": "this.toggleSearchResults();",
            "parentId": null,
            "callbackType": null
        }]
    }
}