{
    "AS_Button_b0bcda0968aa4ec4a8b565a6dd78415f": {
        "id": "AS_Button_b0bcda0968aa4ec4a8b565a6dd78415f",
        "type": "ACTION_SEQUENCE",
        "params": [{
            "datatype": "collection",
            "name": "eventobject"
        }],
        "contextObj": {
            "name": "frmLogin",
            "type": "forms",
            "platform": "",
            "KUID": "j0329c6c64654440bf366abc8de81b74"
        },
        "language": "js",
        "actions": [{
            "id": "ADD_SNIPPET__d0ab04ab7d2b4c469d010cc7254657c9",
            "type": "ADD_SNIPPET",
            "codeSnippet": "this.showResetPasswordPage();",
            "parentId": null,
            "callbackType": null
        }]
    }
}