{
    "AS_Button_cbb71b974bdb468488781c0413272aa0": {
        "id": "AS_Button_cbb71b974bdb468488781c0413272aa0",
        "type": "ACTION_SEQUENCE",
        "params": [{
            "datatype": "collection",
            "name": "eventobject"
        }, {
            "datatype": "collection",
            "name": "context"
        }],
        "language": "js",
        "actions": [{
            "id": "ADD_SNIPPET_ide_onClick_h2ba0f5e1b2c4e9c89858cebf59307a9",
            "type": "ADD_SNIPPET",
            "codeSnippet": "var nav = new kony.mvc.Navigation(\"frmNotificationsAndMessages\");\nnav.navigate();",
            "callbackType": null
        }]
    }
}