{
    "AS_Button_hb44ae19562949689ff83e0595e5d6f4": {
        "id": "AS_Button_hb44ae19562949689ff83e0595e5d6f4",
        "type": "ACTION_SEQUENCE",
        "params": [{
            "datatype": "collection",
            "name": "eventobject"
        }],
        "contextObj": {
            "name": "frmAddPayee",
            "type": "forms",
            "platform": "",
            "KUID": "a6f26a85f86b40cca7b9347666e596a5"
        },
        "language": "js",
        "actions": [{
            "id": "ADD_SNIPPET__ed442c65f6994464885f3b2edfc1fd38",
            "type": "ADD_SNIPPET",
            "codeSnippet": "this.showFlxSearchPayee();",
            "parentId": null,
            "callbackType": null
        }]
    }
}