{
    "AS_Button_ebda37155f7c486bb195079c32d50a07": {
        "id": "AS_Button_ebda37155f7c486bb195079c32d50a07",
        "type": "ACTION_SEQUENCE",
        "params": [{
            "datatype": "collection",
            "name": "eventobject"
        }],
        "contextObj": {
            "name": "frmPayAPerson",
            "type": "forms",
            "platform": "",
            "KUID": "b19e9f55ebab4254b5eadf20d2a4c409"
        },
        "language": "js",
        "actions": [{
            "id": "ADD_SNIPPET__b5dd4aa7059e40019d0fcc32427d5e31",
            "type": "ADD_SNIPPET",
            "codeSnippet": "this.presenter.loadP2PActivationScreen();\n\n\n",
            "parentId": null,
            "callbackType": null
        }]
    }
}