{
    "AS_Button_abc7f89444884a7691870d2ab4f54321": {
        "id": "AS_Button_abc7f89444884a7691870d2ab4f54321",
        "type": "ACTION_SEQUENCE",
        "params": [{
            "datatype": "collection",
            "name": "eventobject"
        }],
        "contextObj": {
            "name": "frmAddInternalAccount",
            "type": "forms",
            "platform": null,
            "KUID": "i0c7320b49fe40e1a3a168c136395e15"
        },
        "language": "js",
        "actions": [{
            "id": "ADD_SNIPPET_ide_onClick_f7f292dace6f429bb48efd2ea552cf3e",
            "type": "ADD_SNIPPET",
            "codeSnippet": "this.addInternationalAccount();",
            "callbackType": null
        }]
    }
}