{
    "AS_Button_i18e8e6cd6ec44938a3c9cfd39f0f0ee": {
        "id": "AS_Button_i18e8e6cd6ec44938a3c9cfd39f0f0ee",
        "type": "ACTION_SEQUENCE",
        "params": [{
            "datatype": "collection",
            "name": "eventobject"
        }],
        "contextObj": {
            "name": "frmLoginLanguage",
            "type": "forms",
            "platform": null,
            "KUID": "d6328cf267c248a6b559c500d837ea14"
        },
        "language": "js",
        "actions": [{
            "id": "ADD_SNIPPET_ide_onClick_h97b5264e8fa457cb4ed38dc2d7e2c96",
            "type": "ADD_SNIPPET",
            "codeSnippet": "this.navigateToNewUserOnBoarding();",
            "callbackType": null
        }]
    }
}