{
    "AS_Button_b2591cff21bf494ebd6d4dc046034a7c": {
        "id": "AS_Button_b2591cff21bf494ebd6d4dc046034a7c",
        "type": "ACTION_SEQUENCE",
        "params": [{
            "datatype": "collection",
            "name": "eventobject"
        }],
        "contextObj": {
            "name": "frmTransfersEur",
            "type": "forms",
            "platform": null,
            "KUID": "fd8c83b1fe4e4deebe923e6b4b790fa1"
        },
        "language": "js",
        "actions": [{
            "id": "ADD_SNIPPET_ide_onClick_hffa643ff9e74f4a917d57b09bb0f7c8",
            "type": "ADD_SNIPPET",
            "codeSnippet": "this.showFAQs();",
            "callbackType": null
        }]
    }
}