{
    "AS_Button_j31e51592b614912a062bbf4f5994bc2": {
        "id": "AS_Button_j31e51592b614912a062bbf4f5994bc2",
        "type": "ACTION_SEQUENCE",
        "params": [{
            "datatype": "collection",
            "name": "eventobject"
        }, {
            "datatype": "collection",
            "name": "context"
        }],
        "language": "js",
        "actions": [{
            "id": "ADD_SNIPPET_ide_onClick_hd273cea1172427db2adb6c48bcf8a5e",
            "type": "ADD_SNIPPET",
            "codeSnippet": "//adding this comment due to platform bug.",
            "callbackType": null
        }]
    }
}