{
    "AS_Button_f611eb11dee64cb39e56951768ddb1f2": {
        "id": "AS_Button_f611eb11dee64cb39e56951768ddb1f2",
        "type": "ACTION_SEQUENCE",
        "params": [{
            "datatype": "collection",
            "name": "eventobject"
        }],
        "contextObj": {
            "name": "frmLoginLanguage",
            "type": "forms",
            "platform": null,
            "KUID": "d6328cf267c248a6b559c500d837ea14"
        },
        "language": "js",
        "actions": [{
            "id": "ADD_SNIPPET_ide_onClick_ca959c2ccab34ceda6dd1615f6cd337b",
            "type": "ADD_SNIPPET",
            "codeSnippet": "this.useCVVForReset();",
            "callbackType": null
        }]
    }
}