{
    "AS_Button_gb655d4d80cc4d2fb19b0094870dc126": {
        "id": "AS_Button_gb655d4d80cc4d2fb19b0094870dc126",
        "type": "ACTION_SEQUENCE",
        "params": [{
            "datatype": "collection",
            "name": "eventobject"
        }],
        "contextObj": {
            "name": "frmLogin",
            "type": "forms",
            "platform": "",
            "KUID": "j0329c6c64654440bf366abc8de81b74"
        },
        "language": "js",
        "actions": [{
            "id": "ADD_SNIPPET__gc1d62b8d82c4a3a9b4ef084d4eac248",
            "type": "ADD_SNIPPET",
            "codeSnippet": "this.login();",
            "parentId": null,
            "callbackType": null
        }]
    }
}