{
    "AS_Button_g5580720b19b4224869c4a2bd0d3d2de": {
        "id": "AS_Button_g5580720b19b4224869c4a2bd0d3d2de",
        "type": "ACTION_SEQUENCE",
        "params": [{
            "datatype": "collection",
            "name": "eventobject"
        }],
        "language": "js",
        "actions": [{
            "id": "ADD_SNIPPET_ide_onClick_df95b7720e5e4ac28462eccba97c32f5",
            "type": "ADD_SNIPPET",
            "codeSnippet": "this.showQuitPopup();",
            "callbackType": null
        }]
    }
}