{
    "AS_Button_a071d057c7914235a9f69e53d590f7df": {
        "id": "AS_Button_a071d057c7914235a9f69e53d590f7df",
        "type": "ACTION_SEQUENCE",
        "params": [{
            "datatype": "collection",
            "name": "eventobject"
        }, {
            "datatype": "collection",
            "name": "context"
        }],
        "contextObj": {
            "name": "segCheckImagesMobile",
            "type": "templates",
            "platform": null,
            "KUID": "g58cf7d6254846fda5dfc0a4f76f1f43"
        },
        "language": "js",
        "actions": [{
            "id": "ADD_SNIPPET_ide_onClick_f3b0a47a766c49ef8f683fc68f65d5e0",
            "type": "ADD_SNIPPET",
            "codeSnippet": "//",
            "callbackType": null
        }]
    }
}