{
    "AS_FlexContainer_f5a9949b6bd143ce80bb7084fa405ee1": {
        "id": "AS_FlexContainer_f5a9949b6bd143ce80bb7084fa405ee1",
        "type": "ACTION_SEQUENCE",
        "params": [{
            "datatype": "collection",
            "name": "eventobject"
        }, {
            "datatype": "collection",
            "name": "context"
        }],
        "language": "js",
        "actions": [{
            "id": "ADD_SNIPPET_ide_onClick_b2cad4cc754e474c916ee4cca723e546",
            "type": "ADD_SNIPPET",
            "codeSnippet": "this.showSelectedRow();",
            "callbackType": null
        }]
    }
}