{
    "AS_Form_f61a533a94744161a486552a0668316d": {
        "id": "AS_Form_f61a533a94744161a486552a0668316d",
        "type": "ACTION_SEQUENCE",
        "params": [{
            "datatype": "collection",
            "name": "eventobject"
        }],
        "contextObj": {
            "name": "frmTransfers",
            "type": "forms",
            "platform": "",
            "KUID": "e9f47be88ab64765a96b1fae7d2a7720"
        },
        "language": "js",
        "actions": [{
            "id": "ADD_SNIPPET__b62b6889b69b4c4780afa940b1b544b5",
            "type": "ADD_SNIPPET",
            "codeSnippet": "this.postShowtransfers();",
            "parentId": null,
            "callbackType": null
        }]
    }
}