{
    "AS_FlexContainer_fbd6fc7e84db48a78275d2457ebd52de": {
        "id": "AS_FlexContainer_fbd6fc7e84db48a78275d2457ebd52de",
        "type": "ACTION_SEQUENCE",
        "params": [{
            "datatype": "collection",
            "name": "eventobject"
        }],
        "contextObj": {
            "name": "frmCustomerFeedback",
            "type": "forms",
            "platform": "",
            "KUID": "f9a0e499fabf424ba4982ce72ecd3bd2"
        },
        "language": "js",
        "actions": [{
            "id": "ADD_SNIPPET__d1eb45aa44424f3ebcde97b7cd931c95",
            "type": "ADD_SNIPPET",
            "codeSnippet": "this.addFeatureRequestAction();",
            "parentId": null,
            "callbackType": null
        }]
    }
}