{
    "AS_Form_e0cecb4fa6fa414da4a7eefd732fd884": {
        "id": "AS_Form_e0cecb4fa6fa414da4a7eefd732fd884",
        "type": "ACTION_SEQUENCE",
        "params": [{
            "datatype": "collection",
            "name": "eventobject"
        }, {
            "datatype": "number",
            "name": "breakpoint"
        }],
        "contextObj": {
            "name": "frmAccountsLanding",
            "type": "forms",
            "platform": "",
            "KUID": "c0567b2e5ece4b0cbbe1b35e3c8f3103"
        },
        "language": "js",
        "actions": [{
            "id": "ADD_SNIPPET__gfc4e35f318f41ca95e6e49f97889c6c",
            "type": "ADD_SNIPPET",
            "codeSnippet": "this.onBreakpointChange(breakpoint);",
            "parentId": null,
            "callbackType": null
        }]
    }
}