{
    "AS_Form_dec4a6fb020849b09d56e624821d3954": {
        "id": "AS_Form_dec4a6fb020849b09d56e624821d3954",
        "type": "ACTION_SEQUENCE",
        "params": [{
            "datatype": "collection",
            "name": "eventobject"
        }],
        "contextObj": {
            "name": "frmConfirm",
            "type": "forms",
            "platform": "",
            "KUID": "a7f0cc5aa63c41fcbfdfa2a9a04d54ba"
        },
        "language": "js",
        "actions": []
    }
}