{
    "AS_Form_dad23327add24b55b3d7e1c346d61713": {
        "id": "AS_Form_dad23327add24b55b3d7e1c346d61713",
        "type": "ACTION_SEQUENCE",
        "params": [{
            "datatype": "collection",
            "name": "eventobject"
        }],
        "contextObj": {
            "name": "frmAddInternalAccount",
            "type": "forms",
            "platform": null,
            "KUID": "i0c7320b49fe40e1a3a168c136395e15"
        },
        "language": "js",
        "actions": [{
            "id": "ADD_SNIPPET_ide_preShow_g2fa358d17544a7d963430882434bcb9",
            "type": "ADD_SNIPPET",
            "codeSnippet": "this.preshowFrmAddAccount();",
            "callbackType": null
        }]
    }
}