{
    "AS_FlexContainer_f8531497822c46459ffb10a0faf15676": {
        "id": "AS_FlexContainer_f8531497822c46459ffb10a0faf15676",
        "type": "ACTION_SEQUENCE",
        "params": [{
            "datatype": "collection",
            "name": "eventobject"
        }],
        "contextObj": {
            "name": "frmAddExternalAccount",
            "type": "forms",
            "platform": "",
            "KUID": "g44e89ee0cb445b982945b6b358d77eb"
        },
        "language": "js",
        "actions": [{
            "id": "ADD_SNIPPET__e6d2d472a7f84601846afd6d731f8b97",
            "type": "ADD_SNIPPET",
            "codeSnippet": "this.toggleChekBoxNonDomestic();",
            "parentId": null,
            "callbackType": null
        }]
    }
}