{
    "AS_Form_id30a01dd268463792cfdaa4eae337db": {
        "id": "AS_Form_id30a01dd268463792cfdaa4eae337db",
        "type": "ACTION_SEQUENCE",
        "params": [{
            "datatype": "collection",
            "name": "eventobject"
        }, {
            "datatype": "number",
            "name": "breakpoint"
        }],
        "contextObj": {
            "name": "frmLogin",
            "type": "forms",
            "platform": "",
            "KUID": "j0329c6c64654440bf366abc8de81b74"
        },
        "language": "js",
        "actions": [{
            "id": "ADD_SNIPPET__fa555b250e3c4347ab2a98c62c79ca4d",
            "type": "ADD_SNIPPET",
            "codeSnippet": "kony.print('test ');",
            "parentId": null,
            "callbackType": null
        }]
    }
}