{
    "AS_Form_a5feeee0d299419dbe3c8d44e3f504ec": {
        "id": "AS_Form_a5feeee0d299419dbe3c8d44e3f504ec",
        "type": "ACTION_SEQUENCE",
        "params": [{
            "datatype": "collection",
            "name": "eventobject"
        }],
        "contextObj": {
            "name": "frmNAO",
            "type": "forms",
            "platform": null,
            "KUID": "bf92432b783b4654a4621f52754a686e"
        },
        "language": "js",
        "actions": [{
            "id": "ADD_SNIPPET__gc4eb514e1de43abbdb7f0efcf54bf85",
            "type": "ADD_SNIPPET",
            "codeSnippet": "this.postshowfrmNAO();",
            "parentId": null,
            "callbackType": null
        }]
    }
}