{
    "AS_FlexContainer_e2ad2766944b4f1591b137a5a62bdc53": {
        "id": "AS_FlexContainer_e2ad2766944b4f1591b137a5a62bdc53",
        "type": "ACTION_SEQUENCE",
        "params": [{
            "datatype": "collection",
            "name": "eventobject"
        }, {
            "datatype": "collection",
            "name": "context"
        }],
        "contextObj": {
            "KUID": "jebddb12e09c4fe2b27e6dffefd3ca66",
            "name": "segBBAccountsCheckable",
            "platform": "",
            "type": "templates"
        },
        "language": "js",
        "actions": [{
            "id": "ADD_SNIPPET__g299f98111064fbbb5d0941118cd87c9",
            "type": "ADD_SNIPPET",
            "codeSnippet": "this.executeOnParent(\"checkUnCheckAccountView\");",
            "parentId": null,
            "callbackType": null
        }]
    }
}