{
    "AS_FlexContainer_ae2cef4b1e1c4f0dbf84337630161f52": {
        "id": "AS_FlexContainer_ae2cef4b1e1c4f0dbf84337630161f52",
        "type": "ACTION_SEQUENCE",
        "params": [{
            "datatype": "collection",
            "name": "eventobject"
        }, {
            "datatype": "collection",
            "name": "context"
        }],
        "contextObj": {
            "name": "segCheckImages",
            "type": "templates",
            "platform": null,
            "KUID": "afed95830bc44c04a925ab08c23aa563"
        },
        "language": "js",
        "actions": [{
            "id": "ADD_SNIPPET_ide_onClick_e2e4160125d34d03bb66ca4eebab8770",
            "type": "ADD_SNIPPET",
            "codeSnippet": "this.showUnselectedRow();",
            "callbackType": null
        }]
    }
}