{
    "AS_Form_fe632bf8494144e78431c3d7f0067409": {
        "id": "AS_Form_fe632bf8494144e78431c3d7f0067409",
        "type": "ACTION_SEQUENCE",
        "params": [{
            "datatype": "collection",
            "name": "eventobject"
        }, {
            "datatype": "string",
            "name": "x"
        }, {
            "datatype": "string",
            "name": "y"
        }],
        "contextObj": {
            "name": "frmConfirmAccount",
            "type": "forms",
            "platform": "",
            "KUID": "fa720a3845e84444a32d1129de3a2f6b"
        },
        "language": "js",
        "actions": [{
            "id": "ADD_SNIPPET__a2d4ec7fab734b58ba571461d641a9e6",
            "type": "ADD_SNIPPET",
            "codeSnippet": "hidePopups();",
            "parentId": null,
            "callbackType": null
        }]
    }
}