{
    "AS_FlexContainer_f303e93f596542c88cdf26a637ea6ca3": {
        "id": "AS_FlexContainer_f303e93f596542c88cdf26a637ea6ca3",
        "type": "ACTION_SEQUENCE",
        "params": [{
            "datatype": "collection",
            "name": "eventobject"
        }],
        "contextObj": {
            "name": "frmAcknowledgementEur",
            "type": "forms",
            "platform": null,
            "KUID": "e2cae5afb56745e6a52230a4491e7b40"
        },
        "language": "js",
        "actions": [{
            "id": "ADD_SNIPPET_ide_onClick_a7a9ef41196d4a94896b011135009cfd",
            "type": "ADD_SNIPPET",
            "codeSnippet": "//this.closeHamburgerMenu();",
            "callbackType": null
        }]
    }
}