{
    "AS_FlexContainer_e619b0225ab34d6cb3a177f20f6bd392": {
        "id": "AS_FlexContainer_e619b0225ab34d6cb3a177f20f6bd392",
        "type": "ACTION_SEQUENCE",
        "params": [{
            "datatype": "collection",
            "name": "eventobject"
        }, {
            "datatype": "collection",
            "name": "context"
        }],
        "contextObj": {
            "name": "segCheckImages",
            "type": "templates",
            "platform": null,
            "KUID": "afed95830bc44c04a925ab08c23aa563"
        },
        "language": "js",
        "actions": [{
            "id": "ADD_SNIPPET_ide_onClick_e798e7dc869445649aa7c5d04285d1d7",
            "type": "ADD_SNIPPET",
            "codeSnippet": "this.showCheckImage();",
            "callbackType": null
        }]
    }
}