{
    "AS_FlexContainer_ef1a296786b74a35a167d6cad7d2f5b3": {
        "id": "AS_FlexContainer_ef1a296786b74a35a167d6cad7d2f5b3",
        "type": "ACTION_SEQUENCE",
        "params": [{
            "datatype": "collection",
            "name": "eventobject"
        }, {
            "datatype": "string",
            "name": "x"
        }, {
            "datatype": "string",
            "name": "y"
        }],
        "contextObj": {
            "name": "frmAcknowledgementEur",
            "type": "forms",
            "platform": null,
            "KUID": "e2cae5afb56745e6a52230a4491e7b40"
        },
        "language": "js",
        "actions": [{
            "id": "ADD_SNIPPET_ide_onTouchEnd_h0309957e2594c66885b6342d5e3af34",
            "type": "ADD_SNIPPET",
            "codeSnippet": "this.view.flxContextualMenu.setVisibility(false);",
            "callbackType": null
        }]
    }
}