{
    "AS_FlexContainer_e672cb5f4aaf43abb11900e922c7b9c9": {
        "id": "AS_FlexContainer_e672cb5f4aaf43abb11900e922c7b9c9",
        "type": "ACTION_SEQUENCE",
        "params": [{
            "datatype": "collection",
            "name": "eventobject"
        }, {
            "datatype": "collection",
            "name": "context"
        }],
        "contextObj": {
            "name": "segRecentTransfersSelected",
            "type": "templates",
            "platform": null,
            "KUID": "a1b486105e3e41808b91c29c3fca391b"
        },
        "language": "js",
        "actions": [{
            "id": "ADD_SNIPPET_ide_onClick_a40028d8b20546c4b819aae6f07504c0",
            "type": "ADD_SNIPPET",
            "codeSnippet": "//this.pendingRowOnClick();",
            "callbackType": null
        }]
    }
}