{
    "AS_Form_d98e49ea15704d508b2f6fc571ea3fea": {
        "id": "AS_Form_d98e49ea15704d508b2f6fc571ea3fea",
        "type": "ACTION_SEQUENCE",
        "params": [{
            "datatype": "collection",
            "name": "eventobject"
        }],
        "contextObj": {
            "type": "forms",
            "platform": null,
            "KUID": "b4d3cf5fda1141e78858debbef0eb064"
        },
        "language": "js",
        "actions": [{
            "id": "ADD_SNIPPET_ide_postShow_af3981a74368418c854f771669307668",
            "type": "ADD_SNIPPET",
            "codeSnippet": "this.postshowAddExternalAccount();",
            "callbackType": null
        }]
    }
}