{
    "AS_FlexContainer_i2e03083abb649a3b0bfb76a1ad7ed6c": {
        "id": "AS_FlexContainer_i2e03083abb649a3b0bfb76a1ad7ed6c",
        "type": "ACTION_SEQUENCE",
        "params": [{
            "datatype": "collection",
            "name": "eventobject"
        }],
        "contextObj": {
            "name": "frmAddExternalAccountEur",
            "type": "forms",
            "platform": null,
            "KUID": "afe51522323e4a0c8857c1ef70ef41f4"
        },
        "language": "js",
        "actions": [{
            "id": "ADD_SNIPPET_ide_onClick_f7c18480cd8f4ed99bc4118ec63f6028",
            "type": "ADD_SNIPPET",
            "codeSnippet": "this.checkboxActionDomestic();",
            "callbackType": null
        }]
    }
}