{
    "AS_FlexContainer_fa4726a95c86414abf7469234555174d": {
        "id": "AS_FlexContainer_fa4726a95c86414abf7469234555174d",
        "type": "ACTION_SEQUENCE",
        "params": [{
            "datatype": "collection",
            "name": "eventobject"
        }, {
            "datatype": "collection",
            "name": "context"
        }],
        "contextObj": {
            "KUID": "jd3c14343dd9454fb4715f31ca9d6d10",
            "name": "segBBAccountAccessHeader",
            "platform": "",
            "type": "templates"
        },
        "language": "js",
        "actions": [{
            "id": "ADD_SNIPPET__b686061ba58f4be9879878c36f482add",
            "type": "ADD_SNIPPET",
            "codeSnippet": "this.executeOnParent(\"checkUncheckTransactionAccess\");",
            "parentId": null,
            "callbackType": null
        }]
    }
}