{
    "AS_FlexContainer_caf921a4328d431badcd31022760c9d5": {
        "id": "AS_FlexContainer_caf921a4328d431badcd31022760c9d5",
        "type": "ACTION_SEQUENCE",
        "params": [{
            "datatype": "collection",
            "name": "eventobject"
        }],
        "contextObj": {
            "name": "frmTransfersEur",
            "type": "forms",
            "platform": null,
            "KUID": "fd8c83b1fe4e4deebe923e6b4b790fa1"
        },
        "language": "js",
        "actions": [{
            "id": "ADD_SNIPPET_ide_onClick_dd90ea7a75af46c08e00594476821efb",
            "type": "ADD_SNIPPET",
            "codeSnippet": "//this.closeHamburgerMenu();",
            "callbackType": null
        }]
    }
}