{
    "AS_FlexContainer_fbbe8e9045694e08a49bfc6c43e7a4fa": {
        "id": "AS_FlexContainer_fbbe8e9045694e08a49bfc6c43e7a4fa",
        "type": "ACTION_SEQUENCE",
        "params": [{
            "datatype": "collection",
            "name": "eventobject"
        }, {
            "datatype": "collection",
            "name": "context"
        }],
        "contextObj": {
            "name": "segBillPayHistoryDetailsMobile",
            "type": "templates",
            "platform": null,
            "KUID": "ce7c20bbd2dd410ca1f483f8258f6439"
        },
        "language": "js",
        "actions": [{
            "id": "ADD_SNIPPET_ide_onClick_c79417f846344b19a0966f5d28440af1",
            "type": "ADD_SNIPPET",
            "codeSnippet": "this.segmentHistoryRowClick();",
            "callbackType": null
        }]
    }
}