{
    "AS_FlexContainer_ed84646a544f404dab5562ed0f1f48d0": {
        "id": "AS_FlexContainer_ed84646a544f404dab5562ed0f1f48d0",
        "type": "ACTION_SEQUENCE",
        "params": [{
            "datatype": "collection",
            "name": "eventobject"
        }, {
            "datatype": "collection",
            "name": "context"
        }],
        "contextObj": {
            "name": "segTransferActivity",
            "type": "templates",
            "platform": "",
            "KUID": "a99f1280f77849bd9bd6cda7d1b544d9"
        },
        "language": "js",
        "actions": [{
            "id": "ADD_SNIPPET__h034bd0fc0034aa185e57e3cc199b8ad",
            "type": "ADD_SNIPPET",
            "codeSnippet": "//test.",
            "parentId": null,
            "callbackType": null
        }]
    }
}