{
    "AS_FlexContainer_bd5cf0439073484ea9fae3faa2314439": {
        "id": "AS_FlexContainer_bd5cf0439073484ea9fae3faa2314439",
        "type": "ACTION_SEQUENCE",
        "params": [{
            "datatype": "collection",
            "name": "eventobject"
        }, {
            "datatype": "collection",
            "name": "context"
        }],
        "contextObj": {
            "type": "templates",
            "platform": null,
            "KUID": "f47fac888da3480bb1c55df0da33a180"
        },
        "language": "js",
        "actions": [{
            "id": "ADD_SNIPPET_ide_onClick_d18aa5b348d14825930d76100b449b8e",
            "type": "ADD_SNIPPET",
            "codeSnippet": "this.showSelectedRow();",
            "callbackType": null
        }]
    }
}