{
    "AS_Form_d4d1f486bd3041efb19d51675cd7ff55": {
        "id": "AS_Form_d4d1f486bd3041efb19d51675cd7ff55",
        "type": "ACTION_SEQUENCE",
        "params": [{
            "datatype": "collection",
            "name": "eventobject"
        }],
        "contextObj": {
            "type": "forms",
            "platform": null,
            "KUID": "b4d3cf5fda1141e78858debbef0eb064"
        },
        "language": "js",
        "actions": [{
            "id": "ADD_SNIPPET_ide_preShow_e1195779cfdd4b7ab99204e71225ea20",
            "type": "ADD_SNIPPET",
            "codeSnippet": "this.preshowFrmAddAccount();",
            "callbackType": null
        }]
    }
}