{
    "AS_FlexContainer_be5c1e4670354b6db0ce974fd81e2912": {
        "id": "AS_FlexContainer_be5c1e4670354b6db0ce974fd81e2912",
        "type": "ACTION_SEQUENCE",
        "params": [{
            "datatype": "collection",
            "name": "eventobject"
        }, {
            "datatype": "collection",
            "name": "context"
        }],
        "contextObj": {
            "name": "segDisputedChecksSelectedWrapper",
            "type": "templates",
            "KUID": "hcaff83b7d814f0fb66db08b8929738e"
        },
        "language": "js",
        "actions": [{
            "id": "ADD_SNIPPET__g1bf632331184109b8d4c4dbb16e0c20",
            "type": "ADD_SNIPPET",
            "codeSnippet": "this.showSelectedRow();",
            "parentId": null,
            "callbackType": null
        }]
    }
}