{
    "AS_FlexContainer_db61c318d5c0407fa4c337863fa7117c": {
        "id": "AS_FlexContainer_db61c318d5c0407fa4c337863fa7117c",
        "type": "ACTION_SEQUENCE",
        "params": [{
            "datatype": "collection",
            "name": "eventobject"
        }, {
            "datatype": "collection",
            "name": "context"
        }],
        "contextObj": {
            "name": "segScheduledTransactions",
            "type": "templates",
            "platform": null,
            "KUID": "b6b635e824de4aa683ad3e773b3e8b76"
        },
        "language": "js",
        "actions": [{
            "id": "ADD_SNIPPET_ide_onClick_c29e62eb9e0b4f6eb42e4686afb23d2a",
            "type": "ADD_SNIPPET",
            "codeSnippet": "this.showSelectedRow();",
            "callbackType": null
        }]
    }
}