{
    "AS_Form_cd6e2a7338d24689b1ce044afb20bbce": {
        "id": "AS_Form_cd6e2a7338d24689b1ce044afb20bbce",
        "type": "ACTION_SEQUENCE",
        "params": [{
            "datatype": "collection",
            "name": "eventobject"
        }],
        "contextObj": {
            "type": "forms",
            "platform": null,
            "KUID": "bd60bcd5cc2045c0b96a76158d5137ff"
        },
        "language": "js",
        "actions": [{
            "id": "ADD_SNIPPET_ide_onDeviceBack_edc3d4c0176f4700bd7818333281f4d6",
            "type": "ADD_SNIPPET",
            "codeSnippet": "//Have to Consolidate\nkony.print(\"Back Button Pressed\");",
            "callbackType": null
        }]
    }
}