{
    "AS_Form_j032b3e7aca54e5a8342a195f4bccf4a": {
        "id": "AS_Form_j032b3e7aca54e5a8342a195f4bccf4a",
        "type": "ACTION_SEQUENCE",
        "params": [{
            "datatype": "collection",
            "name": "eventobject"
        }],
        "contextObj": {
            "name": "frmMultiFactorAuthentication",
            "type": "forms",
            "platform": "",
            "KUID": "d4e669fca40c45799f8b308d19049a1f"
        },
        "language": "js",
        "actions": [{
            "id": "ADD_SNIPPET__a849b34678ed4ee6805239dc4ece257e",
            "type": "ADD_SNIPPET",
            "codeSnippet": "this.frmMultiFactorAuthenticationPreShow();",
            "parentId": null,
            "callbackType": null
        }]
    }
}