{
    "AS_Form_h8d670f6e0d14698bb3195c385550beb": {
        "id": "AS_Form_h8d670f6e0d14698bb3195c385550beb",
        "type": "ACTION_SEQUENCE",
        "params": [{
            "datatype": "collection",
            "name": "eventobject"
        }],
        "contextObj": {
            "name": "frmPayDueAmount",
            "type": "forms",
            "platform": null,
            "KUID": "ba0b4f38b88d4ad7a2c69bb7d0d38c44"
        },
        "language": "js",
        "actions": [{
            "id": "ADD_SNIPPET_ide_init_i6e1bc2eb8f846d8bc153bcd83416369",
            "type": "ADD_SNIPPET",
            "codeSnippet": "this.initActions();",
            "callbackType": null
        }]
    }
}