{
    "AS_FlexContainer_c701f3a08e2045a992f4ac2763e54583": {
        "id": "AS_FlexContainer_c701f3a08e2045a992f4ac2763e54583",
        "type": "ACTION_SEQUENCE",
        "params": [{
            "datatype": "collection",
            "name": "eventobject"
        }],
        "contextObj": {
            "name": "frmConfirmAccountEur",
            "type": "forms",
            "platform": null,
            "KUID": "c1e84d4df00943fea19243d209ebb20d"
        },
        "language": "js",
        "actions": [{
            "id": "ADD_SNIPPET_ide_onClick_bfb35f34bfdf4a7caa6c2b580fe89d17",
            "type": "ADD_SNIPPET",
            "codeSnippet": "this.hideCancelPopup();",
            "callbackType": null
        }]
    }
}