{
    "AS_FlexContainer_g36141dcfbc94b8d99cf6bb71f09332a": {
        "id": "AS_FlexContainer_g36141dcfbc94b8d99cf6bb71f09332a",
        "type": "ACTION_SEQUENCE",
        "params": [{
            "datatype": "collection",
            "name": "eventobject"
        }],
        "contextObj": {
            "name": "frmAddExternalAccount",
            "type": "forms",
            "platform": "",
            "KUID": "g44e89ee0cb445b982945b6b358d77eb"
        },
        "language": "js",
        "actions": [{
            "id": "ADD_SNIPPET__b92ffea96c6149f9ae2ac5914e56e0cd",
            "type": "ADD_SNIPPET",
            "codeSnippet": "this.toggleCheckBox();",
            "parentId": null,
            "callbackType": null
        }]
    }
}