{
    "AS_Form_e987f36c12644412b4ec08b9729ce71e": {
        "id": "AS_Form_e987f36c12644412b4ec08b9729ce71e",
        "type": "ACTION_SEQUENCE",
        "params": [{
            "datatype": "collection",
            "name": "eventobject"
        }],
        "contextObj": {
            "name": "frmCustomerFeedbackSurvey",
            "type": "forms",
            "platform": "",
            "KUID": "ad9d39604a4348e1b3724c4bc446e1b4"
        },
        "language": "js",
        "actions": [{
            "id": "ADD_SNIPPET__e945b3c0f008462d898e87f41e3c2c37",
            "type": "ADD_SNIPPET",
            "codeSnippet": "this.postShowCustomerFeedbackSurvey();",
            "parentId": null,
            "callbackType": null
        }]
    }
}