{
    "AS_FlexContainer_gbe2ff18ffdc4cf3954294d790932b64": {
        "id": "AS_FlexContainer_gbe2ff18ffdc4cf3954294d790932b64",
        "type": "ACTION_SEQUENCE",
        "params": [{
            "datatype": "collection",
            "name": "eventobject"
        }, {
            "datatype": "collection",
            "name": "context"
        }],
        "contextObj": {
            "name": "segRecentTransfers",
            "type": "templates",
            "platform": null,
            "KUID": "ed5a7e30f33d4793b95c969aca19d5ff"
        },
        "language": "js",
        "actions": [{
            "id": "ADD_SNIPPET_ide_onClick_h395ff8ea8184257afebaaaeef6c0955",
            "type": "ADD_SNIPPET",
            "codeSnippet": "//this.pendingRowOnClick();",
            "callbackType": null
        }]
    }
}