{
    "AS_FlexContainer_aa5c4b29ddb74115a9fb2372f25f7832": {
        "id": "AS_FlexContainer_aa5c4b29ddb74115a9fb2372f25f7832",
        "type": "ACTION_SEQUENCE",
        "params": [{
            "datatype": "collection",
            "name": "eventobject"
        }],
        "contextObj": {
            "name": "frmCustomerFeedbackSurvey",
            "type": "forms",
            "platform": "",
            "KUID": "ad9d39604a4348e1b3724c4bc446e1b4"
        },
        "language": "js",
        "actions": [{
            "id": "ADD_SNIPPET__fc02bdf1093f4ef69e96a75b4f4fb23d",
            "type": "ADD_SNIPPET",
            "codeSnippet": "this.toggleCheckBox(this.view.FeedbackSurvey.imgcheckbox1);",
            "parentId": null,
            "callbackType": null
        }]
    }
}