{
    "AS_Form_bda60b6848af4f68935ccdb38556828b": {
        "id": "AS_Form_bda60b6848af4f68935ccdb38556828b",
        "type": "ACTION_SEQUENCE",
        "params": [{
            "datatype": "collection",
            "name": "eventobject"
        }],
        "contextObj": {
            "name": "frmMFAPreLogin",
            "type": "forms",
            "platform": "",
            "KUID": "g6936eecbf5e44be9acee20e0f91a337"
        },
        "language": "js",
        "actions": [{
            "id": "ADD_SNIPPET__if8fcafd8189493d8ae24ec338252d48",
            "type": "ADD_SNIPPET",
            "codeSnippet": "this.onPreShow();",
            "parentId": null,
            "callbackType": null
        }]
    }
}