{
    "AS_Form_e4877e7d3d684ee9b435116381302756": {
        "id": "AS_Form_e4877e7d3d684ee9b435116381302756",
        "type": "ACTION_SEQUENCE",
        "params": [{
            "datatype": "collection",
            "name": "eventobject"
        }],
        "contextObj": {
            "type": "forms",
            "platform": null,
            "KUID": "ce91c8ed58094b46825ffa2ecbf979d7"
        },
        "language": "js",
        "actions": [{
            "id": "ADD_SNIPPET_ide_preShow_aa93f5537e5041b38c8a1881ac02b5f9",
            "type": "ADD_SNIPPET",
            "codeSnippet": "this.initTabsActions();",
            "callbackType": null
        }]
    }
}