{
    "AS_FlexContainer_dffdd6b5a497421a8ef02e555a6ad96e": {
        "id": "AS_FlexContainer_dffdd6b5a497421a8ef02e555a6ad96e",
        "type": "ACTION_SEQUENCE",
        "params": [{
            "datatype": "collection",
            "name": "eventobject"
        }, {
            "datatype": "collection",
            "name": "context"
        }],
        "contextObj": {
            "name": "segPFMUnCategorizedTransactionsPFM",
            "type": "templates",
            "platform": "",
            "KUID": "eddae5a62c5d44e38de07faf4455a963"
        },
        "language": "js",
        "actions": [{
            "id": "ADD_SNIPPET__a1f5d5d9d34d444b873023ccd3d7adad",
            "type": "ADD_SNIPPET",
            "codeSnippet": "this.showSelectedRow();",
            "parentId": null,
            "callbackType": null
        }]
    }
}