{
    "AS_Form_g8d6a7805257485aa546a871bce54687": {
        "id": "AS_Form_g8d6a7805257485aa546a871bce54687",
        "type": "ACTION_SEQUENCE",
        "params": [{
            "datatype": "collection",
            "name": "eventobject"
        }],
        "contextObj": {
            "type": "forms",
            "platform": null,
            "KUID": "f373e26114dc459d857e321468336666"
        },
        "language": "js",
        "actions": [{
            "id": "ADD_SNIPPET_ide_init_f6ade3cb64f345ffbbf45e2eb620a916",
            "type": "ADD_SNIPPET",
            "codeSnippet": "this.initActions();",
            "callbackType": null
        }]
    }
}