{
    "AS_FlexContainer_c789b430475b41c9a7c62332877e3d67": {
        "id": "AS_FlexContainer_c789b430475b41c9a7c62332877e3d67",
        "type": "ACTION_SEQUENCE",
        "params": [{
            "datatype": "collection",
            "name": "eventobject"
        }],
        "contextObj": {
            "name": "frmAccountsLanding",
            "type": "forms",
            "platform": "",
            "KUID": "c0567b2e5ece4b0cbbe1b35e3c8f3103"
        },
        "language": "js",
        "actions": [{
            "id": "NAVIGATE_TO_FORM___c806e0971f1d41a883c5d64c895d1927",
            "type": "NAVIGATE_TO_FORM",
            "formId": "frmBillPay",
            "friendlyName": "frmBillPay",
            "formKUID": "h754f638fe6d4c56aac376a2f3adf18b",
            "mappings": {},
            "mappingsOrder": [],
            "parentId": "",
            "callbackType": null,
            "enableMappingEditor": true,
            "package": "BillPayModule",
            "navigationObj": "{\n    \"_meta_\": {\n        \"eventName\": \"\",\n        \"widgetId\": \"\"\n    }\n}",
            "isCustomInput": false
        }]
    }
}