{
    "AS_FlexContainer_c98a0c9ab7554f54aa5e42f32c47b2ef": {
        "id": "AS_FlexContainer_c98a0c9ab7554f54aa5e42f32c47b2ef",
        "type": "ACTION_SEQUENCE",
        "params": [{
            "datatype": "collection",
            "name": "eventobject"
        }, {
            "datatype": "collection",
            "name": "context"
        }],
        "contextObj": {
            "name": "segAccountListItemMobile",
            "type": "templates",
            "platform": null,
            "KUID": "d6b7f503e0954286bfbdc57e5b3b80e2"
        },
        "language": "js",
        "actions": [{
            "id": "ADD_SNIPPET_ide_onClick_dc7b0ab6432c4b0399e9258644a57941",
            "type": "ADD_SNIPPET",
            "codeSnippet": "// var ntf = new kony.mvc.Navigation(\"frmAccountsDetails\");\n// ntf.navigate();\nthis.accountPressed();",
            "callbackType": null
        }]
    }
}