{
    "AS_Form_e59049cf0c6c4e9aa0bd936243e5ba03": {
        "id": "AS_Form_e59049cf0c6c4e9aa0bd936243e5ba03",
        "type": "ACTION_SEQUENCE",
        "params": [{
            "datatype": "collection",
            "name": "eventobject"
        }],
        "contextObj": {
            "name": "frmVerifyAccountEur",
            "type": "forms",
            "platform": "",
            "KUID": "d08cbd7c9fea4b6f9ee1ef5e73e4d3c9"
        },
        "language": "js",
        "actions": [{
            "id": "ADD_SNIPPET__c29e16f6d1044285822afb586eafbe03",
            "type": "ADD_SNIPPET",
            "codeSnippet": "this.postShowVerifyAccount();",
            "parentId": null,
            "callbackType": null
        }]
    }
}