{
    "AS_FlexContainer_dc9f4b0134b7484d9019e032db9c1176": {
        "id": "AS_FlexContainer_dc9f4b0134b7484d9019e032db9c1176",
        "type": "ACTION_SEQUENCE",
        "params": [{
            "datatype": "collection",
            "name": "eventobject"
        }],
        "contextObj": {
            "type": "forms",
            "platform": null,
            "KUID": "e4fe1a12814546a2a3fe8fae1a02d68d"
        },
        "language": "js",
        "actions": [{
            "id": "ADD_SNIPPET_ide_onClick_f778ae9e88c048d5be10fd06bffa4c8e",
            "type": "ADD_SNIPPET",
            "codeSnippet": "this.showUserActions();",
            "callbackType": null
        }]
    }
}