{
    "AS_Form_j65feee81194476c97341e7afd896acc": {
        "id": "AS_Form_j65feee81194476c97341e7afd896acc",
        "type": "ACTION_SEQUENCE",
        "params": [{
            "datatype": "collection",
            "name": "eventobject"
        }],
        "contextObj": {
            "name": "frmTransfers",
            "type": "forms",
            "platform": "",
            "KUID": "e9f47be88ab64765a96b1fae7d2a7720"
        },
        "language": "js",
        "actions": [{
            "id": "ADD_SNIPPET__fe79dc7dbb324212ac0fd196fb975fbd",
            "type": "ADD_SNIPPET",
            "codeSnippet": "this.initActions();",
            "parentId": null,
            "callbackType": null
        }]
    }
}