{
    "AS_FlexContainer_d0faaf39dde34dffa747a963c186a85c": {
        "id": "AS_FlexContainer_d0faaf39dde34dffa747a963c186a85c",
        "type": "ACTION_SEQUENCE",
        "params": [{
            "datatype": "collection",
            "name": "eventobject"
        }, {
            "datatype": "collection",
            "name": "context"
        }],
        "language": "js",
        "actions": [{
            "id": "ADD_SNIPPET_ide_onClick_ca1284e1be494751817736c6d4f8130d",
            "type": "ADD_SNIPPET",
            "codeSnippet": "this.showSelectedRow();",
            "callbackType": null
        }]
    }
}