{
    "AS_Form_db7d2c00709448119ad5e593e1219416": {
        "id": "AS_Form_db7d2c00709448119ad5e593e1219416",
        "type": "ACTION_SEQUENCE",
        "params": [{
            "datatype": "collection",
            "name": "eventobject"
        }],
        "contextObj": {
            "name": "frmAddInternalAccount",
            "type": "forms",
            "platform": "",
            "KUID": "i0c7320b49fe40e1a3a168c136395e15"
        },
        "language": "js",
        "actions": [{
            "id": "ADD_SNIPPET__da115fd4a5ce442d9b3153aa2e57165e",
            "type": "ADD_SNIPPET",
            "codeSnippet": "this.postShowAddInternalAccount();",
            "parentId": null,
            "callbackType": null
        }]
    }
}