{
    "AS_FlexContainer_a5e5e23688d84f8bba3c8371de3d73e3": {
        "id": "AS_FlexContainer_a5e5e23688d84f8bba3c8371de3d73e3",
        "type": "ACTION_SEQUENCE",
        "params": [{
            "datatype": "collection",
            "name": "eventobject"
        }, {
            "datatype": "collection",
            "name": "context"
        }],
        "contextObj": {
            "type": "templates",
            "platform": "",
            "KUID": "f64697f671be4a3f8636c4d0f78359ee"
        },
        "language": "js",
        "actions": [{
            "id": "ADD_SNIPPET__g502c11de7eb4568a1e55d85606d39fd",
            "type": "ADD_SNIPPET",
            "codeSnippet": "var index = kony.application.getCurrentForm().settings.segPhoneNumbers.selectedIndex[1];   \nvar data = kony.application.getCurrentForm().settings.segPhoneNumbers.data;\n        for(i=0;i<data.length;i++)\n         {\n           if(i==index)\n             {\n               if(data[i].imgCheckBox4 === \"checked_box.png\")\n                 data[i].imgCheckBox4 = \"unchecked_box.png\";\n               else\n                 data[i].imgCheckBox4 = \"checked_box.png\";\n             }  \n      \tkony.application.getCurrentForm().settings.segPhoneNumbers.setData(data);\n        }",
            "parentId": null,
            "callbackType": null
        }]
    }
}