{
    "AS_FlexContainer_be04008bdf614805b9fb71e7910f9c5d": {
        "id": "AS_FlexContainer_be04008bdf614805b9fb71e7910f9c5d",
        "type": "ACTION_SEQUENCE",
        "params": [{
            "datatype": "collection",
            "name": "eventobject"
        }],
        "contextObj": {
            "name": "frmAccountsDetails",
            "type": "forms",
            "platform": "",
            "KUID": "f22d64f7cb454ad980b530de61c4240a"
        },
        "language": "js",
        "actions": [{
            "id": "NAVIGATE_TO_FORM___h8e685ab6160437aab70d0a9a5f58c30",
            "type": "NAVIGATE_TO_FORM",
            "formId": "frmBillPay",
            "friendlyName": "frmBillPay",
            "formKUID": "h754f638fe6d4c56aac376a2f3adf18b",
            "mappings": {},
            "mappingsOrder": [],
            "parentId": "",
            "callbackType": null,
            "enableMappingEditor": true,
            "package": "BillPayModule",
            "navigationObj": "{\n    \"_meta_\": {\n        \"eventName\": \"\",\n        \"widgetId\": \"\"\n    }\n}",
            "isCustomInput": false
        }]
    }
}