{
    "AS_FlexContainer_ie725f68c2314edfa59b7dd8544c939f": {
        "id": "AS_FlexContainer_ie725f68c2314edfa59b7dd8544c939f",
        "type": "ACTION_SEQUENCE",
        "params": [{
            "datatype": "collection",
            "name": "eventobject"
        }, {
            "datatype": "collection",
            "name": "context"
        }],
        "language": "js",
        "actions": [{
            "id": "ADD_SNIPPET_ide_onClick_cbd81dfb932c4dd8943356d57b936aa7",
            "type": "ADD_SNIPPET",
            "codeSnippet": "this.showSelectedRow();",
            "callbackType": null
        }]
    }
}