{
    "AS_FlexContainer_e6dd93510126461a99dedae2610730c7": {
        "id": "AS_FlexContainer_e6dd93510126461a99dedae2610730c7",
        "type": "ACTION_SEQUENCE",
        "params": [{
            "datatype": "collection",
            "name": "eventobject"
        }, {
            "datatype": "collection",
            "name": "context"
        }],
        "contextObj": {
            "KUID": "c7751ca2de9c424e8920920c1d369fd1",
            "name": "segBBSearchRoles",
            "platform": "",
            "type": "templates"
        },
        "language": "js",
        "actions": [{
            "id": "ADD_SNIPPET__b4bdee9eb2914c95a1b047c336428d9f",
            "type": "ADD_SNIPPET",
            "codeSnippet": "this.executeOnParent(\"SelectedRole\");",
            "parentId": null,
            "callbackType": null
        }]
    }
}