{
    "AS_Form_f5c1936b7247464992e6fcda14af1ceb": {
        "id": "AS_Form_f5c1936b7247464992e6fcda14af1ceb",
        "type": "ACTION_SEQUENCE",
        "params": [{
            "datatype": "collection",
            "name": "eventobject"
        }],
        "contextObj": {
            "name": "frmBillPay",
            "type": "forms",
            "platform": "",
            "KUID": "h754f638fe6d4c56aac376a2f3adf18b"
        },
        "language": "js",
        "actions": [{
            "id": "ADD_SNIPPET__fccf0bad6b274474b8ddc8e59b898c68",
            "type": "ADD_SNIPPET",
            "codeSnippet": "this.loadMyPaymentAccountsData();",
            "parentId": null,
            "callbackType": null
        }]
    }
}