{
    "AS_FlexContainer_d9088cd1c11b44f58f56901edbbd7da0": {
        "id": "AS_FlexContainer_d9088cd1c11b44f58f56901edbbd7da0",
        "type": "ACTION_SEQUENCE",
        "params": [{
            "datatype": "collection",
            "name": "eventobject"
        }, {
            "datatype": "collection",
            "name": "context"
        }],
        "contextObj": {
            "name": "segExternalAccountsTransfersEdit",
            "type": "templates",
            "platform": null,
            "KUID": "jb64c14da60f45c1b572828ff4d8f399"
        },
        "language": "js",
        "actions": [{
            "id": "ADD_SNIPPET_ide_onClick_ea854526227a4d67b66424f6c6c9ba43",
            "type": "ADD_SNIPPET",
            "codeSnippet": "//this.pendingRowOnClick();",
            "callbackType": null
        }]
    }
}