{
    "AS_FlexContainer_a683e6d690e34c35bba13341b1b0cf6d": {
        "id": "AS_FlexContainer_a683e6d690e34c35bba13341b1b0cf6d",
        "type": "ACTION_SEQUENCE",
        "params": [{
            "datatype": "collection",
            "name": "eventobject"
        }, {
            "datatype": "collection",
            "name": "context"
        }],
        "contextObj": {
            "name": "segScheduledTransactionsMobile",
            "type": "templates",
            "platform": null,
            "KUID": "bae7408ae3fe4ed592d5dc4e47198409"
        },
        "language": "js",
        "actions": [{
            "id": "ADD_SNIPPET_ide_onClick_cfc2c4217069497ca9db77583e48b42c",
            "type": "ADD_SNIPPET",
            "codeSnippet": "this.showSelectedRow();",
            "callbackType": null
        }]
    }
}