{
    "AS_Image_i03d00e0dde34616bc7e086ce66078b8": {
        "id": "AS_Image_i03d00e0dde34616bc7e086ce66078b8",
        "type": "ACTION_SEQUENCE",
        "params": [{
            "datatype": "collection",
            "name": "eventobject"
        }, {
            "datatype": "string",
            "name": "x"
        }, {
            "datatype": "string",
            "name": "y"
        }],
        "contextObj": {
            "name": "segViewsAndFilters",
            "type": "templates",
            "platform": "",
            "KUID": "c83572d6e5864945826128e2eea50854"
        },
        "language": "js",
        "actions": [{
            "id": "ADD_SNIPPET__d036c230b6fd49259f2a1b19011b45c7",
            "type": "ADD_SNIPPET",
            "codeSnippet": "this.segToggleCheckBox();",
            "parentId": null,
            "callbackType": null
        }]
    }
}