{
    "AS_Image_i0ec1376551b495583118a8117909108": {
        "id": "AS_Image_i0ec1376551b495583118a8117909108",
        "type": "ACTION_SEQUENCE",
        "params": [{
            "datatype": "collection",
            "name": "eventobject"
        }, {
            "datatype": "string",
            "name": "x"
        }, {
            "datatype": "string",
            "name": "y"
        }, {
            "datatype": "collection",
            "name": "context"
        }],
        "contextObj": {
            "name": "segExternalAccountsTransfersSelected",
            "type": "templates",
            "platform": "",
            "KUID": "fe5456b065724018ae2969ab450fb1ca"
        },
        "language": "js",
        "actions": [{
            "id": "ADD_SNIPPET__b7a5d4d54fe34427b061be5250348b75",
            "type": "ADD_SNIPPET",
            "codeSnippet": null,
            "parentId": null,
            "callbackType": null
        }]
    }
}