{
    "AS_ListBox_b9cca9df1f76452f8f86b1f98474fcac": {
        "id": "AS_ListBox_b9cca9df1f76452f8f86b1f98474fcac",
        "type": "ACTION_SEQUENCE",
        "params": [{
            "datatype": "collection",
            "name": "eventobject"
        }],
        "language": "js",
        "actions": [{
            "id": "ADD_SNIPPET_ide_onSelection_ec5039b0d9e543a48536e071527377e7",
            "type": "ADD_SNIPPET",
            "codeSnippet": "this.setNoOfDays();",
            "callbackType": null
        }]
    }
}