{
    "AS_ListBox_a151bf77cbd249baa25f07333703c31b": {
        "id": "AS_ListBox_a151bf77cbd249baa25f07333703c31b",
        "type": "ACTION_SEQUENCE",
        "params": [{
            "datatype": "collection",
            "name": "eventobject"
        }],
        "language": "js",
        "actions": [{
            "id": "ADD_SNIPPET_ide_onSelection_h681f4a747f6458da92002f0b861333e",
            "type": "ADD_SNIPPET",
            "codeSnippet": "this.setMonths();",
            "callbackType": null
        }]
    }
}