{
    "AS_Label_bb051568637b44f7b01c079c19d2cefa": {
        "id": "AS_Label_bb051568637b44f7b01c079c19d2cefa",
        "type": "ACTION_SEQUENCE",
        "params": [{
            "datatype": "collection",
            "name": "eventobject"
        }, {
            "datatype": "string",
            "name": "x"
        }, {
            "datatype": "string",
            "name": "y"
        }],
        "contextObj": {
            "name": "frmVerifyAccount",
            "type": "forms",
            "platform": "",
            "KUID": "cd9d334f742c4ef3addf06485fd42e4c"
        },
        "language": "js",
        "actions": [{
            "id": "ADD_SNIPPET__b98742e3673d4b709d4ebef1ac0d03e7",
            "type": "ADD_SNIPPET",
            "codeSnippet": null,
            "parentId": null,
            "callbackType": null
        }, {
            "id": "ADD_SNIPPET__d58099f99df34aeaa07e4ceab90d273f",
            "type": "ADD_SNIPPET",
            "codeSnippet": "this.setActionsOnCredential();",
            "parentId": null,
            "callbackType": null
        }]
    }
}