{
    "AS_ListBox_e99fbf2f89bf40e19385565189f48800": {
        "id": "AS_ListBox_e99fbf2f89bf40e19385565189f48800",
        "type": "ACTION_SEQUENCE",
        "params": [{
            "datatype": "collection",
            "name": "eventobject"
        }],
        "contextObj": {
            "type": "forms",
            "platform": null,
            "KUID": "ce91c8ed58094b46825ffa2ecbf979d7"
        },
        "language": "js",
        "actions": [{
            "id": "ADD_SNIPPET_ide_onSelection_f305212255654f7aadf3664b17fd8094",
            "type": "ADD_SNIPPET",
            "codeSnippet": "this.getFrequencyAndFormLayout();",
            "callbackType": null
        }]
    }
}