{
    "AS_Label_bf8f6b3c9e744371b2d69642561a70dc": {
        "id": "AS_Label_bf8f6b3c9e744371b2d69642561a70dc",
        "type": "ACTION_SEQUENCE",
        "params": [{
            "datatype": "collection",
            "name": "eventobject"
        }, {
            "datatype": "string",
            "name": "x"
        }, {
            "datatype": "string",
            "name": "y"
        }],
        "language": "js",
        "actions": [{
            "id": "ADD_SNIPPET_ide_onTouchEnd_jedfa5b8c7774b3492661b9ed853f7a2",
            "type": "ADD_SNIPPET",
            "codeSnippet": "this.showLanguageOptions();",
            "callbackType": null
        }]
    }
}