{
    "AS_RichText_g2d293cc3959446183981b708314c75d": {
        "id": "AS_RichText_g2d293cc3959446183981b708314c75d",
        "type": "ACTION_SEQUENCE",
        "params": [{
            "datatype": "collection",
            "name": "eventobject"
        }, {
            "datatype": "string",
            "name": "linktext"
        }, {
            "datatype": "string",
            "name": "attributes"
        }],
        "contextObj": {
            "name": "frmLogin",
            "type": "forms",
            "platform": "",
            "KUID": "j0329c6c64654440bf366abc8de81b74"
        },
        "language": "js",
        "actions": [{
            "id": "ADD_SNIPPET__c81ee9eb4b7146d389a2b83c1038558e",
            "type": "ADD_SNIPPET",
            "codeSnippet": "this.loginLater();",
            "parentId": null,
            "callbackType": null
        }]
    }
}