{
    "AS_RadioButtonGroup_e9b72a2ec3a14627bc638cbc1991d7d5": {
        "id": "AS_RadioButtonGroup_e9b72a2ec3a14627bc638cbc1991d7d5",
        "type": "ACTION_SEQUENCE",
        "params": [{
            "datatype": "collection",
            "name": "eventobject"
        }],
        "contextObj": {
            "type": "forms",
            "platform": null,
            "KUID": "e4fe1a12814546a2a3fe8fae1a02d68d"
        },
        "language": "js",
        "actions": [{
            "id": "ADD_SNIPPET_ide_onSelection_g50dbf69bc7e4ce99a2131f10baddf15",
            "type": "ADD_SNIPPET",
            "codeSnippet": "this.setActionsOnCredential();",
            "callbackType": null
        }]
    }
}