{
    "AS_TextField_bc75c114396748d98b8b2e6e3e31f6b6": {
        "id": "AS_TextField_bc75c114396748d98b8b2e6e3e31f6b6",
        "type": "ACTION_SEQUENCE",
        "params": [{
            "datatype": "collection",
            "name": "eventobject"
        }],
        "contextObj": {
            "type": "forms",
            "platform": "",
            "KUID": "i8ed287fcbf940a08ff5de5a2699eb8c"
        },
        "language": "js",
        "actions": [{
            "id": "ADD_SNIPPET__gf90fea84ecd4a6993b6083a09b9a579",
            "type": "ADD_SNIPPET",
            "codeSnippet": "this.enableSecureAccessCode(this.view.SecureAccessCode.tbxSecureAccessCode.text);",
            "parentId": null,
            "callbackType": null
        }]
    }
}