{
    "AS_TextField_b7f29dd0287f4b4d866f3973310f6fcc": {
        "id": "AS_TextField_b7f29dd0287f4b4d866f3973310f6fcc",
        "type": "ACTION_SEQUENCE",
        "params": [{
            "datatype": "collection",
            "name": "eventobject"
        }],
        "language": "js",
        "actions": []
    }
}