{
    "AS_TextField_e259cd73b9de4fe89457a77a3b72ce50": {
        "id": "AS_TextField_e259cd73b9de4fe89457a77a3b72ce50",
        "type": "ACTION_SEQUENCE",
        "params": [{
            "datatype": "collection",
            "name": "eventobject"
        }, {
            "datatype": "string",
            "name": "changedtext"
        }],
        "contextObj": {
            "name": "frmEnrollNow",
            "type": "forms",
            "platform": "",
            "KUID": "bd78051f2239477699cd5b3d036cf72a"
        },
        "language": "js",
        "actions": [{
            "id": "ADD_SNIPPET__f1d7b4f5d65641eb99ca425a0404c353",
            "type": "ADD_SNIPPET",
            "codeSnippet": "this.showRulesPassword();",
            "parentId": null,
            "callbackType": null
        }]
    }
}