{
    "AS_TextField_fb5c66c8971d4ca1aa909774cf826a78": {
        "id": "AS_TextField_fb5c66c8971d4ca1aa909774cf826a78",
        "type": "ACTION_SEQUENCE",
        "params": [{
            "datatype": "collection",
            "name": "eventobject"
        }],
        "contextObj": {
            "name": "frmAddExternalAccount",
            "type": "forms",
            "platform": "",
            "KUID": "g44e89ee0cb445b982945b6b358d77eb"
        },
        "language": "js",
        "actions": [{
            "id": "ADD_SNIPPET__af0f814c8e6247c29811c90eebc7105a",
            "type": "ADD_SNIPPET",
            "codeSnippet": "this.validateDomesticFields();",
            "parentId": null,
            "callbackType": null
        }]
    }
}