{
    "AS_TextField_f41816e12da442a58f2ac2c108aca45e": {
        "id": "AS_TextField_f41816e12da442a58f2ac2c108aca45e",
        "type": "ACTION_SEQUENCE",
        "params": [{
            "datatype": "collection",
            "name": "eventobject"
        }],
        "contextObj": {
            "name": "frmAddExternalAccount",
            "type": "forms",
            "platform": "",
            "KUID": "g44e89ee0cb445b982945b6b358d77eb"
        },
        "language": "js",
        "actions": [{
            "id": "ADD_SNIPPET__g04d926528da49e99cdfa03bc8471af2",
            "type": "ADD_SNIPPET",
            "codeSnippet": "this.validateDomesticFields();",
            "parentId": null,
            "callbackType": null
        }]
    }
}