{
    "AS_TextField_ba478deb5a4c49a395d74964d6dfb111": {
        "id": "AS_TextField_ba478deb5a4c49a395d74964d6dfb111",
        "type": "ACTION_SEQUENCE",
        "params": [{
            "datatype": "collection",
            "name": "eventobject"
        }, {
            "datatype": "string",
            "name": "changedtext"
        }],
        "contextObj": {
            "name": "frmLogin",
            "type": "forms",
            "platform": "",
            "KUID": "j0329c6c64654440bf366abc8de81b74"
        },
        "language": "js",
        "actions": [{
            "id": "ADD_SNIPPET__fe55d1bfb2b14b2ca3226b1e200ab490",
            "type": "ADD_SNIPPET",
            "codeSnippet": "this.showUserNameSuggestions(this.view.main.tbxUserName.text);",
            "parentId": null,
            "callbackType": null
        }]
    }
}