{
    "AS_TextField_g0a9591ca3ec40c98998386e235ff800": {
        "id": "AS_TextField_g0a9591ca3ec40c98998386e235ff800",
        "type": "ACTION_SEQUENCE",
        "params": [{
            "datatype": "collection",
            "name": "eventobject"
        }],
        "contextObj": {
            "name": "frmAddInternalAccount",
            "type": "forms",
            "platform": "",
            "KUID": "i0c7320b49fe40e1a3a168c136395e15"
        },
        "language": "js",
        "actions": [{
            "id": "ADD_SNIPPET__cf75981b376e4b8791ab4ee2a4f4aca1",
            "type": "ADD_SNIPPET",
            "codeSnippet": "this.validateInternalError();",
            "parentId": null,
            "callbackType": null
        }]
    }
}