{
    "AS_TextField_h0ccd99a0df34e0688de619fab48e2f8": {
        "id": "AS_TextField_h0ccd99a0df34e0688de619fab48e2f8",
        "type": "ACTION_SEQUENCE",
        "name": "AS_TextField_a9e0aefe38ad406794d7345663346d9d",
        "params": [{
            "datatype": "collection",
            "name": "eventobject"
        }, {
            "datatype": "string",
            "name": "changedtext"
        }],
        "contextObj": {
            "name": "frmPayDueAmount",
            "type": "forms",
            "platform": "",
            "KUID": "ba0b4f38b88d4ad7a2c69bb7d0d38c44"
        },
        "language": "js",
        "actions": [{
            "id": "ADD_SNIPPET__a0388220bb874541ba49c218b29ed246",
            "type": "ADD_SNIPPET",
            "codeSnippet": "this.textboxAmount();",
            "parentId": null,
            "callbackType": null
        }]
    }
}