{
    "AS_TextField_b5dc3e3032704332a3c1c9fe16d3ef90": {
        "id": "AS_TextField_b5dc3e3032704332a3c1c9fe16d3ef90",
        "type": "ACTION_SEQUENCE",
        "params": [{
            "datatype": "collection",
            "name": "eventobject"
        }],
        "contextObj": {
            "name": "frmEnrollNow",
            "type": "forms",
            "platform": "",
            "KUID": "bd78051f2239477699cd5b3d036cf72a"
        },
        "language": "js",
        "actions": [{
            "id": "ADD_SNIPPET__j1214402800a48eb885dc8eed8d4b206",
            "type": "ADD_SNIPPET",
            "codeSnippet": "this.ValidateUserName(this.view.newUsernamepasswordsetting.tbxNewUserName.text);\n",
            "parentId": null,
            "callbackType": null
        }]
    }
}