{
    "AS_TextField_fef60f6dfd0b4e02928bb2a0fa24be8d": {
        "id": "AS_TextField_fef60f6dfd0b4e02928bb2a0fa24be8d",
        "type": "ACTION_SEQUENCE",
        "params": [{
            "datatype": "collection",
            "name": "eventobject"
        }],
        "contextObj": {
            "name": "frmLogin",
            "type": "forms",
            "platform": "",
            "KUID": "j0329c6c64654440bf366abc8de81b74"
        },
        "language": "js",
        "actions": [{
            "id": "ADD_SNIPPET__d3b3fef763884cba871593b5d8cf9697",
            "type": "ADD_SNIPPET",
            "codeSnippet": "this.matchPwdKeyUp();",
            "parentId": null,
            "callbackType": null
        }]
    }
}