{
    "AS_TextField_i7a2f9fff1cf4f6f9aea38a563cd831e": {
        "id": "AS_TextField_i7a2f9fff1cf4f6f9aea38a563cd831e",
        "type": "ACTION_SEQUENCE",
        "params": [{
            "datatype": "collection",
            "name": "eventobject"
        }],
        "contextObj": {
            "type": "forms",
            "platform": null,
            "KUID": "f6d47ee3559a49b9a84a9fcd7d6fce64"
        },
        "language": "js",
        "actions": [{
            "id": "ADD_SNIPPET_ide_onKeyUp_ab1b69b466104af19b0370beb84eed57",
            "type": "ADD_SNIPPET",
            "codeSnippet": "this.validateInternalError();",
            "callbackType": null
        }]
    }
}