{
    "AS_TextField_i1eda8d705964324a13a91c7e0e4ad0d": {
        "id": "AS_TextField_i1eda8d705964324a13a91c7e0e4ad0d",
        "type": "ACTION_SEQUENCE",
        "params": [{
            "datatype": "collection",
            "name": "eventobject"
        }, {
            "datatype": "string",
            "name": "x"
        }, {
            "datatype": "string",
            "name": "y"
        }],
        "contextObj": {
            "name": "frmLogin",
            "type": "forms",
            "platform": "",
            "KUID": "j0329c6c64654440bf366abc8de81b74"
        },
        "language": "js",
        "actions": [{
            "id": "ADD_SNIPPET__a0a66881912146f4a35f91567c52742d",
            "type": "ADD_SNIPPET",
            "codeSnippet": "this.showUserNameSuggestions();",
            "parentId": null,
            "callbackType": null
        }]
    }
}