{
    "AS_TextField_idaa39ff1f8e4d50a953c1552792ac5c": {
        "id": "AS_TextField_idaa39ff1f8e4d50a953c1552792ac5c",
        "type": "ACTION_SEQUENCE",
        "params": [{
            "datatype": "collection",
            "name": "eventobject"
        }],
        "contextObj": {
            "name": "frmAddExternalAccountEur",
            "type": "forms",
            "platform": null,
            "KUID": "afe51522323e4a0c8857c1ef70ef41f4"
        },
        "language": "js",
        "actions": [{
            "id": "ADD_SNIPPET_ide_onKeyUp_e5a8e6ded8f84c07b910b03458315645",
            "type": "ADD_SNIPPET",
            "codeSnippet": "this.validateDomesticFields();",
            "callbackType": null
        }]
    }
}