{
    "AS_TextField_hd5ccc27ae66490d9d4c4d3d3c8b5d8f": {
        "id": "AS_TextField_hd5ccc27ae66490d9d4c4d3d3c8b5d8f",
        "type": "ACTION_SEQUENCE",
        "params": [{
            "datatype": "collection",
            "name": "eventobject"
        }],
        "contextObj": {
            "type": "forms",
            "platform": null,
            "KUID": "b4d3cf5fda1141e78858debbef0eb064"
        },
        "language": "js",
        "actions": [{
            "id": "ADD_SNIPPET_ide_onKeyUp_b4d749d3517747e5ad20d35fec3af745",
            "type": "ADD_SNIPPET",
            "codeSnippet": "this.validateInternationalFields();",
            "callbackType": null
        }]
    }
}