{
    "AS_UWI_iaa54da559b5411b820c53fb01981273": {
        "id": "AS_UWI_iaa54da559b5411b820c53fb01981273",
        "type": "ACTION_SEQUENCE",
        "params": [{
            "datatype": "collection",
            "name": "eventobject"
        }, {
            "datatype": "string",
            "name": "x"
        }, {
            "datatype": "string",
            "name": "y"
        }],
        "contextObj": {
            "name": "frmEnrollNow",
            "type": "forms",
            "platform": null,
            "KUID": "bd78051f2239477699cd5b3d036cf72a"
        },
        "language": "js",
        "actions": [{
            "id": "ADD_SNIPPET_ide_onTouchStart_ab2f61ad33bf4e288500dd70536ad463",
            "type": "ADD_SNIPPET",
            "codeSnippet": "this.showEnterCVVPage();",
            "callbackType": null
        }]
    }
}