{
    "@class": "com.kony.gen.viz.model.component.KVizUserWidget",
    "DNDConfig": null,
    "__parentReadjusting__": false,
    "_children_": [],
    "_height_": {
        "type": "ref",
        "value": "preferred"
    },
    "_left_": {
        "type": "string",
        "value": "0dp"
    },
    "_margin_": [
        0,
        0,
        0,
        0
    ],
    "_orientation_": 1,
    "_padding_": [
        0,
        0,
        0,
        0
    ],
    "_percent_": true,
    "_render_": true,
    "_skin_": "s24c92fc23b14f5484b693ee9b8a9b35",
    "_top_": {
        "type": "string",
        "value": "0dp"
    },
    "_width_": {
        "type": "string",
        "value": "100%"
    },
    "areflexpropsreferenced": false,
    "autogrowmode": 1,
    "canUpdateUI": true,
    "clipbounds": false,
    "containerweight": 0,
    "dataDiffs": {
        "AcknowledgementNAO": {
            "__events__": {},
            "__info__": {
                "isRoot": true,
                "kuid": "hd9b6b05aaf94e29ac766aed82bae451",
                "srcKUID": "faca8ed011c64776b0c1a2025401e834",
                "wType": "FlexContainer"
            }
        },
        "btnAckFundAccounts": {
            "__events__": {},
            "__info__": {
                "kuid": "e715c5e081da4ec3933c50bd62040c3b",
                "srcKUID": "af8868b108414b96a76e67c12c03ae62",
                "wType": "Button"
            },
            "centerX": {},
            "responsiveData": {
                "b4": {
                    "centerX": {
                        "type": "string",
                        "value": "50%"
                    },
                    "right": {
                        "type": "string",
                        "value": ""
                    },
                    "width": {
                        "type": "string",
                        "value": "92%"
                    }
                }
            },
            "right": {},
            "width": {}
        },
        "btnAckGoToAccounts": {
            "__events__": {},
            "__info__": {
                "kuid": "d3d17235a7b94457a27c5e0c75efc71e",
                "srcKUID": "dbe4a92ada7b4d9d894c2313887e3eaf",
                "wType": "Button"
            }
        },
        "btnAcknowledgementSeperator2": {
            "__events__": {},
            "__info__": {
                "kuid": "c7729754552945c99b610f9e4509d003",
                "srcKUID": "b1a832efffc5489ca01fb4fe06705025",
                "wType": "FlexContainer"
            }
        },
        "flxAcknowledgeWrapper": {
            "__events__": {},
            "__info__": {
                "kuid": "h1254f5ce1e849029f3819a32a49e60e",
                "srcKUID": "c85febdff72c4cee963d60392912bb03",
                "wType": "FlexContainer"
            },
            "bottom": {},
            "left": {},
            "responsiveData": {
                "b3": {
                    "bottom": {
                        "type": "string",
                        "value": "2dp"
                    },
                    "left": {
                        "type": "string",
                        "value": ""
                    },
                    "width": {
                        "type": "string",
                        "value": "99%"
                    }
                },
                "b4": {
                    "bottom": {
                        "type": "string",
                        "value": "2dp"
                    },
                    "top": {
                        "type": "string",
                        "value": "2dp"
                    },
                    "width": {
                        "type": "string",
                        "value": "99%"
                    }
                }
            },
            "top": {},
            "width": {}
        },
        "flxAcknowledgementButtons": {
            "__events__": {},
            "__info__": {
                "kuid": "b994794cf3be4f02bfeccae29383d116",
                "srcKUID": "h9a98c41d3164a07b4ef24652fa78a0c",
                "wType": "FlexContainer"
            }
        },
        "flxAcknowledgementMain": {
            "__events__": {},
            "__info__": {
                "kuid": "ja556991ab444b23918da954357db864",
                "srcKUID": "cbb0f61177c94bb8ad0ee66d000f51ad",
                "wType": "FlexContainer"
            }
        },
        "flxColorLine": {
            "__events__": {},
            "__info__": {
                "kuid": "d02a5ad71723402ea8fe6d41f392de14",
                "srcKUID": "c22c66c6f4b64ed5829b285cccf5c0d9",
                "wType": "FlexContainer"
            },
            "left": {},
            "responsiveData": {
                "b3": {
                    "left": {
                        "type": "string",
                        "value": "3dp"
                    }
                }
            }
        },
        "flxHeaderAcknowledgement": {
            "__events__": {},
            "__info__": {
                "kuid": "a74703b017d24950b88cdee0dad92ee3",
                "srcKUID": "hc261369067a44bf915245d352e77a1b",
                "wType": "FlexContainer"
            },
            "autogrowMode": {
                "Default": 0
            },
            "height": {
                "Default": {
                    "type": "string",
                    "value": "53dp"
                }
            },
            "responsiveData": {
                "b4": {
                    "isVisible": false
                }
            }
        },
        "flxSeparator": {
            "__events__": {},
            "__info__": {
                "kuid": "c86aea5acd864e29a6ff2005d1c66f0a",
                "srcKUID": "eec2bc5905f547d3b4160679cb66e477",
                "wType": "FlexContainer"
            }
        },
        "imgSuccess": {
            "__events__": {},
            "__info__": {
                "kuid": "bfce5d492e9f4571a49dffe396f2e925",
                "srcKUID": "dad4d10a114d47c59fe752baea5aa042",
                "wType": "Image"
            }
        },
        "lblAcknowledgementSeperator": {
            "__events__": {},
            "__info__": {
                "kuid": "i6987a44515944a2b05c4adc7528af25",
                "srcKUID": "c772489a48c144c9966d9d80e903be86",
                "wType": "Label"
            }
        },
        "lblProductsSelected": {
            "__events__": {},
            "__info__": {
                "kuid": "e63a6fac892847158f057a01fb322377",
                "srcKUID": "j3515797257f4aa28b34ed4d42a66a7f",
                "wType": "Label"
            }
        },
        "lblSuccess": {
            "__events__": {},
            "__info__": {
                "kuid": "e51f8a8bcf444b328d7ea4fe1d208dc9",
                "srcKUID": "a023e65e0437441f8aa72e74d033b5dd",
                "wType": "Label"
            },
            "responsiveData": {},
            "width": {
                "Default": {
                    "type": "string",
                    "value": "90%"
                }
            }
        },
        "lblUserInformation": {
            "__events__": {},
            "__info__": {
                "kuid": "f67a26fe06cf408284a0604fd8e92f2c",
                "srcKUID": "i1bfd0ef255c404b82be88a899ba22d0",
                "wType": "Label"
            },
            "left": {},
            "responsiveData": {
                "b3": {
                    "left": {
                        "type": "string",
                        "value": "3dp"
                    }
                }
            }
        },
        "segProducts": {
            "__events__": {},
            "__info__": {
                "kuid": "b865a1e1c71d482385aa68a6c16fb9c1",
                "srcKUID": "f14b06a704c048f28b9c82c60160e70b",
                "wType": "Segment"
            }
        }
    },
    "id": "AcknowledgementNAO",
    "info": null,
    "iscustomlayout": false,
    "isdatareferenced": false,
    "isvisible": true,
    "kuid": "hd9b6b05aaf94e29ac766aed82bae451",
    "layouttype": 4,
    "masterType": 0,
    "name": "kony.ui.UserWidgetInstance",
    "parent": "flxAcknowledgement",
    "pf": "frmNewUserOnboarding",
    "retaincontentalignment": false,
    "retainflexpositionproperties": false,
    "snaptogrid": true,
    "sourceUserWidget": "faca8ed011c64776b0c1a2025401e834",
    "vizprops": {
        "hidewidgethierarchy": false
    },
    "wType": "UserWidgetInstance"
}