{
    "@class": "com.kony.gen.viz.model.component.KVizUserWidget",
    "DNDConfig": null,
    "__parentReadjusting__": false,
    "_children_": [],
    "_height_": {
        "type": "ref",
        "value": "preferred"
    },
    "_left_": {
        "type": "string",
        "value": "0dp"
    },
    "_margin_": [
        0,
        0,
        0,
        0
    ],
    "_orientation_": 1,
    "_padding_": [
        0,
        0,
        0,
        0
    ],
    "_percent_": true,
    "_render_": true,
    "_skin_": "s24c92fc23b14f5484b693ee9b8a9b35",
    "_top_": {
        "type": "string",
        "value": "0dp"
    },
    "_width_": {
        "type": "string",
        "value": "100%"
    },
    "areflexpropsreferenced": false,
    "autogrowmode": 1,
    "canUpdateUI": true,
    "clipbounds": false,
    "containerweight": 0,
    "dataDiffs": {
        "CreateAccountUponAccountFound": {
            "__events__": {},
            "__info__": {
                "isRoot": true,
                "kuid": "f6b3be191a5243b4b7b52ebb35336173",
                "srcKUID": "b535168b7ede4e5c90ed05e23a89e45d",
                "wType": "FlexContainer"
            }
        },
        "btnCreateAccountEditPhoneNumber": {
            "__events__": {},
            "__info__": {
                "kuid": "dde1fbbfabdd4e8984c8546667270a3d",
                "srcKUID": "ddd4c63bfbb74824a20da1a8b9680eb9",
                "wType": "Button"
            },
            "centerX": {},
            "responsiveData": {
                "b4": {
                    "centerX": {
                        "type": "string",
                        "value": "50%"
                    },
                    "right": {
                        "type": "string",
                        "value": ""
                    },
                    "top": {
                        "type": "string",
                        "value": "90dp"
                    },
                    "width": {
                        "type": "string",
                        "value": "91%"
                    }
                }
            },
            "right": {},
            "top": {},
            "width": {}
        },
        "btnCreateAccountLogin": {
            "__events__": {},
            "__info__": {
                "kuid": "e90350bc9a0d4dd3ab9d5b127462f6de",
                "srcKUID": "a8683e81e7cc423f8d0814db07851eb7",
                "wType": "Button"
            },
            "centerX": {},
            "responsiveData": {
                "b4": {
                    "centerX": {
                        "type": "string",
                        "value": "50%"
                    },
                    "right": {
                        "type": "string",
                        "value": ""
                    },
                    "width": {
                        "type": "string",
                        "value": "91%"
                    }
                }
            },
            "right": {},
            "width": {}
        },
        "flxCreateAccount": {
            "__events__": {},
            "__info__": {
                "kuid": "b5837309b5c14288befaabde2e2e1f23",
                "srcKUID": "h6199ddc3af34100a7e0beb4e6dbd5bc",
                "wType": "FlexContainer"
            }
        },
        "flxCreateAccountButtons": {
            "__events__": {},
            "__info__": {
                "kuid": "eb7a2e4f022546418e2651e6ff1a5302",
                "srcKUID": "bf4c0aafdf3f498ebb891bb337af8b46",
                "wType": "FlexContainer"
            },
            "autogrowMode": {
                "Default": 0
            },
            "height": {},
            "responsiveData": {
                "b4": {
                    "height": {
                        "type": "string",
                        "value": "170px"
                    }
                }
            }
        },
        "flxCreateAccountError": {
            "__events__": {},
            "__info__": {
                "kuid": "ffee2e6c63534d1f959855242b8da857",
                "srcKUID": "h825abaa691249f3b8dd1675ac2dc0cd",
                "wType": "FlexContainer"
            }
        },
        "flxCreateAccountHeader": {
            "__events__": {},
            "__info__": {
                "kuid": "g0bab41b72ef46e280a18adce2d09f44",
                "srcKUID": "bd9d5c48aa0143f5ac47ffb858551232",
                "wType": "FlexContainer"
            },
            "responsiveData": {
                "b4": {
                    "isVisible": false
                }
            }
        },
        "flxCreateAccountHeading": {
            "__events__": {},
            "__info__": {
                "kuid": "a5380302310748b9887ac944315f7d72",
                "srcKUID": "d1d9188eec044ff689994c6526668092",
                "wType": "Label"
            }
        },
        "flxCreateAccountMessageBox": {
            "__events__": {},
            "__info__": {
                "kuid": "a27cd7193c634a1c866f3b13364e30db",
                "srcKUID": "i18878dcde6a42c1b804d0675b9d05ce",
                "wType": "FlexContainer"
            },
            "centerX": {},
            "left": {},
            "responsiveData": {
                "b4": {
                    "centerX": {
                        "type": "string",
                        "value": "50%"
                    },
                    "left": {
                        "type": "string",
                        "value": ""
                    }
                }
            }
        },
        "flxCreateAccountSeperator": {
            "__events__": {},
            "__info__": {
                "kuid": "jb940fcc0fb9461faf96bcbf816be880",
                "srcKUID": "f6fbfb46afe348229306f7eeb8af82d0",
                "wType": "FlexContainer"
            }
        },
        "flxCreateAccountSeperator3": {
            "__events__": {},
            "__info__": {
                "kuid": "e5a0db3a9dba4affbd55a6799d2344cb",
                "srcKUID": "c5f24888f0eb4d3aa33a485663a50efc",
                "wType": "FlexContainer"
            }
        },
        "flxflxCreateAccountContainer": {
            "__events__": {},
            "__info__": {
                "kuid": "aec2ec92ebe34d0ca7e66a6559adbcaa",
                "srcKUID": "b6779162834d499c9738561c15e5d5e7",
                "wType": "FlexContainer"
            },
            "responsiveData": {
                "b4": {
                    "layoutType": 4
                }
            }
        },
        "flxflxCreateAccountMain": {
            "__events__": {},
            "__info__": {
                "kuid": "a81be3c2129849e2bece379bf62767c5",
                "srcKUID": "d58b86755e69407db91a1631b0b4eca2",
                "wType": "FlexContainer"
            },
            "autogrowMode": {
                "Default": 0
            },
            "bottom": {},
            "centerX": {},
            "height": {
                "Default": {
                    "type": "string",
                    "value": "505dp"
                }
            },
            "left": {},
            "responsiveData": {
                "b3": {
                    "bottom": {
                        "type": "string",
                        "value": "2dp"
                    },
                    "centerX": {
                        "type": "string",
                        "value": "50%"
                    },
                    "left": {
                        "type": "string",
                        "value": ""
                    },
                    "top": {
                        "type": "string",
                        "value": "2dp"
                    },
                    "width": {
                        "type": "string",
                        "value": "99%"
                    }
                },
                "b4": {
                    "bottom": {
                        "type": "string",
                        "value": "2dp"
                    },
                    "height": {
                        "type": "string",
                        "value": "585dp"
                    },
                    "left": {
                        "type": "string",
                        "value": "3dp"
                    },
                    "width": {
                        "type": "string",
                        "value": "99%"
                    }
                }
            },
            "top": {},
            "width": {}
        },
        "flxflxCreateAccountimage": {
            "__events__": {},
            "__info__": {
                "kuid": "d74b1a2f1287483fbdf0907c3192f5a6",
                "srcKUID": "d99c1d740cde4510999c56124c0b8e6d",
                "wType": "FlexContainer"
            },
            "autogrowMode": {
                "Default": 0
            },
            "centerX": {},
            "height": {},
            "left": {},
            "responsiveData": {
                "b4": {
                    "centerX": {
                        "type": "string",
                        "value": "50%"
                    },
                    "height": {
                        "type": "string",
                        "value": "30%"
                    },
                    "left": {
                        "type": "string",
                        "value": ""
                    }
                }
            }
        },
        "imgCreateAccountError": {
            "__events__": {},
            "__info__": {
                "kuid": "e61471eae71442cd84ff2544786828a5",
                "srcKUID": "e0b5750d68f24512a50f775d0026ef93",
                "wType": "Image"
            }
        },
        "imgflxCreateAccount": {
            "__events__": {},
            "__info__": {
                "kuid": "d2a188e8b2fa452886e493c349eb25d8",
                "srcKUID": "adf72ca0cc96448a9015e438fdb0fc0c",
                "wType": "Image"
            }
        },
        "lblCreateAccountError": {
            "__events__": {},
            "__info__": {
                "kuid": "fde61fa44bd044ffa166c23e03159c73",
                "srcKUID": "d88902d80ef444d4af61aa1d391c637b",
                "wType": "Label"
            }
        },
        "lblCreateAccountMessage": {
            "__events__": {},
            "__info__": {
                "kuid": "b25e823041154994849f8f45cf3089b0",
                "srcKUID": "eeed366eb2934e508ebbb89793eff82d",
                "wType": "Label"
            },
            "centerX": {},
            "left": {},
            "responsiveData": {
                "b4": {
                    "centerX": {
                        "type": "string",
                        "value": "50%"
                    },
                    "left": {
                        "type": "string",
                        "value": ""
                    },
                    "width": {
                        "type": "ref",
                        "value": "preferred"
                    }
                }
            },
            "width": {
                "Default": {
                    "type": "string",
                    "value": "80%"
                }
            }
        },
        "lblCreateAccountMessageQuestion": {
            "__events__": {},
            "__info__": {
                "kuid": "a334eb083afc4446816697c97209fa2f",
                "srcKUID": "e84146507909475aab01e5340d82c9f0",
                "wType": "Label"
            },
            "centerX": {},
            "height": {},
            "left": {},
            "responsiveData": {
                "b4": {
                    "centerX": {
                        "type": "string",
                        "value": "50%"
                    },
                    "height": {
                        "type": "ref",
                        "value": "preferred"
                    },
                    "left": {
                        "type": "string",
                        "value": ""
                    },
                    "width": {
                        "type": "string",
                        "value": "100%"
                    }
                }
            },
            "width": {
                "Default": {
                    "type": "string",
                    "value": "80%"
                }
            }
        }
    },
    "id": "CreateAccountUponAccountFound",
    "info": null,
    "iscustomlayout": false,
    "isdatareferenced": false,
    "isvisible": true,
    "kuid": "f6b3be191a5243b4b7b52ebb35336173",
    "layouttype": 2,
    "masterType": 0,
    "name": "kony.ui.UserWidgetInstance",
    "parent": "flxCreateAccountUponAccountFound",
    "pf": "frmNewUserOnboarding",
    "retaincontentalignment": false,
    "retainflexpositionproperties": false,
    "snaptogrid": true,
    "sourceUserWidget": "b535168b7ede4e5c90ed05e23a89e45d",
    "vizprops": {
        "hidewidgethierarchy": false
    },
    "wType": "UserWidgetInstance"
}