{
    "DNDConfig": null,
    "__parentReadjusting__": false,
    "_height_": {
        "type": "ref",
        "value": "preferred"
    },
    "_left_": {
        "type": "number",
        "value": ""
    },
    "_margin_": [
        0,
        0,
        0,
        0
    ],
    "_orientation_": 6,
    "_padding_": [
        0,
        0,
        0,
        0
    ],
    "_percent_": true,
    "_right_": {
        "type": "number",
        "value": ""
    },
    "_skin_": "scbd4cac3526468089bf3013adff0549",
    "_top_": {
        "type": "string",
        "value": "0dp"
    },
    "_width_": {
        "type": "string",
        "value": "794dp"
    },
    "allboxes": [],
    "autogrowmode": 1,
    "canUpdateUI": true,
    "centerx": {
        "type": "string",
        "value": "35%"
    },
    "children": [
        "flxEnterSecureAccessCode",
        "flxChooseEligibilityCriteria",
        "flxUploadSignature",
        "flxCreateUsernamePassowrd",
        "flxEnterUsernamePassword",
        "flxCreateAccountUponAccountFound",
        "flxSendOTP",
        "flxUploadDocFromPhoneOrComputer",
        "flxIdentityVerification",
        "flxUserInformationForm",
        "flxIdentityVerificationQuestions",
        "flxUploadDocuments",
        "flxDigitalSignature",
        "flxFinancialInformation",
        "flxEmploymentInformation",
        "flxReviewApplication",
        "flxDigitalSignatureSelectionMode",
        "flxAcknowledgement",
        "flxReEnterPassword",
        "flxCreditCheckError",
        "flxOpenNewAccount",
        "flxAccountsView",
        "flxAccounts"
    ],
    "clipbounds": false,
    "containerweight": 100,
    "enablescrolling": true,
    "id": "flxMainLeftContainers",
    "info": null,
    "isvisible": true,
    "kuid": "be40ad2f51164a0dbe83326422ead25a",
    "layouttype": 4,
    "name": "kony.ui.FlexContainer",
    "parent": "flxMainContainer",
    "pf": "frmNewUserOnboarding",
    "responsiveData": {
        "b1": {
            "isVisible": true
        },
        "b2": {
            "width": {
                "type": "string",
                "value": "58%"
            }
        },
        "b3": {
            "centerX": {
                "type": "string",
                "value": ""
            },
            "left": {
                "type": "string",
                "value": "24dp"
            },
            "width": {
                "type": "string",
                "value": "93.50%"
            }
        },
        "b4": {
            "centerX": {
                "type": "string",
                "value": ""
            },
            "left": {
                "type": "string",
                "value": "10dp"
            },
            "right": {
                "type": "string",
                "value": ""
            },
            "width": {
                "type": "string",
                "value": "96.50%"
            }
        }
    },
    "snapgridsize": 10,
    "snaptogrid": true,
    "wType": "FlexContainer",
    "widgetalignment": 1,
    "zindex": 1
}