{
    "@class": "com.kony.gen.viz.model.component.KVizRichText",
    "DNDConfig": null,
    "__parentReadjusting__": false,
    "_height_": {
        "type": "ref",
        "value": "preferred"
    },
    "_left_": {
        "type": "string",
        "value": "123dp"
    },
    "_margin_": [
        0,
        0,
        0,
        0
    ],
    "_padding_": [
        0,
        0,
        0,
        0
    ],
    "_skin_": "sc4cc30bc71442ee9f8b2e9230a973fa",
    "_text_": "Your username & password created successfully. Select products from below list to add to your account. \n",
    "_width_": {
        "type": "string",
        "value": "80%"
    },
    "_wrapping_": 2,
    "accessibilityconfig": {
        "a11yLabel": "Your username & password created successfully. Select  products to add \nto your account."
    },
    "canUpdateUI": true,
    "centery": {
        "type": "string",
        "value": "62%"
    },
    "containerweight": 100,
    "contentalignment": 4,
    "id": "rtxWelcomeMessage",
    "info": null,
    "isvisible": true,
    "kuid": "b4ffd141f51a4536828b0c6f0cd1e213",
    "name": "kony.ui.RichText",
    "parent": "flxWelcomeMessage",
    "pf": "frmNewUserOnboarding",
    "responsiveData": {
        "b4": {
            "left": {
                "type": "string",
                "value": "20%"
            }
        }
    },
    "wType": "RichText",
    "widgetalignment": 5,
    "zindex": 1
}