{
    "DNDConfig": null,
    "__parentReadjusting__": false,
    "_bottom_": {
        "type": "string",
        "value": "20px"
    },
    "_height_": {
        "type": "string",
        "value": "62dp"
    },
    "_left_": {
        "type": "string",
        "value": "225dp"
    },
    "_margin_": [
        0,
        0,
        0,
        0
    ],
    "_orientation_": 6,
    "_padding_": [
        0,
        0,
        0,
        0
    ],
    "_percent_": true,
    "_right_": {
        "type": "string",
        "value": "20px"
    },
    "_skin_": "sbe52107bd884a69a67a8daccf8721da",
    "_top_": {
        "type": "string",
        "value": "20dp"
    },
    "allboxes": [],
    "autogrowmode": 0,
    "canUpdateUI": true,
    "children": [
        "rtxAlertsWarning",
        "imgAlertsWarningImage",
        "lblAlertsWarningImage"
    ],
    "clipbounds": true,
    "containerweight": 100,
    "enablescrolling": true,
    "id": "flxAlertsWarningWrapper",
    "info": null,
    "isvisible": true,
    "kuid": "a06964f73e6845338b41afce461433d7",
    "layouttype": 2,
    "name": "kony.ui.FlexContainer",
    "parent": "flxAlertsWarning",
    "pf": "userwidgetmodel",
    "snapgridsize": 10,
    "snaptogrid": true,
    "wType": "FlexContainer",
    "widgetalignment": 1,
    "zindex": 1
}