{
  "operationConfig" : {
    "name" : "GetCardsForAdmin1780",
    "type" : "MappedToBackend",
    "cachable" : false,
    "smsEnabled" : false,
    "security" : "authorized_app_user",
    "responseEncoding" : "UTF-8",
    "httpMethod" : "GET",
    "decodeResponseBody" : false,
    "iMapping" : "<?xml version=\"1.0\" encoding=\"UTF-8\" standalone=\"yes\"?><mapper xmlns=\"http://www.kony.com/ns/mapper\"><map inputpath=\"request_in\" outputpath=\"request_out\"><set-param inputpath=\"userName\" outputpath=\"userName\"/></map></mapper>",
    "oMapping" : "<?xml version=\"1.0\" encoding=\"UTF-8\" standalone=\"yes\"?><mapper xmlns=\"http://www.kony.com/ns/mapper\">                <map inputpath=\"response_in\" outputpath=\"response_out\">                                <map inputpath=\"card\" outputpath=\"Cards\">                                                <set-param inputpath=\"action\" outputpath=\"Action\"/>                                                <set-param inputpath=\"cardHolderName\" outputpath=\"cardHolderName\"/>                                                <set-param inputpath=\"Id\" outputpath=\"cardId\"/>                                                <set-param inputpath=\"cardNumber\" outputpath=\"cardNumber\"/>                                                <set-param inputpath=\"card_Status\" outputpath=\"cardStatus\"/>                                                <set-param inputpath=\"cardType\" outputpath=\"cardType\"/>                                                <set-param inputpath=\"expirationDate\" outputpath=\"expiryDate\"/>                                                <set-param inputpath=\"reason\" outputpath=\"Reason\"/>                                                <set-param inputpath=\"User_id\" outputpath=\"userId\"/>                                                <set-param inputpath=\"creditLimit\" outputpath=\"creditLimit\"/>                                                <set-param inputpath=\"availableCredit\" outputpath=\"availableCredit\"/>                                                <set-param inputpath=\"serviceProvider\" outputpath=\"serviceProvider\"/>                                                <set-param inputpath=\"billingAddress\" outputpath=\"billingAddress\"/>                                                <set-param inputpath=\"cardProductName\" outputpath=\"cardProductName\"/>                                                <set-param inputpath=\"secondaryCardHolder\" outputpath=\"secondaryCardHolder\"/>                                                <set-param inputpath=\"withdrawlLimit\" outputpath=\"withdrawlLimit\"/>                                                <set-param inputpath=\"account_id\" outputpath=\"accountNumber\"/>                                                <set-param inputpath=\"accountName\" outputpath=\"accountName\"/>                                                <set-param inputpath=\"maskedAccountNumber\" outputpath=\"maskedAccountNumber\"/>                                                <set-param inputpath=\"maskedCardNumber\" outputpath=\"maskedCardNumber\"/>                                              <set-param inputpath=\"isInternational\" outputpath=\"isInternational\"/>            \t        <set-param inputpath=\"CurrentDueAmount\" outputpath=\"currentDueAmount\"/>  \t        <set-param inputpath=\"currentDueDate\" outputpath=\"currentDueDate\"/>  \t        <set-param inputpath=\"issuedOn\" outputpath=\"issuedOn\"/>  \t        <set-param inputpath=\"lastPaymentDate\" outputpath=\"lastPaymentDate\"/>  \t        <set-param inputpath=\"interestRate\" outputpath=\"interestRate\"/>  \t        <set-param inputpath=\"minimumDueAmount\" outputpath=\"minimumDueAmount\"/>  \t        <set-param inputpath=\"requestCount\" outputpath=\"requestCount\"/>  \t        <set-param inputpath=\"notificationCount\" outputpath=\"notificationCount\"/>  \t        <set-param inputpath=\"currentBalance\" outputpath=\"currentBalance\"/>  \t        <set-param inputpath=\"rewardPointBalance\" outputpath=\"rewardPointBalance\"/>  \t        <set-param inputpath=\"lastStatementPayment\" outputpath=\"lastStatementPayment\"/>  \t        <set-param inputpath=\"lastStatementBalance\" outputpath=\"lastStatementBalance\"/>  \t        <set-param inputpath=\"username\" outputpath=\"username\"/>                </map>                </map></mapper>",
    "oVisualMappingData" : "{\"nodeDataArray\":[{\"isGroup\":true,\"key\":\"response_out\",\"text\":\"Cards\",\"xy\":\"770 100\",\"__gohashid\":26081},{\"isGroup\":true,\"key\":\"response_in\",\"text\":\"dbpRbLocalServicesJava (1.0).GetCardsForAdmin\",\"xy\":\"150 100\",\"__gohashid\":26082}],\"linkDataArray\":[{\"from\":\"target\",\"to\":\"target:Cards\",\"fromPort\":\"target\",\"toPort\":\"target:Cards\",\"visible\":true,\"common\":false,\"__gohashid\":4078},{\"from\":\"target:Cards\",\"to\":\"target:Cards:fields\",\"fromPort\":\"target:Cards\",\"toPort\":\"target:Cards:fields\",\"visible\":true,\"common\":false,\"__gohashid\":4079},{\"from\":\"target:Cards:fields\",\"to\":\"target:Cards:accountId:\",\"fromPort\":\"target:Cards:fields\",\"toPort\":\"target:Cards:accountId:\",\"visible\":true,\"common\":false,\"__gohashid\":4080},{\"from\":\"target:Cards:fields\",\"to\":\"target:Cards:Action:\",\"fromPort\":\"target:Cards:fields\",\"toPort\":\"target:Cards:Action:\",\"visible\":true,\"common\":false,\"__gohashid\":4081},{\"from\":\"target:Cards:fields\",\"to\":\"target:Cards:cardHolderName:\",\"fromPort\":\"target:Cards:fields\",\"toPort\":\"target:Cards:cardHolderName:\",\"visible\":true,\"common\":false,\"__gohashid\":4082},{\"from\":\"target:Cards:fields\",\"to\":\"target:Cards:cardId:\",\"fromPort\":\"target:Cards:fields\",\"toPort\":\"target:Cards:cardId:\",\"visible\":true,\"common\":false,\"__gohashid\":4083},{\"from\":\"target:Cards:fields\",\"to\":\"target:Cards:cardNumber:\",\"fromPort\":\"target:Cards:fields\",\"toPort\":\"target:Cards:cardNumber:\",\"visible\":true,\"common\":false,\"__gohashid\":4084},{\"from\":\"target:Cards:fields\",\"to\":\"target:Cards:cardStatus:\",\"fromPort\":\"target:Cards:fields\",\"toPort\":\"target:Cards:cardStatus:\",\"visible\":true,\"common\":false,\"__gohashid\":4085},{\"from\":\"target:Cards:fields\",\"to\":\"target:Cards:cardType:\",\"fromPort\":\"target:Cards:fields\",\"toPort\":\"target:Cards:cardType:\",\"visible\":true,\"common\":false,\"__gohashid\":4086},{\"from\":\"target:Cards:fields\",\"to\":\"target:Cards:errmsg:\",\"fromPort\":\"target:Cards:fields\",\"toPort\":\"target:Cards:errmsg:\",\"visible\":true,\"common\":false,\"__gohashid\":4087},{\"from\":\"target:Cards:fields\",\"to\":\"target:Cards:expiryDate:\",\"fromPort\":\"target:Cards:fields\",\"toPort\":\"target:Cards:expiryDate:\",\"visible\":true,\"common\":false,\"__gohashid\":4088},{\"from\":\"target:Cards:fields\",\"to\":\"target:Cards:Reason:\",\"fromPort\":\"target:Cards:fields\",\"toPort\":\"target:Cards:Reason:\",\"visible\":true,\"common\":false,\"__gohashid\":4089},{\"from\":\"target:Cards:fields\",\"to\":\"target:Cards:success:\",\"fromPort\":\"target:Cards:fields\",\"toPort\":\"target:Cards:success:\",\"visible\":true,\"common\":false,\"__gohashid\":4090},{\"from\":\"target:Cards:fields\",\"to\":\"target:Cards:userId:\",\"fromPort\":\"target:Cards:fields\",\"toPort\":\"target:Cards:userId:\",\"visible\":true,\"common\":false,\"__gohashid\":4091},{\"from\":\"target:Cards:fields\",\"to\":\"target:Cards:userName:\",\"fromPort\":\"target:Cards:fields\",\"toPort\":\"target:Cards:userName:\",\"visible\":true,\"common\":false,\"__gohashid\":4092},{\"from\":\"target:Cards:fields\",\"to\":\"target:Cards:creditLimit:\",\"fromPort\":\"target:Cards:fields\",\"toPort\":\"target:Cards:creditLimit:\",\"visible\":true,\"common\":false,\"__gohashid\":4093},{\"from\":\"target:Cards:fields\",\"to\":\"target:Cards:availableCredit:\",\"fromPort\":\"target:Cards:fields\",\"toPort\":\"target:Cards:availableCredit:\",\"visible\":true,\"common\":false,\"__gohashid\":4094},{\"from\":\"target:Cards:fields\",\"to\":\"target:Cards:serviceProvider:\",\"fromPort\":\"target:Cards:fields\",\"toPort\":\"target:Cards:serviceProvider:\",\"visible\":true,\"common\":false,\"__gohashid\":4095},{\"from\":\"target:Cards:fields\",\"to\":\"target:Cards:billingAddress:\",\"fromPort\":\"target:Cards:fields\",\"toPort\":\"target:Cards:billingAddress:\",\"visible\":true,\"common\":false,\"__gohashid\":4096},{\"from\":\"target:Cards:fields\",\"to\":\"target:Cards:cardProductName:\",\"fromPort\":\"target:Cards:fields\",\"toPort\":\"target:Cards:cardProductName:\",\"visible\":true,\"common\":false,\"__gohashid\":4097},{\"from\":\"target:Cards:fields\",\"to\":\"target:Cards:secondaryCardHolder:\",\"fromPort\":\"target:Cards:fields\",\"toPort\":\"target:Cards:secondaryCardHolder:\",\"visible\":true,\"common\":false,\"__gohashid\":4098},{\"from\":\"target:Cards:fields\",\"to\":\"target:Cards:withdrawlLimit:\",\"fromPort\":\"target:Cards:fields\",\"toPort\":\"target:Cards:withdrawlLimit:\",\"visible\":true,\"common\":false,\"__gohashid\":4099},{\"from\":\"target:Cards:fields\",\"to\":\"target:Cards:accountNumber:\",\"fromPort\":\"target:Cards:fields\",\"toPort\":\"target:Cards:accountNumber:\",\"visible\":true,\"common\":false,\"__gohashid\":4100},{\"from\":\"target:Cards:fields\",\"to\":\"target:Cards:accountName:\",\"fromPort\":\"target:Cards:fields\",\"toPort\":\"target:Cards:accountName:\",\"visible\":true,\"common\":false,\"__gohashid\":4101},{\"from\":\"target:Cards:fields\",\"to\":\"target:Cards:maskedAccountNumber:\",\"fromPort\":\"target:Cards:fields\",\"toPort\":\"target:Cards:maskedAccountNumber:\",\"visible\":true,\"common\":false,\"__gohashid\":4102},{\"from\":\"target:Cards:fields\",\"to\":\"target:Cards:maskedCardNumber:\",\"fromPort\":\"target:Cards:fields\",\"toPort\":\"target:Cards:maskedCardNumber:\",\"visible\":true,\"common\":false,\"__gohashid\":4103},{\"from\":\"target:Cards:fields\",\"to\":\"target:Cards:isInternational:\",\"fromPort\":\"target:Cards:fields\",\"toPort\":\"target:Cards:isInternational:\",\"visible\":true,\"common\":false,\"__gohashid\":4104},{\"from\":\"target:Cards:fields\",\"to\":\"target:Cards:ids:\",\"fromPort\":\"target:Cards:fields\",\"toPort\":\"target:Cards:ids:\",\"visible\":true,\"common\":false,\"__gohashid\":4105},{\"from\":\"target:Cards:fields\",\"to\":\"target:Cards:Destinations:\",\"fromPort\":\"target:Cards:fields\",\"toPort\":\"target:Cards:Destinations:\",\"visible\":true,\"common\":false,\"__gohashid\":4106},{\"from\":\"target:Cards:fields\",\"to\":\"target:Cards:Cards:\",\"fromPort\":\"target:Cards:fields\",\"toPort\":\"target:Cards:Cards:\",\"visible\":true,\"common\":false,\"__gohashid\":4107},{\"from\":\"target:Cards:fields\",\"to\":\"target:Cards:Channel_id:\",\"fromPort\":\"target:Cards:fields\",\"toPort\":\"target:Cards:Channel_id:\",\"visible\":true,\"common\":false,\"__gohashid\":4108},{\"from\":\"target:Cards:fields\",\"to\":\"target:Cards:StartDate:\",\"fromPort\":\"target:Cards:fields\",\"toPort\":\"target:Cards:StartDate:\",\"visible\":true,\"common\":false,\"__gohashid\":4109},{\"from\":\"target:Cards:fields\",\"to\":\"target:Cards:EndDate:\",\"fromPort\":\"target:Cards:fields\",\"toPort\":\"target:Cards:EndDate:\",\"visible\":true,\"common\":false,\"__gohashid\":4110},{\"from\":\"target:Cards:fields\",\"to\":\"target:Cards:additionNotes:\",\"fromPort\":\"target:Cards:fields\",\"toPort\":\"target:Cards:additionNotes:\",\"visible\":true,\"common\":false,\"__gohashid\":4111},{\"from\":\"target:Cards:fields\",\"to\":\"target:Cards:phonenumber:\",\"fromPort\":\"target:Cards:fields\",\"toPort\":\"target:Cards:phonenumber:\",\"visible\":true,\"common\":false,\"__gohashid\":4112},{\"from\":\"target:Cards:fields\",\"to\":\"target:Cards:request_id:\",\"fromPort\":\"target:Cards:fields\",\"toPort\":\"target:Cards:request_id:\",\"visible\":true,\"common\":false,\"__gohashid\":4113},{\"from\":\"target:Cards:fields\",\"to\":\"target:Cards:bankName:\",\"fromPort\":\"target:Cards:fields\",\"toPort\":\"target:Cards:bankName:\",\"visible\":true,\"common\":false,\"__gohashid\":4114},{\"from\":\"target:Cards:fields\",\"to\":\"target:Cards:AccountType:\",\"fromPort\":\"target:Cards:fields\",\"toPort\":\"target:Cards:AccountType:\",\"visible\":true,\"common\":false,\"__gohashid\":4115},{\"from\":\"target:Cards:fields\",\"to\":\"target:Cards:RequestCode:\",\"fromPort\":\"target:Cards:fields\",\"toPort\":\"target:Cards:RequestCode:\",\"visible\":true,\"common\":false,\"__gohashid\":4116},{\"from\":\"target:Cards:fields\",\"to\":\"target:Cards:RequestReason:\",\"fromPort\":\"target:Cards:fields\",\"toPort\":\"target:Cards:RequestReason:\",\"visible\":true,\"common\":false,\"__gohashid\":4117},{\"from\":\"target:Cards:fields\",\"to\":\"target:Cards:Channel:\",\"fromPort\":\"target:Cards:fields\",\"toPort\":\"target:Cards:Channel:\",\"visible\":true,\"common\":false,\"__gohashid\":4118},{\"from\":\"target:Cards:fields\",\"to\":\"target:Cards:Address_id:\",\"fromPort\":\"target:Cards:fields\",\"toPort\":\"target:Cards:Address_id:\",\"visible\":true,\"common\":false,\"__gohashid\":4119},{\"from\":\"target:Cards:fields\",\"to\":\"target:Cards:communication_id:\",\"fromPort\":\"target:Cards:fields\",\"toPort\":\"target:Cards:communication_id:\",\"visible\":true,\"common\":false,\"__gohashid\":4120},{\"from\":\"target:Cards:fields\",\"to\":\"target:Cards:CardNumbers:\",\"fromPort\":\"target:Cards:fields\",\"toPort\":\"target:Cards:CardNumbers:\",\"visible\":true,\"common\":false,\"__gohashid\":4121},{\"from\":\"target:Cards:fields\",\"to\":\"target:Cards:lastNinetyDays:\",\"fromPort\":\"target:Cards:fields\",\"toPort\":\"target:Cards:lastNinetyDays:\",\"visible\":true,\"common\":false,\"__gohashid\":4122}],\"blockCount\":{\"variableCount\":0},\"variableMap\":{},\"xmlMappingOverride\":true}",
    "applyCommonMapping" : false,
    "applyRequestCommonMapping" : true,
    "applyResponseCommonMapping" : false,
    "backendMeta" : {
      "serviceName" : "dbpRbLocalServicesJava",
      "serviceVersion" : "1.0",
      "operationName" : "GetCardsForAdmin"
    },
    "relationshipHierarchyMapping" : {
      "children" : [ ],
      "name" : "Cards",
      "actions" : { },
      "selected" : true
    },
    "requestXmlMappingOverride" : false,
    "responseXmlMappingOverride" : true
  }
}