{
  "customCode" : {
    "responseProcessorName" : "com.kony.cards.postprocessors.GetCardsPostProcessor"
  },
  "operationConfig" : {
    "name" : "getCardDetails8334",
    "type" : "MappedToBackend",
    "cachable" : false,
    "smsEnabled" : false,
    "security" : "authorized_app_user",
    "responseEncoding" : "UTF-8",
    "httpMethod" : "GET",
    "decodeResponseBody" : false,
    "odata" : [ {
      "id" : "$select",
      "dataType" : "string",
      "encode" : true,
      "accessType" : "readonly"
    }, {
      "id" : "$filter",
      "dataType" : "string",
      "encode" : true,
      "accessType" : "readonly"
    }, {
      "id" : "$orderby",
      "dataType" : "string",
      "encode" : true,
      "accessType" : "readonly"
    }, {
      "id" : "$top",
      "dataType" : "string",
      "encode" : true,
      "accessType" : "readonly"
    }, {
      "id" : "$skip",
      "dataType" : "string",
      "encode" : true,
      "accessType" : "readonly"
    }, {
      "id" : "$expand",
      "dataType" : "string",
      "encode" : true,
      "accessType" : "readonly"
    }, {
      "id" : "$batchsize",
      "dataType" : "string",
      "encode" : true,
      "accessType" : "readonly"
    }, {
      "id" : "$batchid",
      "dataType" : "string",
      "encode" : true,
      "accessType" : "readonly"
    } ],
    "oMapping" : "<?xml version=\"1.0\" encoding=\"UTF-8\" standalone=\"yes\"?><mapper xmlns=\"http://www.kony.com/ns/mapper\">        <map inputpath=\"response_in\" outputpath=\"response_out\">                <map inputpath=\"card\" outputpath=\"Cards\">                        <set-param inputpath=\"action\" outputpath=\"Action\"/>                        <set-param inputpath=\"cardHolderName\" outputpath=\"cardHolderName\"/>                        <set-param inputpath=\"Id\" outputpath=\"cardId\"/>                        <set-param inputpath=\"cardNumber\" outputpath=\"cardNumber\"/>                        <set-param inputpath=\"card_Status\" outputpath=\"cardStatus\"/>                        <set-param inputpath=\"cardType\" outputpath=\"cardType\"/>                        <set-param inputpath=\"expirationDate\" outputpath=\"expiryDate\"/>                        <set-param inputpath=\"reason\" outputpath=\"Reason\"/>                        <set-param inputpath=\"User_id\" outputpath=\"userId\"/>                        <set-param inputpath=\"creditLimit\" outputpath=\"creditLimit\"/>                        <set-param inputpath=\"availableCredit\" outputpath=\"availableCredit\"/>                        <set-param inputpath=\"serviceProvider\" outputpath=\"serviceProvider\"/>                        <set-param inputpath=\"billingAddress\" outputpath=\"billingAddress\"/>                        <set-param inputpath=\"cardProductName\" outputpath=\"cardProductName\"/>                        <set-param inputpath=\"secondaryCardHolder\" outputpath=\"secondaryCardHolder\"/>                        <set-param inputpath=\"withdrawlLimit\" outputpath=\"withdrawlLimit\"/>                        <set-param inputpath=\"account_id\" outputpath=\"accountNumber\"/>                        <set-param inputpath=\"accountName\" outputpath=\"accountName\"/>                        <set-param inputpath=\"maskedAccountNumber\" outputpath=\"maskedAccountNumber\"/>                        <set-param inputpath=\"maskedCardNumber\" outputpath=\"maskedCardNumber\"/>                      <set-param inputpath=\"isInternational\" outputpath=\"isInternational\"/>            </map>        </map></mapper>",
    "oVisualMappingData" : "{\"nodeDataArray\":[{\"isGroup\":true,\"key\":\"response_out\",\"text\":\"Cards\",\"xy\":\"770 100\",\"__gohashid\":16734},{\"isGroup\":true,\"key\":\"response_in\",\"text\":\"dbpRbLocalServicesJava (1.0).getCardDetails\",\"xy\":\"150 100\",\"__gohashid\":16735}],\"linkDataArray\":[{\"category\":\"Mapping\",\"from\":\"source:Cards:Action:\",\"to\":\"target:Cards:Action:\",\"fromPort\":\"source:Cards:Action:\",\"toPort\":\"target:Cards:Action:\",\"visible\":true,\"common\":true,\"__gohashid\":19630},{\"category\":\"Mapping\",\"from\":\"source:Cards:cardHolderName:\",\"to\":\"target:Cards:cardHolderName:\",\"fromPort\":\"source:Cards:cardHolderName:\",\"toPort\":\"target:Cards:cardHolderName:\",\"visible\":true,\"common\":true,\"__gohashid\":19637},{\"category\":\"Mapping\",\"from\":\"source:Cards:cardId:\",\"to\":\"target:Cards:cardId:\",\"fromPort\":\"source:Cards:cardId:\",\"toPort\":\"target:Cards:cardId:\",\"visible\":true,\"common\":true,\"__gohashid\":19644},{\"category\":\"Mapping\",\"from\":\"source:Cards:cardNumber:\",\"to\":\"target:Cards:cardNumber:\",\"fromPort\":\"source:Cards:cardNumber:\",\"toPort\":\"target:Cards:cardNumber:\",\"visible\":true,\"common\":true,\"__gohashid\":19651},{\"category\":\"Mapping\",\"from\":\"source:Cards:cardStatus:\",\"to\":\"target:Cards:cardStatus:\",\"fromPort\":\"source:Cards:cardStatus:\",\"toPort\":\"target:Cards:cardStatus:\",\"visible\":true,\"common\":true,\"__gohashid\":19658},{\"category\":\"Mapping\",\"from\":\"source:Cards:cardType:\",\"to\":\"target:Cards:cardType:\",\"fromPort\":\"source:Cards:cardType:\",\"toPort\":\"target:Cards:cardType:\",\"visible\":true,\"common\":true,\"__gohashid\":19665},{\"category\":\"Mapping\",\"from\":\"source:Cards:expiryDate:\",\"to\":\"target:Cards:expiryDate:\",\"fromPort\":\"source:Cards:expiryDate:\",\"toPort\":\"target:Cards:expiryDate:\",\"visible\":true,\"common\":true,\"__gohashid\":19672},{\"category\":\"Mapping\",\"from\":\"source:Cards:Reason:\",\"to\":\"target:Cards:Reason:\",\"fromPort\":\"source:Cards:Reason:\",\"toPort\":\"target:Cards:Reason:\",\"visible\":true,\"common\":true,\"__gohashid\":19679},{\"category\":\"Mapping\",\"from\":\"source:Cards:userId:\",\"to\":\"target:Cards:userId:\",\"fromPort\":\"source:Cards:userId:\",\"toPort\":\"target:Cards:userId:\",\"visible\":true,\"common\":true,\"__gohashid\":19686},{\"from\":\"target\",\"to\":\"target:Cards\",\"fromPort\":\"target\",\"toPort\":\"target:Cards\",\"visible\":true,\"common\":false,\"__gohashid\":625},{\"from\":\"target:Cards\",\"to\":\"target:Cards:fields\",\"fromPort\":\"target:Cards\",\"toPort\":\"target:Cards:fields\",\"visible\":true,\"common\":false,\"__gohashid\":626},{\"from\":\"target:Cards:fields\",\"to\":\"target:Cards:accountId:\",\"fromPort\":\"target:Cards:fields\",\"toPort\":\"target:Cards:accountId:\",\"visible\":true,\"common\":false,\"__gohashid\":627},{\"from\":\"target:Cards:fields\",\"to\":\"target:Cards:Action:\",\"fromPort\":\"target:Cards:fields\",\"toPort\":\"target:Cards:Action:\",\"visible\":true,\"common\":false,\"__gohashid\":628},{\"from\":\"target:Cards:fields\",\"to\":\"target:Cards:cardHolderName:\",\"fromPort\":\"target:Cards:fields\",\"toPort\":\"target:Cards:cardHolderName:\",\"visible\":true,\"common\":false,\"__gohashid\":629},{\"from\":\"target:Cards:fields\",\"to\":\"target:Cards:cardId:\",\"fromPort\":\"target:Cards:fields\",\"toPort\":\"target:Cards:cardId:\",\"visible\":true,\"common\":false,\"__gohashid\":630},{\"from\":\"target:Cards:fields\",\"to\":\"target:Cards:cardNumber:\",\"fromPort\":\"target:Cards:fields\",\"toPort\":\"target:Cards:cardNumber:\",\"visible\":true,\"common\":false,\"__gohashid\":631},{\"from\":\"target:Cards:fields\",\"to\":\"target:Cards:cardStatus:\",\"fromPort\":\"target:Cards:fields\",\"toPort\":\"target:Cards:cardStatus:\",\"visible\":true,\"common\":false,\"__gohashid\":632},{\"from\":\"target:Cards:fields\",\"to\":\"target:Cards:cardType:\",\"fromPort\":\"target:Cards:fields\",\"toPort\":\"target:Cards:cardType:\",\"visible\":true,\"common\":false,\"__gohashid\":633},{\"from\":\"target:Cards:fields\",\"to\":\"target:Cards:errmsg:\",\"fromPort\":\"target:Cards:fields\",\"toPort\":\"target:Cards:errmsg:\",\"visible\":true,\"common\":false,\"__gohashid\":634},{\"from\":\"target:Cards:fields\",\"to\":\"target:Cards:expiryDate:\",\"fromPort\":\"target:Cards:fields\",\"toPort\":\"target:Cards:expiryDate:\",\"visible\":true,\"common\":false,\"__gohashid\":635},{\"from\":\"target:Cards:fields\",\"to\":\"target:Cards:Reason:\",\"fromPort\":\"target:Cards:fields\",\"toPort\":\"target:Cards:Reason:\",\"visible\":true,\"common\":false,\"__gohashid\":636},{\"from\":\"target:Cards:fields\",\"to\":\"target:Cards:success:\",\"fromPort\":\"target:Cards:fields\",\"toPort\":\"target:Cards:success:\",\"visible\":true,\"common\":false,\"__gohashid\":637},{\"from\":\"target:Cards:fields\",\"to\":\"target:Cards:userId:\",\"fromPort\":\"target:Cards:fields\",\"toPort\":\"target:Cards:userId:\",\"visible\":true,\"common\":false,\"__gohashid\":638},{\"from\":\"target:Cards:fields\",\"to\":\"target:Cards:userName:\",\"fromPort\":\"target:Cards:fields\",\"toPort\":\"target:Cards:userName:\",\"visible\":true,\"common\":false,\"__gohashid\":639},{\"from\":\"target:Cards:fields\",\"to\":\"target:Cards:creditLimit:\",\"fromPort\":\"target:Cards:fields\",\"toPort\":\"target:Cards:creditLimit:\",\"visible\":true,\"common\":false,\"__gohashid\":640},{\"from\":\"target:Cards:fields\",\"to\":\"target:Cards:availableCredit:\",\"fromPort\":\"target:Cards:fields\",\"toPort\":\"target:Cards:availableCredit:\",\"visible\":true,\"common\":false,\"__gohashid\":641},{\"from\":\"target:Cards:fields\",\"to\":\"target:Cards:serviceProvider:\",\"fromPort\":\"target:Cards:fields\",\"toPort\":\"target:Cards:serviceProvider:\",\"visible\":true,\"common\":false,\"__gohashid\":642},{\"from\":\"target:Cards:fields\",\"to\":\"target:Cards:billingAddress:\",\"fromPort\":\"target:Cards:fields\",\"toPort\":\"target:Cards:billingAddress:\",\"visible\":true,\"common\":false,\"__gohashid\":643},{\"from\":\"target:Cards:fields\",\"to\":\"target:Cards:cardProductName:\",\"fromPort\":\"target:Cards:fields\",\"toPort\":\"target:Cards:cardProductName:\",\"visible\":true,\"common\":false,\"__gohashid\":644},{\"from\":\"target:Cards:fields\",\"to\":\"target:Cards:secondaryCardHolder:\",\"fromPort\":\"target:Cards:fields\",\"toPort\":\"target:Cards:secondaryCardHolder:\",\"visible\":true,\"common\":false,\"__gohashid\":645},{\"from\":\"target:Cards:fields\",\"to\":\"target:Cards:withdrawlLimit:\",\"fromPort\":\"target:Cards:fields\",\"toPort\":\"target:Cards:withdrawlLimit:\",\"visible\":true,\"common\":false,\"__gohashid\":646},{\"from\":\"target:Cards:fields\",\"to\":\"target:Cards:accountNumber:\",\"fromPort\":\"target:Cards:fields\",\"toPort\":\"target:Cards:accountNumber:\",\"visible\":true,\"common\":false,\"__gohashid\":647},{\"from\":\"target:Cards:fields\",\"to\":\"target:Cards:accountName:\",\"fromPort\":\"target:Cards:fields\",\"toPort\":\"target:Cards:accountName:\",\"visible\":true,\"common\":false,\"__gohashid\":648},{\"from\":\"target:Cards:fields\",\"to\":\"target:Cards:maskedAccountNumber:\",\"fromPort\":\"target:Cards:fields\",\"toPort\":\"target:Cards:maskedAccountNumber:\",\"visible\":true,\"common\":false,\"__gohashid\":649},{\"from\":\"target:Cards:fields\",\"to\":\"target:Cards:maskedCardNumber:\",\"fromPort\":\"target:Cards:fields\",\"toPort\":\"target:Cards:maskedCardNumber:\",\"visible\":true,\"common\":false,\"__gohashid\":650},{\"from\":\"target:Cards:fields\",\"to\":\"target:Cards:isInternational:\",\"fromPort\":\"target:Cards:fields\",\"toPort\":\"target:Cards:isInternational:\",\"visible\":true,\"common\":false,\"__gohashid\":651},{\"from\":\"target:Cards:fields\",\"to\":\"target:Cards:ids:\",\"fromPort\":\"target:Cards:fields\",\"toPort\":\"target:Cards:ids:\",\"visible\":true,\"common\":false,\"__gohashid\":652},{\"from\":\"target:Cards:fields\",\"to\":\"target:Cards:Destinations:\",\"fromPort\":\"target:Cards:fields\",\"toPort\":\"target:Cards:Destinations:\",\"visible\":true,\"common\":false,\"__gohashid\":653},{\"from\":\"target:Cards:fields\",\"to\":\"target:Cards:Cards:\",\"fromPort\":\"target:Cards:fields\",\"toPort\":\"target:Cards:Cards:\",\"visible\":true,\"common\":false,\"__gohashid\":654},{\"from\":\"target:Cards:fields\",\"to\":\"target:Cards:Channel_id:\",\"fromPort\":\"target:Cards:fields\",\"toPort\":\"target:Cards:Channel_id:\",\"visible\":true,\"common\":false,\"__gohashid\":655},{\"from\":\"target:Cards:fields\",\"to\":\"target:Cards:StartDate:\",\"fromPort\":\"target:Cards:fields\",\"toPort\":\"target:Cards:StartDate:\",\"visible\":true,\"common\":false,\"__gohashid\":656},{\"from\":\"target:Cards:fields\",\"to\":\"target:Cards:EndDate:\",\"fromPort\":\"target:Cards:fields\",\"toPort\":\"target:Cards:EndDate:\",\"visible\":true,\"common\":false,\"__gohashid\":657},{\"from\":\"target:Cards:fields\",\"to\":\"target:Cards:additionNotes:\",\"fromPort\":\"target:Cards:fields\",\"toPort\":\"target:Cards:additionNotes:\",\"visible\":true,\"common\":false,\"__gohashid\":658},{\"from\":\"target:Cards:fields\",\"to\":\"target:Cards:phonenumber:\",\"fromPort\":\"target:Cards:fields\",\"toPort\":\"target:Cards:phonenumber:\",\"visible\":true,\"common\":false,\"__gohashid\":659},{\"from\":\"target:Cards:fields\",\"to\":\"target:Cards:request_id:\",\"fromPort\":\"target:Cards:fields\",\"toPort\":\"target:Cards:request_id:\",\"visible\":true,\"common\":false,\"__gohashid\":660},{\"from\":\"target:Cards:fields\",\"to\":\"target:Cards:bankName:\",\"fromPort\":\"target:Cards:fields\",\"toPort\":\"target:Cards:bankName:\",\"visible\":true,\"common\":false,\"__gohashid\":661},{\"from\":\"target:Cards:fields\",\"to\":\"target:Cards:AccountType:\",\"fromPort\":\"target:Cards:fields\",\"toPort\":\"target:Cards:AccountType:\",\"visible\":true,\"common\":false,\"__gohashid\":662},{\"from\":\"target:Cards:fields\",\"to\":\"target:Cards:RequestCode:\",\"fromPort\":\"target:Cards:fields\",\"toPort\":\"target:Cards:RequestCode:\",\"visible\":true,\"common\":false,\"__gohashid\":663},{\"from\":\"target:Cards:fields\",\"to\":\"target:Cards:RequestReason:\",\"fromPort\":\"target:Cards:fields\",\"toPort\":\"target:Cards:RequestReason:\",\"visible\":true,\"common\":false,\"__gohashid\":664},{\"from\":\"target:Cards:fields\",\"to\":\"target:Cards:Channel:\",\"fromPort\":\"target:Cards:fields\",\"toPort\":\"target:Cards:Channel:\",\"visible\":true,\"common\":false,\"__gohashid\":665},{\"from\":\"target:Cards:fields\",\"to\":\"target:Cards:Address_id:\",\"fromPort\":\"target:Cards:fields\",\"toPort\":\"target:Cards:Address_id:\",\"visible\":true,\"common\":false,\"__gohashid\":666},{\"from\":\"target:Cards:fields\",\"to\":\"target:Cards:communication_id:\",\"fromPort\":\"target:Cards:fields\",\"toPort\":\"target:Cards:communication_id:\",\"visible\":true,\"common\":false,\"__gohashid\":667},{\"from\":\"target:Cards:fields\",\"to\":\"target:Cards:CardNumbers:\",\"fromPort\":\"target:Cards:fields\",\"toPort\":\"target:Cards:CardNumbers:\",\"visible\":true,\"common\":false,\"__gohashid\":668},{\"from\":\"target:Cards:fields\",\"to\":\"target:Cards:lastNinetyDays:\",\"fromPort\":\"target:Cards:fields\",\"toPort\":\"target:Cards:lastNinetyDays:\",\"visible\":true,\"common\":false,\"__gohashid\":669},{\"from\":\"source\",\"to\":\"source:parameters\",\"fromPort\":\"source\",\"toPort\":\"source:parameters\",\"visible\":true,\"common\":false,\"__gohashid\":670},{\"from\":\"source:parameters\",\"to\":\"source:error:\",\"fromPort\":\"source:parameters\",\"toPort\":\"source:error:\",\"visible\":true,\"common\":false,\"__gohashid\":671},{\"from\":\"source:parameters\",\"to\":\"source:success:\",\"fromPort\":\"source:parameters\",\"toPort\":\"source:success:\",\"visible\":true,\"common\":false,\"__gohashid\":672},{\"from\":\"source\",\"to\":\"source:Cards\",\"fromPort\":\"source\",\"toPort\":\"source:Cards\",\"visible\":true,\"common\":false,\"__gohashid\":673},{\"from\":\"source:Cards\",\"to\":\"source:Cards:parameters\",\"fromPort\":\"source:Cards\",\"toPort\":\"source:Cards:parameters\",\"visible\":true,\"common\":false,\"__gohashid\":674},{\"from\":\"source:Cards:parameters\",\"to\":\"source:Cards:Action:\",\"fromPort\":\"source:Cards:parameters\",\"toPort\":\"source:Cards:Action:\",\"visible\":true,\"common\":false,\"__gohashid\":675},{\"from\":\"source:Cards:parameters\",\"to\":\"source:Cards:cardHolderName:\",\"fromPort\":\"source:Cards:parameters\",\"toPort\":\"source:Cards:cardHolderName:\",\"visible\":true,\"common\":false,\"__gohashid\":676},{\"from\":\"source:Cards:parameters\",\"to\":\"source:Cards:cardId:\",\"fromPort\":\"source:Cards:parameters\",\"toPort\":\"source:Cards:cardId:\",\"visible\":true,\"common\":false,\"__gohashid\":677},{\"from\":\"source:Cards:parameters\",\"to\":\"source:Cards:cardNumber:\",\"fromPort\":\"source:Cards:parameters\",\"toPort\":\"source:Cards:cardNumber:\",\"visible\":true,\"common\":false,\"__gohashid\":678},{\"from\":\"source:Cards:parameters\",\"to\":\"source:Cards:cardStatus:\",\"fromPort\":\"source:Cards:parameters\",\"toPort\":\"source:Cards:cardStatus:\",\"visible\":true,\"common\":false,\"__gohashid\":679},{\"from\":\"source:Cards:parameters\",\"to\":\"source:Cards:cardType:\",\"fromPort\":\"source:Cards:parameters\",\"toPort\":\"source:Cards:cardType:\",\"visible\":true,\"common\":false,\"__gohashid\":680},{\"from\":\"source:Cards:parameters\",\"to\":\"source:Cards:expiryDate:\",\"fromPort\":\"source:Cards:parameters\",\"toPort\":\"source:Cards:expiryDate:\",\"visible\":true,\"common\":false,\"__gohashid\":681},{\"from\":\"source:Cards:parameters\",\"to\":\"source:Cards:Reason:\",\"fromPort\":\"source:Cards:parameters\",\"toPort\":\"source:Cards:Reason:\",\"visible\":true,\"common\":false,\"__gohashid\":682},{\"from\":\"source:Cards:parameters\",\"to\":\"source:Cards:userId:\",\"fromPort\":\"source:Cards:parameters\",\"toPort\":\"source:Cards:userId:\",\"visible\":true,\"common\":false,\"__gohashid\":683}],\"blockCount\":{\"variableCount\":0},\"variableMap\":{},\"xmlMappingOverride\":true}",
    "applyCommonMapping" : false,
    "applyRequestCommonMapping" : true,
    "applyResponseCommonMapping" : false,
    "backendMeta" : {
      "serviceName" : "dbpRbLocalServicesJava",
      "serviceVersion" : "1.0",
      "operationName" : "getCardDetails"
    },
    "relationshipHierarchyMapping" : {
      "children" : [ ],
      "name" : "Cards",
      "actions" : {
        "get" : true
      },
      "selected" : true
    },
    "requestXmlMappingOverride" : false,
    "responseXmlMappingOverride" : true
  }
}