{
  "customCode" : {
    "requestProcessorName" : "com.kony.cards.preprocessors.UpdateCardPreProcessor",
    "responseProcessorName" : "com.kony.postprocessors.UnlockCreditCardObjectPostProcessor"
  },
  "operationConfig" : {
    "name" : "updateCard6945",
    "type" : "MappedToBackend",
    "cachable" : false,
    "smsEnabled" : false,
    "security" : "authorized_app_user",
    "responseEncoding" : "UTF-8",
    "httpMethod" : "GET",
    "decodeResponseBody" : false,
    "iMapping" : "<?xml version=\"1.0\" encoding=\"UTF-8\" standalone=\"yes\"?><mapper xmlns=\"http://www.kony.com/ns/mapper\">        <map inputpath=\"request_in\" outputpath=\"request_out\">                <set-param inputpath=\"Action\" outputpath=\"Action\"/>                <set-param inputpath=\"cardId\" outputpath=\"cardId\"/>                <set-param inputpath=\"Reason\" outputpath=\"Reason\"/>          </map></mapper>",
    "oMapping" : "<?xml version=\"1.0\" encoding=\"UTF-8\" standalone=\"yes\"?><mapper xmlns=\"http://www.kony.com/ns/mapper\"><map inputpath=\"response_in\" outputpath=\"response_out\"><set-param inputpath=\"success\" outputpath=\"success\"/><set-param inputpath=\"errmsg\" outputpath=\"errmsg\"/></map></mapper>",
    "iVisualMappingData" : "{\"nodeDataArray\":[{\"isGroup\":true,\"key\":\"request_in\",\"text\":\"Cards\",\"xy\":\"150 100\",\"__gohashid\":98135},{\"isGroup\":true,\"key\":\"request_out\",\"text\":\"dbpRbLocalServicesJava.updateCard\",\"xy\":\"770 100\",\"__gohashid\":98136}],\"linkDataArray\":[{\"from\":\"source\",\"to\":\"source:Cards\",\"fromPort\":\"source\",\"toPort\":\"source:Cards\",\"visible\":true,\"common\":false,\"__gohashid\":72565},{\"from\":\"source:Cards\",\"to\":\"source:Cards:fields\",\"fromPort\":\"source:Cards\",\"toPort\":\"source:Cards:fields\",\"visible\":true,\"common\":false,\"__gohashid\":72566},{\"from\":\"source:Cards:fields\",\"to\":\"source:Cards:accountId:\",\"fromPort\":\"source:Cards:fields\",\"toPort\":\"source:Cards:accountId:\",\"visible\":true,\"common\":false,\"__gohashid\":72567},{\"from\":\"source:Cards:fields\",\"to\":\"source:Cards:Action:\",\"fromPort\":\"source:Cards:fields\",\"toPort\":\"source:Cards:Action:\",\"visible\":true,\"common\":false,\"__gohashid\":72568},{\"from\":\"source:Cards:fields\",\"to\":\"source:Cards:cardHolderName:\",\"fromPort\":\"source:Cards:fields\",\"toPort\":\"source:Cards:cardHolderName:\",\"visible\":true,\"common\":false,\"__gohashid\":72569},{\"from\":\"source:Cards:fields\",\"to\":\"source:Cards:cardId:\",\"fromPort\":\"source:Cards:fields\",\"toPort\":\"source:Cards:cardId:\",\"visible\":true,\"common\":false,\"__gohashid\":72570},{\"from\":\"source:Cards:fields\",\"to\":\"source:Cards:cardNumber:\",\"fromPort\":\"source:Cards:fields\",\"toPort\":\"source:Cards:cardNumber:\",\"visible\":true,\"common\":false,\"__gohashid\":72571},{\"from\":\"source:Cards:fields\",\"to\":\"source:Cards:cardStatus:\",\"fromPort\":\"source:Cards:fields\",\"toPort\":\"source:Cards:cardStatus:\",\"visible\":true,\"common\":false,\"__gohashid\":72572},{\"from\":\"source:Cards:fields\",\"to\":\"source:Cards:cardType:\",\"fromPort\":\"source:Cards:fields\",\"toPort\":\"source:Cards:cardType:\",\"visible\":true,\"common\":false,\"__gohashid\":72573},{\"from\":\"source:Cards:fields\",\"to\":\"source:Cards:errmsg:\",\"fromPort\":\"source:Cards:fields\",\"toPort\":\"source:Cards:errmsg:\",\"visible\":true,\"common\":false,\"__gohashid\":72574},{\"from\":\"source:Cards:fields\",\"to\":\"source:Cards:expiryDate:\",\"fromPort\":\"source:Cards:fields\",\"toPort\":\"source:Cards:expiryDate:\",\"visible\":true,\"common\":false,\"__gohashid\":72575},{\"from\":\"source:Cards:fields\",\"to\":\"source:Cards:Reason:\",\"fromPort\":\"source:Cards:fields\",\"toPort\":\"source:Cards:Reason:\",\"visible\":true,\"common\":false,\"__gohashid\":72576},{\"from\":\"source:Cards:fields\",\"to\":\"source:Cards:success:\",\"fromPort\":\"source:Cards:fields\",\"toPort\":\"source:Cards:success:\",\"visible\":true,\"common\":false,\"__gohashid\":72577},{\"from\":\"source:Cards:fields\",\"to\":\"source:Cards:userId:\",\"fromPort\":\"source:Cards:fields\",\"toPort\":\"source:Cards:userId:\",\"visible\":true,\"common\":false,\"__gohashid\":72578},{\"from\":\"source:Cards:fields\",\"to\":\"source:Cards:userName:\",\"fromPort\":\"source:Cards:fields\",\"toPort\":\"source:Cards:userName:\",\"visible\":true,\"common\":false,\"__gohashid\":72579},{\"from\":\"source:Cards:fields\",\"to\":\"source:Cards:creditLimit:\",\"fromPort\":\"source:Cards:fields\",\"toPort\":\"source:Cards:creditLimit:\",\"visible\":true,\"common\":false,\"__gohashid\":72580},{\"from\":\"source:Cards:fields\",\"to\":\"source:Cards:availableCredit:\",\"fromPort\":\"source:Cards:fields\",\"toPort\":\"source:Cards:availableCredit:\",\"visible\":true,\"common\":false,\"__gohashid\":72581},{\"from\":\"source:Cards:fields\",\"to\":\"source:Cards:serviceProvider:\",\"fromPort\":\"source:Cards:fields\",\"toPort\":\"source:Cards:serviceProvider:\",\"visible\":true,\"common\":false,\"__gohashid\":72582},{\"from\":\"source:Cards:fields\",\"to\":\"source:Cards:billingAddress:\",\"fromPort\":\"source:Cards:fields\",\"toPort\":\"source:Cards:billingAddress:\",\"visible\":true,\"common\":false,\"__gohashid\":72583},{\"from\":\"source:Cards:fields\",\"to\":\"source:Cards:cardProductName:\",\"fromPort\":\"source:Cards:fields\",\"toPort\":\"source:Cards:cardProductName:\",\"visible\":true,\"common\":false,\"__gohashid\":72584},{\"from\":\"source:Cards:fields\",\"to\":\"source:Cards:secondaryCardHolder:\",\"fromPort\":\"source:Cards:fields\",\"toPort\":\"source:Cards:secondaryCardHolder:\",\"visible\":true,\"common\":false,\"__gohashid\":72585},{\"from\":\"source:Cards:fields\",\"to\":\"source:Cards:withdrawlLimit:\",\"fromPort\":\"source:Cards:fields\",\"toPort\":\"source:Cards:withdrawlLimit:\",\"visible\":true,\"common\":false,\"__gohashid\":72586},{\"from\":\"source:Cards:fields\",\"to\":\"source:Cards:accountNumber:\",\"fromPort\":\"source:Cards:fields\",\"toPort\":\"source:Cards:accountNumber:\",\"visible\":true,\"common\":false,\"__gohashid\":72587},{\"from\":\"source:Cards:fields\",\"to\":\"source:Cards:accountName:\",\"fromPort\":\"source:Cards:fields\",\"toPort\":\"source:Cards:accountName:\",\"visible\":true,\"common\":false,\"__gohashid\":72588},{\"from\":\"source:Cards:fields\",\"to\":\"source:Cards:maskedAccountNumber:\",\"fromPort\":\"source:Cards:fields\",\"toPort\":\"source:Cards:maskedAccountNumber:\",\"visible\":true,\"common\":false,\"__gohashid\":72589},{\"from\":\"source:Cards:fields\",\"to\":\"source:Cards:maskedCardNumber:\",\"fromPort\":\"source:Cards:fields\",\"toPort\":\"source:Cards:maskedCardNumber:\",\"visible\":true,\"common\":false,\"__gohashid\":72590},{\"from\":\"target\",\"to\":\"target:parameters\",\"fromPort\":\"target\",\"toPort\":\"target:parameters\",\"visible\":true,\"common\":false,\"__gohashid\":72591},{\"from\":\"target:parameters\",\"to\":\"target:Action:\",\"fromPort\":\"target:parameters\",\"toPort\":\"target:Action:\",\"visible\":true,\"common\":false,\"__gohashid\":72592},{\"from\":\"target:parameters\",\"to\":\"target:cardId:\",\"fromPort\":\"target:parameters\",\"toPort\":\"target:cardId:\",\"visible\":true,\"common\":false,\"__gohashid\":72593},{\"from\":\"target:parameters\",\"to\":\"target:Reason:\",\"fromPort\":\"target:parameters\",\"toPort\":\"target:Reason:\",\"visible\":true,\"common\":false,\"__gohashid\":72594}],\"blockCount\":{\"variableCount\":0},\"variableMap\":{},\"xmlMappingOverride\":true}",
    "applyCommonMapping" : false,
    "applyRequestCommonMapping" : false,
    "applyResponseCommonMapping" : true,
    "backendMeta" : {
      "serviceName" : "dbpRbLocalServicesJava",
      "serviceVersion" : "1.0",
      "operationName" : "updateCard"
    },
    "relationshipHierarchyMapping" : {
      "children" : [ ],
      "name" : "Cards",
      "actions" : { },
      "selected" : true
    },
    "requestXmlMappingOverride" : true,
    "responseXmlMappingOverride" : false
  }
}