{
  "operationConfig" : {
    "name" : "UpdateCardForAdmin3853",
    "type" : "MappedToBackend",
    "cachable" : false,
    "smsEnabled" : false,
    "security" : "authorized_app_user",
    "responseEncoding" : "UTF-8",
    "httpMethod" : "GET",
    "decodeResponseBody" : false,
    "iMapping" : "<?xml version=\"1.0\" encoding=\"UTF-8\" standalone=\"yes\"?><mapper xmlns=\"http://www.kony.com/ns/mapper\"><map inputpath=\"request_in\" outputpath=\"request_out\"><set-param inputpath=\"Action\" outputpath=\"action\"/><set-param inputpath=\"maskedCardNumber\" outputpath=\"maskedCardNumber\"/><set-param inputpath=\"Reason\" outputpath=\"Reason\"/><set-param inputpath=\"userName\" outputpath=\"username\"/></map></mapper>",
    "oMapping" : "<?xml version=\"1.0\" encoding=\"UTF-8\" standalone=\"yes\"?><mapper xmlns=\"http://www.kony.com/ns/mapper\">          <map inputpath=\"response_in\" outputpath=\"response_out\">                    <map inputpath=\"result\" outputpath=\"success\"/>            <map inputpath=\"status\" outputpath=\"Status\"/>            <map inputpath=\"errmsg\" outputpath=\"errmsg\"/>    <map inputpath=\"dbpErrCode\" outputpath=\"dbpErrCode\"/>    <map inputpath=\"dbpErrMsg\" outputpath=\"dbpErrMsg\"/>  </map></mapper>",
    "oVisualMappingData" : "{\"nodeDataArray\":[{\"isGroup\":true,\"key\":\"response_out\",\"text\":\"Cards\",\"xy\":\"770 100\",\"__gohashid\":16930},{\"isGroup\":true,\"key\":\"response_in\",\"text\":\"dbpRbLocalServicesJava (1.0).UpdateCardForAdmin\",\"xy\":\"150 100\",\"__gohashid\":16931}],\"linkDataArray\":[{\"from\":\"target\",\"to\":\"target:Cards\",\"fromPort\":\"target\",\"toPort\":\"target:Cards\",\"visible\":true,\"common\":false,\"__gohashid\":16315},{\"from\":\"target:Cards\",\"to\":\"target:Cards:fields\",\"fromPort\":\"target:Cards\",\"toPort\":\"target:Cards:fields\",\"visible\":true,\"common\":false,\"__gohashid\":16316},{\"from\":\"target:Cards:fields\",\"to\":\"target:Cards:accountId:\",\"fromPort\":\"target:Cards:fields\",\"toPort\":\"target:Cards:accountId:\",\"visible\":true,\"common\":false,\"__gohashid\":16317},{\"from\":\"target:Cards:fields\",\"to\":\"target:Cards:Action:\",\"fromPort\":\"target:Cards:fields\",\"toPort\":\"target:Cards:Action:\",\"visible\":true,\"common\":false,\"__gohashid\":16318},{\"from\":\"target:Cards:fields\",\"to\":\"target:Cards:cardHolderName:\",\"fromPort\":\"target:Cards:fields\",\"toPort\":\"target:Cards:cardHolderName:\",\"visible\":true,\"common\":false,\"__gohashid\":16319},{\"from\":\"target:Cards:fields\",\"to\":\"target:Cards:cardId:\",\"fromPort\":\"target:Cards:fields\",\"toPort\":\"target:Cards:cardId:\",\"visible\":true,\"common\":false,\"__gohashid\":16320},{\"from\":\"target:Cards:fields\",\"to\":\"target:Cards:cardNumber:\",\"fromPort\":\"target:Cards:fields\",\"toPort\":\"target:Cards:cardNumber:\",\"visible\":true,\"common\":false,\"__gohashid\":16321},{\"from\":\"target:Cards:fields\",\"to\":\"target:Cards:cardStatus:\",\"fromPort\":\"target:Cards:fields\",\"toPort\":\"target:Cards:cardStatus:\",\"visible\":true,\"common\":false,\"__gohashid\":16322},{\"from\":\"target:Cards:fields\",\"to\":\"target:Cards:cardType:\",\"fromPort\":\"target:Cards:fields\",\"toPort\":\"target:Cards:cardType:\",\"visible\":true,\"common\":false,\"__gohashid\":16323},{\"from\":\"target:Cards:fields\",\"to\":\"target:Cards:errmsg:\",\"fromPort\":\"target:Cards:fields\",\"toPort\":\"target:Cards:errmsg:\",\"visible\":true,\"common\":false,\"__gohashid\":16324},{\"from\":\"target:Cards:fields\",\"to\":\"target:Cards:expiryDate:\",\"fromPort\":\"target:Cards:fields\",\"toPort\":\"target:Cards:expiryDate:\",\"visible\":true,\"common\":false,\"__gohashid\":16325},{\"from\":\"target:Cards:fields\",\"to\":\"target:Cards:Reason:\",\"fromPort\":\"target:Cards:fields\",\"toPort\":\"target:Cards:Reason:\",\"visible\":true,\"common\":false,\"__gohashid\":16326},{\"from\":\"target:Cards:fields\",\"to\":\"target:Cards:success:\",\"fromPort\":\"target:Cards:fields\",\"toPort\":\"target:Cards:success:\",\"visible\":true,\"common\":false,\"__gohashid\":16327},{\"from\":\"target:Cards:fields\",\"to\":\"target:Cards:userId:\",\"fromPort\":\"target:Cards:fields\",\"toPort\":\"target:Cards:userId:\",\"visible\":true,\"common\":false,\"__gohashid\":16328},{\"from\":\"target:Cards:fields\",\"to\":\"target:Cards:userName:\",\"fromPort\":\"target:Cards:fields\",\"toPort\":\"target:Cards:userName:\",\"visible\":true,\"common\":false,\"__gohashid\":16329},{\"from\":\"target:Cards:fields\",\"to\":\"target:Cards:creditLimit:\",\"fromPort\":\"target:Cards:fields\",\"toPort\":\"target:Cards:creditLimit:\",\"visible\":true,\"common\":false,\"__gohashid\":16330},{\"from\":\"target:Cards:fields\",\"to\":\"target:Cards:availableCredit:\",\"fromPort\":\"target:Cards:fields\",\"toPort\":\"target:Cards:availableCredit:\",\"visible\":true,\"common\":false,\"__gohashid\":16331},{\"from\":\"target:Cards:fields\",\"to\":\"target:Cards:serviceProvider:\",\"fromPort\":\"target:Cards:fields\",\"toPort\":\"target:Cards:serviceProvider:\",\"visible\":true,\"common\":false,\"__gohashid\":16332},{\"from\":\"target:Cards:fields\",\"to\":\"target:Cards:billingAddress:\",\"fromPort\":\"target:Cards:fields\",\"toPort\":\"target:Cards:billingAddress:\",\"visible\":true,\"common\":false,\"__gohashid\":16333},{\"from\":\"target:Cards:fields\",\"to\":\"target:Cards:cardProductName:\",\"fromPort\":\"target:Cards:fields\",\"toPort\":\"target:Cards:cardProductName:\",\"visible\":true,\"common\":false,\"__gohashid\":16334},{\"from\":\"target:Cards:fields\",\"to\":\"target:Cards:secondaryCardHolder:\",\"fromPort\":\"target:Cards:fields\",\"toPort\":\"target:Cards:secondaryCardHolder:\",\"visible\":true,\"common\":false,\"__gohashid\":16335},{\"from\":\"target:Cards:fields\",\"to\":\"target:Cards:withdrawlLimit:\",\"fromPort\":\"target:Cards:fields\",\"toPort\":\"target:Cards:withdrawlLimit:\",\"visible\":true,\"common\":false,\"__gohashid\":16336},{\"from\":\"target:Cards:fields\",\"to\":\"target:Cards:accountNumber:\",\"fromPort\":\"target:Cards:fields\",\"toPort\":\"target:Cards:accountNumber:\",\"visible\":true,\"common\":false,\"__gohashid\":16337},{\"from\":\"target:Cards:fields\",\"to\":\"target:Cards:accountName:\",\"fromPort\":\"target:Cards:fields\",\"toPort\":\"target:Cards:accountName:\",\"visible\":true,\"common\":false,\"__gohashid\":16338},{\"from\":\"target:Cards:fields\",\"to\":\"target:Cards:maskedAccountNumber:\",\"fromPort\":\"target:Cards:fields\",\"toPort\":\"target:Cards:maskedAccountNumber:\",\"visible\":true,\"common\":false,\"__gohashid\":16339},{\"from\":\"target:Cards:fields\",\"to\":\"target:Cards:maskedCardNumber:\",\"fromPort\":\"target:Cards:fields\",\"toPort\":\"target:Cards:maskedCardNumber:\",\"visible\":true,\"common\":false,\"__gohashid\":16340},{\"from\":\"target:Cards:fields\",\"to\":\"target:Cards:isInternational:\",\"fromPort\":\"target:Cards:fields\",\"toPort\":\"target:Cards:isInternational:\",\"visible\":true,\"common\":false,\"__gohashid\":16341},{\"from\":\"target:Cards:fields\",\"to\":\"target:Cards:ids:\",\"fromPort\":\"target:Cards:fields\",\"toPort\":\"target:Cards:ids:\",\"visible\":true,\"common\":false,\"__gohashid\":16342},{\"from\":\"target:Cards:fields\",\"to\":\"target:Cards:Destinations:\",\"fromPort\":\"target:Cards:fields\",\"toPort\":\"target:Cards:Destinations:\",\"visible\":true,\"common\":false,\"__gohashid\":16343},{\"from\":\"target:Cards:fields\",\"to\":\"target:Cards:Cards:\",\"fromPort\":\"target:Cards:fields\",\"toPort\":\"target:Cards:Cards:\",\"visible\":true,\"common\":false,\"__gohashid\":16344},{\"from\":\"target:Cards:fields\",\"to\":\"target:Cards:Channel_id:\",\"fromPort\":\"target:Cards:fields\",\"toPort\":\"target:Cards:Channel_id:\",\"visible\":true,\"common\":false,\"__gohashid\":16345},{\"from\":\"target:Cards:fields\",\"to\":\"target:Cards:StartDate:\",\"fromPort\":\"target:Cards:fields\",\"toPort\":\"target:Cards:StartDate:\",\"visible\":true,\"common\":false,\"__gohashid\":16346},{\"from\":\"target:Cards:fields\",\"to\":\"target:Cards:EndDate:\",\"fromPort\":\"target:Cards:fields\",\"toPort\":\"target:Cards:EndDate:\",\"visible\":true,\"common\":false,\"__gohashid\":16347},{\"from\":\"target:Cards:fields\",\"to\":\"target:Cards:additionNotes:\",\"fromPort\":\"target:Cards:fields\",\"toPort\":\"target:Cards:additionNotes:\",\"visible\":true,\"common\":false,\"__gohashid\":16348},{\"from\":\"target:Cards:fields\",\"to\":\"target:Cards:phonenumber:\",\"fromPort\":\"target:Cards:fields\",\"toPort\":\"target:Cards:phonenumber:\",\"visible\":true,\"common\":false,\"__gohashid\":16349},{\"from\":\"target:Cards:fields\",\"to\":\"target:Cards:request_id:\",\"fromPort\":\"target:Cards:fields\",\"toPort\":\"target:Cards:request_id:\",\"visible\":true,\"common\":false,\"__gohashid\":16350},{\"from\":\"target:Cards:fields\",\"to\":\"target:Cards:bankName:\",\"fromPort\":\"target:Cards:fields\",\"toPort\":\"target:Cards:bankName:\",\"visible\":true,\"common\":false,\"__gohashid\":16351},{\"from\":\"target:Cards:fields\",\"to\":\"target:Cards:AccountType:\",\"fromPort\":\"target:Cards:fields\",\"toPort\":\"target:Cards:AccountType:\",\"visible\":true,\"common\":false,\"__gohashid\":16352},{\"from\":\"target:Cards:fields\",\"to\":\"target:Cards:RequestCode:\",\"fromPort\":\"target:Cards:fields\",\"toPort\":\"target:Cards:RequestCode:\",\"visible\":true,\"common\":false,\"__gohashid\":16353},{\"from\":\"target:Cards:fields\",\"to\":\"target:Cards:RequestReason:\",\"fromPort\":\"target:Cards:fields\",\"toPort\":\"target:Cards:RequestReason:\",\"visible\":true,\"common\":false,\"__gohashid\":16354},{\"from\":\"target:Cards:fields\",\"to\":\"target:Cards:Channel:\",\"fromPort\":\"target:Cards:fields\",\"toPort\":\"target:Cards:Channel:\",\"visible\":true,\"common\":false,\"__gohashid\":16355},{\"from\":\"target:Cards:fields\",\"to\":\"target:Cards:Address_id:\",\"fromPort\":\"target:Cards:fields\",\"toPort\":\"target:Cards:Address_id:\",\"visible\":true,\"common\":false,\"__gohashid\":16356},{\"from\":\"target:Cards:fields\",\"to\":\"target:Cards:communication_id:\",\"fromPort\":\"target:Cards:fields\",\"toPort\":\"target:Cards:communication_id:\",\"visible\":true,\"common\":false,\"__gohashid\":16357},{\"from\":\"target:Cards:fields\",\"to\":\"target:Cards:CardNumbers:\",\"fromPort\":\"target:Cards:fields\",\"toPort\":\"target:Cards:CardNumbers:\",\"visible\":true,\"common\":false,\"__gohashid\":16358},{\"from\":\"target:Cards:fields\",\"to\":\"target:Cards:lastNinetyDays:\",\"fromPort\":\"target:Cards:fields\",\"toPort\":\"target:Cards:lastNinetyDays:\",\"visible\":true,\"common\":false,\"__gohashid\":16359},{\"from\":\"target:Cards:fields\",\"to\":\"target:Cards:errorMessage:\",\"fromPort\":\"target:Cards:fields\",\"toPort\":\"target:Cards:errorMessage:\",\"visible\":true,\"common\":false,\"__gohashid\":16360},{\"from\":\"target:Cards:fields\",\"to\":\"target:Cards:dbpErrCode:\",\"fromPort\":\"target:Cards:fields\",\"toPort\":\"target:Cards:dbpErrCode:\",\"visible\":true,\"common\":false,\"__gohashid\":16361},{\"from\":\"target:Cards:fields\",\"to\":\"target:Cards:dbpErrMsg:\",\"fromPort\":\"target:Cards:fields\",\"toPort\":\"target:Cards:dbpErrMsg:\",\"visible\":true,\"common\":false,\"__gohashid\":16362}],\"blockCount\":{\"variableCount\":0},\"variableMap\":{},\"xmlMappingOverride\":true}",
    "applyCommonMapping" : false,
    "applyRequestCommonMapping" : true,
    "applyResponseCommonMapping" : false,
    "backendMeta" : {
      "serviceName" : "dbpRbLocalServicesJava",
      "serviceVersion" : "1.0",
      "operationName" : "UpdateCardForAdmin"
    },
    "relationshipHierarchyMapping" : {
      "children" : [ ],
      "name" : "Cards",
      "actions" : { },
      "selected" : true
    },
    "requestXmlMappingOverride" : false,
    "responseXmlMappingOverride" : true
  }
}