{
    "@class": "com.kony.gen.viz.model.component.KVizButton",
    "DNDConfig": null,
    "__parentReadjusting__": false,
    "_height_": {
        "type": "ref",
        "value": "preferred"
    },
    "_margin_": [
        6,
        6,
        6,
        6
    ],
    "_padding_": [
        0,
        0,
        0,
        0
    ],
    "_skin_": "s611bd2c5d324490aa9f7ed9d412984f",
    "_text_": "Re-send Code",
    "_top_": {
        "type": "string",
        "value": "25dp"
    },
    "_width_": {
        "type": "ref",
        "value": "preferred"
    },
    "accessibilityconfig": {
        "a11yLabel": "Resend Code"
    },
    "canUpdateUI": true,
    "centerx": {
        "type": "string",
        "value": "50%"
    },
    "containerweight": 100,
    "contentalignment": 5,
    "desktopweb": {
        "psp": {
            "hoverSkin": "s611bd2c5d324490aa9f7ed9d412984f"
        }
    },
    "displaytext": true,
    "focusskin": "sbf72662805b48f3b06b5cd3a5a6fdca",
    "id": "btnResendOTP",
    "info": null,
    "isvisible": false,
    "kuid": "j70e5155fa9a42dd9cdfc03bddd68c83",
    "name": "kony.ui.Button",
    "parent": "flxCloseSendOTPBusinessBanking",
    "pf": "frmEnrollNow",
    "responsiveData": {
        "b1": {
            "isVisible": false,
            "top": {
                "type": "string",
                "value": "20dp"
            }
        },
        "b2": {
            "top": {
                "type": "string",
                "value": "20dp"
            },
            "width": {
                "type": "string",
                "value": "85%"
            }
        },
        "b3": {
            "top": {
                "type": "string",
                "value": "20dp"
            },
            "width": {
                "type": "string",
                "value": "85%"
            }
        },
        "b4": {
            "top": {
                "type": "string",
                "value": "20dp"
            },
            "width": {
                "type": "string",
                "value": "80%"
            }
        }
    },
    "texti18n": "i18n.login.ResendOtp",
    "wType": "Button",
    "zindex": 1
}