{
    "DNDConfig": null,
    "__parentReadjusting__": false,
    "_height_": {
        "type": "string",
        "value": "440dp"
    },
    "_left_": {
        "type": "number",
        "value": "0"
    },
    "_margin_": [
        0,
        0,
        0,
        0
    ],
    "_orientation_": 6,
    "_padding_": [
        0,
        0,
        0,
        0
    ],
    "_percent_": true,
    "_skin_": "s1d5d3417cb74ec9883e5f01b8521945",
    "_top_": {
        "type": "string",
        "value": "0dp"
    },
    "_width_": {
        "type": "string",
        "value": "389dp"
    },
    "allboxes": [],
    "canUpdateUI": true,
    "centerx": {
        "type": "string",
        "value": "50%"
    },
    "children": [
        "imgActivationLinkExpired",
        "lblActivationExpiredLink",
        "rtxActivationLinkExpired"
    ],
    "clipbounds": false,
    "containerweight": 100,
    "enablescrolling": true,
    "id": "flxActivationLinkExpired",
    "info": null,
    "isvisible": false,
    "kuid": "e3bd0604050040cdb8d32a1d6196b7ca",
    "layouttype": 2,
    "name": "kony.ui.FlexContainer",
    "parent": "flxMain",
    "pf": "frmEnrollNow",
    "responsiveData": {
        "b1": {
            "centerX": {
                "type": "string",
                "value": ""
            },
            "height": {
                "type": "string",
                "value": "100%"
            },
            "width": {
                "type": "string",
                "value": "500dp"
            },
            "zIndex": 1
        },
        "b2": {
            "height": {
                "type": "string",
                "value": "630dp"
            },
            "isVisible": false,
            "top": {
                "type": "string",
                "value": "60dp"
            },
            "width": {
                "type": "string",
                "value": "60%"
            }
        },
        "b3": {
            "height": {
                "type": "string",
                "value": "630dp"
            },
            "isVisible": false,
            "top": {
                "type": "string",
                "value": "40dp"
            },
            "width": {
                "type": "string",
                "value": "85%"
            }
        },
        "b4": {
            "centerX": {
                "type": "string",
                "value": "50%"
            },
            "height": {
                "type": "string",
                "value": "630dp"
            },
            "isVisible": false,
            "top": {
                "type": "string",
                "value": "60dp"
            },
            "width": {
                "type": "string",
                "value": "70%"
            }
        }
    },
    "snapgridsize": 10,
    "snaptogrid": true,
    "wType": "FlexContainer",
    "widgetalignment": 1,
    "zindex": 1
}