{
    "@class": "com.kony.gen.viz.model.component.KVizLabel",
    "DNDConfig": null,
    "__parentReadjusting__": false,
    "_height_": {
        "type": "ref",
        "value": "preferred"
    },
    "_left_": {
        "type": "string",
        "value": "30dp"
    },
    "_margin_": [
        1,
        1,
        1,
        1
    ],
    "_padding_": [
        0,
        0,
        0,
        0
    ],
    "_skin_": "s2a370cbc2ba4522a74bf976b4405504",
    "_text_": "Select Questions and set your answers:",
    "_top_": {
        "type": "string",
        "value": "0dp"
    },
    "_width_": {
        "type": "ref",
        "value": "preferred"
    },
    "_wrapping_": 2,
    "accessibilityconfig": {
        "a11yLabel": "Select Questions and set your answers:"
    },
    "android": {
        "textStyle": {
            "letterSpacing": 0,
            "strikeThrough": false
        }
    },
    "canUpdateUI": true,
    "containerweight": 100,
    "contentalignment": 4,
    "id": "lblQuestionsHeading",
    "info": null,
    "ipad": {
        "psp": {
            "wrapping": 2
        }
    },
    "iphone": {
        "psp": {
            "wrapping": 2
        }
    },
    "isvisible": true,
    "kuid": "hd463088ae8340829afdd06b72a666fb",
    "name": "kony.ui.Label",
    "parent": "flxScrollContainerSetSecurityQuestions",
    "pf": "frmEnrollNow",
    "responsiveData": {
        "b1": {
            "left": {
                "type": "string",
                "value": "70dp"
            },
            "width": {
                "type": "string",
                "value": "70%"
            }
        },
        "b2": {
            "left": {
                "type": "string",
                "value": "50dp"
            },
            "width": {
                "type": "string",
                "value": "80%"
            }
        },
        "b3": {
            "left": {
                "type": "string",
                "value": "40dp"
            },
            "width": {
                "type": "string",
                "value": "85%"
            }
        },
        "b4": {
            "left": {
                "type": "string",
                "value": "40dp"
            },
            "width": {
                "type": "string",
                "value": "80%"
            }
        }
    },
    "tooltip": "",
    "wType": "Label",
    "zindex": 1
}