{
    "@class": "com.kony.gen.viz.model.component.KVizLabel",
    "DNDConfig": null,
    "__parentReadjusting__": false,
    "_bottom_": {
        "type": "number",
        "value": ""
    },
    "_height_": {
        "type": "ref",
        "value": "preferred"
    },
    "_left_": {
        "type": "number",
        "value": ""
    },
    "_margin_": [
        1,
        1,
        1,
        1
    ],
    "_padding_": [
        1,
        0,
        1,
        0
    ],
    "_skin_": "s1479fa717444db6b49648e6b8b80f1a",
    "_text_": "Label",
    "_top_": {
        "type": "string",
        "value": "5.28%"
    },
    "_width_": {
        "type": "string",
        "value": "77%"
    },
    "_wrapping_": 2,
    "accessibilityconfig": {
        "a11yLabel": "Please choose a method to verify your account."
    },
    "android": {
        "textStyle": {
            "letterSpacing": 0,
            "strikeThrough": false
        }
    },
    "canUpdateUI": true,
    "centerx": {
        "type": "string",
        "value": "50%"
    },
    "containerweight": 100,
    "contentalignment": 2,
    "id": "lblVerificationNotice",
    "info": null,
    "ipad": {
        "psp": {
            "wrapping": 2
        }
    },
    "iphone": {
        "psp": {
            "wrapping": 2
        }
    },
    "isvisible": true,
    "kuid": "h9306b7c7d0948149dd58c032467fb6c",
    "name": "kony.ui.Label",
    "paddinginpixel": false,
    "parent": "flxEnrollResetPass",
    "pf": "frmEnrollNow",
    "responsiveData": {
        "b1": {
            "centerX": {
                "type": "string",
                "value": ""
            },
            "contentAlignment": 1,
            "left": {
                "type": "string",
                "value": "63dp"
            },
            "padding": [
                1,
                0,
                1,
                0
            ],
            "top": {
                "type": "string",
                "value": "5%"
            },
            "width": {
                "type": "string",
                "value": "313dp"
            }
        },
        "b2": {
            "top": {
                "type": "string",
                "value": "46.28%"
            },
            "width": {
                "type": "string",
                "value": "71.66%"
            }
        },
        "b3": {
            "bottom": {
                "type": "string",
                "value": ""
            },
            "top": {
                "type": "string",
                "value": "65dp"
            },
            "width": {
                "type": "string",
                "value": "65%"
            }
        },
        "b4": {
            "top": {
                "type": "string",
                "value": "48.28%"
            },
            "width": {
                "type": "string",
                "value": "60%"
            }
        }
    },
    "texti18n": "i18n.enrollNow.VerificationNotice",
    "tooltip": "",
    "wType": "Label",
    "zindex": 1
}