{
    "@class": "com.kony.gen.viz.model.component.KVizUserWidget",
    "DNDConfig": null,
    "__parentReadjusting__": false,
    "_children_": [],
    "_desktopweb_": {},
    "_height_": {
        "type": "string",
        "value": "30dp"
    },
    "_left_": {
        "type": "string",
        "value": "0dp"
    },
    "_margin_": [
        0,
        0,
        0,
        0
    ],
    "_orientation_": 1,
    "_padding_": [
        0,
        0,
        0,
        0
    ],
    "_percent_": true,
    "_render_": true,
    "_responsiveData_": {
        "b1": {
            "centerX": {
                "type": "string",
                "value": "50%"
            },
            "top": {
                "type": "string",
                "value": "43.30%"
            },
            "width": {
                "type": "string",
                "value": "60%"
            }
        },
        "b2": {
            "height": {
                "type": "string",
                "value": "30dp"
            },
            "top": {
                "type": "string",
                "value": "42.80%"
            },
            "width": {
                "type": "string",
                "value": "60%"
            }
        },
        "b3": {
            "height": {
                "type": "string",
                "value": "35dp"
            },
            "top": {
                "type": "string",
                "value": "43.28%"
            },
            "width": {
                "type": "string",
                "value": "60%"
            }
        },
        "b4": {
            "height": {
                "type": "string",
                "value": "35dp"
            },
            "top": {
                "type": "string",
                "value": "43.2%"
            },
            "width": {
                "type": "string",
                "value": "60%"
            }
        }
    },
    "_skin_": "s24c92fc23b14f5484b693ee9b8a9b35",
    "_top_": {
        "type": "string",
        "value": "5.28%"
    },
    "_vizProps_": {
        "hidewidgethierarchy": false
    },
    "_width_": {
        "type": "string",
        "value": "85%"
    },
    "areflexpropsreferenced": false,
    "autogrowmode": 0,
    "canUpdateUI": true,
    "centerx": {
        "type": "string",
        "value": "50%"
    },
    "clipbounds": true,
    "containerweight": 0,
    "dataDiffs": {
        "imgOr": {
            "__events__": {},
            "__info__": {
                "kuid": "f12e92d86cbb47b7bcbbfec203d07e28",
                "srcKUID": "b28d750c2e2c4d88a54b1597d8388d82",
                "wType": "Image"
            },
            "src": "or_circle.png"
        },
        "lblCrossOr": {
            "__events__": {},
            "__info__": {
                "kuid": "ce110c3dca7f40aa89461bff085996cc",
                "srcKUID": "d1da309e592b4180b6a9bcb5fdbfa537",
                "wType": "Label"
            }
        },
        "orline": {
            "__events__": {},
            "__info__": {
                "isRoot": true,
                "kuid": "hd35fe330b26441bab103936eb580831",
                "srcKUID": "ddc3b57c039f44e2a41c9ebd04cbe726",
                "wType": "FlexContainer"
            },
            "autogrowMode": {
                "Default": 0
            },
            "centerX": {
                "Default": {
                    "type": "string",
                    "value": "50%"
                }
            },
            "height": {
                "Default": {
                    "type": "string",
                    "value": "30dp"
                }
            },
            "responsiveData": {
                "b1": {
                    "centerX": {
                        "type": "string",
                        "value": "50%"
                    },
                    "top": {
                        "type": "string",
                        "value": "43.30%"
                    },
                    "width": {
                        "type": "string",
                        "value": "60%"
                    }
                },
                "b2": {
                    "height": {
                        "type": "string",
                        "value": "30dp"
                    },
                    "top": {
                        "type": "string",
                        "value": "42.80%"
                    },
                    "width": {
                        "type": "string",
                        "value": "60%"
                    }
                },
                "b3": {
                    "height": {
                        "type": "string",
                        "value": "35dp"
                    },
                    "top": {
                        "type": "string",
                        "value": "43.28%"
                    },
                    "width": {
                        "type": "string",
                        "value": "60%"
                    }
                },
                "b4": {
                    "height": {
                        "type": "string",
                        "value": "35dp"
                    },
                    "top": {
                        "type": "string",
                        "value": "43.2%"
                    },
                    "width": {
                        "type": "string",
                        "value": "60%"
                    }
                }
            },
            "top": {
                "Default": {
                    "type": "string",
                    "value": "5.28%"
                }
            },
            "width": {
                "Default": {
                    "type": "string",
                    "value": "85%"
                }
            }
        }
    },
    "id": "OrLineForCVVandPIN",
    "info": null,
    "isdatareferenced": false,
    "isvisible": true,
    "kuid": "hd35fe330b26441bab103936eb580831",
    "layouttype": 2,
    "masterType": 0,
    "name": "kony.ui.UserWidgetInstance",
    "parent": "flxEnrollPassBtns",
    "pf": "frmEnrollNow",
    "snaptogrid": true,
    "sourceUserWidget": "ddc3b57c039f44e2a41c9ebd04cbe726",
    "vizprops": {
        "hidewidgethierarchy": false
    },
    "wType": "UserWidgetInstance"
}