{
    "DNDConfig": null,
    "_height_": {
        "type": "ref",
        "value": "preferred"
    },
    "_left_": {
        "type": "string",
        "value": "0dp"
    },
    "_margin_": [
        0,
        0,
        0,
        0
    ],
    "_orientation_": 6,
    "_padding_": [
        0,
        0,
        0,
        0
    ],
    "_percent_": true,
    "_skin_": "s24c92fc23b14f5484b693ee9b8a9b35",
    "_top_": {
        "type": "string",
        "value": "0dp"
    },
    "_width_": {
        "type": "string",
        "value": "100%"
    },
    "allboxes": [],
    "autogrowmode": 1,
    "canUpdateUI": true,
    "children": [
        "flxRowIndicatorColor"
    ],
    "clipbounds": false,
    "containerId": true,
    "containerweight": 100,
    "controllerInfo": {
        "default": {
            "channel": "desktop",
            "name": "flxTravelNotificationsExpandedController"
        }
    },
    "enablescrolling": true,
    "id": "flxTravelNotificationsExpanded",
    "info": null,
    "iscustomlayout": false,
    "isvisible": true,
    "kuid": "c24e5e79cd2e4fd4aae4cd660afd584b",
    "layouttype": 2,
    "name": "kony.ui.FlexContainer",
    "parent": "segTravelNotificationsExpanded",
    "pf": "segTravelNotificationsExpanded",
    "retaincontentalignment": false,
    "retainflexpositionproperties": false,
    "snapgridsize": 10,
    "snaptogrid": true,
    "wType": "FlexContainer",
    "widgetalignment": 1
}