{
    "@class": "com.kony.gen.viz.model.component.KVizLabel",
    "DNDConfig": null,
    "Default": {
        "contentAlignment": 4
    },
    "__parentReadjusting__": false,
    "_height_": {
        "type": "string",
        "value": "17dp"
    },
    "_left_": {
        "type": "string",
        "value": "4.12%"
    },
    "_margin_": [
        0,
        0,
        0,
        0
    ],
    "_padding_": [
        1,
        1,
        1,
        1
    ],
    "_skin_": "s787d799c9cd43da848d8b3b7d222686",
    "_text_": "F",
    "_top_": {
        "type": "string",
        "value": "20dp"
    },
    "_width_": {
        "type": "string",
        "value": "15dp"
    },
    "_wrapping_": 2,
    "accessibilityconfig": {
        "a11yLabel": "F"
    },
    "android": {
        "textStyle": {
            "letterSpacing": 0,
            "strikeThrough": false
        }
    },
    "canUpdateUI": true,
    "containerId": true,
    "containerweight": 100,
    "contentalignment": 4,
    "desktopweb": {
        "contentAlignment": 5
    },
    "id": "imgBulletIcon",
    "info": null,
    "ipad": {
        "psp": {
            "wrapping": 2
        }
    },
    "iphone": {
        "psp": {
            "wrapping": 2
        }
    },
    "isvisible": true,
    "kiosk": {
        "contentAlignment": 5
    },
    "kuid": "d42e4f48376644b69a491da336795ea3",
    "name": "kony.ui.Label",
    "paddinginpixel": false,
    "parent": "flxNotificationsAndMessages",
    "pf": "segNotificationsAndMessages",
    "tooltip": "",
    "wType": "Label",
    "zindex": 1
}