{
  "name" : "DbxUserLogin",
  "displayName" : "DbxUserLogin",
  "type" : "custom",
  "version" : "1.0",
  "metaPreference" : -1,
  "config" : "{\"pre_mfa_token_timeout\":10,\"header_params\":[\"x-kony-integrity\"],\"sub_type\":\"customer360\",\"is_mfa_enabled\":true,\"provider_params\":{},\"body_params\":{},\"custom_idp_url\":\"https://dbxlendinguat.konycloud.com/services/dbpDBX/dbxLogin\"}",
  "policyConfig" : "{\"def_user_status\":\"pending\",\"max_login_fail\":5}",
  "admissionPolicy" : "no_approval_needed",
  "identityMeta" : {
    "allow_sso" : false
  },
  "ssoenabled" : false
}