{
	"@class": "com.kony.gen.viz.model.component.KVizUserWidget",
	"DNDConfig": null,
	"__parentReadjusting__": false,
	"_children_": [],
	"_desktopweb_": {
		"render": true
	},
	"_height_": {
		"type": "string",
		"value": "150dp"
	},
	"_kiosk_": {
		"render": true
	},
	"_left_": {
		"type": "string",
		"value": "0dp"
	},
	"_margin_": [
		0,
		0,
		0,
		0
	],
	"_orientation_": 1,
	"_padding_": [
		0,
		0,
		0,
		0
	],
	"_percent_": true,
	"_render_": true,
	"_responsiveData_": {
		"b1": {
			"width": {
				"type": "string",
				"value": "100%"
			}
		},
		"b2": {
			"width": {
				"type": "string",
				"value": "100%"
			}
		},
		"b3": {
			"right": {
				"type": "string",
				"value": "0dp"
			},
			"width": {
				"type": "string",
				"value": "100%"
			}
		}
	},
	"_skin_": "s24c92fc23b14f5484b693ee9b8a9b35",
	"_top_": {
		"type": "string",
		"value": "0dp"
	},
	"_vizProps_": {
		"hidewidgethierarchy": false
	},
	"_width_": {
		"type": "string",
		"value": "1366dp"
	},
	"areflexpropsreferenced": false,
	"canUpdateUI": true,
	"centerx": {
		"type": "string",
		"value": "50%"
	},
	"clipbounds": true,
	"containerweight": 0,
	"dataDiffs": {
		"btnContactUs": {
			"__events__": {
				"ide_onClick": "AS_Button_b074d66bdfca492cb0249f1a2442393c"
			},
			"__info__": {
				"kuid": "hab9cb0efce349f38bec7af72bb5c8be",
				"srcKUID": "c47b0c9af1b84e63aa01af59eb52124a",
				"wType": "Button"
			},
			"left": {},
			"responsiveData": {
				"b3": {
					"left": {
						"type": "string",
						"value": "20dp"
					}
				}
			}
		},
		"btnFaqs": {
			"__events__": {
				"ide_onClick": "AS_Button_ja86a52984e14c1d8ff79e2d497b2d4c"
			},
			"__info__": {
				"kuid": "hd78539a572a46cab81a77186c1f0b26",
				"srcKUID": "ced702d00bc5426892e4632faec9df5d",
				"wType": "Button"
			},
			"responsiveData": {
				"b3": {
					"isVisible": false
				}
			}
		},
		"btnLocateUs": {
			"__events__": {
				"ide_onClick": "AS_Button_f3263c1f01d54ebc9f44f1af8c41dc7e"
			},
			"__info__": {
				"kuid": "cd5f1a99971943ee9d234905b5c2e5ea",
				"srcKUID": "i52587cdcb68471f9e389671ddc5f138",
				"wType": "Button"
			},
			"left": {},
			"responsiveData": {
				"b3": {
					"centerX": {
						"type": "string",
						"value": ""
					},
					"left": {
						"type": "string",
						"value": "0%"
					}
				},
				"b2": {
					"left": {
						"type": "string",
						"value": "0dp"
					}
				}
			},
			"centerX": {}
		},
		"btnPrivacy": {
			"__events__": {
				"ide_onClick": "AS_Button_acca8bde7a3e4e2892acbcee9522f57c"
			},
			"__info__": {
				"kuid": "ccac065840334fd5884de94c55ef95f6",
				"srcKUID": "c3810888a2304c409e04db4cd519b8ee",
				"wType": "Button"
			},
			"responsiveData": {
				"b3": {
					"isVisible": false
				}
			}
		},
		"btnTermsAndConditions": {
			"__events__": {
				"ide_onClick": "AS_Button_ac743ec266af4528b6b093e6b60860fc"
			},
			"__info__": {
				"kuid": "hbd0af5ab92f42d485c2e8d6800fd0cb",
				"srcKUID": "baf7c8f817b34b618b7e1f148f49770a",
				"wType": "Button"
			},
			"responsiveData": {
				"b3": {
					"isVisible": false
				}
			}
		},
		"customfooter": {
			"__events__": {},
			"__info__": {
				"isRoot": true,
				"kuid": "gf48e250b1d247a0829be8ee7d03b47b",
				"srcKUID": "a142e816812a4b5b80f84484dcef7232",
				"wType": "FlexContainer"
			},
			"centerX": {
				"Default": {
					"type": "string",
					"value": "50%"
				}
			},
			"responsiveData": {
				"b3": {
					"width": {
						"type": "string",
						"value": "100%"
					}
				},
				"b2": {
					"width": {
						"type": "string",
						"value": "100%"
					}
				},
				"b1": {
					"width": {
						"type": "string",
						"value": "100%"
					}
				}
			},
			"right": {},
			"width": {
				"Default": {
					"type": "string",
					"value": "1366dp"
				}
			},
			"zIndex": {
				"Default": 2
			}
		},
		"flxFooterMenu": {
			"__events__": {},
			"__info__": {
				"kuid": "db8a322e42334ce1a2d0ab0bfefb944b",
				"srcKUID": "e6b5bc6faf00428680c4dedfe25a0b9a",
				"wType": "FlexContainer"
			},
			"centerX": {
				"Default": {
					"type": "string",
					"value": "50%"
				}
			},
			"left": {
				"Default": {
					"type": "string",
					"value": ""
				}
			},
			"responsiveData": {
				"b3": {
					"width": {
						"type": "string",
						"value": "180dp"
					}
				},
				"b2": {
					"centerX": {
						"type": "string",
						"value": ""
					},
					"left": {
						"type": "string",
						"value": "2.50%"
					},
					"width": {
						"type": "string",
						"value": "90%"
					}
				},
				"b1": {
					"centerX": {
						"type": "string",
						"value": ""
					},
					"left": {
						"type": "string",
						"value": "6%"
					},
					"width": {
						"type": "string",
						"value": "87%"
					}
				}
			},
			"width": {
				"Default": {
					"type": "string",
					"value": "1200dp"
				}
			}
		},
		"flxVBar1": {
			"__events__": {},
			"__info__": {
				"kuid": "f6072220dc564eab99ea9156c79b5b23",
				"srcKUID": "f31fd58a22cc496a93899a924cf2927d",
				"wType": "FlexContainer"
			},
			"centerX": {},
			"left": {},
			"responsiveData": {
				"b3": {
					"centerX": {
						"type": "string",
						"value": ""
					},
					"left": {
						"type": "string",
						"value": "20dp"
					}
				}
			}
		},
		"flxVBar2": {
			"__events__": {},
			"__info__": {
				"kuid": "j09f0f60e503432ab3f09df8e94daa4e",
				"srcKUID": "j39a662286e64bbc9be78a96bb491e27",
				"wType": "FlexContainer"
			},
			"responsiveData": {
				"b3": {
					"isVisible": false
				}
			}
		},
		"flxVBar3": {
			"__events__": {},
			"__info__": {
				"kuid": "jeeb394e120443a7b3de1748082ff635",
				"srcKUID": "a6990ffd77914b8e8757540cb40cad1a",
				"wType": "FlexContainer"
			},
			"responsiveData": {
				"b3": {
					"isVisible": false
				}
			}
		},
		"flxVBar4": {
			"__events__": {},
			"__info__": {
				"kuid": "deb6dd4d740b4bc297f2081457e3c3b9",
				"srcKUID": "e75f96d248634147afa5b6848252df6e",
				"wType": "FlexContainer"
			},
			"responsiveData": {
				"b3": {
					"isVisible": false
				}
			}
		},
		"imgFooterIconOne": {
			"__events__": {},
			"__info__": {
				"kuid": "i4cdb5ac57da4366a0bb789c61569b4f",
				"srcKUID": "f2305e3d65bb448e9d68f5608421f28a",
				"wType": "Image"
			},
			"responsiveData": {
				"b3": {
					"isVisible": false
				},
				"b2": {
					"centerY": {
						"type": "string",
						"value": "75%"
					},
					"isVisible": false,
					"right": {
						"type": "string",
						"value": "10dp"
					}
				}
			},
			"centerY": {},
			"right": {}
		},
		"imgFooterIconThree": {
			"__events__": {},
			"__info__": {
				"kuid": "c87d1892dca14d54967449e5a1732fe8",
				"srcKUID": "hc27193bc4d14f24b60f03ac3c2bddb7",
				"wType": "Image"
			},
			"responsiveData": {
				"b3": {
					"isVisible": false
				},
				"b2": {
					"centerY": {
						"type": "string",
						"value": "40%"
					},
					"isVisible": false,
					"right": {
						"type": "string",
						"value": "60dp"
					}
				}
			},
			"centerY": {},
			"right": {}
		},
		"imgFooterIconTwo": {
			"__events__": {},
			"__info__": {
				"kuid": "de7ad70cee044ae6adb326556dd2ae17",
				"srcKUID": "cf67ed169e364ace9f62b5aa10dcf1d8",
				"wType": "Image"
			},
			"responsiveData": {
				"b3": {
					"isVisible": false
				},
				"b2": {
					"centerY": {
						"type": "string",
						"value": "40%"
					},
					"isVisible": false,
					"right": {
						"type": "string",
						"value": "10dp"
					}
				}
			},
			"centerY": {},
			"right": {}
		},
		"lblCopyright": {
			"__events__": {},
			"__info__": {
				"kuid": "b05962e1af8041f7bb9e2bdca6ded348",
				"srcKUID": "a696ff4e198a4124810242908deae798",
				"wType": "Label"
			},
			"centerX": {
				"Default": {
					"type": "string",
					"value": ""
				}
			},
			"left": {
				"Default": {
					"type": "string",
					"value": "6%"
				}
			},
			"responsiveData": {
				"b3": {},
				"b2": {
					"left": {
						"type": "string",
						"value": "2.50%"
					},
					"width": {
						"type": "string",
						"value": "90%"
					}
				},
				"b1": {}
			},
			"right": {},
			"top": {},
			"width": {
				"Default": {
					"type": "ref",
					"value": "preferred"
				}
			}
		}
	},
	"id": "CustomFooterMain",
	"info": null,
	"isdatareferenced": false,
	"isvisible": true,
	"kuid": "gf48e250b1d247a0829be8ee7d03b47b",
	"layouttype": 2,
	"masterType": 0,
	"name": "kony.ui.UserWidgetInstance",
	"parent": "flxFooter",
	"pf": "frmAcknowledgementEur",
	"snapgridsize": 10,
	"snaptogrid": true,
	"sourceUserWidget": "a142e816812a4b5b80f84484dcef7232",
	"vizprops": {
		"hidewidgethierarchy": false
	},
	"wType": "UserWidgetInstance",
	"zindex": 2
}