{
    "DNDConfig": null,
    "__parentReadjusting__": false,
    "_height_": {
        "type": "ref",
        "value": "preferred"
    },
    "_left_": {
        "type": "string",
        "value": "0dp"
    },
    "_margin_": [
        0,
        0,
        0,
        0
    ],
    "_orientation_": 6,
    "_padding_": [
        0,
        0,
        0,
        0
    ],
    "_percent_": true,
    "_right_": {
        "type": "number",
        "value": ""
    },
    "_skin_": "sb75f187c17c456fb0450d66550451bb",
    "_top_": {
        "type": "string",
        "value": "120dp"
    },
    "_width_": {
        "type": "string",
        "value": "100%"
    },
    "allboxes": [],
    "autogrowmode": 1,
    "canUpdateUI": true,
    "children": [
        "breadcrumb",
        "flxDowntimeWarning",
        "flxContainer",
        "flxMainBulkPay",
        "flxSinglePayStopCheckPayments",
        "flxfootercontainer"
    ],
    "clipbounds": false,
    "containerweight": 100,
    "enablescrolling": true,
    "id": "flxMain",
    "info": null,
    "isvisible": true,
    "kuid": "fa78f8e60b56406d826c45f45bfae504",
    "layouttype": 4,
    "name": "kony.ui.FlexContainer",
    "parent": "frmAcknowledgementEur",
    "pf": "frmAcknowledgementEur",
    "responsiveData": {
        "b1": {
            "skin": "sb75f187c17c456fb0450d66550451bb",
            "width": {
                "type": "string",
                "value": "100%"
            }
        },
        "b2": {
            "skin": "sb75f187c17c456fb0450d66550451bb",
            "width": {
                "type": "string",
                "value": "100%"
            }
        },
        "b3": {
            "height": {
                "type": "ref",
                "value": "preferred"
            },
            "layoutType": 2,
            "left": {
                "type": "string",
                "value": "0dp"
            },
            "right": {
                "type": "string",
                "value": "0dp"
            },
            "skin": "sb75f187c17c456fb0450d66550451bb",
            "top": {
                "type": "string",
                "value": "52dp"
            },
            "width": {
                "type": "string",
                "value": "100%"
            }
        },
        "b4": {
            "skin": "sb75f187c17c456fb0450d66550451bb"
        }
    },
    "snapgridsize": 10,
    "snaptogrid": true,
    "wType": "FlexContainer",
    "widgetalignment": 1,
    "zindex": 1
}