{
    "@class": "com.kony.gen.viz.model.component.KVizLabel",
    "DNDConfig": null,
    "__parentReadjusting__": false,
    "_height_": {
        "type": "ref",
        "value": "preferred"
    },
    "_left_": {
        "type": "string",
        "value": "20dp"
    },
    "_margin_": [
        1,
        1,
        1,
        1
    ],
    "_padding_": [
        0,
        0,
        0,
        0
    ],
    "_skin_": "sb57ddd930ef42d5b307efc805cba3d6",
    "_text_": "Send Money",
    "_width_": {
        "type": "ref",
        "value": "preferred"
    },
    "_wrapping_": 2,
    "accessibilityconfig": {
        "a11yLabel": "Pay a Person"
    },
    "android": {
        "textStyle": {
            "letterSpacing": 0,
            "strikeThrough": false
        }
    },
    "canUpdateUI": true,
    "centery": {
        "type": "string",
        "value": "50%"
    },
    "containerweight": 100,
    "contentalignment": 4,
    "desktopweb": {
        "psp": {}
    },
    "disabledSkins": {
        "hoverSkin": "s7770ba71df14e6caab96a1643d017c8"
    },
    "id": "CopyLabel0a8b12f7002084d",
    "info": null,
    "ipad": {
        "psp": {
            "wrapping": 2
        }
    },
    "iphone": {
        "psp": {
            "wrapping": 2
        }
    },
    "isvisible": true,
    "kuid": "f53f04e1ed5c4b2bbb2f85476119b6a6",
    "name": "kony.ui.Label",
    "parent": "flxSendMoney",
    "pf": "userwidgetmodel",
    "texti18n": "i18n.p2p.PayAPerson",
    "tooltip": "Pay a Person",
    "wType": "Label",
    "zindex": 1
}