{
    "@class": "com.kony.gen.viz.model.component.KVizButton",
    "DNDConfig": null,
    "__parentReadjusting__": false,
    "_height_": {
        "type": "string",
        "value": "50dp"
    },
    "_left_": {
        "type": "string",
        "value": "69.12%"
    },
    "_margin_": [
        6,
        6,
        6,
        6
    ],
    "_padding_": [
        0,
        0,
        0,
        0
    ],
    "_skin_": "sfbbba35ede4457b94eb681b72349b98",
    "_text_": "ACCOUNT SUMMARY",
    "_top_": {
        "type": "string",
        "value": "20dp"
    },
    "_width_": {
        "type": "string",
        "value": "28.96%"
    },
    "accessibilityconfig": {
        "a11yLabel": "ACCOUNT SUMMARY"
    },
    "canUpdateUI": true,
    "containerweight": 100,
    "contentalignment": 5,
    "desktopweb": {
        "psp": {
            "hoverSkin": "s7ab6326aaf94c28b90b61fcb1b54547"
        }
    },
    "disabledSkins": {},
    "displaytext": true,
    "focusskin": "sfd0ce0d7f454c9f83c7e815a90a8a55",
    "id": "btnAccountSummary",
    "info": null,
    "isvisible": true,
    "kuid": "cbb82dc82ff5427d811c41b9f51224a1",
    "name": "kony.ui.Button",
    "parent": "flxAcknowledgementButtons",
    "pf": "userwidgetmodel",
    "tooltip": "PROCEED",
    "wType": "Button",
    "zindex": 1
}