{
    "@class": "com.kony.gen.viz.model.container.KVizSegment2",
    "DNDConfig": null,
    "__parentReadjusting__": false,
    "_bottom_": {
        "type": "string",
        "value": "10dp"
    },
    "_data_": [],
    "_height_": {
        "type": "ref",
        "value": "preferred"
    },
    "_indicator_": "none",
    "_left_": {
        "type": "string",
        "value": "0dp"
    },
    "_margin_": [
        0,
        0,
        0,
        0
    ],
    "_orientation_": 2,
    "_padding_": [
        0,
        0,
        0,
        0
    ],
    "_top_": {
        "type": "string",
        "value": "0dp"
    },
    "_width_": {
        "type": "string",
        "value": "100%"
    },
    "autogrowmode": 1,
    "canUpdateUI": true,
    "containerweight": 100,
    "counter": "02",
    "desktop": {
        "_data_": [],
        "rowTemplateId": "hf431e53b7a44672bab976dfc58cfccb",
        "rowtemplate": "flxSelectedAccounts",
        "widgetdatamap": {
            "flxAccountNameWrapper": "flxAccountNameWrapper",
            "flxAvailableBalance": "flxAvailableBalance",
            "flxAvailableBalanceWrapper": "flxAvailableBalanceWrapper",
            "flxSelectedAccounts": "flxSelectedAccounts",
            "flxcheckbox": "flxcheckbox",
            "lblAccountName": "lblAccountName",
            "lblAccountNumber": "lblAccountNumber",
            "lblAvailableBalanceTitle": "lblAvailableBalanceTitle",
            "lblAvailableBalanceValue": "lblAvailableBalanceValue",
            "lblCheckBox": "lblCheckBox",
            "lblSeperator": "lblSeperator"
        }
    },
    "focusedindex": null,
    "focuseditem": null,
    "groupcells": false,
    "hasSections": false,
    "id": "segSelectedAccounts",
    "info": null,
    "ipad": {
        "psp": {
            "indicator": "rowselect"
        }
    },
    "iphone": {
        "psp": {
            "indicator": "rowselect"
        }
    },
    "iscustomlayout": false,
    "isvisible": true,
    "kuid": "f2aacb444d454f5ba8c9bb0762577645",
    "masterdata": {},
    "name": "kony.ui.SegmentedUI2",
    "needpageindicator": true,
    "pageoffdotimage": "pageoffdot.png",
    "pageondotimage": "pageondot.png",
    "paginationconfig": {
        "position": "bottom"
    },
    "parent": "flxAcknowledgementMain",
    "pf": "userwidgetmodel",
    "retaincontentalignment": false,
    "retainflexpositionproperties": false,
    "retainselection": false,
    "rowcounter": 2,
    "rowfocusskin": "s9f69e977910472eb44c62ae28c41fe1",
    "rowskin": "scf5f90f6ac04976ab88b2a4f7153285",
    "rowtemplate": "flxSelectedAccounts",
    "screenlevelwidget": false,
    "seccounter": 0,
    "sectionheaderskin": "sdc4ff4ed1584272be2ae69045dfb29d",
    "selectedRows": null,
    "selectedState": false,
    "selectedindex": null,
    "selectedindices": null,
    "selecteditems": null,
    "selectedsectionindex": 0,
    "selectionbehavior": "default",
    "separatorcolor": "aaaaaa00",
    "separatorrequired": false,
    "separatorthickness": 1,
    "showscrollbars": false,
    "viewtype": "tableview",
    "wType": "Segment",
    "widgetalignment": 5,
    "widgetdatamap": {
        "flxAccountNameWrapper": "flxAccountNameWrapper",
        "flxAvailableBalance": "flxAvailableBalance",
        "flxAvailableBalanceWrapper": "flxAvailableBalanceWrapper",
        "flxSelectedAccounts": "flxSelectedAccounts",
        "flxcheckbox": "flxcheckbox",
        "lblAccountName": "lblAccountName",
        "lblAccountNumber": "lblAccountNumber",
        "lblAvailableBalanceTitle": "lblAvailableBalanceTitle",
        "lblAvailableBalanceValue": "lblAvailableBalanceValue",
        "lblCheckBox": "lblCheckBox",
        "lblSeperator": "lblSeperator"
    },
    "zindex": 1
}