{
    "@class": "com.kony.gen.viz.model.component.KVizUserWidget",
    "DNDConfig": null,
    "__parentReadjusting__": false,
    "_children_": [],
    "_height_": {
        "type": "ref",
        "value": "preferred"
    },
    "_left_": {
        "type": "string",
        "value": "0dp"
    },
    "_margin_": [
        0,
        0,
        0,
        0
    ],
    "_orientation_": 1,
    "_padding_": [
        0,
        0,
        0,
        0
    ],
    "_percent_": true,
    "_render_": true,
    "_skin_": "sdc143f0e5b64ae3a3f155f691c73fa7",
    "_top_": {
        "type": "string",
        "value": "0dp"
    },
    "_width_": {
        "type": "string",
        "value": "100%"
    },
    "areflexpropsreferenced": false,
    "autogrowmode": 1,
    "canUpdateUI": true,
    "clipbounds": false,
    "containerweight": 0,
    "dataDiffs": {
        "ConfirmDetailsSingleMultiple": {
            "__events__": {},
            "__info__": {
                "isRoot": true,
                "kuid": "i79258675ea64937b17bf998f7add0e5",
                "srcKUID": "g9bf856ebe344b548fb8b63ccf9eabad",
                "wType": "FlexContainer"
            }
        },
        "btnBackToAccoutnDetails": {
            "__events__": {},
            "__info__": {
                "kuid": "c2d03d15830f4481835243f787f1c541",
                "srcKUID": "b75e078af9564aa186366890825d26ab",
                "wType": "Button"
            },
            "width": {
                "Default": {
                    "type": "string",
                    "value": "18.81%"
                }
            }
        },
        "btnCancel": {
            "__events__": {},
            "__info__": {
                "kuid": "c9d71e67e18a47338d36187585ed1817",
                "srcKUID": "e209929e7402413ea6f9e0a5a20b1484",
                "wType": "Button"
            },
            "responsiveData": {
                "b2": {
                    "right": {
                        "type": "string",
                        "value": "51%"
                    },
                    "width": {
                        "type": "string",
                        "value": "20.92%"
                    }
                }
            },
            "right": {},
            "width": {}
        },
        "btnConfirm": {
            "__events__": {},
            "__info__": {
                "kuid": "aa62335a62a4433182401494958dab5b",
                "srcKUID": "cfa3be3f09004664993efdf98e3b3937",
                "wType": "Button"
            },
            "responsiveData": {
                "b2": {
                    "right": {
                        "type": "string",
                        "value": "20dp"
                    },
                    "width": {
                        "type": "string",
                        "value": "20.92%"
                    }
                }
            },
            "right": {},
            "width": {}
        },
        "btnModify": {
            "__events__": {},
            "__info__": {
                "kuid": "f81beff591714cea907977e66c600800",
                "srcKUID": "a8e346ccd92048df9147f221d04606ae",
                "wType": "Button"
            },
            "responsiveData": {
                "b2": {
                    "right": {
                        "type": "string",
                        "value": "27%"
                    },
                    "width": {
                        "type": "string",
                        "value": "20.92%"
                    }
                }
            },
            "right": {},
            "width": {}
        },
        "btnViewRequests": {
            "__events__": {},
            "__info__": {
                "kuid": "g70e59fd844c42dcaa4947ca35662c5e",
                "srcKUID": "f58f63a986124ad1af1b0deb38b6b96b",
                "wType": "Button"
            }
        },
        "flxAckButtons": {
            "__events__": {},
            "__info__": {
                "kuid": "c75eaf90e8fb4c0595998fb016238a0b",
                "srcKUID": "j9f68fb8f1d4474eb3df670938c72a07",
                "wType": "FlexContainer"
            },
            "isVisible": false,
            "width": {
                "Default": {
                    "type": "string",
                    "value": "100%"
                }
            }
        },
        "flxConfirmHeader": {
            "__events__": {},
            "__info__": {
                "kuid": "a6ce75bf98834b428d768ace5b9b1041",
                "srcKUID": "c383a3856f2042cf93d80b50bf53c65c",
                "wType": "FlexContainer"
            }
        },
        "flxHeaderSeperator": {
            "__events__": {},
            "__info__": {
                "kuid": "i795dda045334bb9a885b839f158bd85",
                "srcKUID": "if87faf7ec8140bfbba215088495c14d",
                "wType": "FlexContainer"
            },
            "left": {},
            "responsiveData": {
                "b2": {
                    "left": {
                        "type": "string",
                        "value": "20dp"
                    },
                    "right": {
                        "type": "string",
                        "value": "20dp"
                    },
                    "width": {
                        "type": "string",
                        "value": ""
                    }
                }
            },
            "right": {},
            "width": {}
        },
        "flxSepeartor2": {
            "__events__": {},
            "__info__": {
                "kuid": "aa5e5839c9ba4ec8ad3ee21560350c2b",
                "srcKUID": "cd9337c0f69a406f99441cb53826953f",
                "wType": "FlexContainer"
            }
        },
        "flxStep2ButtonSeperator": {
            "__events__": {},
            "__info__": {
                "kuid": "db8f9fe3c3804f6aa8f9d1901b77f876",
                "srcKUID": "a3c20c34ce41458abc34e1aacf572e09",
                "wType": "FlexContainer"
            },
            "responsiveData": {
                "b2": {
                    "width": {
                        "type": "string",
                        "value": ""
                    }
                }
            },
            "width": {}
        },
        "flxStep2Buttons": {
            "__events__": {},
            "__info__": {
                "kuid": "gae67e70ecba498e90298b3be373b424",
                "srcKUID": "d3dc9d5946ad4611836605761cba9650",
                "wType": "FlexContainer"
            }
        },
        "flxTransactionDetails": {
            "__events__": {},
            "__info__": {
                "kuid": "cbb0acaf1ed14928b456746445635a7e",
                "srcKUID": "ac7f30cb2cec4b32a798548837bf784f",
                "wType": "FlexContainer"
            }
        },
        "flxTransactionDetailsRow1": {
            "__events__": {},
            "__info__": {
                "kuid": "ed774e24f84b4fddaab66373ba218df7",
                "srcKUID": "a526b849f13e4c7eabab32e89f3f4180",
                "wType": "FlexContainer"
            }
        },
        "flxTransactionDetailsRow2": {
            "__events__": {},
            "__info__": {
                "kuid": "iec64889d8b647fc92d980595f2c0dc3",
                "srcKUID": "i5dce0251af440dfbd41e856f0490730",
                "wType": "FlexContainer"
            }
        },
        "flxTransactionDetailsRow3": {
            "__events__": {},
            "__info__": {
                "kuid": "i453f96584094c1dbaccf9ed2f17b542",
                "srcKUID": "h8a1912c59334d709e4d3cd5d5bb19ba",
                "wType": "FlexContainer"
            },
            "responsiveData": {
                "b2": {
                    "isVisible": false
                }
            }
        },
        "lblAmount": {
            "__events__": {},
            "__info__": {
                "kuid": "j43696a729b449db9ca892957f7fffe9",
                "srcKUID": "ab382ec154894865bda94f660f9657d5",
                "wType": "Label"
            },
            "left": {},
            "responsiveData": {
                "b2": {
                    "left": {
                        "type": "string",
                        "value": "20dp"
                    }
                }
            }
        },
        "lblConfirmHeader": {
            "__events__": {},
            "__info__": {
                "kuid": "j82112eda6f746869fcf5600d4f89cab",
                "srcKUID": "fbd8c1d2fd144420bed5a17dfa769fd9",
                "wType": "Label"
            },
            "left": {},
            "responsiveData": {
                "b2": {
                    "left": {
                        "type": "string",
                        "value": "20dp"
                    }
                }
            }
        },
        "lblDescription": {
            "__events__": {},
            "__info__": {
                "kuid": "f7bcb39ae4604803a17b6a96da335869",
                "srcKUID": "ba7a6ea6e764447bb3c11581e6ffad8c",
                "wType": "Label"
            },
            "left": {},
            "responsiveData": {
                "b2": {
                    "left": {
                        "type": "string",
                        "value": "20dp"
                    }
                }
            }
        },
        "lblReason": {
            "__events__": {},
            "__info__": {
                "kuid": "efb35bef3ab64ef0b13cf224f81da392",
                "srcKUID": "ad5d1102e9344a2b87bf15c46ab81377",
                "wType": "Label"
            },
            "left": {},
            "responsiveData": {
                "b2": {
                    "left": {
                        "type": "string",
                        "value": "20dp"
                    }
                }
            }
        },
        "rtxAmount": {
            "__events__": {},
            "__info__": {
                "kuid": "ff539f6fbbd4478fb91b4971e169fc93",
                "srcKUID": "e24b2dfa3af34f2cb90b58a94bea81f4",
                "wType": "RichText"
            },
            "left": {},
            "responsiveData": {
                "b2": {
                    "left": {
                        "type": "string",
                        "value": "20%"
                    }
                }
            }
        },
        "rtxDescription": {
            "__events__": {},
            "__info__": {
                "kuid": "aea83467208c4d42b7f1196a30f814d0",
                "srcKUID": "e118f8956d2b4003863fe2be2ea8ffd2",
                "wType": "RichText"
            },
            "left": {},
            "responsiveData": {
                "b2": {
                    "left": {
                        "type": "string",
                        "value": "20%"
                    },
                    "right": {
                        "type": "string",
                        "value": "52%"
                    }
                }
            },
            "right": {}
        },
        "rtxReason": {
            "__events__": {},
            "__info__": {
                "kuid": "hc7dc3c82b794bfb98e18341a077a159",
                "srcKUID": "c3bd54bb58b04bc99111ce606bd0756d",
                "wType": "RichText"
            },
            "left": {},
            "responsiveData": {
                "b2": {
                    "left": {
                        "type": "string",
                        "value": "20%"
                    }
                }
            }
        },
        "segConfirmDetails": {
            "__events__": {},
            "__info__": {
                "kuid": "d9867cd90104449e82868e20aefdfeb7",
                "srcKUID": "g7977bca4b704a458d88f8b7256ebfcc",
                "wType": "Segment"
            }
        }
    },
    "id": "ConfirmDetailsSingleMultiple",
    "info": null,
    "isdatareferenced": false,
    "isvisible": true,
    "kuid": "i79258675ea64937b17bf998f7add0e5",
    "layouttype": 4,
    "masterType": 0,
    "name": "kony.ui.UserWidgetInstance",
    "parent": "flxDisputeTransactionDetails",
    "pf": "frmConfirm",
    "snaptogrid": true,
    "sourceUserWidget": "g9bf856ebe344b548fb8b63ccf9eabad",
    "vizprops": {
        "hidewidgethierarchy": false
    },
    "wType": "UserWidgetInstance"
}