{
    "@class": "com.kony.gen.viz.model.component.KVizListBox",
    "DNDConfig": null,
    "__parentReadjusting__": false,
    "_height_": {
        "type": "string",
        "value": "40dp"
    },
    "_left_": {
        "type": "string",
        "value": "51%"
    },
    "_margin_": [
        0,
        0,
        0,
        0
    ],
    "_padding_": [
        1,
        0,
        0,
        0
    ],
    "_skin_": "sbaba22b80b348e6a9f536af0ad26b53",
    "_top_": {
        "type": "string",
        "value": "80%"
    },
    "_width_": {
        "type": "string",
        "value": "45.30%"
    },
    "canUpdateUI": true,
    "containerweight": 100,
    "contentalignment": 4,
    "context": {
        "channel": "desktop",
        "formID": "uwc392cab45f364225809790b44deb8fe0",
        "platform": "desktopweb",
        "templateType": "userwidgets",
        "topLevelBox": null
    },
    "desktopweb": {
        "psp": {
            "hoverSkin": "sba5012deddd4a46a4ba30a09e9df91b"
        }
    },
    "focusskin": "sba5012deddd4a46a4ba30a09e9df91b",
    "groupcells": false,
    "id": "lbxCategory",
    "ide_onSelection": "AS_ListBox_ee91d7b876c74753adfe1151eec05a57",
    "info": null,
    "isvisible": true,
    "kuid": "fe501039122f45749cff7d97cafc6d9f",
    "masterdata": [
        [
            "lb1",
            "Personal Checking ...1234 (Available:4200.00)",
            "i18n.transfers.frequency.once"
        ],
        [
            "lb2",
            "Value",
            "i18n.Transfers.Daily"
        ],
        [
            "lb3",
            "Value",
            "i18n.Transfers.Weekly"
        ],
        [
            "lb4",
            "Value",
            "i18n.Transfers.EveryTwoWeeks"
        ],
        [
            "lb5",
            "Value",
            "i18n.Transfers.Monthly"
        ],
        [
            "lb6",
            "Value",
            "i18n.Transfers.Quaterly"
        ],
        [
            "lb7",
            "Value",
            "i18n.Transfers.HalfYearly"
        ],
        [
            "lb8",
            "Value",
            "i18n.Transfers.Yearly"
        ]
    ],
    "name": "kony.ui.ListBox",
    "paddinginpixel": false,
    "parent": "flxDetails",
    "pf": "userwidgetmodel",
    "selectedkeys": null,
    "selectedkeyvalue": null,
    "selectedkeyvalues": null,
    "size": 18,
    "viewconfig": {
        "toggleViewConfig": {
            "viewStyle": 0
        }
    },
    "viewtype": 0,
    "wType": "ListBox",
    "zindex": 1
}