{
    "@class": "com.kony.gen.viz.model.component.KVizButton",
    "DNDConfig": null,
    "__parentReadjusting__": false,
    "_height_": {
        "type": "string",
        "value": "100%"
    },
    "_left_": {
        "type": "string",
        "value": "0%"
    },
    "_margin_": [
        6,
        6,
        6,
        6
    ],
    "_padding_": [
        0,
        0,
        0,
        0
    ],
    "_skin_": "sf6ca31ec68641e5a2df8232c58cd39a",
    "_text_": "REPEAT",
    "_top_": {
        "type": "string",
        "value": "0dp"
    },
    "_width_": {
        "type": "string",
        "value": "50%"
    },
    "accessibilityconfig": {
        "a11yLabel": "Repeat"
    },
    "canUpdateUI": true,
    "containerId": true,
    "containerweight": 100,
    "contentalignment": 5,
    "disabledSkins": {
        "focusSkin": "sf44d06ca8224832827ea7fdff757013"
    },
    "displaytext": true,
    "id": "btnRepeat",
    "ide_onClick": "AS_Button_i6f6e6ae47cd40249816da74685ae868",
    "info": null,
    "isvisible": true,
    "kuid": "f71d9c2ed7f24a18b9aa90792c3fa563",
    "name": "kony.ui.Button",
    "parent": "flxActionsWrapper",
    "pf": "segCheckImagesMobile",
    "texti18n": "i18n.accounts.repeat",
    "tooltip": "Edit Category Rule",
    "wType": "Button",
    "zindex": 1
}