{
    "DNDConfig": null,
    "__parentReadjusting__": false,
    "_height_": {
        "type": "string",
        "value": "151dp"
    },
    "_left_": {
        "type": "string",
        "value": "0%"
    },
    "_margin_": [
        0,
        0,
        0,
        0
    ],
    "_orientation_": 6,
    "_padding_": [
        0,
        0,
        0,
        0
    ],
    "_percent_": true,
    "_skin_": "sfe7c6ddceef4b24a7f6bb890bb111a5",
    "_top_": {
        "type": "string",
        "value": "15dp"
    },
    "_width_": {
        "type": "string",
        "value": "100%"
    },
    "allboxes": [],
    "autogrowmode": 0,
    "canUpdateUI": true,
    "children": [
        "CopyflxToHeader0edb471231a4341",
        "flxCheck2Ttitle",
        "CopyflxTypeHeader0h69b241b59db49",
        "flxBankName2",
        "CopyflxWithdrawalAmountHeader0b89d95cf8e214c",
        "flxWithdrawalAmountCheck2",
        "flxCheckImage2Icon"
    ],
    "clipbounds": true,
    "containerId": true,
    "containerweight": 100,
    "enablescrolling": true,
    "id": "flxCheck2",
    "info": null,
    "isvisible": true,
    "kuid": "g755a3388f8f4c3697e44669721f75da",
    "layouttype": 4,
    "name": "kony.ui.FlexContainer",
    "parent": "flxInformation",
    "pf": "segCheckImagesMobile",
    "snapgridsize": 10,
    "snaptogrid": true,
    "wType": "FlexContainer",
    "widgetalignment": 1,
    "zindex": 1
}