{
    "@class": "com.kony.gen.viz.model.component.KVizImage2",
    "DNDConfig": null,
    "__parentReadjusting__": false,
    "_base64_": null,
    "_height_": {
        "type": "string",
        "value": "15dp"
    },
    "_left_": {
        "type": "string",
        "value": "5dp"
    },
    "_margin_": [
        0,
        0,
        0,
        0
    ],
    "_padding_": [
        0,
        0,
        0,
        0
    ],
    "_skin_": "s8ee487de5774c1eb668e74bf92f5cdd",
    "_src_": "sortingfinal.png",
    "_width_": {
        "type": "string",
        "value": "12dp"
    },
    "canUpdateUI": true,
    "centery": {
        "type": "string",
        "value": "50%"
    },
    "containerweight": 100,
    "context": {
        "channel": "desktop",
        "formID": "uwu69286d38c264a91aa227ccae97f0ddc",
        "platform": "desktopweb",
        "templateType": "userwidgets",
        "topLevelBox": null
    },
    "id": "imgSortDescription",
    "imagescalemode": 1,
    "imagewhiledownloading": "img_transparent.png",
    "info": null,
    "invokedProperty": "src",
    "isvisible": true,
    "kuid": "b0c560211cb84a95b5ac2f098c604abf",
    "name": "kony.ui.Image2",
    "parent": "flxSendTo",
    "pf": "userwidgetmodel",
    "srcType": 1,
    "tooltip": "Sort By Description",
    "wType": "Image",
    "widgetalignment": 5,
    "zindex": 1,
    "accessibilityconfig": {
        "a11yLabel": "Sort By Description"
    }
}