{
    "@class": "com.kony.gen.viz.model.component.KVizButton",
    "DNDConfig": null,
    "__parentReadjusting__": false,
    "_height_": {
        "type": "string",
        "value": "40dp"
    },
    "_margin_": [
        6,
        6,
        6,
        6
    ],
    "_padding_": [
        0,
        0,
        0,
        0
    ],
    "_right_": {
        "type": "string",
        "value": "5%"
    },
    "_skin_": "sfbbba35ede4457b94eb681b72349b98",
    "_text_": "",
    "_top_": {
        "type": "string",
        "value": "0dp"
    },
    "_width_": {
        "type": "string",
        "value": "30%"
    },
    "accessibilityconfig": {
        "a11yLabel": "Yes"
    },
    "canUpdateUI": true,
    "containerweight": 100,
    "contentalignment": 5,
    "desktopweb": {
        "psp": {
            "hoverSkin": "s81054b5e2b74f17a5261991df565427"
        }
    },
    "displaytext": true,
    "focusskin": "s5a4f67acd3e47b9be6d6910a7a6686f",
    "id": "btnYes",
    "info": null,
    "isvisible": true,
    "kuid": "c3cbd55101e146b4bf5430b0e51170e3",
    "name": "kony.ui.Button",
    "parent": "flxSubmitBtnWrapper",
    "pf": "userwidgetmodel",
    "texti18n": "i18n.common.yes",
    "tooltip": "Yes",
    "wType": "Button",
    "zindex": 1
}