{
    "DNDConfig": null,
    "__parentReadjusting__": false,
    "_height_": {
        "type": "string",
        "value": "75dp"
    },
    "_left_": {
        "type": "string",
        "value": "26dp"
    },
    "_margin_": [
        0,
        0,
        0,
        0
    ],
    "_orientation_": 6,
    "_padding_": [
        0,
        0,
        0,
        0
    ],
    "_percent_": true,
    "_skin_": "s96f030b7ad042f5a9272590f0930a45",
    "_top_": {
        "type": "string",
        "value": "115dp"
    },
    "_width_": {
        "type": "string",
        "value": "90%"
    },
    "allboxes": [],
    "autogrowmode": 0,
    "canUpdateUI": true,
    "children": [
        "flxFollowingPoints",
        "lblThisServicesIsChargeble"
    ],
    "clipbounds": true,
    "containerweight": 100,
    "enablescrolling": true,
    "id": "flxPleaseNoteTheFollowingPoints",
    "info": null,
    "isvisible": true,
    "kuid": "ee796450b0a54586b82e428feeb42bbd",
    "layouttype": 2,
    "name": "kony.ui.FlexContainer",
    "parent": "CancelStopCheckPayments",
    "pf": "userwidgetmodel",
    "snapgridsize": 10,
    "snaptogrid": true,
    "wType": "FlexContainer",
    "widgetalignment": 1,
    "zindex": 1
}