{
    "@class": "com.kony.gen.viz.model.component.KVizButton",
    "DNDConfig": null,
    "__parentReadjusting__": false,
    "_height_": {
        "type": "string",
        "value": "25dp"
    },
    "_left_": {
        "type": "string",
        "value": "32.50%"
    },
    "_margin_": [
        6,
        6,
        6,
        6
    ],
    "_padding_": [
        0,
        0,
        0,
        0
    ],
    "_skin_": "sdb9d18f726a491390c0de98860b057a",
    "_text_": "ADDITIONAL E-MAIL",
    "_top_": {
        "type": "string",
        "value": "43.00%"
    },
    "_width_": {
        "type": "string",
        "value": "60%"
    },
    "canUpdateUI": true,
    "containerweight": 100,
    "contentalignment": 4,
    "disabledSkins": {
        "focusSkin": "s3e5412c60b74900b1a897492d635a34"
    },
    "displaytext": true,
    "id": "btnAddEmail",
    "ide_onClick": "AS_Button_3aeebcf34e744e868c9c31f05b46e6e1",
    "info": null,
    "isvisible": true,
    "kuid": "g93e0f735ad84f6289180a39568b60ea",
    "name": "kony.ui.Button",
    "parent": "flxAddBtnEmail",
    "pf": "userwidgetmodel",
    "wType": "Button",
    "zindex": 1,
    "accessibilityconfig": {
        "a11yLabel": "ADDITIONAL E-MAIL"
    }
}