{
    "@class": "com.kony.gen.viz.model.component.KVizButton",
    "DNDConfig": null,
    "__parentReadjusting__": false,
    "_height_": {
        "type": "string",
        "value": "100%"
    },
    "_left_": {
        "type": "string",
        "value": "0dp"
    },
    "_margin_": [
        6,
        6,
        6,
        6
    ],
    "_padding_": [
        2,
        0,
        2,
        0
    ],
    "_skin_": "s5dd5bb2b8874529bd590fd8525a7fd5",
    "_text_": "Enter Payee Information",
    "_top_": {
        "type": "string",
        "value": "0dp"
    },
    "_width_": {
        "type": "ref",
        "value": "preferred"
    },
    "accessibilityconfig": {
        "a11yLabel": "Enter Payee Information"
    },
    "canUpdateUI": true,
    "centery": {
        "type": "string",
        "value": ""
    },
    "containerweight": 100,
    "contentalignment": 5,
    "desktopweb": {
        "psp": {
            "hoverSkin": "sc81e19f9198454c82d4f148a92a2561"
        }
    },
    "disabledSkins": {
        "focusSkin": "sf44d06ca8224832827ea7fdff757013"
    },
    "displaytext": true,
    "id": "btnEnterPayeeInfo",
    "ide_onClick": "AS_Button_b85fade4b6a44766883cbe37ab9f3889",
    "info": null,
    "isvisible": true,
    "kuid": "j62a6ce76f7a4520841f0a1d77d14f38",
    "name": "kony.ui.Button",
    "paddingLocked": false,
    "paddinginpixel": false,
    "parent": "flxAddPayeeTabs",
    "pf": "frmAddPayee",
    "responsiveData": {
        "b3": {}
    },
    "tooltip": "Enter Payee Information",
    "wType": "Button",
    "zindex": 2
}