{
    "@class": "com.kony.gen.viz.model.component.KVizButton",
    "DNDConfig": null,
    "__parentReadjusting__": false,
    "_height_": {
        "type": "string",
        "value": "40dp"
    },
    "_margin_": [
        6,
        6,
        6,
        6
    ],
    "_padding_": [
        0,
        0,
        0,
        0
    ],
    "_right_": {
        "type": "string",
        "value": "34.88%"
    },
    "_skin_": "sa611611b2f24e93bcfd09e1606c0d86",
    "_text_": "RESET",
    "_top_": {
        "type": "string",
        "value": "60dp"
    },
    "_width_": {
        "type": "string",
        "value": "28.90%"
    },
    "accessibilityconfig": {
        "a11yLabel": "Reset"
    },
    "canUpdateUI": true,
    "containerweight": 100,
    "contentalignment": 5,
    "desktopweb": {
        "psp": {
            "hoverSkin": "sba91fb5e9774521856508ab3e21943d"
        }
    },
    "displaytext": true,
    "focusskin": "sb23593b913b4005add4a246020aa1cc",
    "id": "btnResetPayeeInfo",
    "ide_onClick": "AS_Button_d3b373073e25498e9ddbfd4817ec3a79",
    "info": null,
    "isvisible": true,
    "kuid": "de4dc43e81814015b955617377cc0735",
    "name": "kony.ui.Button",
    "parent": "flxResetNext",
    "pf": "frmAddPayee",
    "responsiveData": {
        "b1": {
            "right": {
                "type": "string",
                "value": "196dp"
            },
            "width": {
                "type": "string",
                "value": "150dp"
            }
        },
        "b2": {
            "right": {
                "type": "string",
                "value": "196dp"
            },
            "top": {
                "type": "string",
                "value": "40dp"
            },
            "width": {
                "type": "string",
                "value": "150dp"
            }
        },
        "b3": {
            "right": {
                "type": "string",
                "value": "2.50%"
            },
            "width": {
                "type": "string",
                "value": "95%"
            }
        },
        "b4": {
            "right": {
                "type": "string",
                "value": "196dp"
            },
            "width": {
                "type": "string",
                "value": "150dp"
            }
        }
    },
    "texti18n": "i18n.transfers.reset",
    "tooltip": "Reset",
    "wType": "Button",
    "zindex": 1
}