{
    "@class": "com.kony.gen.viz.model.component.KVizUserWidget",
    "DNDConfig": null,
    "__parentReadjusting__": false,
    "_children_": [],
    "_desktopweb_": {},
    "_height_": {
        "type": "string",
        "value": "268px"
    },
    "_left_": {
        "type": "string",
        "value": "0dp"
    },
    "_margin_": [
        0,
        0,
        0,
        0
    ],
    "_orientation_": 1,
    "_padding_": [
        0,
        0,
        0,
        0
    ],
    "_percent_": true,
    "_render_": true,
    "_responsiveData_": {
        "b2": {
            "width": {
                "type": "string",
                "value": "75%"
            }
        },
        "b3": {
            "width": {
                "type": "string",
                "value": "80%"
            }
        }
    },
    "_skin_": "s701065f11074080832b59947e731160",
    "_top_": {
        "type": "string",
        "value": "300dp"
    },
    "_vizProps_": {
        "hidewidgethierarchy": false
    },
    "_width_": {
        "type": "string",
        "value": "44.30%"
    },
    "areflexpropsreferenced": false,
    "canUpdateUI": true,
    "centerx": {
        "type": "string",
        "value": "50.00%"
    },
    "centery": {
        "type": "string",
        "value": ""
    },
    "clipbounds": false,
    "containerweight": 0,
    "dataDiffs": {
        "CustomPopup": {
            "__events__": {},
            "__info__": {
                "isRoot": true,
                "kuid": "f220bb01e15e4877b9ab8470121061a4",
                "srcKUID": "eb2d311dcb4744a7b05aa4f5428a6c53",
                "wType": "FlexContainer"
            },
            "centerX": {
                "Default": {
                    "type": "string",
                    "value": "50.00%"
                }
            },
            "centerY": {
                "Default": {
                    "type": "string",
                    "value": ""
                }
            },
            "responsiveData": {
                "b2": {
                    "width": {
                        "type": "string",
                        "value": "75%"
                    }
                },
                "b3": {
                    "width": {
                        "type": "string",
                        "value": "80%"
                    }
                }
            },
            "top": {
                "Default": {
                    "type": "string",
                    "value": "300dp"
                }
            },
            "width": {
                "Default": {
                    "type": "string",
                    "value": "44.30%"
                }
            },
            "zIndex": {
                "Default": 1100
            }
        },
        "btnNo": {
            "__events__": {
                "ide_onClick": "AS_Button_e5c4090ca2bc4c0194a457a7cd6d93c8"
            },
            "__info__": {
                "kuid": "h7eddd0a580a4877998f7d45202c837f",
                "srcKUID": "h61577b4448c4e22a2636221e8fe0d6d",
                "wType": "Button"
            }
        },
        "btnYes": {
            "__events__": {
                "ide_onClick": "AS_Button_ia36577772ca4e88bb4f2efdefa62149"
            },
            "__info__": {
                "kuid": "d6ab6561138e4ca89a2cffc9e45726c2",
                "srcKUID": "e1c11d09edb846848d4aaf921cb1e5a0",
                "wType": "Button"
            }
        },
        "flxCross": {
            "__events__": {
                "ide_onClick": "AS_FlexContainer_d6ce4657c00049ebb3e9f1d86f824c79"
            },
            "__info__": {
                "kuid": "ef81e225c2314c23bf356c98d9e10abb",
                "srcKUID": "e896a8d6e1244397be41e1011101c6ec",
                "wType": "FlexContainer"
            }
        },
        "flxHeader": {
            "__events__": {},
            "__info__": {
                "kuid": "dfc1d7906be84410b5c4df5ccb727ea0",
                "srcKUID": "b6d465d7232a428eba11c466c6843856",
                "wType": "FlexContainer"
            }
        },
        "flxSeperator": {
            "__events__": {},
            "__info__": {
                "kuid": "h7d39ff858b74dd49b8a7b21c2285e3e",
                "srcKUID": "b469cc45156e429d8fa47b9786168d10",
                "wType": "FlexContainer"
            }
        },
        "flxSeperator2": {
            "__events__": {},
            "__info__": {
                "kuid": "fa4fe4c50faa45a2818885c378ee3f84",
                "srcKUID": "e909e4e4b4a145b1aa92b22ece7050d3",
                "wType": "FlexContainer"
            }
        },
        "imgCross": {
            "__events__": {},
            "__info__": {
                "kuid": "de064deb666240fca2d21cbb5874eccd",
                "srcKUID": "ja13bba308404016b1cd223dbcdf01ae",
                "wType": "Image"
            },
            "height": {
                "Default": {
                    "type": "string",
                    "value": "15dp"
                }
            }
        },
        "lblHeading": {
            "__events__": {},
            "__info__": {
                "kuid": "a0bd195e07e243eb8b4b10dbf288ecc7",
                "srcKUID": "f97c1408984847af9f3cd9984a260c74",
                "wType": "Label"
            },
            "i18n_text": "i18n.PayAPerson.Quit",
            "text": "QUIT "
        },
        "lblPopupMessage": {
            "__events__": {},
            "__info__": {
                "kuid": "g53bc06368bf41a1844d0be204628d5b",
                "srcKUID": "f7c7509dccf24b88aeb13dc3d34fcc6b",
                "wType": "Label"
            },
            "i18n_text": "i18n.AddPayee.Areyousureyouwanttoundo",
            "text": "Are you sure you want to undo the process of  'Adding a Payee'?",
            "width": {
                "Default": {
                    "type": "string",
                    "value": "70%"
                }
            }
        }
    },
    "id": "CustomPopupCancel",
    "info": null,
    "isdatareferenced": false,
    "isvisible": true,
    "kuid": "a69765d4fc0644838888f334dd8c563f",
    "layouttype": 2,
    "masterType": 0,
    "name": "kony.ui.UserWidgetInstance",
    "parent": "flxCancelPopup",
    "pf": "frmAddPayee",
    "snaptogrid": true,
    "sourceUserWidget": "eb2d311dcb4744a7b05aa4f5428a6c53",
    "vizprops": {
        "hidewidgethierarchy": false
    },
    "wType": "UserWidgetInstance",
    "zindex": 1100
}