{
    "@class": "com.kony.gen.viz.model.component.KVizTextBox2",
    "DNDConfig": null,
    "__parentReadjusting__": false,
    "_height_": {
        "type": "string",
        "value": "40dp"
    },
    "_left_": {
        "type": "string",
        "value": "30%"
    },
    "_margin_": [
        0,
        0,
        0,
        0
    ],
    "_padding_": [
        1,
        0,
        0,
        0
    ],
    "_placeholder_": "",
    "_skin_": "s5cb769112f746969ce57b570e24e849",
    "_text_": "AMERICAN EXPRESS CREDIT CARD",
    "_top_": {
        "type": "string",
        "value": "0dp"
    },
    "_width_": {
        "type": "string",
        "value": "51%"
    },
    "autocapitalize": "none",
    "autocomplete": false,
    "autocorrect": false,
    "autofilter": false,
    "canUpdateUI": true,
    "containerheight": "",
    "containerheightmode": 1,
    "containerweight": 100,
    "contentalignment": 4,
    "desktopweb": {
        "psp": {
            "hoverSkin": "s41ffb1c377b42d08747f57579b9dbd7"
        }
    },
    "focusskin": "s41ffb1c377b42d08747f57579b9dbd7",
    "id": "tbxAddNickValue",
    "info": null,
    "isvisible": true,
    "keyboardtype": "A",
    "kuid": "b621894f46594f4ba0e4fb013fdb7d2e",
    "maxtextlength": 50,
    "mode": "A",
    "name": "kony.ui.TextBox2",
    "paddinginpixel": false,
    "parent": "flxAddNickName",
    "pf": "frmAddPayee",
    "responsiveData": {
        "b3": {
            "left": {
                "type": "string",
                "value": "2.50%"
            },
            "top": {
                "type": "string",
                "value": "5dp"
            },
            "width": {
                "type": "string",
                "value": "95%"
            }
        }
    },
    "securetextentry": false,
    "textinputmode": "A",
    "viewtype": "default",
    "wType": "TextField",
    "zindex": 1
}