{
	"@class": "com.kony.gen.viz.model.component.KVizUserWidget",
	"DNDConfig": null,
	"__parentReadjusting__": false,
	"_children_": [],
	"_desktopweb_": {
		"render": true
	},
	"_height_": {
		"type": "string",
		"value": "150dp"
	},
	"_left_": {
		"type": "string",
		"value": "0dp"
	},
	"_margin_": [
		0,
		0,
		0,
		0
	],
	"_orientation_": 1,
	"_padding_": [
		0,
		0,
		0,
		0
	],
	"_percent_": true,
	"_render_": true,
	"_responsiveData_": {
		"b1": {
			"width": {
				"type": "string",
				"value": "100%"
			}
		},
		"b2": {
			"width": {
				"type": "string",
				"value": "100%"
			}
		},
		"b3": {
			"width": {
				"type": "string",
				"value": "100%"
			}
		}
	},
	"_skin_": "s24c92fc23b14f5484b693ee9b8a9b35",
	"_top_": {
		"type": "string",
		"value": "0dp"
	},
	"_vizProps_": {
		"hidewidgethierarchy": false
	},
	"_width_": {
		"type": "string",
		"value": "1366dp"
	},
	"areflexpropsreferenced": false,
	"canUpdateUI": true,
	"centerx": {
		"type": "string",
		"value": "50%"
	},
	"clipbounds": true,
	"containerweight": 0,
	"dataDiffs": {
		"btnContactUs": {
			"__events__": {},
			"__info__": {
				"kuid": "d1b1235e02934e5fba4537260d0f7bcb",
				"srcKUID": "c47b0c9af1b84e63aa01af59eb52124a",
				"wType": "Button"
			},
			"left": {},
			"responsiveData": {
				"b3": {
					"left": {
						"type": "string",
						"value": "20dp"
					}
				}
			}
		},
		"btnFaqs": {
			"__events__": {},
			"__info__": {
				"kuid": "fbec0535b4ff44659fcf9ca30ea2e45c",
				"srcKUID": "ced702d00bc5426892e4632faec9df5d",
				"wType": "Button"
			},
			"responsiveData": {
				"b3": {
					"isVisible": false
				}
			}
		},
		"btnLocateUs": {
			"__events__": {},
			"__info__": {
				"kuid": "j74c9c079fda49dd9afd68fb0c034550",
				"srcKUID": "i52587cdcb68471f9e389671ddc5f138",
				"wType": "Button"
			},
			"centerX": {},
			"left": {},
			"responsiveData": {
				"b3": {
					"centerX": {
						"type": "string",
						"value": ""
					},
					"left": {
						"type": "string",
						"value": "0%"
					}
				},
				"b2": {
					"left": {
						"type": "string",
						"value": "0dp"
					}
				}
			}
		},
		"btnPrivacy": {
			"__events__": {},
			"__info__": {
				"kuid": "ad47ae5e38d44571b4cfa9096495ea2a",
				"srcKUID": "c3810888a2304c409e04db4cd519b8ee",
				"wType": "Button"
			},
			"responsiveData": {
				"b3": {
					"isVisible": false
				}
			}
		},
		"btnTermsAndConditions": {
			"__events__": {},
			"__info__": {
				"kuid": "dba5d4aff9614633ad18426061c77282",
				"srcKUID": "baf7c8f817b34b618b7e1f148f49770a",
				"wType": "Button"
			},
			"responsiveData": {
				"b3": {
					"isVisible": false
				}
			}
		},
		"customfooter": {
			"__events__": {},
			"__info__": {
				"isRoot": true,
				"kuid": "h519320febfc4bd1a9430461a9bddf55",
				"srcKUID": "a142e816812a4b5b80f84484dcef7232",
				"wType": "FlexContainer"
			},
			"centerX": {
				"Default": {
					"type": "string",
					"value": "50%"
				}
			},
			"responsiveData": {
				"b3": {
					"width": {
						"type": "string",
						"value": "100%"
					}
				},
				"b2": {
					"width": {
						"type": "string",
						"value": "100%"
					}
				},
				"b1": {
					"width": {
						"type": "string",
						"value": "100%"
					}
				}
			},
			"width": {
				"Default": {
					"type": "string",
					"value": "1366dp"
				}
			},
			"zIndex": {
				"Default": 2
			}
		},
		"flxFooterMenu": {
			"__events__": {},
			"__info__": {
				"kuid": "a78670a7c3d240798e0ea8025b5d8af3",
				"srcKUID": "e6b5bc6faf00428680c4dedfe25a0b9a",
				"wType": "FlexContainer"
			},
			"centerX": {
				"Default": {
					"type": "string",
					"value": "50%"
				}
			},
			"left": {
				"Default": {
					"type": "string",
					"value": ""
				}
			},
			"responsiveData": {
				"b3": {
					"width": {
						"type": "string",
						"value": "180dp"
					}
				},
				"b2": {
					"centerX": {
						"type": "string",
						"value": ""
					},
					"left": {
						"type": "string",
						"value": "2.50%"
					},
					"width": {
						"type": "string",
						"value": "90%"
					}
				},
				"b1": {
					"centerX": {
						"type": "string",
						"value": ""
					},
					"left": {
						"type": "string",
						"value": "6%"
					},
					"width": {
						"type": "string",
						"value": "87%"
					}
				}
			},
			"width": {
				"Default": {
					"type": "string",
					"value": "1200dp"
				}
			}
		},
		"flxVBar1": {
			"__events__": {},
			"__info__": {
				"kuid": "i7eda63eeec54e77a9f4985997952fe5",
				"srcKUID": "f31fd58a22cc496a93899a924cf2927d",
				"wType": "FlexContainer"
			},
			"centerX": {},
			"responsiveData": {
				"b3": {
					"centerX": {
						"type": "string",
						"value": ""
					},
					"left": {
						"type": "string",
						"value": "20dp"
					}
				}
			},
			"left": {}
		},
		"flxVBar2": {
			"__events__": {},
			"__info__": {
				"kuid": "faeca426213144b1ba4199c2e21c9beb",
				"srcKUID": "j39a662286e64bbc9be78a96bb491e27",
				"wType": "FlexContainer"
			},
			"responsiveData": {
				"b3": {
					"isVisible": false
				}
			}
		},
		"flxVBar3": {
			"__events__": {},
			"__info__": {
				"kuid": "bc21086f91214e40b9ff2a1700c0cd99",
				"srcKUID": "a6990ffd77914b8e8757540cb40cad1a",
				"wType": "FlexContainer"
			},
			"responsiveData": {
				"b3": {
					"isVisible": false
				}
			}
		},
		"flxVBar4": {
			"__events__": {},
			"__info__": {
				"kuid": "h536687a06d848a4a3e3e645fd2a177b",
				"srcKUID": "e75f96d248634147afa5b6848252df6e",
				"wType": "FlexContainer"
			},
			"responsiveData": {
				"b3": {
					"isVisible": false
				}
			}
		},
		"imgFooterIconOne": {
			"__events__": {},
			"__info__": {
				"kuid": "g1b53ea7398143b989d346add9ded188",
				"srcKUID": "f2305e3d65bb448e9d68f5608421f28a",
				"wType": "Image"
			},
			"responsiveData": {
				"b3": {
					"isVisible": false
				},
				"b2": {
					"centerY": {
						"type": "string",
						"value": "75%"
					},
					"isVisible": false,
					"right": {
						"type": "string",
						"value": "10dp"
					}
				}
			},
			"centerY": {},
			"right": {}
		},
		"imgFooterIconThree": {
			"__events__": {},
			"__info__": {
				"kuid": "b2d5a52d3011444494637cd75a8de516",
				"srcKUID": "hc27193bc4d14f24b60f03ac3c2bddb7",
				"wType": "Image"
			},
			"responsiveData": {
				"b3": {
					"isVisible": false
				},
				"b2": {
					"centerY": {
						"type": "string",
						"value": "40%"
					},
					"isVisible": false,
					"right": {
						"type": "string",
						"value": "60dp"
					}
				}
			},
			"centerY": {},
			"right": {}
		},
		"imgFooterIconTwo": {
			"__events__": {},
			"__info__": {
				"kuid": "e696289c6a0748e3a6f27e3c168492f4",
				"srcKUID": "cf67ed169e364ace9f62b5aa10dcf1d8",
				"wType": "Image"
			},
			"responsiveData": {
				"b3": {
					"isVisible": false
				},
				"b2": {
					"centerY": {
						"type": "string",
						"value": "40%"
					},
					"isVisible": false,
					"right": {
						"type": "string",
						"value": "10dp"
					}
				}
			},
			"centerY": {},
			"right": {}
		},
		"lblCopyright": {
			"__events__": {},
			"__info__": {
				"kuid": "cf6d1cd8cea84c15aaf24ec760ad226c",
				"srcKUID": "a696ff4e198a4124810242908deae798",
				"wType": "Label"
			},
			"centerX": {
				"Default": {
					"type": "string",
					"value": ""
				}
			},
			"left": {
				"Default": {
					"type": "string",
					"value": "6%"
				}
			},
			"responsiveData": {
				"b3": {},
				"b2": {
					"left": {
						"type": "string",
						"value": "2.50%"
					},
					"width": {
						"type": "string",
						"value": "90%"
					}
				},
				"b1": {}
			},
			"width": {
				"Default": {
					"type": "ref",
					"value": "preferred"
				}
			}
		}
	},
	"id": "CustomFooterMain",
	"info": null,
	"isdatareferenced": false,
	"isvisible": true,
	"kuid": "j1e3046ccc884989b4b75b6ead15d8ab",
	"layouttype": 2,
	"masterType": 0,
	"name": "kony.ui.UserWidgetInstance",
	"parent": "flxFooter",
	"pf": "frmAddExternalAccount",
	"snaptogrid": true,
	"sourceUserWidget": "a142e816812a4b5b80f84484dcef7232",
	"vizprops": {
		"hidewidgethierarchy": false
	},
	"wType": "UserWidgetInstance",
	"zindex": 2
}