{
    "@class": "com.kony.gen.viz.model.component.KVizButton",
    "DNDConfig": null,
    "__parentReadjusting__": false,
    "_bottom_": {
        "type": "number",
        "value": "30"
    },
    "_height_": {
        "type": "string",
        "value": "50dp"
    },
    "_left_": {
        "type": "string",
        "value": "67%"
    },
    "_margin_": [
        6,
        6,
        6,
        6
    ],
    "_padding_": [
        0,
        0,
        0,
        0
    ],
    "_skin_": "sb387ebf08b649c99164e8bfb3dc80c8",
    "_text_": "YES",
    "_width_": {
        "type": "string",
        "value": "29.74%"
    },
    "accessibilityconfig": {
        "a11yLabel": "Save"
    },
    "canUpdateUI": true,
    "centery": {
        "type": "string",
        "value": "50%"
    },
    "containerweight": 100,
    "contentalignment": 5,
    "disabledSkins": {
        "focusSkin": "sf44d06ca8224832827ea7fdff757013"
    },
    "displaytext": true,
    "id": "btnSave",
    "ide_onClick": "AS_Button_c8ea025c0db24c678d59f914069014d0",
    "info": null,
    "isvisible": true,
    "kuid": "ce9a0b5dae624add8d4b6f1f117b5df8",
    "name": "kony.ui.Button",
    "parent": "flxContentsButtons",
    "pf": "frmProfileManagement",
    "responsiveData": {
        "b1": {
            "skin": "sdc7361203bc408faf7a175e392acef4"
        },
        "b2": {
            "skin": "sdc7361203bc408faf7a175e392acef4"
        },
        "b3": {
            "skin": "sdc7361203bc408faf7a175e392acef4"
        }
    },
    "texti18n": "i18n.ProfileManagement.Save",
    "tooltip": "Save",
    "wType": "Button",
    "zindex": 1
}