{
    "DNDConfig": null,
    "_height_": {
        "type": "string",
        "value": "50dp"
    },
    "_margin_": [
        0,
        0,
        0,
        0
    ],
    "_orientation_": 6,
    "_padding_": [
        0,
        0,
        0,
        0
    ],
    "_percent_": true,
    "_skin_": "sc681e20fcca47828a35daf1b6ea5496",
    "allboxes": [],
    "autogrowmode": 0,
    "canUpdateUI": true,
    "children": [
        "lblSeparator2",
        "flxSegScheduledTransactions"
    ],
    "clipbounds": false,
    "containerId": true,
    "containerweight": 100,
    "controllerInfo": {
        "default": {
            "channel": "desktop",
            "name": "flxScheduledTransactionsMobileController"
        }
    },
    "desktopweb": {
        "psp": {
            "hoverSkin": "s824f3ac025e47cfaf75ba9696b5ae0f"
        }
    },
    "disabledSkins": {},
    "enablescrolling": true,
    "id": "flxScheduledTransactionsMobile",
    "info": null,
    "isTemplate": true,
    "isvisible": true,
    "kuid": "d6ec718b97e14561951d72db57a07aac",
    "layouttype": 4,
    "name": "kony.ui.FlexContainer",
    "parent": "segScheduledTransactionsMobile",
    "pf": "segScheduledTransactionsMobile",
    "snapgridsize": 10,
    "snaptogrid": true,
    "wType": "FlexContainer",
    "widgetalignment": 1
}