{
    "@class": "com.kony.gen.viz.model.component.KVizUserWidget",
    "DNDConfig": null,
    "__parentReadjusting__": false,
    "_android_": {},
    "_androidwearos_": {},
    "_children_": [],
    "_desktopweb_": {},
    "_height_": {
        "type": "ref",
        "value": "preferred"
    },
    "_ipad_": {},
    "_iphone_": {},
    "_kiosk_": {},
    "_left_": {
        "type": "string",
        "value": "0dp"
    },
    "_margin_": [
        0,
        0,
        0,
        0
    ],
    "_orientation_": 1,
    "_padding_": [
        0,
        0,
        0,
        0
    ],
    "_percent_": true,
    "_render_": true,
    "_responsiveData_": {
        "b1": {
            "bottom": {
                "type": "string",
                "value": "10dp"
            }
        },
        "b2": {
            "bottom": {
                "type": "string",
                "value": "10dp"
            }
        },
        "b3": {
            "bottom": {
                "type": "string",
                "value": "10px"
            },
            "left": {
                "type": "string",
                "value": "2.50%"
            },
            "top": {
                "type": "string",
                "value": "5px"
            },
            "width": {
                "type": "string",
                "value": "95%"
            }
        },
        "b4": {
            "bottom": {
                "type": "string",
                "value": "10dp"
            },
            "left": {
                "type": "string",
                "value": "2.50%"
            },
            "width": {
                "type": "string",
                "value": "95%"
            }
        }
    },
    "_skin_": "sdc143f0e5b64ae3a3f155f691c73fa7",
    "_spa_": {},
    "_spaan_": {},
    "_spaandroidtablet_": {},
    "_spabb_": {},
    "_spaip_": {},
    "_spaipad_": {},
    "_spamobile_": {},
    "_spatablet_": {},
    "_spawindowstablet_": {},
    "_spawinphone8_": {},
    "_tabrcandroid_": {},
    "_top_": {
        "type": "string",
        "value": "0dp"
    },
    "_vizProps_": {
        "hidewidgethierarchy": false
    },
    "_width_": {
        "type": "string",
        "value": "88%"
    },
    "_windows10_": {},
    "_windows8_": {},
    "_winphone10_": {},
    "_winphone8_": {},
    "areflexpropsreferenced": false,
    "autogrowmode": 1,
    "canUpdateUI": true,
    "centerx": {
        "type": "string",
        "value": "50%"
    },
    "clipbounds": false,
    "containerweight": 0,
    "dataDiffs": {
        "ConfirmDetailsSingleMultiple": {
            "__events__": {},
            "__info__": {
                "isRoot": true,
                "kuid": "f67b4fa7e02249f884a5af6d1bbec126",
                "srcKUID": "g9bf856ebe344b548fb8b63ccf9eabad",
                "wType": "FlexContainer"
            },
            "bottom": {},
            "centerX": {
                "Default": {
                    "type": "string",
                    "value": "50%"
                }
            },
            "isVisible": true,
            "left": {},
            "responsiveData": {
                "b1": {
                    "bottom": {
                        "type": "string",
                        "value": "10dp"
                    }
                },
                "b2": {
                    "bottom": {
                        "type": "string",
                        "value": "10dp"
                    }
                },
                "b3": {
                    "bottom": {
                        "type": "string",
                        "value": "10px"
                    },
                    "left": {
                        "type": "string",
                        "value": "2.50%"
                    },
                    "top": {
                        "type": "string",
                        "value": "5px"
                    },
                    "width": {
                        "type": "string",
                        "value": "95%"
                    }
                },
                "b4": {
                    "bottom": {
                        "type": "string",
                        "value": "10dp"
                    },
                    "left": {
                        "type": "string",
                        "value": "2.50%"
                    },
                    "width": {
                        "type": "string",
                        "value": "95%"
                    }
                }
            },
            "top": {
                "Default": {
                    "type": "string",
                    "value": "0dp"
                }
            },
            "width": {
                "Default": {
                    "type": "string",
                    "value": "88%"
                }
            }
        },
        "btnBackToAccoutnDetails": {
            "__events__": {},
            "__info__": {
                "kuid": "fb22a7b17bac4387990bc876fd0125e6",
                "srcKUID": "b75e078af9564aa186366890825d26ab",
                "wType": "Button"
            },
            "bottom": {},
            "centerX": {},
            "centerY": {},
            "height": {},
            "left": {},
            "responsiveData": {
                "b1": {
                    "height": {
                        "type": "string",
                        "value": "40dp"
                    }
                },
                "b2": {
                    "height": {
                        "type": "string",
                        "value": "40dp"
                    }
                },
                "b3": {
                    "bottom": {
                        "type": "string",
                        "value": ""
                    },
                    "centerX": {
                        "type": "string",
                        "value": "50%"
                    },
                    "centerY": {
                        "type": "string",
                        "value": ""
                    },
                    "height": {
                        "type": "string",
                        "value": "40dp"
                    },
                    "left": {
                        "type": "string",
                        "value": "5%"
                    },
                    "right": {
                        "type": "string",
                        "value": "30dp"
                    },
                    "top": {
                        "type": "string",
                        "value": "80dp"
                    },
                    "width": {
                        "type": "string",
                        "value": "95%"
                    }
                },
                "b4": {
                    "height": {
                        "type": "string",
                        "value": "40dp"
                    },
                    "right": {
                        "type": "string",
                        "value": "260dp"
                    },
                    "width": {
                        "type": "string",
                        "value": "200dp"
                    }
                }
            },
            "right": {
                "Default": {
                    "type": "string",
                    "value": "22.2%"
                }
            },
            "top": {},
            "width": {}
        },
        "btnCancel": {
            "__events__": {},
            "__info__": {
                "kuid": "ged4e0db0a8d4c558702b2f12551ed96",
                "srcKUID": "e209929e7402413ea6f9e0a5a20b1484",
                "wType": "Button"
            },
            "centerX": {},
            "centerY": {},
            "height": {},
            "left": {},
            "responsiveData": {
                "b1": {
                    "isVisible": true
                },
                "b2": {
                    "isVisible": true
                },
                "b3": {
                    "centerX": {
                        "type": "string",
                        "value": "50%"
                    },
                    "centerY": {
                        "type": "string",
                        "value": ""
                    },
                    "height": {
                        "type": "string",
                        "value": "40dp"
                    },
                    "isVisible": true,
                    "left": {
                        "type": "string",
                        "value": "2.50%"
                    },
                    "right": {
                        "type": "string",
                        "value": "2.50%"
                    },
                    "top": {
                        "type": "string",
                        "value": "140dp"
                    },
                    "width": {
                        "type": "string",
                        "value": "95%"
                    }
                },
                "b4": {
                    "isVisible": true,
                    "left": {
                        "type": "string",
                        "value": "23.24%"
                    },
                    "right": {
                        "type": "number",
                        "value": "55."
                    },
                    "width": {
                        "type": "string",
                        "value": "210dp"
                    }
                }
            },
            "right": {},
            "top": {
                "Default": {
                    "type": "string",
                    "value": "0dp"
                }
            },
            "width": {
                "Default": {
                    "type": "string",
                    "value": "220dp"
                }
            }
        },
        "btnConfirm": {
            "__events__": {},
            "__info__": {
                "kuid": "ga7c9796b19c490dba86b59a4fdf2e41",
                "srcKUID": "cfa3be3f09004664993efdf98e3b3937",
                "wType": "Button"
            },
            "centerX": {},
            "centerY": {},
            "height": {},
            "left": {},
            "responsiveData": {
                "b3": {
                    "centerX": {
                        "type": "string",
                        "value": "50%"
                    },
                    "centerY": {
                        "type": "string",
                        "value": ""
                    },
                    "height": {
                        "type": "string",
                        "value": "40dp"
                    },
                    "left": {
                        "type": "string",
                        "value": "2.50%"
                    },
                    "right": {
                        "type": "string",
                        "value": "2.50%"
                    },
                    "top": {
                        "type": "number",
                        "value": "20"
                    },
                    "width": {
                        "type": "string",
                        "value": "95%"
                    }
                },
                "b4": {
                    "right": {
                        "type": "string",
                        "value": "4%"
                    },
                    "width": {
                        "type": "string",
                        "value": "21.60%"
                    }
                }
            },
            "right": {},
            "top": {},
            "width": {}
        },
        "btnModify": {
            "__events__": {},
            "__info__": {
                "kuid": "e3d4973dd19c49d59b5b64e9851ea66e",
                "srcKUID": "a8e346ccd92048df9147f221d04606ae",
                "wType": "Button"
            },
            "centerX": {},
            "centerY": {},
            "height": {},
            "left": {},
            "responsiveData": {
                "b3": {
                    "centerX": {
                        "type": "string",
                        "value": "50%"
                    },
                    "centerY": {
                        "type": "string",
                        "value": ""
                    },
                    "height": {
                        "type": "string",
                        "value": "40dp"
                    },
                    "left": {
                        "type": "string",
                        "value": "2.50%"
                    },
                    "right": {
                        "type": "string",
                        "value": "2.50%"
                    },
                    "top": {
                        "type": "number",
                        "value": "80"
                    },
                    "width": {
                        "type": "string",
                        "value": "95%"
                    }
                },
                "b4": {
                    "left": {
                        "type": "string",
                        "value": "48.82%"
                    },
                    "right": {
                        "type": "string",
                        "value": ""
                    },
                    "width": {
                        "type": "string",
                        "value": "21.60%"
                    }
                }
            },
            "right": {},
            "top": {},
            "width": {}
        },
        "btnViewRequests": {
            "__events__": {},
            "__info__": {
                "kuid": "i5a7c0c35ed8472dab369561450d829f",
                "srcKUID": "f58f63a986124ad1af1b0deb38b6b96b",
                "wType": "Button"
            },
            "centerX": {},
            "centerY": {},
            "height": {},
            "left": {},
            "responsiveData": {
                "b1": {
                    "height": {
                        "type": "string",
                        "value": "40dp"
                    }
                },
                "b2": {
                    "height": {
                        "type": "string",
                        "value": "40dp"
                    }
                },
                "b3": {
                    "centerX": {
                        "type": "string",
                        "value": "50%"
                    },
                    "centerY": {
                        "type": "string",
                        "value": ""
                    },
                    "height": {
                        "type": "string",
                        "value": "40dp"
                    },
                    "left": {
                        "type": "string",
                        "value": "5%"
                    },
                    "right": {
                        "type": "string",
                        "value": "30dp"
                    },
                    "top": {
                        "type": "string",
                        "value": "20dp"
                    },
                    "width": {
                        "type": "string",
                        "value": "95%"
                    }
                },
                "b4": {
                    "height": {
                        "type": "string",
                        "value": "40dp"
                    },
                    "right": {
                        "type": "string",
                        "value": "30dp"
                    },
                    "width": {
                        "type": "string",
                        "value": "200dp"
                    }
                }
            },
            "right": {
                "Default": {
                    "type": "string",
                    "value": "2%"
                }
            },
            "top": {},
            "width": {}
        },
        "flxAckButtons": {
            "__events__": {},
            "__info__": {
                "kuid": "f36baea837254b7594cb133842d3ebd0",
                "srcKUID": "j9f68fb8f1d4474eb3df670938c72a07",
                "wType": "FlexContainer"
            },
            "autogrowMode": {
                "Default": 0
            },
            "height": {},
            "isVisible": false,
            "responsiveData": {
                "b3": {
                    "height": {
                        "type": "string",
                        "value": "140dp"
                    },
                    "width": {
                        "type": "string",
                        "value": "100%"
                    }
                },
                "b4": {
                    "height": {
                        "type": "string",
                        "value": "100dp"
                    }
                }
            },
            "width": {}
        },
        "flxConfirmHeader": {
            "__events__": {},
            "__info__": {
                "kuid": "b28f8de84a8a416bb8f8a02b3de98e5e",
                "srcKUID": "c383a3856f2042cf93d80b50bf53c65c",
                "wType": "FlexContainer"
            }
        },
        "flxHeaderSeperator": {
            "__events__": {},
            "__info__": {
                "kuid": "c5a6154c6acb49789bf232458093d4e0",
                "srcKUID": "if87faf7ec8140bfbba215088495c14d",
                "wType": "FlexContainer"
            }
        },
        "flxSepeartor2": {
            "__events__": {},
            "__info__": {
                "kuid": "adaac397af7543cd9512a41a06a2cd8f",
                "srcKUID": "cd9337c0f69a406f99441cb53826953f",
                "wType": "FlexContainer"
            }
        },
        "flxStep2ButtonSeperator": {
            "__events__": {},
            "__info__": {
                "kuid": "ia417851b5284ffbb0f1fafc1e969ff3",
                "srcKUID": "a3c20c34ce41458abc34e1aacf572e09",
                "wType": "FlexContainer"
            }
        },
        "flxStep2Buttons": {
            "__events__": {},
            "__info__": {
                "kuid": "g1e2efc10ddc4a5b8422d7fb9a433ca1",
                "srcKUID": "d3dc9d5946ad4611836605761cba9650",
                "wType": "FlexContainer"
            },
            "autogrowMode": {
                "Default": 0
            },
            "height": {},
            "isVisible": true,
            "responsiveData": {
                "b3": {
                    "height": {
                        "type": "string",
                        "value": "200dp"
                    },
                    "isVisible": true
                },
                "b4": {
                    "isVisible": true
                }
            }
        },
        "flxTransactionDetails": {
            "__events__": {},
            "__info__": {
                "kuid": "ida5acae5a7e480a963286491404250b",
                "srcKUID": "ac7f30cb2cec4b32a798548837bf784f",
                "wType": "FlexContainer"
            },
            "responsiveData": {
                "b3": {
                    "isVisible": true
                }
            }
        },
        "flxTransactionDetailsRow1": {
            "__events__": {},
            "__info__": {
                "kuid": "ae1f3234d50d49b7bb4a87c9add521a1",
                "srcKUID": "a526b849f13e4c7eabab32e89f3f4180",
                "wType": "FlexContainer"
            }
        },
        "flxTransactionDetailsRow2": {
            "__events__": {},
            "__info__": {
                "kuid": "i6fe9e8c08bf49c6a0e808782246ee66",
                "srcKUID": "i5dce0251af440dfbd41e856f0490730",
                "wType": "FlexContainer"
            }
        },
        "flxTransactionDetailsRow3": {
            "__events__": {},
            "__info__": {
                "kuid": "d477ba56d18b4c1d96e7fdf2160ec12a",
                "srcKUID": "h8a1912c59334d709e4d3cd5d5bb19ba",
                "wType": "FlexContainer"
            },
            "responsiveData": {
                "b3": {
                    "isVisible": false
                }
            }
        },
        "lblAmount": {
            "__events__": {},
            "__info__": {
                "kuid": "e0be26a6a7c941a9812c97af598aa89e",
                "srcKUID": "ab382ec154894865bda94f660f9657d5",
                "wType": "Label"
            }
        },
        "lblConfirmHeader": {
            "__events__": {},
            "__info__": {
                "kuid": "cb259f6154d34eff8811c080422444ce",
                "srcKUID": "fbd8c1d2fd144420bed5a17dfa769fd9",
                "wType": "Label"
            }
        },
        "lblDescription": {
            "__events__": {},
            "__info__": {
                "kuid": "h586d5c480504c58aa141848c7cae873",
                "srcKUID": "ba7a6ea6e764447bb3c11581e6ffad8c",
                "wType": "Label"
            }
        },
        "lblReason": {
            "__events__": {},
            "__info__": {
                "kuid": "a8f4219d56f3470cbf622661ae27a24e",
                "srcKUID": "ad5d1102e9344a2b87bf15c46ab81377",
                "wType": "Label"
            }
        },
        "rtxAmount": {
            "__events__": {},
            "__info__": {
                "kuid": "gdf90f5f413545f5b882ffff374c5790",
                "srcKUID": "e24b2dfa3af34f2cb90b58a94bea81f4",
                "wType": "RichText"
            },
            "left": {},
            "responsiveData": {
                "b3": {
                    "left": {
                        "type": "string",
                        "value": "20%"
                    },
                    "right": {
                        "type": "string",
                        "value": "20%"
                    }
                }
            },
            "right": {}
        },
        "rtxDescription": {
            "__events__": {},
            "__info__": {
                "kuid": "i7b24dcd988d4cbd891b888c6f1bc057",
                "srcKUID": "e118f8956d2b4003863fe2be2ea8ffd2",
                "wType": "RichText"
            },
            "left": {},
            "responsiveData": {
                "b3": {
                    "left": {
                        "type": "string",
                        "value": "24%"
                    },
                    "right": {
                        "type": "string",
                        "value": "5%"
                    }
                }
            },
            "right": {}
        },
        "rtxReason": {
            "__events__": {},
            "__info__": {
                "kuid": "a88a33b677334337a90d6f0e778081a1",
                "srcKUID": "c3bd54bb58b04bc99111ce606bd0756d",
                "wType": "RichText"
            },
            "left": {},
            "responsiveData": {
                "b3": {
                    "left": {
                        "type": "string",
                        "value": "24%"
                    },
                    "right": {
                        "type": "string",
                        "value": "5%"
                    }
                }
            },
            "right": {}
        },
        "segConfirmDetails": {
            "__events__": {},
            "__info__": {
                "kuid": "acce7bdeb6484ac38dc73b4fa2fcf0a9",
                "srcKUID": "g7977bca4b704a458d88f8b7256ebfcc",
                "wType": "Segment"
            },
            "responsiveData": {
                "b3": {
                    "isVisible": true
                }
            }
        }
    },
    "id": "ConfirmDetailsSingleMultiple",
    "info": null,
    "isdatareferenced": false,
    "issegmentchild": false,
    "isvisible": true,
    "kuid": "d286dd7f9bbf4bf59ee51f7e6b727e23",
    "layouttype": 4,
    "masterType": 0,
    "name": "kony.ui.UserWidgetInstance",
    "parent": "flxSinglePayConfirm",
    "pf": "frmStopPayments",
    "snaptogrid": true,
    "sourceUserWidget": "g9bf856ebe344b548fb8b63ccf9eabad",
    "vizprops": {
        "hidewidgethierarchy": false
    },
    "wType": "UserWidgetInstance"
}