{
    "DNDConfig": null,
    "__parentReadjusting__": false,
    "_bottom_": {
        "type": "string",
        "value": "-10dp"
    },
    "_height_": {
        "type": "string",
        "value": "60dp"
    },
    "_left_": {
        "type": "string",
        "value": "0%"
    },
    "_margin_": [
        0,
        0,
        0,
        0
    ],
    "_orientation_": 6,
    "_padding_": [
        0,
        0,
        0,
        0
    ],
    "_percent_": true,
    "_skin_": "sda3672248854538bc2fd118768d97b4",
    "_top_": {
        "type": "string",
        "value": "30dp"
    },
    "_width_": {
        "type": "string",
        "value": "88%"
    },
    "allboxes": [],
    "autogrowmode": 0,
    "canUpdateUI": true,
    "centerx": {
        "type": "string",
        "value": "50%"
    },
    "children": [
        "imgDowntimeWarning",
        "lblDowntimeWarning",
        "imgCloseDowntimeWarning"
    ],
    "clipbounds": false,
    "containerweight": 100,
    "enablescrolling": true,
    "id": "flxDowntimeWarning",
    "info": null,
    "isvisible": false,
    "kuid": "b1f7b47354a04ea4b1855b77a17eeb6a",
    "layouttype": 3,
    "name": "kony.ui.FlexContainer",
    "parent": "flxMain",
    "pf": "frmStopPayments",
    "responsiveData": {
        "b1": {
            "isVisible": false,
            "skin": "sda3672248854538bc2fd118768d97b4",
            "width": {
                "type": "string",
                "value": "88%"
            }
        },
        "b2": {
            "isVisible": false,
            "width": {
                "type": "string",
                "value": "88%"
            }
        },
        "b3": {
            "isVisible": false,
            "layoutType": 2,
            "top": {
                "type": "string",
                "value": "30dp"
            },
            "width": {
                "type": "string",
                "value": "95%"
            }
        },
        "b4": {
            "isVisible": false,
            "width": {
                "type": "string",
                "value": "88%"
            }
        }
    },
    "snapgridsize": 10,
    "snaptogrid": true,
    "wType": "FlexContainer",
    "widgetalignment": 1,
    "zindex": 1
}