{
    "DNDConfig": null,
    "__parentReadjusting__": false,
    "_height_": {
        "type": "string",
        "value": "430dp"
    },
    "_left_": {
        "type": "string",
        "value": "50.59%"
    },
    "_margin_": [
        0,
        0,
        0,
        0
    ],
    "_orientation_": 6,
    "_padding_": [
        0,
        0,
        0,
        0
    ],
    "_percent_": true,
    "_skin_": "sdc143f0e5b64ae3a3f155f691c73fa7",
    "_top_": {
        "type": "string",
        "value": "63dp"
    },
    "_width_": {
        "type": "string",
        "value": "43.27%"
    },
    "allboxes": [],
    "canUpdateUI": true,
    "children": [
        "confirmDialog"
    ],
    "clipbounds": false,
    "containerweight": 100,
    "enablescrolling": true,
    "id": "flxTransactionDetails",
    "info": null,
    "isvisible": true,
    "kuid": "e01155e0fab14946af7eb2450c7a004f",
    "layouttype": 2,
    "name": "kony.ui.FlexContainer",
    "parent": "flxAcknowledgement",
    "pf": "frmStopPayments",
    "responsiveData": {
        "b1": {
            "height": {
                "type": "string",
                "value": "450dp"
            },
            "left": {
                "type": "string",
                "value": "50.59%"
            },
            "skin": "sdc143f0e5b64ae3a3f155f691c73fa7",
            "top": {
                "type": "string",
                "value": "67dp"
            }
        },
        "b2": {
            "height": {
                "type": "string",
                "value": "450dp"
            },
            "left": {
                "type": "string",
                "value": "50.59%"
            },
            "skin": "sdc143f0e5b64ae3a3f155f691c73fa7",
            "top": {
                "type": "string",
                "value": "67dp"
            },
            "width": {
                "type": "string",
                "value": "43.20%"
            }
        },
        "b3": {
            "height": {
                "type": "string",
                "value": "500dp"
            },
            "isVisible": true,
            "left": {
                "type": "string",
                "value": "2.50%"
            },
            "skin": "sdc143f0e5b64ae3a3f155f691c73fa7",
            "top": {
                "type": "string",
                "value": "485dp"
            },
            "width": {
                "type": "string",
                "value": "95%"
            }
        },
        "b4": {
            "height": {
                "type": "string",
                "value": "453dp"
            },
            "left": {
                "type": "string",
                "value": "2.50%"
            },
            "skin": "sdc143f0e5b64ae3a3f155f691c73fa7",
            "top": {
                "type": "string",
                "value": "517dp"
            },
            "width": {
                "type": "string",
                "value": "95%"
            }
        }
    },
    "snapgridsize": 10,
    "snaptogrid": true,
    "wType": "FlexContainer",
    "widgetalignment": 1,
    "zindex": 1
}