{
    "@class": "com.kony.gen.viz.model.component.KVizButton",
    "DNDConfig": null,
    "__parentReadjusting__": false,
    "_height_": {
        "type": "string",
        "value": "40dp"
    },
    "_left_": {
        "type": "string",
        "value": "88dp"
    },
    "_margin_": [
        6,
        6,
        6,
        6
    ],
    "_padding_": [
        0,
        0,
        0,
        0
    ],
    "_skin_": "s611bd2c5d324490aa9f7ed9d412984f",
    "_text_": "Resend Code",
    "_top_": {
        "type": "string",
        "value": "26dp"
    },
    "_width_": {
        "type": "string",
        "value": "150dp"
    },
    "accessibilityconfig": {
        "a11yHint": "Click Continue to proceed",
        "a11yLabel": "Continue"
    },
    "canUpdateUI": true,
    "containerweight": 100,
    "contentalignment": 5,
    "desktopweb": {
        "psp": {
            "hoverSkin": "s611bd2c5d324490aa9f7ed9d412984f"
        }
    },
    "disabledSkins": {},
    "displaytext": true,
    "focusskin": "s611bd2c5d324490aa9f7ed9d412984f",
    "id": "btnResendCode",
    "info": null,
    "isvisible": true,
    "kuid": "fc7e982ac4f84397a843b0c4f7330f30",
    "name": "kony.ui.Button",
    "parent": "flxEnterSecureAccessCode",
    "pf": "userwidgetmodel",
    "texti18n": "i18n.common.proceed",
    "tooltip": "Proceed",
    "wType": "Button",
    "zindex": 2
}