{
    "@class": "com.kony.gen.viz.model.component.KVizLabel",
    "DNDConfig": null,
    "__parentReadjusting__": false,
    "_height_": {
        "type": "ref",
        "value": "preferred"
    },
    "_left_": {
        "type": "string",
        "value": "8dp"
    },
    "_margin_": [
        1,
        1,
        1,
        1
    ],
    "_padding_": [
        0,
        0,
        0,
        0
    ],
    "_skin_": "s63e81af6a184e7e8e891b0dbbe7895c",
    "_text_": "If you have not recieved the secure access code on your phone,  please use the Re-send option.",
    "_top_": {
        "type": "string",
        "value": "0dp"
    },
    "_width_": {
        "type": "string",
        "value": "604dp"
    },
    "_wrapping_": 2,
    "accessibilityconfig": {
        "a11yLabel": "Note: Your CVV number is confidential. Please don't share this number with anyone!"
    },
    "android": {
        "textStyle": {
            "letterSpacing": 0,
            "strikeThrough": false
        }
    },
    "canUpdateUI": true,
    "containerweight": 100,
    "contentalignment": 4,
    "id": "lblResendMessage",
    "info": null,
    "ipad": {
        "psp": {
            "wrapping": 2
        }
    },
    "iphone": {
        "psp": {
            "wrapping": 2
        }
    },
    "isvisible": true,
    "kuid": "fe1a0d1ec645497db369e1112ea5fd8e",
    "name": "kony.ui.Label",
    "parent": "flxDescription",
    "pf": "userwidgetmodel",
    "texti18n": "i18n.mfa.subheader",
    "tooltip": "",
    "wType": "Label",
    "zindex": 1
}