{
    "@class": "com.kony.gen.viz.model.component.KVizLabel",
    "DNDConfig": null,
    "__parentReadjusting__": false,
    "_height_": {
        "type": "ref",
        "value": "preferred"
    },
    "_margin_": [
        1,
        1,
        1,
        1
    ],
    "_padding_": [
        0,
        0,
        0,
        0
    ],
    "_skin_": "sd428048577f4c97ba28927a93694250",
    "_text_": "Sorry, this secure code is incorrect. Try again.",
    "_top_": {
        "type": "string",
        "value": "19px"
    },
    "_width_": {
        "type": "string",
        "value": "85%"
    },
    "_wrapping_": 2,
    "accessibilityconfig": {
        "a11yLabel": "Didn't get the text? We can send it again."
    },
    "android": {
        "textStyle": {
            "letterSpacing": 0,
            "strikeThrough": false
        }
    },
    "canUpdateUI": true,
    "centerx": {
        "type": "string",
        "value": "53%"
    },
    "containerweight": 100,
    "contentalignment": 4,
    "id": "lblWrongOTP",
    "info": null,
    "ipad": {
        "psp": {
            "wrapping": 2
        }
    },
    "iphone": {
        "psp": {
            "wrapping": 2
        }
    },
    "isvisible": false,
    "kuid": "d1e590b942fe46c586a27838733a71ad",
    "name": "kony.ui.Label",
    "parent": "flxEnterSecureAccessCode",
    "pf": "userwidgetmodel",
    "texti18n": "i18n.MFA.IncorrectOTP",
    "tooltip": "",
    "wType": "Label",
    "zindex": 1
}