{
  "customCode" : {
    "requestProcessorName" : "com.kony.transaction.preprocessors.CancelTransactionPreProcessor",
    "responseProcessorName" : "com.kony.postprocessors.CancelScheduledTransactionOccurrenceObjectServicePostProcessor"
  },
  "operationConfig" : {
    "name" : "cancelScheduledTransactionOccurrence4253",
    "type" : "MappedToBackend",
    "cachable" : false,
    "smsEnabled" : false,
    "security" : "authorized_app_user",
    "responseEncoding" : "UTF-8",
    "httpMethod" : "GET",
    "decodeResponseBody" : false,
    "iMapping" : "<?xml version=\"1.0\" encoding=\"UTF-8\" standalone=\"yes\"?><mapper xmlns=\"http://www.kony.com/ns/mapper\"><map inputpath=\"request_in\" outputpath=\"request_out\"><set-param inputpath=\"transactionId\" outputpath=\"transactionId\"/></map></mapper>",
    "oMapping" : "<?xml version=\"1.0\" encoding=\"UTF-8\" standalone=\"yes\"?><mapper xmlns=\"http://www.kony.com/ns/mapper\">  <map inputpath=\"response_in\" outputpath=\"response_out\">      <set-param inputpath=\"success\" outputpath=\"success\"/>      <set-param inputpath=\"errmsg\" outputpath=\"errmsg\"/>      <set-param inputpath=\"transactionId\" outputpath=\"transactionId\"/>      <set-param inputpath=\"transactionId\" outputpath=\"referenceId\"/>  </map></mapper>",
    "oVisualMappingData" : "{\"nodeDataArray\":[{\"isGroup\":true,\"key\":\"response_out\",\"text\":\"Transactions\",\"xy\":\"770 100\",\"__gohashid\":13806},{\"isGroup\":true,\"key\":\"response_in\",\"text\":\"dbpRbLocalServicesJava (1.0).cancelScheduledTransactionOccurrence\",\"xy\":\"150 100\",\"__gohashid\":13807}],\"linkDataArray\":[{\"from\":\"target\",\"to\":\"target:Transactions\",\"fromPort\":\"target\",\"toPort\":\"target:Transactions\",\"visible\":true,\"common\":false,\"__gohashid\":14057},{\"from\":\"target:Transactions\",\"to\":\"target:Transactions:fields\",\"fromPort\":\"target:Transactions\",\"toPort\":\"target:Transactions:fields\",\"visible\":true,\"common\":false,\"__gohashid\":14058},{\"from\":\"target:Transactions:fields\",\"to\":\"target:Transactions:accountID:\",\"fromPort\":\"target:Transactions:fields\",\"toPort\":\"target:Transactions:accountID:\",\"visible\":true,\"common\":false,\"__gohashid\":14059},{\"from\":\"target:Transactions:fields\",\"to\":\"target:Transactions:accountNumber:\",\"fromPort\":\"target:Transactions:fields\",\"toPort\":\"target:Transactions:accountNumber:\",\"visible\":true,\"common\":false,\"__gohashid\":14060},{\"from\":\"target:Transactions:fields\",\"to\":\"target:Transactions:amount:\",\"fromPort\":\"target:Transactions:fields\",\"toPort\":\"target:Transactions:amount:\",\"visible\":true,\"common\":false,\"__gohashid\":14061},{\"from\":\"target:Transactions:fields\",\"to\":\"target:Transactions:amountTransferedTillNow:\",\"fromPort\":\"target:Transactions:fields\",\"toPort\":\"target:Transactions:amountTransferedTillNow:\",\"visible\":true,\"common\":false,\"__gohashid\":14062},{\"from\":\"target:Transactions:fields\",\"to\":\"target:Transactions:authenticationRequired:\",\"fromPort\":\"target:Transactions:fields\",\"toPort\":\"target:Transactions:authenticationRequired:\",\"visible\":true,\"common\":false,\"__gohashid\":14063},{\"from\":\"target:Transactions:fields\",\"to\":\"target:Transactions:billCategory:\",\"fromPort\":\"target:Transactions:fields\",\"toPort\":\"target:Transactions:billCategory:\",\"visible\":true,\"common\":false,\"__gohashid\":14064},{\"from\":\"target:Transactions:fields\",\"to\":\"target:Transactions:billCategoryId:\",\"fromPort\":\"target:Transactions:fields\",\"toPort\":\"target:Transactions:billCategoryId:\",\"visible\":true,\"common\":false,\"__gohashid\":14065},{\"from\":\"target:Transactions:fields\",\"to\":\"target:Transactions:billDueAmount:\",\"fromPort\":\"target:Transactions:fields\",\"toPort\":\"target:Transactions:billDueAmount:\",\"visible\":true,\"common\":false,\"__gohashid\":14066},{\"from\":\"target:Transactions:fields\",\"to\":\"target:Transactions:billDueDate:\",\"fromPort\":\"target:Transactions:fields\",\"toPort\":\"target:Transactions:billDueDate:\",\"visible\":true,\"common\":false,\"__gohashid\":14067},{\"from\":\"target:Transactions:fields\",\"to\":\"target:Transactions:billerCategoryName:\",\"fromPort\":\"target:Transactions:fields\",\"toPort\":\"target:Transactions:billerCategoryName:\",\"visible\":true,\"common\":false,\"__gohashid\":14068},{\"from\":\"target:Transactions:fields\",\"to\":\"target:Transactions:billGeneratedDate:\",\"fromPort\":\"target:Transactions:fields\",\"toPort\":\"target:Transactions:billGeneratedDate:\",\"visible\":true,\"common\":false,\"__gohashid\":14069},{\"from\":\"target:Transactions:fields\",\"to\":\"target:Transactions:billid:\",\"fromPort\":\"target:Transactions:fields\",\"toPort\":\"target:Transactions:billid:\",\"visible\":true,\"common\":false,\"__gohashid\":14070},{\"from\":\"target:Transactions:fields\",\"to\":\"target:Transactions:billPaidAmount:\",\"fromPort\":\"target:Transactions:fields\",\"toPort\":\"target:Transactions:billPaidAmount:\",\"visible\":true,\"common\":false,\"__gohashid\":14071},{\"from\":\"target:Transactions:fields\",\"to\":\"target:Transactions:billPaidDate:\",\"fromPort\":\"target:Transactions:fields\",\"toPort\":\"target:Transactions:billPaidDate:\",\"visible\":true,\"common\":false,\"__gohashid\":14072},{\"from\":\"target:Transactions:fields\",\"to\":\"target:Transactions:bulkPayString:\",\"fromPort\":\"target:Transactions:fields\",\"toPort\":\"target:Transactions:bulkPayString:\",\"visible\":true,\"common\":false,\"__gohashid\":14073},{\"from\":\"target:Transactions:fields\",\"to\":\"target:Transactions:cashlessEmail:\",\"fromPort\":\"target:Transactions:fields\",\"toPort\":\"target:Transactions:cashlessEmail:\",\"visible\":true,\"common\":false,\"__gohashid\":14074},{\"from\":\"target:Transactions:fields\",\"to\":\"target:Transactions:cashlessMode:\",\"fromPort\":\"target:Transactions:fields\",\"toPort\":\"target:Transactions:cashlessMode:\",\"visible\":true,\"common\":false,\"__gohashid\":14075},{\"from\":\"target:Transactions:fields\",\"to\":\"target:Transactions:cashlessOTP:\",\"fromPort\":\"target:Transactions:fields\",\"toPort\":\"target:Transactions:cashlessOTP:\",\"visible\":true,\"common\":false,\"__gohashid\":14076},{\"from\":\"target:Transactions:fields\",\"to\":\"target:Transactions:cashlessOTPValidDate:\",\"fromPort\":\"target:Transactions:fields\",\"toPort\":\"target:Transactions:cashlessOTPValidDate:\",\"visible\":true,\"common\":false,\"__gohashid\":14077},{\"from\":\"target:Transactions:fields\",\"to\":\"target:Transactions:cashlessPersonName:\",\"fromPort\":\"target:Transactions:fields\",\"toPort\":\"target:Transactions:cashlessPersonName:\",\"visible\":true,\"common\":false,\"__gohashid\":14078},{\"from\":\"target:Transactions:fields\",\"to\":\"target:Transactions:cashlessPhone:\",\"fromPort\":\"target:Transactions:fields\",\"toPort\":\"target:Transactions:cashlessPhone:\",\"visible\":true,\"common\":false,\"__gohashid\":14079},{\"from\":\"target:Transactions:fields\",\"to\":\"target:Transactions:cashlessPin:\",\"fromPort\":\"target:Transactions:fields\",\"toPort\":\"target:Transactions:cashlessPin:\",\"visible\":true,\"common\":false,\"__gohashid\":14080},{\"from\":\"target:Transactions:fields\",\"to\":\"target:Transactions:cashlessSecurityCode:\",\"fromPort\":\"target:Transactions:fields\",\"toPort\":\"target:Transactions:cashlessSecurityCode:\",\"visible\":true,\"common\":false,\"__gohashid\":14081},{\"from\":\"target:Transactions:fields\",\"to\":\"target:Transactions:cashWithdrawalTransactionStatus:\",\"fromPort\":\"target:Transactions:fields\",\"toPort\":\"target:Transactions:cashWithdrawalTransactionStatus:\",\"visible\":true,\"common\":false,\"__gohashid\":14082},{\"from\":\"target:Transactions:fields\",\"to\":\"target:Transactions:category:\",\"fromPort\":\"target:Transactions:fields\",\"toPort\":\"target:Transactions:category:\",\"visible\":true,\"common\":false,\"__gohashid\":14083},{\"from\":\"target:Transactions:fields\",\"to\":\"target:Transactions:checkImage:\",\"fromPort\":\"target:Transactions:fields\",\"toPort\":\"target:Transactions:checkImage:\",\"visible\":true,\"common\":false,\"__gohashid\":14084},{\"from\":\"target:Transactions:fields\",\"to\":\"target:Transactions:checkImageBack:\",\"fromPort\":\"target:Transactions:fields\",\"toPort\":\"target:Transactions:checkImageBack:\",\"visible\":true,\"common\":false,\"__gohashid\":14085},{\"from\":\"target:Transactions:fields\",\"to\":\"target:Transactions:checkNumber:\",\"fromPort\":\"target:Transactions:fields\",\"toPort\":\"target:Transactions:checkNumber:\",\"visible\":true,\"common\":false,\"__gohashid\":14086},{\"from\":\"target:Transactions:fields\",\"to\":\"target:Transactions:deliverBy:\",\"fromPort\":\"target:Transactions:fields\",\"toPort\":\"target:Transactions:deliverBy:\",\"visible\":true,\"common\":false,\"__gohashid\":14087},{\"from\":\"target:Transactions:fields\",\"to\":\"target:Transactions:description:\",\"fromPort\":\"target:Transactions:fields\",\"toPort\":\"target:Transactions:description:\",\"visible\":true,\"common\":false,\"__gohashid\":14088},{\"from\":\"target:Transactions:fields\",\"to\":\"target:Transactions:eBillEnable:\",\"fromPort\":\"target:Transactions:fields\",\"toPort\":\"target:Transactions:eBillEnable:\",\"visible\":true,\"common\":false,\"__gohashid\":14089},{\"from\":\"target:Transactions:fields\",\"to\":\"target:Transactions:eBillSupport:\",\"fromPort\":\"target:Transactions:fields\",\"toPort\":\"target:Transactions:eBillSupport:\",\"visible\":true,\"common\":false,\"__gohashid\":14090},{\"from\":\"target:Transactions:fields\",\"to\":\"target:Transactions:ebillURL:\",\"fromPort\":\"target:Transactions:fields\",\"toPort\":\"target:Transactions:ebillURL:\",\"visible\":true,\"common\":false,\"__gohashid\":14091},{\"from\":\"target:Transactions:fields\",\"to\":\"target:Transactions:errmsg:\",\"fromPort\":\"target:Transactions:fields\",\"toPort\":\"target:Transactions:errmsg:\",\"visible\":true,\"common\":false,\"__gohashid\":14092},{\"from\":\"target:Transactions:fields\",\"to\":\"target:Transactions:ExternalAccountNumber:\",\"fromPort\":\"target:Transactions:fields\",\"toPort\":\"target:Transactions:ExternalAccountNumber:\",\"visible\":true,\"common\":false,\"__gohashid\":14093},{\"from\":\"target:Transactions:fields\",\"to\":\"target:Transactions:firstDeposit:\",\"fromPort\":\"target:Transactions:fields\",\"toPort\":\"target:Transactions:firstDeposit:\",\"visible\":true,\"common\":false,\"__gohashid\":14094},{\"from\":\"target:Transactions:fields\",\"to\":\"target:Transactions:firstRecordNumber:\",\"fromPort\":\"target:Transactions:fields\",\"toPort\":\"target:Transactions:firstRecordNumber:\",\"visible\":true,\"common\":false,\"__gohashid\":14095},{\"from\":\"target:Transactions:fields\",\"to\":\"target:Transactions:frequencyEndDate:\",\"fromPort\":\"target:Transactions:fields\",\"toPort\":\"target:Transactions:frequencyEndDate:\",\"visible\":true,\"common\":false,\"__gohashid\":14096},{\"from\":\"target:Transactions:fields\",\"to\":\"target:Transactions:frequencyStartDate:\",\"fromPort\":\"target:Transactions:fields\",\"toPort\":\"target:Transactions:frequencyStartDate:\",\"visible\":true,\"common\":false,\"__gohashid\":14097},{\"from\":\"target:Transactions:fields\",\"to\":\"target:Transactions:frequencyType:\",\"fromPort\":\"target:Transactions:fields\",\"toPort\":\"target:Transactions:frequencyType:\",\"visible\":true,\"common\":false,\"__gohashid\":14098},{\"from\":\"target:Transactions:fields\",\"to\":\"target:Transactions:fromAccountBalance:\",\"fromPort\":\"target:Transactions:fields\",\"toPort\":\"target:Transactions:fromAccountBalance:\",\"visible\":true,\"common\":false,\"__gohashid\":14099},{\"from\":\"target:Transactions:fields\",\"to\":\"target:Transactions:fromAccountName:\",\"fromPort\":\"target:Transactions:fields\",\"toPort\":\"target:Transactions:fromAccountName:\",\"visible\":true,\"common\":false,\"__gohashid\":14100},{\"from\":\"target:Transactions:fields\",\"to\":\"target:Transactions:fromAccountNumber:\",\"fromPort\":\"target:Transactions:fields\",\"toPort\":\"target:Transactions:fromAccountNumber:\",\"visible\":true,\"common\":false,\"__gohashid\":14101},{\"from\":\"target:Transactions:fields\",\"to\":\"target:Transactions:fromAccountType:\",\"fromPort\":\"target:Transactions:fields\",\"toPort\":\"target:Transactions:fromAccountType:\",\"visible\":true,\"common\":false,\"__gohashid\":14102},{\"from\":\"target:Transactions:fields\",\"to\":\"target:Transactions:fromCheckNumber:\",\"fromPort\":\"target:Transactions:fields\",\"toPort\":\"target:Transactions:fromCheckNumber:\",\"visible\":true,\"common\":false,\"__gohashid\":14103},{\"from\":\"target:Transactions:fields\",\"to\":\"target:Transactions:fromNickName:\",\"fromPort\":\"target:Transactions:fields\",\"toPort\":\"target:Transactions:fromNickName:\",\"visible\":true,\"common\":false,\"__gohashid\":14104},{\"from\":\"target:Transactions:fields\",\"to\":\"target:Transactions:hasDepositImage:\",\"fromPort\":\"target:Transactions:fields\",\"toPort\":\"target:Transactions:hasDepositImage:\",\"visible\":true,\"common\":false,\"__gohashid\":14105},{\"from\":\"target:Transactions:fields\",\"to\":\"target:Transactions:isScheduled:\",\"fromPort\":\"target:Transactions:fields\",\"toPort\":\"target:Transactions:isScheduled:\",\"visible\":true,\"common\":false,\"__gohashid\":14106},{\"from\":\"target:Transactions:fields\",\"to\":\"target:Transactions:lastRecordNumber:\",\"fromPort\":\"target:Transactions:fields\",\"toPort\":\"target:Transactions:lastRecordNumber:\",\"visible\":true,\"common\":false,\"__gohashid\":14107},{\"from\":\"target:Transactions:fields\",\"to\":\"target:Transactions:limit:\",\"fromPort\":\"target:Transactions:fields\",\"toPort\":\"target:Transactions:limit:\",\"visible\":true,\"common\":false,\"__gohashid\":14108},{\"from\":\"target:Transactions:fields\",\"to\":\"target:Transactions:numberOfRecurrences:\",\"fromPort\":\"target:Transactions:fields\",\"toPort\":\"target:Transactions:numberOfRecurrences:\",\"visible\":true,\"common\":false,\"__gohashid\":14109},{\"from\":\"target:Transactions:fields\",\"to\":\"target:Transactions:offset:\",\"fromPort\":\"target:Transactions:fields\",\"toPort\":\"target:Transactions:offset:\",\"visible\":true,\"common\":false,\"__gohashid\":14110},{\"from\":\"target:Transactions:fields\",\"to\":\"target:Transactions:order:\",\"fromPort\":\"target:Transactions:fields\",\"toPort\":\"target:Transactions:order:\",\"visible\":true,\"common\":false,\"__gohashid\":14111},{\"from\":\"target:Transactions:fields\",\"to\":\"target:Transactions:otp:\",\"fromPort\":\"target:Transactions:fields\",\"toPort\":\"target:Transactions:otp:\",\"visible\":true,\"common\":false,\"__gohashid\":14112},{\"from\":\"target:Transactions:fields\",\"to\":\"target:Transactions:p2pContact:\",\"fromPort\":\"target:Transactions:fields\",\"toPort\":\"target:Transactions:p2pContact:\",\"visible\":true,\"common\":false,\"__gohashid\":14113},{\"from\":\"target:Transactions:fields\",\"to\":\"target:Transactions:p2pRequiredDate:\",\"fromPort\":\"target:Transactions:fields\",\"toPort\":\"target:Transactions:p2pRequiredDate:\",\"visible\":true,\"common\":false,\"__gohashid\":14114},{\"from\":\"target:Transactions:fields\",\"to\":\"target:Transactions:payeeAccountNumber:\",\"fromPort\":\"target:Transactions:fields\",\"toPort\":\"target:Transactions:payeeAccountNumber:\",\"visible\":true,\"common\":false,\"__gohashid\":14115},{\"from\":\"target:Transactions:fields\",\"to\":\"target:Transactions:payeeAddressLine1:\",\"fromPort\":\"target:Transactions:fields\",\"toPort\":\"target:Transactions:payeeAddressLine1:\",\"visible\":true,\"common\":false,\"__gohashid\":14116},{\"from\":\"target:Transactions:fields\",\"to\":\"target:Transactions:payeeId:\",\"fromPort\":\"target:Transactions:fields\",\"toPort\":\"target:Transactions:payeeId:\",\"visible\":true,\"common\":false,\"__gohashid\":14117},{\"from\":\"target:Transactions:fields\",\"to\":\"target:Transactions:payeeName:\",\"fromPort\":\"target:Transactions:fields\",\"toPort\":\"target:Transactions:payeeName:\",\"visible\":true,\"common\":false,\"__gohashid\":14118},{\"from\":\"target:Transactions:fields\",\"to\":\"target:Transactions:payeeNickName:\",\"fromPort\":\"target:Transactions:fields\",\"toPort\":\"target:Transactions:payeeNickName:\",\"visible\":true,\"common\":false,\"__gohashid\":14119},{\"from\":\"target:Transactions:fields\",\"to\":\"target:Transactions:payoffFlag:\",\"fromPort\":\"target:Transactions:fields\",\"toPort\":\"target:Transactions:payoffFlag:\",\"visible\":true,\"common\":false,\"__gohashid\":14120},{\"from\":\"target:Transactions:fields\",\"to\":\"target:Transactions:payPersonEmail:\",\"fromPort\":\"target:Transactions:fields\",\"toPort\":\"target:Transactions:payPersonEmail:\",\"visible\":true,\"common\":false,\"__gohashid\":14121},{\"from\":\"target:Transactions:fields\",\"to\":\"target:Transactions:payPersonName:\",\"fromPort\":\"target:Transactions:fields\",\"toPort\":\"target:Transactions:payPersonName:\",\"visible\":true,\"common\":false,\"__gohashid\":14122},{\"from\":\"target:Transactions:fields\",\"to\":\"target:Transactions:payPersonPhone:\",\"fromPort\":\"target:Transactions:fields\",\"toPort\":\"target:Transactions:payPersonPhone:\",\"visible\":true,\"common\":false,\"__gohashid\":14123},{\"from\":\"target:Transactions:fields\",\"to\":\"target:Transactions:penaltyFlag:\",\"fromPort\":\"target:Transactions:fields\",\"toPort\":\"target:Transactions:penaltyFlag:\",\"visible\":true,\"common\":false,\"__gohashid\":14124},{\"from\":\"target:Transactions:fields\",\"to\":\"target:Transactions:personId:\",\"fromPort\":\"target:Transactions:fields\",\"toPort\":\"target:Transactions:personId:\",\"visible\":true,\"common\":false,\"__gohashid\":14125},{\"from\":\"target:Transactions:fields\",\"to\":\"target:Transactions:recurrenceDesc:\",\"fromPort\":\"target:Transactions:fields\",\"toPort\":\"target:Transactions:recurrenceDesc:\",\"visible\":true,\"common\":false,\"__gohashid\":14126},{\"from\":\"target:Transactions:fields\",\"to\":\"target:Transactions:referenceId:\",\"fromPort\":\"target:Transactions:fields\",\"toPort\":\"target:Transactions:referenceId:\",\"visible\":true,\"common\":false,\"__gohashid\":14127},{\"from\":\"target:Transactions:fields\",\"to\":\"target:Transactions:scheduledDate:\",\"fromPort\":\"target:Transactions:fields\",\"toPort\":\"target:Transactions:scheduledDate:\",\"visible\":true,\"common\":false,\"__gohashid\":14128},{\"from\":\"target:Transactions:fields\",\"to\":\"target:Transactions:searchAmount:\",\"fromPort\":\"target:Transactions:fields\",\"toPort\":\"target:Transactions:searchAmount:\",\"visible\":true,\"common\":false,\"__gohashid\":14129},{\"from\":\"target:Transactions:fields\",\"to\":\"target:Transactions:searchDateRange:\",\"fromPort\":\"target:Transactions:fields\",\"toPort\":\"target:Transactions:searchDateRange:\",\"visible\":true,\"common\":false,\"__gohashid\":14130},{\"from\":\"target:Transactions:fields\",\"to\":\"target:Transactions:searchDescription:\",\"fromPort\":\"target:Transactions:fields\",\"toPort\":\"target:Transactions:searchDescription:\",\"visible\":true,\"common\":false,\"__gohashid\":14131},{\"from\":\"target:Transactions:fields\",\"to\":\"target:Transactions:searchEndDate:\",\"fromPort\":\"target:Transactions:fields\",\"toPort\":\"target:Transactions:searchEndDate:\",\"visible\":true,\"common\":false,\"__gohashid\":14132},{\"from\":\"target:Transactions:fields\",\"to\":\"target:Transactions:searchMaxAmount:\",\"fromPort\":\"target:Transactions:fields\",\"toPort\":\"target:Transactions:searchMaxAmount:\",\"visible\":true,\"common\":false,\"__gohashid\":14133},{\"from\":\"target:Transactions:fields\",\"to\":\"target:Transactions:searchMinAmount:\",\"fromPort\":\"target:Transactions:fields\",\"toPort\":\"target:Transactions:searchMinAmount:\",\"visible\":true,\"common\":false,\"__gohashid\":14134},{\"from\":\"target:Transactions:fields\",\"to\":\"target:Transactions:searchStartDate:\",\"fromPort\":\"target:Transactions:fields\",\"toPort\":\"target:Transactions:searchStartDate:\",\"visible\":true,\"common\":false,\"__gohashid\":14135},{\"from\":\"target:Transactions:fields\",\"to\":\"target:Transactions:searchTransactionType:\",\"fromPort\":\"target:Transactions:fields\",\"toPort\":\"target:Transactions:searchTransactionType:\",\"visible\":true,\"common\":false,\"__gohashid\":14136},{\"from\":\"target:Transactions:fields\",\"to\":\"target:Transactions:searchType:\",\"fromPort\":\"target:Transactions:fields\",\"toPort\":\"target:Transactions:searchType:\",\"visible\":true,\"common\":false,\"__gohashid\":14137},{\"from\":\"target:Transactions:fields\",\"to\":\"target:Transactions:secondaryEmail:\",\"fromPort\":\"target:Transactions:fields\",\"toPort\":\"target:Transactions:secondaryEmail:\",\"visible\":true,\"common\":false,\"__gohashid\":14138},{\"from\":\"target:Transactions:fields\",\"to\":\"target:Transactions:secondaryEmail2:\",\"fromPort\":\"target:Transactions:fields\",\"toPort\":\"target:Transactions:secondaryEmail2:\",\"visible\":true,\"common\":false,\"__gohashid\":14139},{\"from\":\"target:Transactions:fields\",\"to\":\"target:Transactions:secondaryPhoneNumber2:\",\"fromPort\":\"target:Transactions:fields\",\"toPort\":\"target:Transactions:secondaryPhoneNumber2:\",\"visible\":true,\"common\":false,\"__gohashid\":14140},{\"from\":\"target:Transactions:fields\",\"to\":\"target:Transactions:secondDeposit:\",\"fromPort\":\"target:Transactions:fields\",\"toPort\":\"target:Transactions:secondDeposit:\",\"visible\":true,\"common\":false,\"__gohashid\":14141},{\"from\":\"target:Transactions:fields\",\"to\":\"target:Transactions:secondoryPhoneNumber:\",\"fromPort\":\"target:Transactions:fields\",\"toPort\":\"target:Transactions:secondoryPhoneNumber:\",\"visible\":true,\"common\":false,\"__gohashid\":14142},{\"from\":\"target:Transactions:fields\",\"to\":\"target:Transactions:sortBy:\",\"fromPort\":\"target:Transactions:fields\",\"toPort\":\"target:Transactions:sortBy:\",\"visible\":true,\"common\":false,\"__gohashid\":14143},{\"from\":\"target:Transactions:fields\",\"to\":\"target:Transactions:statusDescription:\",\"fromPort\":\"target:Transactions:fields\",\"toPort\":\"target:Transactions:statusDescription:\",\"visible\":true,\"common\":false,\"__gohashid\":14144},{\"from\":\"target:Transactions:fields\",\"to\":\"target:Transactions:success:\",\"fromPort\":\"target:Transactions:fields\",\"toPort\":\"target:Transactions:success:\",\"visible\":true,\"common\":false,\"__gohashid\":14145},{\"from\":\"target:Transactions:fields\",\"to\":\"target:Transactions:toAccountName:\",\"fromPort\":\"target:Transactions:fields\",\"toPort\":\"target:Transactions:toAccountName:\",\"visible\":true,\"common\":false,\"__gohashid\":14146},{\"from\":\"target:Transactions:fields\",\"to\":\"target:Transactions:toAccountNumber:\",\"fromPort\":\"target:Transactions:fields\",\"toPort\":\"target:Transactions:toAccountNumber:\",\"visible\":true,\"common\":false,\"__gohashid\":14147},{\"from\":\"target:Transactions:fields\",\"to\":\"target:Transactions:toAccountType:\",\"fromPort\":\"target:Transactions:fields\",\"toPort\":\"target:Transactions:toAccountType:\",\"visible\":true,\"common\":false,\"__gohashid\":14148},{\"from\":\"target:Transactions:fields\",\"to\":\"target:Transactions:toCheckNumber:\",\"fromPort\":\"target:Transactions:fields\",\"toPort\":\"target:Transactions:toCheckNumber:\",\"visible\":true,\"common\":false,\"__gohashid\":14149},{\"from\":\"target:Transactions:fields\",\"to\":\"target:Transactions:totalAmount:\",\"fromPort\":\"target:Transactions:fields\",\"toPort\":\"target:Transactions:totalAmount:\",\"visible\":true,\"common\":false,\"__gohashid\":14150},{\"from\":\"target:Transactions:fields\",\"to\":\"target:Transactions:transactionComments:\",\"fromPort\":\"target:Transactions:fields\",\"toPort\":\"target:Transactions:transactionComments:\",\"visible\":true,\"common\":false,\"__gohashid\":14151},{\"from\":\"target:Transactions:fields\",\"to\":\"target:Transactions:transactionDate:\",\"fromPort\":\"target:Transactions:fields\",\"toPort\":\"target:Transactions:transactionDate:\",\"visible\":true,\"common\":false,\"__gohashid\":14152},{\"from\":\"target:Transactions:fields\",\"to\":\"target:Transactions:transactionId:\",\"fromPort\":\"target:Transactions:fields\",\"toPort\":\"target:Transactions:transactionId:\",\"visible\":true,\"common\":false,\"__gohashid\":14153},{\"from\":\"target:Transactions:fields\",\"to\":\"target:Transactions:transactionsNotes:\",\"fromPort\":\"target:Transactions:fields\",\"toPort\":\"target:Transactions:transactionsNotes:\",\"visible\":true,\"common\":false,\"__gohashid\":14154},{\"from\":\"target:Transactions:fields\",\"to\":\"target:Transactions:transactionType:\",\"fromPort\":\"target:Transactions:fields\",\"toPort\":\"target:Transactions:transactionType:\",\"visible\":true,\"common\":false,\"__gohashid\":14155},{\"from\":\"target:Transactions:fields\",\"to\":\"target:Transactions:validDate:\",\"fromPort\":\"target:Transactions:fields\",\"toPort\":\"target:Transactions:validDate:\",\"visible\":true,\"common\":false,\"__gohashid\":14156},{\"from\":\"target:Transactions:fields\",\"to\":\"target:Transactions:viewReportLink:\",\"fromPort\":\"target:Transactions:fields\",\"toPort\":\"target:Transactions:viewReportLink:\",\"visible\":true,\"common\":false,\"__gohashid\":14157},{\"from\":\"target:Transactions:fields\",\"to\":\"target:Transactions:overdraft:\",\"fromPort\":\"target:Transactions:fields\",\"toPort\":\"target:Transactions:overdraft:\",\"visible\":true,\"common\":false,\"__gohashid\":14158},{\"from\":\"target:Transactions:fields\",\"to\":\"target:Transactions:isPaypersonDeleted:\",\"fromPort\":\"target:Transactions:fields\",\"toPort\":\"target:Transactions:isPaypersonDeleted:\",\"visible\":true,\"common\":false,\"__gohashid\":14159},{\"from\":\"target:Transactions:fields\",\"to\":\"target:Transactions:fee:\",\"fromPort\":\"target:Transactions:fields\",\"toPort\":\"target:Transactions:fee:\",\"visible\":true,\"common\":false,\"__gohashid\":14160},{\"from\":\"target:Transactions:fields\",\"to\":\"target:Transactions:frontImage1:\",\"fromPort\":\"target:Transactions:fields\",\"toPort\":\"target:Transactions:frontImage1:\",\"visible\":true,\"common\":false,\"__gohashid\":14161},{\"from\":\"target:Transactions:fields\",\"to\":\"target:Transactions:frontImage2:\",\"fromPort\":\"target:Transactions:fields\",\"toPort\":\"target:Transactions:frontImage2:\",\"visible\":true,\"common\":false,\"__gohashid\":14162},{\"from\":\"target:Transactions:fields\",\"to\":\"target:Transactions:backImage1:\",\"fromPort\":\"target:Transactions:fields\",\"toPort\":\"target:Transactions:backImage1:\",\"visible\":true,\"common\":false,\"__gohashid\":14163},{\"from\":\"target:Transactions:fields\",\"to\":\"target:Transactions:backImage2:\",\"fromPort\":\"target:Transactions:fields\",\"toPort\":\"target:Transactions:backImage2:\",\"visible\":true,\"common\":false,\"__gohashid\":14164},{\"from\":\"target:Transactions:fields\",\"to\":\"target:Transactions:checkDesc:\",\"fromPort\":\"target:Transactions:fields\",\"toPort\":\"target:Transactions:checkDesc:\",\"visible\":true,\"common\":false,\"__gohashid\":14165},{\"from\":\"target:Transactions:fields\",\"to\":\"target:Transactions:checkNumber1:\",\"fromPort\":\"target:Transactions:fields\",\"toPort\":\"target:Transactions:checkNumber1:\",\"visible\":true,\"common\":false,\"__gohashid\":14166},{\"from\":\"target:Transactions:fields\",\"to\":\"target:Transactions:checkNumber2:\",\"fromPort\":\"target:Transactions:fields\",\"toPort\":\"target:Transactions:checkNumber2:\",\"visible\":true,\"common\":false,\"__gohashid\":14167},{\"from\":\"target:Transactions:fields\",\"to\":\"target:Transactions:bankName1:\",\"fromPort\":\"target:Transactions:fields\",\"toPort\":\"target:Transactions:bankName1:\",\"visible\":true,\"common\":false,\"__gohashid\":14168},{\"from\":\"target:Transactions:fields\",\"to\":\"target:Transactions:bankName2:\",\"fromPort\":\"target:Transactions:fields\",\"toPort\":\"target:Transactions:bankName2:\",\"visible\":true,\"common\":false,\"__gohashid\":14169},{\"from\":\"target:Transactions:fields\",\"to\":\"target:Transactions:withdrawlAmount1:\",\"fromPort\":\"target:Transactions:fields\",\"toPort\":\"target:Transactions:withdrawlAmount1:\",\"visible\":true,\"common\":false,\"__gohashid\":14170},{\"from\":\"target:Transactions:fields\",\"to\":\"target:Transactions:withdrawlAmount2:\",\"fromPort\":\"target:Transactions:fields\",\"toPort\":\"target:Transactions:withdrawlAmount2:\",\"visible\":true,\"common\":false,\"__gohashid\":14171},{\"from\":\"target:Transactions:fields\",\"to\":\"target:Transactions:totalCheckAmount:\",\"fromPort\":\"target:Transactions:fields\",\"toPort\":\"target:Transactions:totalCheckAmount:\",\"visible\":true,\"common\":false,\"__gohashid\":14172},{\"from\":\"target:Transactions:fields\",\"to\":\"target:Transactions:cashAmount:\",\"fromPort\":\"target:Transactions:fields\",\"toPort\":\"target:Transactions:cashAmount:\",\"visible\":true,\"common\":false,\"__gohashid\":14173},{\"from\":\"target:Transactions:fields\",\"to\":\"target:Transactions:payeeCurrency:\",\"fromPort\":\"target:Transactions:fields\",\"toPort\":\"target:Transactions:payeeCurrency:\",\"visible\":true,\"common\":false,\"__gohashid\":14174},{\"from\":\"target:Transactions:fields\",\"to\":\"target:Transactions:swiftCode:\",\"fromPort\":\"target:Transactions:fields\",\"toPort\":\"target:Transactions:swiftCode:\",\"visible\":true,\"common\":false,\"__gohashid\":14175},{\"from\":\"target:Transactions:fields\",\"to\":\"target:Transactions:wireAccountType:\",\"fromPort\":\"target:Transactions:fields\",\"toPort\":\"target:Transactions:wireAccountType:\",\"visible\":true,\"common\":false,\"__gohashid\":14176},{\"from\":\"target:Transactions:fields\",\"to\":\"target:Transactions:country:\",\"fromPort\":\"target:Transactions:fields\",\"toPort\":\"target:Transactions:country:\",\"visible\":true,\"common\":false,\"__gohashid\":14177},{\"from\":\"target:Transactions:fields\",\"to\":\"target:Transactions:IBAN:\",\"fromPort\":\"target:Transactions:fields\",\"toPort\":\"target:Transactions:IBAN:\",\"visible\":true,\"common\":false,\"__gohashid\":14178},{\"from\":\"target:Transactions:fields\",\"to\":\"target:Transactions:bankName:\",\"fromPort\":\"target:Transactions:fields\",\"toPort\":\"target:Transactions:bankName:\",\"visible\":true,\"common\":false,\"__gohashid\":14179},{\"from\":\"target:Transactions:fields\",\"to\":\"target:Transactions:routingNumber:\",\"fromPort\":\"target:Transactions:fields\",\"toPort\":\"target:Transactions:routingNumber:\",\"visible\":true,\"common\":false,\"__gohashid\":14180},{\"from\":\"target:Transactions:fields\",\"to\":\"target:Transactions:internationalRoutingCode:\",\"fromPort\":\"target:Transactions:fields\",\"toPort\":\"target:Transactions:internationalRoutingCode:\",\"visible\":true,\"common\":false,\"__gohashid\":14181},{\"from\":\"target:Transactions:fields\",\"to\":\"target:Transactions:zipCode:\",\"fromPort\":\"target:Transactions:fields\",\"toPort\":\"target:Transactions:zipCode:\",\"visible\":true,\"common\":false,\"__gohashid\":14182},{\"from\":\"target:Transactions:fields\",\"to\":\"target:Transactions:cityName:\",\"fromPort\":\"target:Transactions:fields\",\"toPort\":\"target:Transactions:cityName:\",\"visible\":true,\"common\":false,\"__gohashid\":14183},{\"from\":\"target:Transactions:fields\",\"to\":\"target:Transactions:state:\",\"fromPort\":\"target:Transactions:fields\",\"toPort\":\"target:Transactions:state:\",\"visible\":true,\"common\":false,\"__gohashid\":14184},{\"from\":\"target:Transactions:fields\",\"to\":\"target:Transactions:bankAddressLine1:\",\"fromPort\":\"target:Transactions:fields\",\"toPort\":\"target:Transactions:bankAddressLine1:\",\"visible\":true,\"common\":false,\"__gohashid\":14185},{\"from\":\"target:Transactions:fields\",\"to\":\"target:Transactions:bankAddressLine2:\",\"fromPort\":\"target:Transactions:fields\",\"toPort\":\"target:Transactions:bankAddressLine2:\",\"visible\":true,\"common\":false,\"__gohashid\":14186},{\"from\":\"target:Transactions:fields\",\"to\":\"target:Transactions:bankCity:\",\"fromPort\":\"target:Transactions:fields\",\"toPort\":\"target:Transactions:bankCity:\",\"visible\":true,\"common\":false,\"__gohashid\":14187},{\"from\":\"target:Transactions:fields\",\"to\":\"target:Transactions:bankState:\",\"fromPort\":\"target:Transactions:fields\",\"toPort\":\"target:Transactions:bankState:\",\"visible\":true,\"common\":false,\"__gohashid\":14188},{\"from\":\"target:Transactions:fields\",\"to\":\"target:Transactions:bankZip:\",\"fromPort\":\"target:Transactions:fields\",\"toPort\":\"target:Transactions:bankZip:\",\"visible\":true,\"common\":false,\"__gohashid\":14189},{\"from\":\"target:Transactions:fields\",\"to\":\"target:Transactions:payeeType:\",\"fromPort\":\"target:Transactions:fields\",\"toPort\":\"target:Transactions:payeeType:\",\"visible\":true,\"common\":false,\"__gohashid\":14190},{\"from\":\"target:Transactions:fields\",\"to\":\"target:Transactions:disputeReason:\",\"fromPort\":\"target:Transactions:fields\",\"toPort\":\"target:Transactions:disputeReason:\",\"visible\":true,\"common\":false,\"__gohashid\":14191},{\"from\":\"target:Transactions:fields\",\"to\":\"target:Transactions:disputeDescription:\",\"fromPort\":\"target:Transactions:fields\",\"toPort\":\"target:Transactions:disputeDescription:\",\"visible\":true,\"common\":false,\"__gohashid\":14192},{\"from\":\"target:Transactions:fields\",\"to\":\"target:Transactions:checkDateOfIssue:\",\"fromPort\":\"target:Transactions:fields\",\"toPort\":\"target:Transactions:checkDateOfIssue:\",\"visible\":true,\"common\":false,\"__gohashid\":14193},{\"from\":\"target:Transactions:fields\",\"to\":\"target:Transactions:checkReason:\",\"fromPort\":\"target:Transactions:fields\",\"toPort\":\"target:Transactions:checkReason:\",\"visible\":true,\"common\":false,\"__gohashid\":14194},{\"from\":\"target:Transactions:fields\",\"to\":\"target:Transactions:isPayeeDeleted:\",\"fromPort\":\"target:Transactions:fields\",\"toPort\":\"target:Transactions:isPayeeDeleted:\",\"visible\":true,\"common\":false,\"__gohashid\":14195},{\"from\":\"target:Transactions:fields\",\"to\":\"target:Transactions:payeeAddressLine2:\",\"fromPort\":\"target:Transactions:fields\",\"toPort\":\"target:Transactions:payeeAddressLine2:\",\"visible\":true,\"common\":false,\"__gohashid\":14196},{\"from\":\"target:Transactions:fields\",\"to\":\"target:Transactions:amountRecieved:\",\"fromPort\":\"target:Transactions:fields\",\"toPort\":\"target:Transactions:amountRecieved:\",\"visible\":true,\"common\":false,\"__gohashid\":14197},{\"from\":\"target:Transactions:fields\",\"to\":\"target:Transactions:requestValidityInMonths:\",\"fromPort\":\"target:Transactions:fields\",\"toPort\":\"target:Transactions:requestValidityInMonths:\",\"visible\":true,\"common\":false,\"__gohashid\":14198},{\"from\":\"target:Transactions:fields\",\"to\":\"target:Transactions:requestValidity:\",\"fromPort\":\"target:Transactions:fields\",\"toPort\":\"target:Transactions:requestValidity:\",\"visible\":true,\"common\":false,\"__gohashid\":14199},{\"from\":\"target:Transactions:fields\",\"to\":\"target:Transactions:requestType:\",\"fromPort\":\"target:Transactions:fields\",\"toPort\":\"target:Transactions:requestType:\",\"visible\":true,\"common\":false,\"__gohashid\":14200},{\"from\":\"target:Transactions:fields\",\"to\":\"target:Transactions:disputeDate:\",\"fromPort\":\"target:Transactions:fields\",\"toPort\":\"target:Transactions:disputeDate:\",\"visible\":true,\"common\":false,\"__gohashid\":14201},{\"from\":\"target:Transactions:fields\",\"to\":\"target:Transactions:disputeStatus:\",\"fromPort\":\"target:Transactions:fields\",\"toPort\":\"target:Transactions:disputeStatus:\",\"visible\":true,\"common\":false,\"__gohashid\":14202},{\"from\":\"target:Transactions:fields\",\"to\":\"target:Transactions:isDisputed:\",\"fromPort\":\"target:Transactions:fields\",\"toPort\":\"target:Transactions:isDisputed:\",\"visible\":true,\"common\":false,\"__gohashid\":14203},{\"from\":\"target:Transactions:fields\",\"to\":\"target:Transactions:cardId:\",\"fromPort\":\"target:Transactions:fields\",\"toPort\":\"target:Transactions:cardId:\",\"visible\":true,\"common\":false,\"__gohashid\":14204},{\"from\":\"target:Transactions:fields\",\"to\":\"target:Transactions:isOverdraft:\",\"fromPort\":\"target:Transactions:fields\",\"toPort\":\"target:Transactions:isOverdraft:\",\"visible\":true,\"common\":false,\"__gohashid\":14205},{\"from\":\"target:Transactions:fields\",\"to\":\"target:Transactions:title:\",\"fromPort\":\"target:Transactions:fields\",\"toPort\":\"target:Transactions:title:\",\"visible\":true,\"common\":false,\"__gohashid\":14206},{\"from\":\"target:Transactions:fields\",\"to\":\"target:Transactions:generatedBy:\",\"fromPort\":\"target:Transactions:fields\",\"toPort\":\"target:Transactions:generatedBy:\",\"visible\":true,\"common\":false,\"__gohashid\":14207},{\"from\":\"target:Transactions:fields\",\"to\":\"target:Transactions:filters:\",\"fromPort\":\"target:Transactions:fields\",\"toPort\":\"target:Transactions:filters:\",\"visible\":true,\"common\":false,\"__gohashid\":14208},{\"from\":\"target:Transactions:fields\",\"to\":\"target:Transactions:statementReference:\",\"fromPort\":\"target:Transactions:fields\",\"toPort\":\"target:Transactions:statementReference:\",\"visible\":true,\"common\":false,\"__gohashid\":14209},{\"from\":\"target:Transactions:fields\",\"to\":\"target:Transactions:transCreditDebitIndicator:\",\"fromPort\":\"target:Transactions:fields\",\"toPort\":\"target:Transactions:transCreditDebitIndicator:\",\"visible\":true,\"common\":false,\"__gohashid\":14210},{\"from\":\"target:Transactions:fields\",\"to\":\"target:Transactions:bookingDateTime:\",\"fromPort\":\"target:Transactions:fields\",\"toPort\":\"target:Transactions:bookingDateTime:\",\"visible\":true,\"common\":false,\"__gohashid\":14211},{\"from\":\"target:Transactions:fields\",\"to\":\"target:Transactions:valueDateTime:\",\"fromPort\":\"target:Transactions:fields\",\"toPort\":\"target:Transactions:valueDateTime:\",\"visible\":true,\"common\":false,\"__gohashid\":14212},{\"from\":\"target:Transactions:fields\",\"to\":\"target:Transactions:transactionInformation:\",\"fromPort\":\"target:Transactions:fields\",\"toPort\":\"target:Transactions:transactionInformation:\",\"visible\":true,\"common\":false,\"__gohashid\":14213},{\"from\":\"target:Transactions:fields\",\"to\":\"target:Transactions:addressLine:\",\"fromPort\":\"target:Transactions:fields\",\"toPort\":\"target:Transactions:addressLine:\",\"visible\":true,\"common\":false,\"__gohashid\":14214},{\"from\":\"target:Transactions:fields\",\"to\":\"target:Transactions:transactionAmount:\",\"fromPort\":\"target:Transactions:fields\",\"toPort\":\"target:Transactions:transactionAmount:\",\"visible\":true,\"common\":false,\"__gohashid\":14215},{\"from\":\"target:Transactions:fields\",\"to\":\"target:Transactions:transactionCurrency:\",\"fromPort\":\"target:Transactions:fields\",\"toPort\":\"target:Transactions:transactionCurrency:\",\"visible\":true,\"common\":false,\"__gohashid\":14216},{\"from\":\"target:Transactions:fields\",\"to\":\"target:Transactions:chargeAmount:\",\"fromPort\":\"target:Transactions:fields\",\"toPort\":\"target:Transactions:chargeAmount:\",\"visible\":true,\"common\":false,\"__gohashid\":14217},{\"from\":\"target:Transactions:fields\",\"to\":\"target:Transactions:chargeCurrency:\",\"fromPort\":\"target:Transactions:fields\",\"toPort\":\"target:Transactions:chargeCurrency:\",\"visible\":true,\"common\":false,\"__gohashid\":14218},{\"from\":\"target:Transactions:fields\",\"to\":\"target:Transactions:sourceCurrency:\",\"fromPort\":\"target:Transactions:fields\",\"toPort\":\"target:Transactions:sourceCurrency:\",\"visible\":true,\"common\":false,\"__gohashid\":14219},{\"from\":\"target:Transactions:fields\",\"to\":\"target:Transactions:targetCurrency:\",\"fromPort\":\"target:Transactions:fields\",\"toPort\":\"target:Transactions:targetCurrency:\",\"visible\":true,\"common\":false,\"__gohashid\":14220},{\"from\":\"target:Transactions:fields\",\"to\":\"target:Transactions:unitCurrency:\",\"fromPort\":\"target:Transactions:fields\",\"toPort\":\"target:Transactions:unitCurrency:\",\"visible\":true,\"common\":false,\"__gohashid\":14221},{\"from\":\"target:Transactions:fields\",\"to\":\"target:Transactions:exchangeRate:\",\"fromPort\":\"target:Transactions:fields\",\"toPort\":\"target:Transactions:exchangeRate:\",\"visible\":true,\"common\":false,\"__gohashid\":14222},{\"from\":\"target:Transactions:fields\",\"to\":\"target:Transactions:contractIdentification:\",\"fromPort\":\"target:Transactions:fields\",\"toPort\":\"target:Transactions:contractIdentification:\",\"visible\":true,\"common\":false,\"__gohashid\":14223},{\"from\":\"target:Transactions:fields\",\"to\":\"target:Transactions:quotationDate:\",\"fromPort\":\"target:Transactions:fields\",\"toPort\":\"target:Transactions:quotationDate:\",\"visible\":true,\"common\":false,\"__gohashid\":14224},{\"from\":\"target:Transactions:fields\",\"to\":\"target:Transactions:instructedAmount:\",\"fromPort\":\"target:Transactions:fields\",\"toPort\":\"target:Transactions:instructedAmount:\",\"visible\":true,\"common\":false,\"__gohashid\":14225},{\"from\":\"target:Transactions:fields\",\"to\":\"target:Transactions:transactionCode:\",\"fromPort\":\"target:Transactions:fields\",\"toPort\":\"target:Transactions:transactionCode:\",\"visible\":true,\"common\":false,\"__gohashid\":14226},{\"from\":\"target:Transactions:fields\",\"to\":\"target:Transactions:transactionSubCode:\",\"fromPort\":\"target:Transactions:fields\",\"toPort\":\"target:Transactions:transactionSubCode:\",\"visible\":true,\"common\":false,\"__gohashid\":14227},{\"from\":\"target:Transactions:fields\",\"to\":\"target:Transactions:proprietaryTransactionCode:\",\"fromPort\":\"target:Transactions:fields\",\"toPort\":\"target:Transactions:proprietaryTransactionCode:\",\"visible\":true,\"common\":false,\"__gohashid\":14228},{\"from\":\"target:Transactions:fields\",\"to\":\"target:Transactions:proprietaryTransactionIssuer:\",\"fromPort\":\"target:Transactions:fields\",\"toPort\":\"target:Transactions:proprietaryTransactionIssuer:\",\"visible\":true,\"common\":false,\"__gohashid\":14229},{\"from\":\"target:Transactions:fields\",\"to\":\"target:Transactions:balanceCreditDebitIndicator:\",\"fromPort\":\"target:Transactions:fields\",\"toPort\":\"target:Transactions:balanceCreditDebitIndicator:\",\"visible\":true,\"common\":false,\"__gohashid\":14230},{\"from\":\"target:Transactions:fields\",\"to\":\"target:Transactions:balanceType:\",\"fromPort\":\"target:Transactions:fields\",\"toPort\":\"target:Transactions:balanceType:\",\"visible\":true,\"common\":false,\"__gohashid\":14231},{\"from\":\"target:Transactions:fields\",\"to\":\"target:Transactions:balanceAmount:\",\"fromPort\":\"target:Transactions:fields\",\"toPort\":\"target:Transactions:balanceAmount:\",\"visible\":true,\"common\":false,\"__gohashid\":14232},{\"from\":\"target:Transactions:fields\",\"to\":\"target:Transactions:balanceCurrency:\",\"fromPort\":\"target:Transactions:fields\",\"toPort\":\"target:Transactions:balanceCurrency:\",\"visible\":true,\"common\":false,\"__gohashid\":14233},{\"from\":\"target:Transactions:fields\",\"to\":\"target:Transactions:merchantName:\",\"fromPort\":\"target:Transactions:fields\",\"toPort\":\"target:Transactions:merchantName:\",\"visible\":true,\"common\":false,\"__gohashid\":14234},{\"from\":\"target:Transactions:fields\",\"to\":\"target:Transactions:merchantCategoryCode:\",\"fromPort\":\"target:Transactions:fields\",\"toPort\":\"target:Transactions:merchantCategoryCode:\",\"visible\":true,\"common\":false,\"__gohashid\":14235},{\"from\":\"target:Transactions:fields\",\"to\":\"target:Transactions:creditorAgentSchemeName:\",\"fromPort\":\"target:Transactions:fields\",\"toPort\":\"target:Transactions:creditorAgentSchemeName:\",\"visible\":true,\"common\":false,\"__gohashid\":14236},{\"from\":\"target:Transactions:fields\",\"to\":\"target:Transactions:creditorAgentIdentification:\",\"fromPort\":\"target:Transactions:fields\",\"toPort\":\"target:Transactions:creditorAgentIdentification:\",\"visible\":true,\"common\":false,\"__gohashid\":14237},{\"from\":\"target:Transactions:fields\",\"to\":\"target:Transactions:creditorAgentName:\",\"fromPort\":\"target:Transactions:fields\",\"toPort\":\"target:Transactions:creditorAgentName:\",\"visible\":true,\"common\":false,\"__gohashid\":14238},{\"from\":\"target:Transactions:fields\",\"to\":\"target:Transactions:creditorAgentaddressType:\",\"fromPort\":\"target:Transactions:fields\",\"toPort\":\"target:Transactions:creditorAgentaddressType:\",\"visible\":true,\"common\":false,\"__gohashid\":14239},{\"from\":\"target:Transactions:fields\",\"to\":\"target:Transactions:creditorAgentDepartment:\",\"fromPort\":\"target:Transactions:fields\",\"toPort\":\"target:Transactions:creditorAgentDepartment:\",\"visible\":true,\"common\":false,\"__gohashid\":14240},{\"from\":\"target:Transactions:fields\",\"to\":\"target:Transactions:creditorAgentSubDepartment:\",\"fromPort\":\"target:Transactions:fields\",\"toPort\":\"target:Transactions:creditorAgentSubDepartment:\",\"visible\":true,\"common\":false,\"__gohashid\":14241},{\"from\":\"target:Transactions:fields\",\"to\":\"target:Transactions:creditorAgentStreetName:\",\"fromPort\":\"target:Transactions:fields\",\"toPort\":\"target:Transactions:creditorAgentStreetName:\",\"visible\":true,\"common\":false,\"__gohashid\":14242},{\"from\":\"target:Transactions:fields\",\"to\":\"target:Transactions:creditorAgentBuildingNumber:\",\"fromPort\":\"target:Transactions:fields\",\"toPort\":\"target:Transactions:creditorAgentBuildingNumber:\",\"visible\":true,\"common\":false,\"__gohashid\":14243},{\"from\":\"target:Transactions:fields\",\"to\":\"target:Transactions:creditorAgentPostCode:\",\"fromPort\":\"target:Transactions:fields\",\"toPort\":\"target:Transactions:creditorAgentPostCode:\",\"visible\":true,\"common\":false,\"__gohashid\":14244},{\"from\":\"target:Transactions:fields\",\"to\":\"target:Transactions:creditorAgentTownName:\",\"fromPort\":\"target:Transactions:fields\",\"toPort\":\"target:Transactions:creditorAgentTownName:\",\"visible\":true,\"common\":false,\"__gohashid\":14245},{\"from\":\"target:Transactions:fields\",\"to\":\"target:Transactions:creditorAgentCountrySubDivision:\",\"fromPort\":\"target:Transactions:fields\",\"toPort\":\"target:Transactions:creditorAgentCountrySubDivision:\",\"visible\":true,\"common\":false,\"__gohashid\":14246},{\"from\":\"target:Transactions:fields\",\"to\":\"target:Transactions:creditorAgentCountry:\",\"fromPort\":\"target:Transactions:fields\",\"toPort\":\"target:Transactions:creditorAgentCountry:\",\"visible\":true,\"common\":false,\"__gohashid\":14247},{\"from\":\"target:Transactions:fields\",\"to\":\"target:Transactions:creditorAgentAddressLine:\",\"fromPort\":\"target:Transactions:fields\",\"toPort\":\"target:Transactions:creditorAgentAddressLine:\",\"visible\":true,\"common\":false,\"__gohashid\":14248},{\"from\":\"target:Transactions:fields\",\"to\":\"target:Transactions:creditorAccountSchemeName:\",\"fromPort\":\"target:Transactions:fields\",\"toPort\":\"target:Transactions:creditorAccountSchemeName:\",\"visible\":true,\"common\":false,\"__gohashid\":14249},{\"from\":\"target:Transactions:fields\",\"to\":\"target:Transactions:creditorAccountSeconIdentification:\",\"fromPort\":\"target:Transactions:fields\",\"toPort\":\"target:Transactions:creditorAccountSeconIdentification:\",\"visible\":true,\"common\":false,\"__gohashid\":14250},{\"from\":\"target:Transactions:fields\",\"to\":\"target:Transactions:debtorAgentSchemeName:\",\"fromPort\":\"target:Transactions:fields\",\"toPort\":\"target:Transactions:debtorAgentSchemeName:\",\"visible\":true,\"common\":false,\"__gohashid\":14251},{\"from\":\"target:Transactions:fields\",\"to\":\"target:Transactions:debtorAgentIdentification:\",\"fromPort\":\"target:Transactions:fields\",\"toPort\":\"target:Transactions:debtorAgentIdentification:\",\"visible\":true,\"common\":false,\"__gohashid\":14252},{\"from\":\"target:Transactions:fields\",\"to\":\"target:Transactions:debtorAgentName:\",\"fromPort\":\"target:Transactions:fields\",\"toPort\":\"target:Transactions:debtorAgentName:\",\"visible\":true,\"common\":false,\"__gohashid\":14253},{\"from\":\"target:Transactions:fields\",\"to\":\"target:Transactions:debtorAgentAddressType:\",\"fromPort\":\"target:Transactions:fields\",\"toPort\":\"target:Transactions:debtorAgentAddressType:\",\"visible\":true,\"common\":false,\"__gohashid\":14254},{\"from\":\"target:Transactions:fields\",\"to\":\"target:Transactions:debtorAgentDepartment:\",\"fromPort\":\"target:Transactions:fields\",\"toPort\":\"target:Transactions:debtorAgentDepartment:\",\"visible\":true,\"common\":false,\"__gohashid\":14255},{\"from\":\"target:Transactions:fields\",\"to\":\"target:Transactions:debtorAgentSubDepartment:\",\"fromPort\":\"target:Transactions:fields\",\"toPort\":\"target:Transactions:debtorAgentSubDepartment:\",\"visible\":true,\"common\":false,\"__gohashid\":14256},{\"from\":\"target:Transactions:fields\",\"to\":\"target:Transactions:debtorAgentStreetName:\",\"fromPort\":\"target:Transactions:fields\",\"toPort\":\"target:Transactions:debtorAgentStreetName:\",\"visible\":true,\"common\":false,\"__gohashid\":14257},{\"from\":\"target:Transactions:fields\",\"to\":\"target:Transactions:debtorAgentBuildingNumber:\",\"fromPort\":\"target:Transactions:fields\",\"toPort\":\"target:Transactions:debtorAgentBuildingNumber:\",\"visible\":true,\"common\":false,\"__gohashid\":14258},{\"from\":\"target:Transactions:fields\",\"to\":\"target:Transactions:dedtorAgentPostCode:\",\"fromPort\":\"target:Transactions:fields\",\"toPort\":\"target:Transactions:dedtorAgentPostCode:\",\"visible\":true,\"common\":false,\"__gohashid\":14259},{\"from\":\"target:Transactions:fields\",\"to\":\"target:Transactions:debtorAgentTownName:\",\"fromPort\":\"target:Transactions:fields\",\"toPort\":\"target:Transactions:debtorAgentTownName:\",\"visible\":true,\"common\":false,\"__gohashid\":14260},{\"from\":\"target:Transactions:fields\",\"to\":\"target:Transactions:debtorAgentCountrySubDivision:\",\"fromPort\":\"target:Transactions:fields\",\"toPort\":\"target:Transactions:debtorAgentCountrySubDivision:\",\"visible\":true,\"common\":false,\"__gohashid\":14261},{\"from\":\"target:Transactions:fields\",\"to\":\"target:Transactions:debtorAgentCountry:\",\"fromPort\":\"target:Transactions:fields\",\"toPort\":\"target:Transactions:debtorAgentCountry:\",\"visible\":true,\"common\":false,\"__gohashid\":14262},{\"from\":\"target:Transactions:fields\",\"to\":\"target:Transactions:debtorAgentAddressLine:\",\"fromPort\":\"target:Transactions:fields\",\"toPort\":\"target:Transactions:debtorAgentAddressLine:\",\"visible\":true,\"common\":false,\"__gohashid\":14263},{\"from\":\"target:Transactions:fields\",\"to\":\"target:Transactions:debtorAccountSchemeName:\",\"fromPort\":\"target:Transactions:fields\",\"toPort\":\"target:Transactions:debtorAccountSchemeName:\",\"visible\":true,\"common\":false,\"__gohashid\":14264},{\"from\":\"target:Transactions:fields\",\"to\":\"target:Transactions:debtorAccountName:\",\"fromPort\":\"target:Transactions:fields\",\"toPort\":\"target:Transactions:debtorAccountName:\",\"visible\":true,\"common\":false,\"__gohashid\":14265},{\"from\":\"target:Transactions:fields\",\"to\":\"target:Transactions:debtorAccountSeconIdentification:\",\"fromPort\":\"target:Transactions:fields\",\"toPort\":\"target:Transactions:debtorAccountSeconIdentification:\",\"visible\":true,\"common\":false,\"__gohashid\":14266},{\"from\":\"target:Transactions:fields\",\"to\":\"target:Transactions:cardInstrumentSchemeName:\",\"fromPort\":\"target:Transactions:fields\",\"toPort\":\"target:Transactions:cardInstrumentSchemeName:\",\"visible\":true,\"common\":false,\"__gohashid\":14267},{\"from\":\"target:Transactions:fields\",\"to\":\"target:Transactions:cardInstrumentAuthorisationType:\",\"fromPort\":\"target:Transactions:fields\",\"toPort\":\"target:Transactions:cardInstrumentAuthorisationType:\",\"visible\":true,\"common\":false,\"__gohashid\":14268},{\"from\":\"target:Transactions:fields\",\"to\":\"target:Transactions:cardInstrumentName:\",\"fromPort\":\"target:Transactions:fields\",\"toPort\":\"target:Transactions:cardInstrumentName:\",\"visible\":true,\"common\":false,\"__gohashid\":14269},{\"from\":\"target:Transactions:fields\",\"to\":\"target:Transactions:cardInstrumentIdentification:\",\"fromPort\":\"target:Transactions:fields\",\"toPort\":\"target:Transactions:cardInstrumentIdentification:\",\"visible\":true,\"common\":false,\"__gohashid\":14270},{\"from\":\"target:Transactions:fields\",\"to\":\"target:Transactions:sortCode:\",\"fromPort\":\"target:Transactions:fields\",\"toPort\":\"target:Transactions:sortCode:\",\"visible\":true,\"common\":false,\"__gohashid\":14271},{\"from\":\"target:Transactions:fields\",\"to\":\"target:Transactions:feeCurrency:\",\"fromPort\":\"target:Transactions:fields\",\"toPort\":\"target:Transactions:feeCurrency:\",\"visible\":true,\"common\":false,\"__gohashid\":14272},{\"from\":\"target:Transactions:fields\",\"to\":\"target:Transactions:feePaidByReceipent:\",\"fromPort\":\"target:Transactions:fields\",\"toPort\":\"target:Transactions:feePaidByReceipent:\",\"visible\":true,\"common\":false,\"__gohashid\":14273},{\"from\":\"target:Transactions:fields\",\"to\":\"target:Transactions:convertedAmount:\",\"fromPort\":\"target:Transactions:fields\",\"toPort\":\"target:Transactions:convertedAmount:\",\"visible\":true,\"common\":false,\"__gohashid\":14274},{\"from\":\"target:Transactions:fields\",\"to\":\"target:Transactions:baseCurrency:\",\"fromPort\":\"target:Transactions:fields\",\"toPort\":\"target:Transactions:baseCurrency:\",\"visible\":true,\"common\":false,\"__gohashid\":14275},{\"from\":\"target:Transactions:fields\",\"to\":\"target:Transactions:FirstPaymentDateTime:\",\"fromPort\":\"target:Transactions:fields\",\"toPort\":\"target:Transactions:FirstPaymentDateTime:\",\"visible\":true,\"common\":false,\"__gohashid\":14276},{\"from\":\"target:Transactions:fields\",\"to\":\"target:Transactions:NextPaymentDateTime:\",\"fromPort\":\"target:Transactions:fields\",\"toPort\":\"target:Transactions:NextPaymentDateTime:\",\"visible\":true,\"common\":false,\"__gohashid\":14277},{\"from\":\"target:Transactions:fields\",\"to\":\"target:Transactions:FinalPaymentDateTime:\",\"fromPort\":\"target:Transactions:fields\",\"toPort\":\"target:Transactions:FinalPaymentDateTime:\",\"visible\":true,\"common\":false,\"__gohashid\":14278},{\"from\":\"target:Transactions:fields\",\"to\":\"target:Transactions:StandingOrderStatusCode:\",\"fromPort\":\"target:Transactions:fields\",\"toPort\":\"target:Transactions:StandingOrderStatusCode:\",\"visible\":true,\"common\":false,\"__gohashid\":14279},{\"from\":\"target:Transactions:fields\",\"to\":\"target:Transactions:FP_Amount:\",\"fromPort\":\"target:Transactions:fields\",\"toPort\":\"target:Transactions:FP_Amount:\",\"visible\":true,\"common\":false,\"__gohashid\":14280},{\"from\":\"target:Transactions:fields\",\"to\":\"target:Transactions:FP_Currency:\",\"fromPort\":\"target:Transactions:fields\",\"toPort\":\"target:Transactions:FP_Currency:\",\"visible\":true,\"common\":false,\"__gohashid\":14281},{\"from\":\"target:Transactions:fields\",\"to\":\"target:Transactions:NP_Amount:\",\"fromPort\":\"target:Transactions:fields\",\"toPort\":\"target:Transactions:NP_Amount:\",\"visible\":true,\"common\":false,\"__gohashid\":14282},{\"from\":\"target:Transactions:fields\",\"to\":\"target:Transactions:NP_Currency:\",\"fromPort\":\"target:Transactions:fields\",\"toPort\":\"target:Transactions:NP_Currency:\",\"visible\":true,\"common\":false,\"__gohashid\":14283},{\"from\":\"target:Transactions:fields\",\"to\":\"target:Transactions:FPA_Amount:\",\"fromPort\":\"target:Transactions:fields\",\"toPort\":\"target:Transactions:FPA_Amount:\",\"visible\":true,\"common\":false,\"__gohashid\":14284},{\"from\":\"target:Transactions:fields\",\"to\":\"target:Transactions:FPA_Currency:\",\"fromPort\":\"target:Transactions:fields\",\"toPort\":\"target:Transactions:FPA_Currency:\",\"visible\":true,\"common\":false,\"__gohashid\":14285},{\"from\":\"target:Transactions:fields\",\"to\":\"target:Transactions:beneficiaryName:\",\"fromPort\":\"target:Transactions:fields\",\"toPort\":\"target:Transactions:beneficiaryName:\",\"visible\":true,\"common\":false,\"__gohashid\":14286},{\"from\":\"target:Transactions:fields\",\"to\":\"target:Transactions:isInternationalAccount:\",\"fromPort\":\"target:Transactions:fields\",\"toPort\":\"target:Transactions:isInternationalAccount:\",\"visible\":true,\"common\":false,\"__gohashid\":14287},{\"from\":\"target:Transactions:fields\",\"to\":\"target:Transactions:ConsentId:\",\"fromPort\":\"target:Transactions:fields\",\"toPort\":\"target:Transactions:ConsentId:\",\"visible\":true,\"common\":false,\"__gohashid\":14288},{\"from\":\"target:Transactions:fields\",\"to\":\"target:Transactions:Initiation_InstructionIdentification:\",\"fromPort\":\"target:Transactions:fields\",\"toPort\":\"target:Transactions:Initiation_InstructionIdentification:\",\"visible\":true,\"common\":false,\"__gohashid\":14289},{\"from\":\"target:Transactions:fields\",\"to\":\"target:Transactions:RI_Unstructured:\",\"fromPort\":\"target:Transactions:fields\",\"toPort\":\"target:Transactions:RI_Unstructured:\",\"visible\":true,\"common\":false,\"__gohashid\":14290},{\"from\":\"target:Transactions:fields\",\"to\":\"target:Transactions:RI_Reference:\",\"fromPort\":\"target:Transactions:fields\",\"toPort\":\"target:Transactions:RI_Reference:\",\"visible\":true,\"common\":false,\"__gohashid\":14291},{\"from\":\"target:Transactions:fields\",\"to\":\"target:Transactions:Initiation_EndToEndIdentification:\",\"fromPort\":\"target:Transactions:fields\",\"toPort\":\"target:Transactions:Initiation_EndToEndIdentification:\",\"visible\":true,\"common\":false,\"__gohashid\":14292},{\"from\":\"target:Transactions:fields\",\"to\":\"target:Transactions:RiskPaymentContextCode:\",\"fromPort\":\"target:Transactions:fields\",\"toPort\":\"target:Transactions:RiskPaymentContextCode:\",\"visible\":true,\"common\":false,\"__gohashid\":14293},{\"from\":\"target:Transactions:fields\",\"to\":\"target:Transactions:linkSelf:\",\"fromPort\":\"target:Transactions:fields\",\"toPort\":\"target:Transactions:linkSelf:\",\"visible\":true,\"common\":false,\"__gohashid\":14294},{\"from\":\"target:Transactions:fields\",\"to\":\"target:Transactions:StatusUpdateDateTime:\",\"fromPort\":\"target:Transactions:fields\",\"toPort\":\"target:Transactions:StatusUpdateDateTime:\",\"visible\":true,\"common\":false,\"__gohashid\":14295},{\"from\":\"target:Transactions:fields\",\"to\":\"target:Transactions:createdDate:\",\"fromPort\":\"target:Transactions:fields\",\"toPort\":\"target:Transactions:createdDate:\",\"visible\":true,\"common\":false,\"__gohashid\":14296},{\"from\":\"target:Transactions:fields\",\"to\":\"target:Transactions:DomesticPaymentId:\",\"fromPort\":\"target:Transactions:fields\",\"toPort\":\"target:Transactions:DomesticPaymentId:\",\"visible\":true,\"common\":false,\"__gohashid\":14297},{\"from\":\"target:Transactions:fields\",\"to\":\"target:Transactions:dataStatus:\",\"fromPort\":\"target:Transactions:fields\",\"toPort\":\"target:Transactions:dataStatus:\",\"visible\":true,\"common\":false,\"__gohashid\":14298},{\"from\":\"source\",\"to\":\"source:parameters\",\"fromPort\":\"source\",\"toPort\":\"source:parameters\",\"visible\":true,\"common\":false,\"__gohashid\":14299},{\"from\":\"source:parameters\",\"to\":\"source:errmsg:\",\"fromPort\":\"source:parameters\",\"toPort\":\"source:errmsg:\",\"visible\":true,\"common\":false,\"__gohashid\":14300},{\"from\":\"source:parameters\",\"to\":\"source:success:\",\"fromPort\":\"source:parameters\",\"toPort\":\"source:success:\",\"visible\":true,\"common\":false,\"__gohashid\":14301},{\"from\":\"source:parameters\",\"to\":\"source:transactionId:\",\"fromPort\":\"source:parameters\",\"toPort\":\"source:transactionId:\",\"visible\":true,\"common\":false,\"__gohashid\":14302}],\"blockCount\":{\"variableCount\":0},\"variableMap\":{},\"xmlMappingOverride\":true}",
    "applyCommonMapping" : false,
    "applyRequestCommonMapping" : true,
    "applyResponseCommonMapping" : false,
    "backendMeta" : {
      "serviceName" : "dbpRbLocalServicesJava",
      "serviceVersion" : "1.0",
      "operationName" : "cancelScheduledTransactionOccurrence"
    },
    "relationshipHierarchyMapping" : {
      "children" : [ ],
      "name" : "Transactions",
      "actions" : { },
      "selected" : true
    },
    "requestXmlMappingOverride" : false,
    "responseXmlMappingOverride" : true
  }
}