{
  "operationConfig" : {
    "name" : "GetAllTransactionsForAdmin1982",
    "type" : "MappedToBackend",
    "cachable" : false,
    "smsEnabled" : false,
    "security" : "authorized_app_user",
    "responseEncoding" : "UTF-8",
    "httpMethod" : "GET",
    "decodeResponseBody" : false,
    "iMapping" : "<?xml version=\"1.0\" encoding=\"UTF-8\" standalone=\"yes\"?><mapper xmlns=\"http://www.kony.com/ns/mapper\"><map inputpath=\"request_in\" outputpath=\"request_out\"><set-param inputpath=\"searchStartDate\" outputpath=\"searchStartDate\"/><set-param inputpath=\"searchDateRange\" outputpath=\"searchDateRange\"/><set-param inputpath=\"searchEndDate\" outputpath=\"searchEndDate\"/><set-param inputpath=\"sortBy\" outputpath=\"sortBy\"/><set-param inputpath=\"accountNumber\" outputpath=\"accountNumber\"/><set-param inputpath=\"order\" outputpath=\"order\"/></map></mapper>",
    "oMapping" : "<?xml version=\"1.0\" encoding=\"UTF-8\" standalone=\"yes\"?><mapper xmlns=\"http://www.kony.com/ns/mapper\">                    <map inputpath=\"response_in\" outputpath=\"response_out\">                                        <map inputpath=\"transaction\" outputpath=\"Transactions\">                                                            <set-param inputpath=\"amount\" outputpath=\"amount\"/>                                                            <set-param inputpath=\"cashlessEmail\" outputpath=\"cashlessEmail\"/>                                                            <set-param inputpath=\"cashlessMode\" outputpath=\"cashlessMode\"/>                                                            <set-param inputpath=\"cashlessOTP\" outputpath=\"cashlessOTP\"/>                                                            <set-param inputpath=\"cashlessOTPValidDate\" outputpath=\"cashlessOTPValidDate\"/>                                                            <set-param inputpath=\"cashlessPersonName\" outputpath=\"cashlessPersonName\"/>                                                            <set-param inputpath=\"cashlessPhone\" outputpath=\"cashlessPhone\"/>                                                            <set-param inputpath=\"cashlessSecurityCode\" outputpath=\"cashlessSecurityCode\"/>                                                            <set-param inputpath=\"cashWithdrawalTransactionStatus\" outputpath=\"cashWithdrawalTransactionStatus\"/>                                                            <set-param inputpath=\"category\" outputpath=\"category\"/>                                                            <set-param inputpath=\"description\" outputpath=\"description\"/>                                                            <set-param inputpath=\"externalAccountNumber\" outputpath=\"ExternalAccountNumber\"/>                                                            <set-param inputpath=\"frequencyEndDate\" outputpath=\"frequencyEndDate\"/>                                                            <set-param inputpath=\"frequencyStartDate\" outputpath=\"frequencyStartDate\"/>                                                            <set-param inputpath=\"frequencyType\" outputpath=\"frequencyType\"/>                                                            <set-param inputpath=\"fromAccountBalance\" outputpath=\"fromAccountBalance\"/>                                                            <set-param inputpath=\"fromAccountName\" outputpath=\"fromAccountName\"/>                                                            <set-param inputpath=\"fromAccountNumber\" outputpath=\"fromAccountNumber\"/>                                                            <set-param inputpath=\"fromAccountType\" outputpath=\"fromAccountType\"/>                                                            <set-param inputpath=\"fromAccountNickName\" outputpath=\"fromNickName\"/>                                                            <set-param inputpath=\"hasDepositImage\" outputpath=\"hasDepositImage\"/>                                                            <set-param inputpath=\"isScheduled\" outputpath=\"isScheduled\"/>                                                            <set-param inputpath=\"numberOfRecurrences\" outputpath=\"numberOfRecurrences\"/>                                                            <set-param inputpath=\"payee_id\" outputpath=\"payeeId\"/>                                                            <set-param inputpath=\"payeeNickName\" outputpath=\"payeeNickName\"/>                                                            <set-param inputpath=\"email\" outputpath=\"payPersonEmail\"/>                                                            <set-param inputpath=\"name\" outputpath=\"payPersonName\"/>                                                            <set-param inputpath=\"recurrenceDesc\" outputpath=\"recurrenceDesc\"/>                                                            <set-param inputpath=\"scheduledDate\" outputpath=\"scheduledDate\"/>                                                            <set-param inputpath=\"statusDesc\" outputpath=\"statusDescription\"/>                                                            <set-param inputpath=\"toAccountName\" outputpath=\"toAccountName\"/>                                                            <set-param inputpath=\"toAccountNumber\" outputpath=\"toAccountNumber\"/>                                                            <set-param inputpath=\"toAccountType\" outputpath=\"toAccountType\"/>                                                            <set-param inputpath=\"transactionComments\" outputpath=\"transactionComments\"/>                                                            <set-param inputpath=\"transactionDate\" outputpath=\"transactionDate\"/>                                                            <set-param inputpath=\"Id\" outputpath=\"transactionId\"/>                                                            <set-param inputpath=\"transactionsNotes\" outputpath=\"transactionsNotes\"/>                                                            <set-param inputpath=\"transactionType\" outputpath=\"transactionType\"/>                                                            <set-param inputpath=\"viewReportLink\" outputpath=\"viewReportLink\"/>                     <set-param inputpath=\"IBAN\" outputpath=\"IBAN\"/>                                                                  <set-param inputpath=\"sortCode\" outputpath=\"sortCode\"/>                              <set-param inputpath=\"fee\" outputpath=\"fee\"/>                                      <set-param inputpath=\"feeCurrency\" outputpath=\"feeCurrency\"/>                                                                  <set-param inputpath=\"feePaidByReceipent\" outputpath=\"feePaidByReceipent\"/>                                                                  <set-param inputpath=\"convertedAmount\" outputpath=\"convertedAmount\"/>                                                            <set-param inputpath=\"transactionCurrency\" outputpath=\"transactionCurrency\"/>                                                                  <set-param inputpath=\"baseCurrency\" outputpath=\"baseCurrency\"/>               <set-param inputpath=\"isInternationalAccount\" outputpath=\"isInternationalAccount\"/>          <set-param inputpath=\"serviceName\" outputpath=\"serviceName\"/>     </map>                    </map></mapper>",
    "oVisualMappingData" : "{\"nodeDataArray\":[{\"isGroup\":true,\"key\":\"response_out\",\"text\":\"Transactions\",\"xy\":\"770 100\",\"__gohashid\":58697},{\"isGroup\":true,\"key\":\"response_in\",\"text\":\"dbpRbLocalServicesJava (1.0).GetAllTransactionsForAdmin\",\"xy\":\"150 100\",\"__gohashid\":58698}],\"linkDataArray\":[{\"from\":\"target\",\"to\":\"target:Transactions\",\"fromPort\":\"target\",\"toPort\":\"target:Transactions\",\"visible\":true,\"common\":false,\"__gohashid\":145243},{\"from\":\"target:Transactions\",\"to\":\"target:Transactions:fields\",\"fromPort\":\"target:Transactions\",\"toPort\":\"target:Transactions:fields\",\"visible\":true,\"common\":false,\"__gohashid\":145244},{\"from\":\"target:Transactions:fields\",\"to\":\"target:Transactions:accountID:\",\"fromPort\":\"target:Transactions:fields\",\"toPort\":\"target:Transactions:accountID:\",\"visible\":true,\"common\":false,\"__gohashid\":145245},{\"from\":\"target:Transactions:fields\",\"to\":\"target:Transactions:accountNumber:\",\"fromPort\":\"target:Transactions:fields\",\"toPort\":\"target:Transactions:accountNumber:\",\"visible\":true,\"common\":false,\"__gohashid\":145246},{\"from\":\"target:Transactions:fields\",\"to\":\"target:Transactions:amount:\",\"fromPort\":\"target:Transactions:fields\",\"toPort\":\"target:Transactions:amount:\",\"visible\":true,\"common\":false,\"__gohashid\":145247},{\"from\":\"target:Transactions:fields\",\"to\":\"target:Transactions:amountTransferedTillNow:\",\"fromPort\":\"target:Transactions:fields\",\"toPort\":\"target:Transactions:amountTransferedTillNow:\",\"visible\":true,\"common\":false,\"__gohashid\":145248},{\"from\":\"target:Transactions:fields\",\"to\":\"target:Transactions:authenticationRequired:\",\"fromPort\":\"target:Transactions:fields\",\"toPort\":\"target:Transactions:authenticationRequired:\",\"visible\":true,\"common\":false,\"__gohashid\":145249},{\"from\":\"target:Transactions:fields\",\"to\":\"target:Transactions:billCategory:\",\"fromPort\":\"target:Transactions:fields\",\"toPort\":\"target:Transactions:billCategory:\",\"visible\":true,\"common\":false,\"__gohashid\":145250},{\"from\":\"target:Transactions:fields\",\"to\":\"target:Transactions:billCategoryId:\",\"fromPort\":\"target:Transactions:fields\",\"toPort\":\"target:Transactions:billCategoryId:\",\"visible\":true,\"common\":false,\"__gohashid\":145251},{\"from\":\"target:Transactions:fields\",\"to\":\"target:Transactions:billDueAmount:\",\"fromPort\":\"target:Transactions:fields\",\"toPort\":\"target:Transactions:billDueAmount:\",\"visible\":true,\"common\":false,\"__gohashid\":145252},{\"from\":\"target:Transactions:fields\",\"to\":\"target:Transactions:billDueDate:\",\"fromPort\":\"target:Transactions:fields\",\"toPort\":\"target:Transactions:billDueDate:\",\"visible\":true,\"common\":false,\"__gohashid\":145253},{\"from\":\"target:Transactions:fields\",\"to\":\"target:Transactions:billerCategoryName:\",\"fromPort\":\"target:Transactions:fields\",\"toPort\":\"target:Transactions:billerCategoryName:\",\"visible\":true,\"common\":false,\"__gohashid\":145254},{\"from\":\"target:Transactions:fields\",\"to\":\"target:Transactions:billGeneratedDate:\",\"fromPort\":\"target:Transactions:fields\",\"toPort\":\"target:Transactions:billGeneratedDate:\",\"visible\":true,\"common\":false,\"__gohashid\":145255},{\"from\":\"target:Transactions:fields\",\"to\":\"target:Transactions:billid:\",\"fromPort\":\"target:Transactions:fields\",\"toPort\":\"target:Transactions:billid:\",\"visible\":true,\"common\":false,\"__gohashid\":145256},{\"from\":\"target:Transactions:fields\",\"to\":\"target:Transactions:billPaidAmount:\",\"fromPort\":\"target:Transactions:fields\",\"toPort\":\"target:Transactions:billPaidAmount:\",\"visible\":true,\"common\":false,\"__gohashid\":145257},{\"from\":\"target:Transactions:fields\",\"to\":\"target:Transactions:billPaidDate:\",\"fromPort\":\"target:Transactions:fields\",\"toPort\":\"target:Transactions:billPaidDate:\",\"visible\":true,\"common\":false,\"__gohashid\":145258},{\"from\":\"target:Transactions:fields\",\"to\":\"target:Transactions:bulkPayString:\",\"fromPort\":\"target:Transactions:fields\",\"toPort\":\"target:Transactions:bulkPayString:\",\"visible\":true,\"common\":false,\"__gohashid\":145259},{\"from\":\"target:Transactions:fields\",\"to\":\"target:Transactions:cashlessEmail:\",\"fromPort\":\"target:Transactions:fields\",\"toPort\":\"target:Transactions:cashlessEmail:\",\"visible\":true,\"common\":false,\"__gohashid\":145260},{\"from\":\"target:Transactions:fields\",\"to\":\"target:Transactions:cashlessMode:\",\"fromPort\":\"target:Transactions:fields\",\"toPort\":\"target:Transactions:cashlessMode:\",\"visible\":true,\"common\":false,\"__gohashid\":145261},{\"from\":\"target:Transactions:fields\",\"to\":\"target:Transactions:cashlessOTP:\",\"fromPort\":\"target:Transactions:fields\",\"toPort\":\"target:Transactions:cashlessOTP:\",\"visible\":true,\"common\":false,\"__gohashid\":145262},{\"from\":\"target:Transactions:fields\",\"to\":\"target:Transactions:cashlessOTPValidDate:\",\"fromPort\":\"target:Transactions:fields\",\"toPort\":\"target:Transactions:cashlessOTPValidDate:\",\"visible\":true,\"common\":false,\"__gohashid\":145263},{\"from\":\"target:Transactions:fields\",\"to\":\"target:Transactions:cashlessPersonName:\",\"fromPort\":\"target:Transactions:fields\",\"toPort\":\"target:Transactions:cashlessPersonName:\",\"visible\":true,\"common\":false,\"__gohashid\":145264},{\"from\":\"target:Transactions:fields\",\"to\":\"target:Transactions:cashlessPhone:\",\"fromPort\":\"target:Transactions:fields\",\"toPort\":\"target:Transactions:cashlessPhone:\",\"visible\":true,\"common\":false,\"__gohashid\":145265},{\"from\":\"target:Transactions:fields\",\"to\":\"target:Transactions:cashlessPin:\",\"fromPort\":\"target:Transactions:fields\",\"toPort\":\"target:Transactions:cashlessPin:\",\"visible\":true,\"common\":false,\"__gohashid\":145266},{\"from\":\"target:Transactions:fields\",\"to\":\"target:Transactions:cashlessSecurityCode:\",\"fromPort\":\"target:Transactions:fields\",\"toPort\":\"target:Transactions:cashlessSecurityCode:\",\"visible\":true,\"common\":false,\"__gohashid\":145267},{\"from\":\"target:Transactions:fields\",\"to\":\"target:Transactions:cashWithdrawalTransactionStatus:\",\"fromPort\":\"target:Transactions:fields\",\"toPort\":\"target:Transactions:cashWithdrawalTransactionStatus:\",\"visible\":true,\"common\":false,\"__gohashid\":145268},{\"from\":\"target:Transactions:fields\",\"to\":\"target:Transactions:category:\",\"fromPort\":\"target:Transactions:fields\",\"toPort\":\"target:Transactions:category:\",\"visible\":true,\"common\":false,\"__gohashid\":145269},{\"from\":\"target:Transactions:fields\",\"to\":\"target:Transactions:checkImage:\",\"fromPort\":\"target:Transactions:fields\",\"toPort\":\"target:Transactions:checkImage:\",\"visible\":true,\"common\":false,\"__gohashid\":145270},{\"from\":\"target:Transactions:fields\",\"to\":\"target:Transactions:checkImageBack:\",\"fromPort\":\"target:Transactions:fields\",\"toPort\":\"target:Transactions:checkImageBack:\",\"visible\":true,\"common\":false,\"__gohashid\":145271},{\"from\":\"target:Transactions:fields\",\"to\":\"target:Transactions:checkNumber:\",\"fromPort\":\"target:Transactions:fields\",\"toPort\":\"target:Transactions:checkNumber:\",\"visible\":true,\"common\":false,\"__gohashid\":145272},{\"from\":\"target:Transactions:fields\",\"to\":\"target:Transactions:deliverBy:\",\"fromPort\":\"target:Transactions:fields\",\"toPort\":\"target:Transactions:deliverBy:\",\"visible\":true,\"common\":false,\"__gohashid\":145273},{\"from\":\"target:Transactions:fields\",\"to\":\"target:Transactions:description:\",\"fromPort\":\"target:Transactions:fields\",\"toPort\":\"target:Transactions:description:\",\"visible\":true,\"common\":false,\"__gohashid\":145274},{\"from\":\"target:Transactions:fields\",\"to\":\"target:Transactions:eBillEnable:\",\"fromPort\":\"target:Transactions:fields\",\"toPort\":\"target:Transactions:eBillEnable:\",\"visible\":true,\"common\":false,\"__gohashid\":145275},{\"from\":\"target:Transactions:fields\",\"to\":\"target:Transactions:eBillSupport:\",\"fromPort\":\"target:Transactions:fields\",\"toPort\":\"target:Transactions:eBillSupport:\",\"visible\":true,\"common\":false,\"__gohashid\":145276},{\"from\":\"target:Transactions:fields\",\"to\":\"target:Transactions:ebillURL:\",\"fromPort\":\"target:Transactions:fields\",\"toPort\":\"target:Transactions:ebillURL:\",\"visible\":true,\"common\":false,\"__gohashid\":145277},{\"from\":\"target:Transactions:fields\",\"to\":\"target:Transactions:errmsg:\",\"fromPort\":\"target:Transactions:fields\",\"toPort\":\"target:Transactions:errmsg:\",\"visible\":true,\"common\":false,\"__gohashid\":145278},{\"from\":\"target:Transactions:fields\",\"to\":\"target:Transactions:ExternalAccountNumber:\",\"fromPort\":\"target:Transactions:fields\",\"toPort\":\"target:Transactions:ExternalAccountNumber:\",\"visible\":true,\"common\":false,\"__gohashid\":145279},{\"from\":\"target:Transactions:fields\",\"to\":\"target:Transactions:firstDeposit:\",\"fromPort\":\"target:Transactions:fields\",\"toPort\":\"target:Transactions:firstDeposit:\",\"visible\":true,\"common\":false,\"__gohashid\":145280},{\"from\":\"target:Transactions:fields\",\"to\":\"target:Transactions:firstRecordNumber:\",\"fromPort\":\"target:Transactions:fields\",\"toPort\":\"target:Transactions:firstRecordNumber:\",\"visible\":true,\"common\":false,\"__gohashid\":145281},{\"from\":\"target:Transactions:fields\",\"to\":\"target:Transactions:frequencyEndDate:\",\"fromPort\":\"target:Transactions:fields\",\"toPort\":\"target:Transactions:frequencyEndDate:\",\"visible\":true,\"common\":false,\"__gohashid\":145282},{\"from\":\"target:Transactions:fields\",\"to\":\"target:Transactions:frequencyStartDate:\",\"fromPort\":\"target:Transactions:fields\",\"toPort\":\"target:Transactions:frequencyStartDate:\",\"visible\":true,\"common\":false,\"__gohashid\":145283},{\"from\":\"target:Transactions:fields\",\"to\":\"target:Transactions:frequencyType:\",\"fromPort\":\"target:Transactions:fields\",\"toPort\":\"target:Transactions:frequencyType:\",\"visible\":true,\"common\":false,\"__gohashid\":145284},{\"from\":\"target:Transactions:fields\",\"to\":\"target:Transactions:fromAccountBalance:\",\"fromPort\":\"target:Transactions:fields\",\"toPort\":\"target:Transactions:fromAccountBalance:\",\"visible\":true,\"common\":false,\"__gohashid\":145285},{\"from\":\"target:Transactions:fields\",\"to\":\"target:Transactions:fromAccountName:\",\"fromPort\":\"target:Transactions:fields\",\"toPort\":\"target:Transactions:fromAccountName:\",\"visible\":true,\"common\":false,\"__gohashid\":145286},{\"from\":\"target:Transactions:fields\",\"to\":\"target:Transactions:fromAccountNumber:\",\"fromPort\":\"target:Transactions:fields\",\"toPort\":\"target:Transactions:fromAccountNumber:\",\"visible\":true,\"common\":false,\"__gohashid\":145287},{\"from\":\"target:Transactions:fields\",\"to\":\"target:Transactions:fromAccountType:\",\"fromPort\":\"target:Transactions:fields\",\"toPort\":\"target:Transactions:fromAccountType:\",\"visible\":true,\"common\":false,\"__gohashid\":145288},{\"from\":\"target:Transactions:fields\",\"to\":\"target:Transactions:fromCheckNumber:\",\"fromPort\":\"target:Transactions:fields\",\"toPort\":\"target:Transactions:fromCheckNumber:\",\"visible\":true,\"common\":false,\"__gohashid\":145289},{\"from\":\"target:Transactions:fields\",\"to\":\"target:Transactions:fromNickName:\",\"fromPort\":\"target:Transactions:fields\",\"toPort\":\"target:Transactions:fromNickName:\",\"visible\":true,\"common\":false,\"__gohashid\":145290},{\"from\":\"target:Transactions:fields\",\"to\":\"target:Transactions:hasDepositImage:\",\"fromPort\":\"target:Transactions:fields\",\"toPort\":\"target:Transactions:hasDepositImage:\",\"visible\":true,\"common\":false,\"__gohashid\":145291},{\"from\":\"target:Transactions:fields\",\"to\":\"target:Transactions:isScheduled:\",\"fromPort\":\"target:Transactions:fields\",\"toPort\":\"target:Transactions:isScheduled:\",\"visible\":true,\"common\":false,\"__gohashid\":145292},{\"from\":\"target:Transactions:fields\",\"to\":\"target:Transactions:lastRecordNumber:\",\"fromPort\":\"target:Transactions:fields\",\"toPort\":\"target:Transactions:lastRecordNumber:\",\"visible\":true,\"common\":false,\"__gohashid\":145293},{\"from\":\"target:Transactions:fields\",\"to\":\"target:Transactions:limit:\",\"fromPort\":\"target:Transactions:fields\",\"toPort\":\"target:Transactions:limit:\",\"visible\":true,\"common\":false,\"__gohashid\":145294},{\"from\":\"target:Transactions:fields\",\"to\":\"target:Transactions:numberOfRecurrences:\",\"fromPort\":\"target:Transactions:fields\",\"toPort\":\"target:Transactions:numberOfRecurrences:\",\"visible\":true,\"common\":false,\"__gohashid\":145295},{\"from\":\"target:Transactions:fields\",\"to\":\"target:Transactions:offset:\",\"fromPort\":\"target:Transactions:fields\",\"toPort\":\"target:Transactions:offset:\",\"visible\":true,\"common\":false,\"__gohashid\":145296},{\"from\":\"target:Transactions:fields\",\"to\":\"target:Transactions:order:\",\"fromPort\":\"target:Transactions:fields\",\"toPort\":\"target:Transactions:order:\",\"visible\":true,\"common\":false,\"__gohashid\":145297},{\"from\":\"target:Transactions:fields\",\"to\":\"target:Transactions:otp:\",\"fromPort\":\"target:Transactions:fields\",\"toPort\":\"target:Transactions:otp:\",\"visible\":true,\"common\":false,\"__gohashid\":145298},{\"from\":\"target:Transactions:fields\",\"to\":\"target:Transactions:p2pContact:\",\"fromPort\":\"target:Transactions:fields\",\"toPort\":\"target:Transactions:p2pContact:\",\"visible\":true,\"common\":false,\"__gohashid\":145299},{\"from\":\"target:Transactions:fields\",\"to\":\"target:Transactions:p2pRequiredDate:\",\"fromPort\":\"target:Transactions:fields\",\"toPort\":\"target:Transactions:p2pRequiredDate:\",\"visible\":true,\"common\":false,\"__gohashid\":145300},{\"from\":\"target:Transactions:fields\",\"to\":\"target:Transactions:payeeAccountNumber:\",\"fromPort\":\"target:Transactions:fields\",\"toPort\":\"target:Transactions:payeeAccountNumber:\",\"visible\":true,\"common\":false,\"__gohashid\":145301},{\"from\":\"target:Transactions:fields\",\"to\":\"target:Transactions:payeeAddressLine1:\",\"fromPort\":\"target:Transactions:fields\",\"toPort\":\"target:Transactions:payeeAddressLine1:\",\"visible\":true,\"common\":false,\"__gohashid\":145302},{\"from\":\"target:Transactions:fields\",\"to\":\"target:Transactions:payeeId:\",\"fromPort\":\"target:Transactions:fields\",\"toPort\":\"target:Transactions:payeeId:\",\"visible\":true,\"common\":false,\"__gohashid\":145303},{\"from\":\"target:Transactions:fields\",\"to\":\"target:Transactions:payeeName:\",\"fromPort\":\"target:Transactions:fields\",\"toPort\":\"target:Transactions:payeeName:\",\"visible\":true,\"common\":false,\"__gohashid\":145304},{\"from\":\"target:Transactions:fields\",\"to\":\"target:Transactions:payeeNickName:\",\"fromPort\":\"target:Transactions:fields\",\"toPort\":\"target:Transactions:payeeNickName:\",\"visible\":true,\"common\":false,\"__gohashid\":145305},{\"from\":\"target:Transactions:fields\",\"to\":\"target:Transactions:payoffFlag:\",\"fromPort\":\"target:Transactions:fields\",\"toPort\":\"target:Transactions:payoffFlag:\",\"visible\":true,\"common\":false,\"__gohashid\":145306},{\"from\":\"target:Transactions:fields\",\"to\":\"target:Transactions:payPersonEmail:\",\"fromPort\":\"target:Transactions:fields\",\"toPort\":\"target:Transactions:payPersonEmail:\",\"visible\":true,\"common\":false,\"__gohashid\":145307},{\"from\":\"target:Transactions:fields\",\"to\":\"target:Transactions:payPersonName:\",\"fromPort\":\"target:Transactions:fields\",\"toPort\":\"target:Transactions:payPersonName:\",\"visible\":true,\"common\":false,\"__gohashid\":145308},{\"from\":\"target:Transactions:fields\",\"to\":\"target:Transactions:payPersonPhone:\",\"fromPort\":\"target:Transactions:fields\",\"toPort\":\"target:Transactions:payPersonPhone:\",\"visible\":true,\"common\":false,\"__gohashid\":145309},{\"from\":\"target:Transactions:fields\",\"to\":\"target:Transactions:penaltyFlag:\",\"fromPort\":\"target:Transactions:fields\",\"toPort\":\"target:Transactions:penaltyFlag:\",\"visible\":true,\"common\":false,\"__gohashid\":145310},{\"from\":\"target:Transactions:fields\",\"to\":\"target:Transactions:personId:\",\"fromPort\":\"target:Transactions:fields\",\"toPort\":\"target:Transactions:personId:\",\"visible\":true,\"common\":false,\"__gohashid\":145311},{\"from\":\"target:Transactions:fields\",\"to\":\"target:Transactions:recurrenceDesc:\",\"fromPort\":\"target:Transactions:fields\",\"toPort\":\"target:Transactions:recurrenceDesc:\",\"visible\":true,\"common\":false,\"__gohashid\":145312},{\"from\":\"target:Transactions:fields\",\"to\":\"target:Transactions:referenceId:\",\"fromPort\":\"target:Transactions:fields\",\"toPort\":\"target:Transactions:referenceId:\",\"visible\":true,\"common\":false,\"__gohashid\":145313},{\"from\":\"target:Transactions:fields\",\"to\":\"target:Transactions:scheduledDate:\",\"fromPort\":\"target:Transactions:fields\",\"toPort\":\"target:Transactions:scheduledDate:\",\"visible\":true,\"common\":false,\"__gohashid\":145314},{\"from\":\"target:Transactions:fields\",\"to\":\"target:Transactions:searchAmount:\",\"fromPort\":\"target:Transactions:fields\",\"toPort\":\"target:Transactions:searchAmount:\",\"visible\":true,\"common\":false,\"__gohashid\":145315},{\"from\":\"target:Transactions:fields\",\"to\":\"target:Transactions:searchDateRange:\",\"fromPort\":\"target:Transactions:fields\",\"toPort\":\"target:Transactions:searchDateRange:\",\"visible\":true,\"common\":false,\"__gohashid\":145316},{\"from\":\"target:Transactions:fields\",\"to\":\"target:Transactions:searchDescription:\",\"fromPort\":\"target:Transactions:fields\",\"toPort\":\"target:Transactions:searchDescription:\",\"visible\":true,\"common\":false,\"__gohashid\":145317},{\"from\":\"target:Transactions:fields\",\"to\":\"target:Transactions:searchEndDate:\",\"fromPort\":\"target:Transactions:fields\",\"toPort\":\"target:Transactions:searchEndDate:\",\"visible\":true,\"common\":false,\"__gohashid\":145318},{\"from\":\"target:Transactions:fields\",\"to\":\"target:Transactions:searchMaxAmount:\",\"fromPort\":\"target:Transactions:fields\",\"toPort\":\"target:Transactions:searchMaxAmount:\",\"visible\":true,\"common\":false,\"__gohashid\":145319},{\"from\":\"target:Transactions:fields\",\"to\":\"target:Transactions:searchMinAmount:\",\"fromPort\":\"target:Transactions:fields\",\"toPort\":\"target:Transactions:searchMinAmount:\",\"visible\":true,\"common\":false,\"__gohashid\":145320},{\"from\":\"target:Transactions:fields\",\"to\":\"target:Transactions:searchStartDate:\",\"fromPort\":\"target:Transactions:fields\",\"toPort\":\"target:Transactions:searchStartDate:\",\"visible\":true,\"common\":false,\"__gohashid\":145321},{\"from\":\"target:Transactions:fields\",\"to\":\"target:Transactions:searchTransactionType:\",\"fromPort\":\"target:Transactions:fields\",\"toPort\":\"target:Transactions:searchTransactionType:\",\"visible\":true,\"common\":false,\"__gohashid\":145322},{\"from\":\"target:Transactions:fields\",\"to\":\"target:Transactions:searchType:\",\"fromPort\":\"target:Transactions:fields\",\"toPort\":\"target:Transactions:searchType:\",\"visible\":true,\"common\":false,\"__gohashid\":145323},{\"from\":\"target:Transactions:fields\",\"to\":\"target:Transactions:secondaryEmail:\",\"fromPort\":\"target:Transactions:fields\",\"toPort\":\"target:Transactions:secondaryEmail:\",\"visible\":true,\"common\":false,\"__gohashid\":145324},{\"from\":\"target:Transactions:fields\",\"to\":\"target:Transactions:secondaryEmail2:\",\"fromPort\":\"target:Transactions:fields\",\"toPort\":\"target:Transactions:secondaryEmail2:\",\"visible\":true,\"common\":false,\"__gohashid\":145325},{\"from\":\"target:Transactions:fields\",\"to\":\"target:Transactions:secondaryPhoneNumber2:\",\"fromPort\":\"target:Transactions:fields\",\"toPort\":\"target:Transactions:secondaryPhoneNumber2:\",\"visible\":true,\"common\":false,\"__gohashid\":145326},{\"from\":\"target:Transactions:fields\",\"to\":\"target:Transactions:secondDeposit:\",\"fromPort\":\"target:Transactions:fields\",\"toPort\":\"target:Transactions:secondDeposit:\",\"visible\":true,\"common\":false,\"__gohashid\":145327},{\"from\":\"target:Transactions:fields\",\"to\":\"target:Transactions:secondoryPhoneNumber:\",\"fromPort\":\"target:Transactions:fields\",\"toPort\":\"target:Transactions:secondoryPhoneNumber:\",\"visible\":true,\"common\":false,\"__gohashid\":145328},{\"from\":\"target:Transactions:fields\",\"to\":\"target:Transactions:sortBy:\",\"fromPort\":\"target:Transactions:fields\",\"toPort\":\"target:Transactions:sortBy:\",\"visible\":true,\"common\":false,\"__gohashid\":145329},{\"from\":\"target:Transactions:fields\",\"to\":\"target:Transactions:statusDescription:\",\"fromPort\":\"target:Transactions:fields\",\"toPort\":\"target:Transactions:statusDescription:\",\"visible\":true,\"common\":false,\"__gohashid\":145330},{\"from\":\"target:Transactions:fields\",\"to\":\"target:Transactions:success:\",\"fromPort\":\"target:Transactions:fields\",\"toPort\":\"target:Transactions:success:\",\"visible\":true,\"common\":false,\"__gohashid\":145331},{\"from\":\"target:Transactions:fields\",\"to\":\"target:Transactions:toAccountName:\",\"fromPort\":\"target:Transactions:fields\",\"toPort\":\"target:Transactions:toAccountName:\",\"visible\":true,\"common\":false,\"__gohashid\":145332},{\"from\":\"target:Transactions:fields\",\"to\":\"target:Transactions:toAccountNumber:\",\"fromPort\":\"target:Transactions:fields\",\"toPort\":\"target:Transactions:toAccountNumber:\",\"visible\":true,\"common\":false,\"__gohashid\":145333},{\"from\":\"target:Transactions:fields\",\"to\":\"target:Transactions:toAccountType:\",\"fromPort\":\"target:Transactions:fields\",\"toPort\":\"target:Transactions:toAccountType:\",\"visible\":true,\"common\":false,\"__gohashid\":145334},{\"from\":\"target:Transactions:fields\",\"to\":\"target:Transactions:toCheckNumber:\",\"fromPort\":\"target:Transactions:fields\",\"toPort\":\"target:Transactions:toCheckNumber:\",\"visible\":true,\"common\":false,\"__gohashid\":145335},{\"from\":\"target:Transactions:fields\",\"to\":\"target:Transactions:totalAmount:\",\"fromPort\":\"target:Transactions:fields\",\"toPort\":\"target:Transactions:totalAmount:\",\"visible\":true,\"common\":false,\"__gohashid\":145336},{\"from\":\"target:Transactions:fields\",\"to\":\"target:Transactions:transactionComments:\",\"fromPort\":\"target:Transactions:fields\",\"toPort\":\"target:Transactions:transactionComments:\",\"visible\":true,\"common\":false,\"__gohashid\":145337},{\"from\":\"target:Transactions:fields\",\"to\":\"target:Transactions:transactionDate:\",\"fromPort\":\"target:Transactions:fields\",\"toPort\":\"target:Transactions:transactionDate:\",\"visible\":true,\"common\":false,\"__gohashid\":145338},{\"from\":\"target:Transactions:fields\",\"to\":\"target:Transactions:transactionId:\",\"fromPort\":\"target:Transactions:fields\",\"toPort\":\"target:Transactions:transactionId:\",\"visible\":true,\"common\":false,\"__gohashid\":145339},{\"from\":\"target:Transactions:fields\",\"to\":\"target:Transactions:transactionsNotes:\",\"fromPort\":\"target:Transactions:fields\",\"toPort\":\"target:Transactions:transactionsNotes:\",\"visible\":true,\"common\":false,\"__gohashid\":145340},{\"from\":\"target:Transactions:fields\",\"to\":\"target:Transactions:transactionType:\",\"fromPort\":\"target:Transactions:fields\",\"toPort\":\"target:Transactions:transactionType:\",\"visible\":true,\"common\":false,\"__gohashid\":145341},{\"from\":\"target:Transactions:fields\",\"to\":\"target:Transactions:validDate:\",\"fromPort\":\"target:Transactions:fields\",\"toPort\":\"target:Transactions:validDate:\",\"visible\":true,\"common\":false,\"__gohashid\":145342},{\"from\":\"target:Transactions:fields\",\"to\":\"target:Transactions:viewReportLink:\",\"fromPort\":\"target:Transactions:fields\",\"toPort\":\"target:Transactions:viewReportLink:\",\"visible\":true,\"common\":false,\"__gohashid\":145343},{\"from\":\"target:Transactions:fields\",\"to\":\"target:Transactions:overdraft:\",\"fromPort\":\"target:Transactions:fields\",\"toPort\":\"target:Transactions:overdraft:\",\"visible\":true,\"common\":false,\"__gohashid\":145344},{\"from\":\"target:Transactions:fields\",\"to\":\"target:Transactions:isPaypersonDeleted:\",\"fromPort\":\"target:Transactions:fields\",\"toPort\":\"target:Transactions:isPaypersonDeleted:\",\"visible\":true,\"common\":false,\"__gohashid\":145345},{\"from\":\"target:Transactions:fields\",\"to\":\"target:Transactions:fee:\",\"fromPort\":\"target:Transactions:fields\",\"toPort\":\"target:Transactions:fee:\",\"visible\":true,\"common\":false,\"__gohashid\":145346},{\"from\":\"target:Transactions:fields\",\"to\":\"target:Transactions:frontImage1:\",\"fromPort\":\"target:Transactions:fields\",\"toPort\":\"target:Transactions:frontImage1:\",\"visible\":true,\"common\":false,\"__gohashid\":145347},{\"from\":\"target:Transactions:fields\",\"to\":\"target:Transactions:frontImage2:\",\"fromPort\":\"target:Transactions:fields\",\"toPort\":\"target:Transactions:frontImage2:\",\"visible\":true,\"common\":false,\"__gohashid\":145348},{\"from\":\"target:Transactions:fields\",\"to\":\"target:Transactions:backImage1:\",\"fromPort\":\"target:Transactions:fields\",\"toPort\":\"target:Transactions:backImage1:\",\"visible\":true,\"common\":false,\"__gohashid\":145349},{\"from\":\"target:Transactions:fields\",\"to\":\"target:Transactions:backImage2:\",\"fromPort\":\"target:Transactions:fields\",\"toPort\":\"target:Transactions:backImage2:\",\"visible\":true,\"common\":false,\"__gohashid\":145350},{\"from\":\"target:Transactions:fields\",\"to\":\"target:Transactions:checkDesc:\",\"fromPort\":\"target:Transactions:fields\",\"toPort\":\"target:Transactions:checkDesc:\",\"visible\":true,\"common\":false,\"__gohashid\":145351},{\"from\":\"target:Transactions:fields\",\"to\":\"target:Transactions:checkNumber1:\",\"fromPort\":\"target:Transactions:fields\",\"toPort\":\"target:Transactions:checkNumber1:\",\"visible\":true,\"common\":false,\"__gohashid\":145352},{\"from\":\"target:Transactions:fields\",\"to\":\"target:Transactions:checkNumber2:\",\"fromPort\":\"target:Transactions:fields\",\"toPort\":\"target:Transactions:checkNumber2:\",\"visible\":true,\"common\":false,\"__gohashid\":145353},{\"from\":\"target:Transactions:fields\",\"to\":\"target:Transactions:bankName1:\",\"fromPort\":\"target:Transactions:fields\",\"toPort\":\"target:Transactions:bankName1:\",\"visible\":true,\"common\":false,\"__gohashid\":145354},{\"from\":\"target:Transactions:fields\",\"to\":\"target:Transactions:bankName2:\",\"fromPort\":\"target:Transactions:fields\",\"toPort\":\"target:Transactions:bankName2:\",\"visible\":true,\"common\":false,\"__gohashid\":145355},{\"from\":\"target:Transactions:fields\",\"to\":\"target:Transactions:withdrawlAmount1:\",\"fromPort\":\"target:Transactions:fields\",\"toPort\":\"target:Transactions:withdrawlAmount1:\",\"visible\":true,\"common\":false,\"__gohashid\":145356},{\"from\":\"target:Transactions:fields\",\"to\":\"target:Transactions:withdrawlAmount2:\",\"fromPort\":\"target:Transactions:fields\",\"toPort\":\"target:Transactions:withdrawlAmount2:\",\"visible\":true,\"common\":false,\"__gohashid\":145357},{\"from\":\"target:Transactions:fields\",\"to\":\"target:Transactions:totalCheckAmount:\",\"fromPort\":\"target:Transactions:fields\",\"toPort\":\"target:Transactions:totalCheckAmount:\",\"visible\":true,\"common\":false,\"__gohashid\":145358},{\"from\":\"target:Transactions:fields\",\"to\":\"target:Transactions:cashAmount:\",\"fromPort\":\"target:Transactions:fields\",\"toPort\":\"target:Transactions:cashAmount:\",\"visible\":true,\"common\":false,\"__gohashid\":145359},{\"from\":\"target:Transactions:fields\",\"to\":\"target:Transactions:payeeCurrency:\",\"fromPort\":\"target:Transactions:fields\",\"toPort\":\"target:Transactions:payeeCurrency:\",\"visible\":true,\"common\":false,\"__gohashid\":145360},{\"from\":\"target:Transactions:fields\",\"to\":\"target:Transactions:swiftCode:\",\"fromPort\":\"target:Transactions:fields\",\"toPort\":\"target:Transactions:swiftCode:\",\"visible\":true,\"common\":false,\"__gohashid\":145361},{\"from\":\"target:Transactions:fields\",\"to\":\"target:Transactions:wireAccountType:\",\"fromPort\":\"target:Transactions:fields\",\"toPort\":\"target:Transactions:wireAccountType:\",\"visible\":true,\"common\":false,\"__gohashid\":145362},{\"from\":\"target:Transactions:fields\",\"to\":\"target:Transactions:country:\",\"fromPort\":\"target:Transactions:fields\",\"toPort\":\"target:Transactions:country:\",\"visible\":true,\"common\":false,\"__gohashid\":145363},{\"from\":\"target:Transactions:fields\",\"to\":\"target:Transactions:IBAN:\",\"fromPort\":\"target:Transactions:fields\",\"toPort\":\"target:Transactions:IBAN:\",\"visible\":true,\"common\":false,\"__gohashid\":145364},{\"from\":\"target:Transactions:fields\",\"to\":\"target:Transactions:bankName:\",\"fromPort\":\"target:Transactions:fields\",\"toPort\":\"target:Transactions:bankName:\",\"visible\":true,\"common\":false,\"__gohashid\":145365},{\"from\":\"target:Transactions:fields\",\"to\":\"target:Transactions:routingNumber:\",\"fromPort\":\"target:Transactions:fields\",\"toPort\":\"target:Transactions:routingNumber:\",\"visible\":true,\"common\":false,\"__gohashid\":145366},{\"from\":\"target:Transactions:fields\",\"to\":\"target:Transactions:internationalRoutingCode:\",\"fromPort\":\"target:Transactions:fields\",\"toPort\":\"target:Transactions:internationalRoutingCode:\",\"visible\":true,\"common\":false,\"__gohashid\":145367},{\"from\":\"target:Transactions:fields\",\"to\":\"target:Transactions:zipCode:\",\"fromPort\":\"target:Transactions:fields\",\"toPort\":\"target:Transactions:zipCode:\",\"visible\":true,\"common\":false,\"__gohashid\":145368},{\"from\":\"target:Transactions:fields\",\"to\":\"target:Transactions:cityName:\",\"fromPort\":\"target:Transactions:fields\",\"toPort\":\"target:Transactions:cityName:\",\"visible\":true,\"common\":false,\"__gohashid\":145369},{\"from\":\"target:Transactions:fields\",\"to\":\"target:Transactions:state:\",\"fromPort\":\"target:Transactions:fields\",\"toPort\":\"target:Transactions:state:\",\"visible\":true,\"common\":false,\"__gohashid\":145370},{\"from\":\"target:Transactions:fields\",\"to\":\"target:Transactions:bankAddressLine1:\",\"fromPort\":\"target:Transactions:fields\",\"toPort\":\"target:Transactions:bankAddressLine1:\",\"visible\":true,\"common\":false,\"__gohashid\":145371},{\"from\":\"target:Transactions:fields\",\"to\":\"target:Transactions:bankAddressLine2:\",\"fromPort\":\"target:Transactions:fields\",\"toPort\":\"target:Transactions:bankAddressLine2:\",\"visible\":true,\"common\":false,\"__gohashid\":145372},{\"from\":\"target:Transactions:fields\",\"to\":\"target:Transactions:bankCity:\",\"fromPort\":\"target:Transactions:fields\",\"toPort\":\"target:Transactions:bankCity:\",\"visible\":true,\"common\":false,\"__gohashid\":145373},{\"from\":\"target:Transactions:fields\",\"to\":\"target:Transactions:bankState:\",\"fromPort\":\"target:Transactions:fields\",\"toPort\":\"target:Transactions:bankState:\",\"visible\":true,\"common\":false,\"__gohashid\":145374},{\"from\":\"target:Transactions:fields\",\"to\":\"target:Transactions:bankZip:\",\"fromPort\":\"target:Transactions:fields\",\"toPort\":\"target:Transactions:bankZip:\",\"visible\":true,\"common\":false,\"__gohashid\":145375},{\"from\":\"target:Transactions:fields\",\"to\":\"target:Transactions:payeeType:\",\"fromPort\":\"target:Transactions:fields\",\"toPort\":\"target:Transactions:payeeType:\",\"visible\":true,\"common\":false,\"__gohashid\":145376},{\"from\":\"target:Transactions:fields\",\"to\":\"target:Transactions:disputeReason:\",\"fromPort\":\"target:Transactions:fields\",\"toPort\":\"target:Transactions:disputeReason:\",\"visible\":true,\"common\":false,\"__gohashid\":145377},{\"from\":\"target:Transactions:fields\",\"to\":\"target:Transactions:disputeDescription:\",\"fromPort\":\"target:Transactions:fields\",\"toPort\":\"target:Transactions:disputeDescription:\",\"visible\":true,\"common\":false,\"__gohashid\":145378},{\"from\":\"target:Transactions:fields\",\"to\":\"target:Transactions:checkDateOfIssue:\",\"fromPort\":\"target:Transactions:fields\",\"toPort\":\"target:Transactions:checkDateOfIssue:\",\"visible\":true,\"common\":false,\"__gohashid\":145379},{\"from\":\"target:Transactions:fields\",\"to\":\"target:Transactions:checkReason:\",\"fromPort\":\"target:Transactions:fields\",\"toPort\":\"target:Transactions:checkReason:\",\"visible\":true,\"common\":false,\"__gohashid\":145380},{\"from\":\"target:Transactions:fields\",\"to\":\"target:Transactions:isPayeeDeleted:\",\"fromPort\":\"target:Transactions:fields\",\"toPort\":\"target:Transactions:isPayeeDeleted:\",\"visible\":true,\"common\":false,\"__gohashid\":145381},{\"from\":\"target:Transactions:fields\",\"to\":\"target:Transactions:payeeAddressLine2:\",\"fromPort\":\"target:Transactions:fields\",\"toPort\":\"target:Transactions:payeeAddressLine2:\",\"visible\":true,\"common\":false,\"__gohashid\":145382},{\"from\":\"target:Transactions:fields\",\"to\":\"target:Transactions:amountRecieved:\",\"fromPort\":\"target:Transactions:fields\",\"toPort\":\"target:Transactions:amountRecieved:\",\"visible\":true,\"common\":false,\"__gohashid\":145383},{\"from\":\"target:Transactions:fields\",\"to\":\"target:Transactions:requestValidityInMonths:\",\"fromPort\":\"target:Transactions:fields\",\"toPort\":\"target:Transactions:requestValidityInMonths:\",\"visible\":true,\"common\":false,\"__gohashid\":145384},{\"from\":\"target:Transactions:fields\",\"to\":\"target:Transactions:requestValidity:\",\"fromPort\":\"target:Transactions:fields\",\"toPort\":\"target:Transactions:requestValidity:\",\"visible\":true,\"common\":false,\"__gohashid\":145385},{\"from\":\"target:Transactions:fields\",\"to\":\"target:Transactions:requestType:\",\"fromPort\":\"target:Transactions:fields\",\"toPort\":\"target:Transactions:requestType:\",\"visible\":true,\"common\":false,\"__gohashid\":145386},{\"from\":\"target:Transactions:fields\",\"to\":\"target:Transactions:disputeDate:\",\"fromPort\":\"target:Transactions:fields\",\"toPort\":\"target:Transactions:disputeDate:\",\"visible\":true,\"common\":false,\"__gohashid\":145387},{\"from\":\"target:Transactions:fields\",\"to\":\"target:Transactions:disputeStatus:\",\"fromPort\":\"target:Transactions:fields\",\"toPort\":\"target:Transactions:disputeStatus:\",\"visible\":true,\"common\":false,\"__gohashid\":145388},{\"from\":\"target:Transactions:fields\",\"to\":\"target:Transactions:isDisputed:\",\"fromPort\":\"target:Transactions:fields\",\"toPort\":\"target:Transactions:isDisputed:\",\"visible\":true,\"common\":false,\"__gohashid\":145389},{\"from\":\"target:Transactions:fields\",\"to\":\"target:Transactions:cardId:\",\"fromPort\":\"target:Transactions:fields\",\"toPort\":\"target:Transactions:cardId:\",\"visible\":true,\"common\":false,\"__gohashid\":145390},{\"from\":\"target:Transactions:fields\",\"to\":\"target:Transactions:isOverdraft:\",\"fromPort\":\"target:Transactions:fields\",\"toPort\":\"target:Transactions:isOverdraft:\",\"visible\":true,\"common\":false,\"__gohashid\":145391},{\"from\":\"target:Transactions:fields\",\"to\":\"target:Transactions:title:\",\"fromPort\":\"target:Transactions:fields\",\"toPort\":\"target:Transactions:title:\",\"visible\":true,\"common\":false,\"__gohashid\":145392},{\"from\":\"target:Transactions:fields\",\"to\":\"target:Transactions:generatedBy:\",\"fromPort\":\"target:Transactions:fields\",\"toPort\":\"target:Transactions:generatedBy:\",\"visible\":true,\"common\":false,\"__gohashid\":145393},{\"from\":\"target:Transactions:fields\",\"to\":\"target:Transactions:filters:\",\"fromPort\":\"target:Transactions:fields\",\"toPort\":\"target:Transactions:filters:\",\"visible\":true,\"common\":false,\"__gohashid\":145394},{\"from\":\"target:Transactions:fields\",\"to\":\"target:Transactions:statementReference:\",\"fromPort\":\"target:Transactions:fields\",\"toPort\":\"target:Transactions:statementReference:\",\"visible\":true,\"common\":false,\"__gohashid\":145395},{\"from\":\"target:Transactions:fields\",\"to\":\"target:Transactions:transCreditDebitIndicator:\",\"fromPort\":\"target:Transactions:fields\",\"toPort\":\"target:Transactions:transCreditDebitIndicator:\",\"visible\":true,\"common\":false,\"__gohashid\":145396},{\"from\":\"target:Transactions:fields\",\"to\":\"target:Transactions:bookingDateTime:\",\"fromPort\":\"target:Transactions:fields\",\"toPort\":\"target:Transactions:bookingDateTime:\",\"visible\":true,\"common\":false,\"__gohashid\":145397},{\"from\":\"target:Transactions:fields\",\"to\":\"target:Transactions:valueDateTime:\",\"fromPort\":\"target:Transactions:fields\",\"toPort\":\"target:Transactions:valueDateTime:\",\"visible\":true,\"common\":false,\"__gohashid\":145398},{\"from\":\"target:Transactions:fields\",\"to\":\"target:Transactions:transactionInformation:\",\"fromPort\":\"target:Transactions:fields\",\"toPort\":\"target:Transactions:transactionInformation:\",\"visible\":true,\"common\":false,\"__gohashid\":145399},{\"from\":\"target:Transactions:fields\",\"to\":\"target:Transactions:addressLine:\",\"fromPort\":\"target:Transactions:fields\",\"toPort\":\"target:Transactions:addressLine:\",\"visible\":true,\"common\":false,\"__gohashid\":145400},{\"from\":\"target:Transactions:fields\",\"to\":\"target:Transactions:transactionAmount:\",\"fromPort\":\"target:Transactions:fields\",\"toPort\":\"target:Transactions:transactionAmount:\",\"visible\":true,\"common\":false,\"__gohashid\":145401},{\"from\":\"target:Transactions:fields\",\"to\":\"target:Transactions:transactionCurrency:\",\"fromPort\":\"target:Transactions:fields\",\"toPort\":\"target:Transactions:transactionCurrency:\",\"visible\":true,\"common\":false,\"__gohashid\":145402},{\"from\":\"target:Transactions:fields\",\"to\":\"target:Transactions:chargeAmount:\",\"fromPort\":\"target:Transactions:fields\",\"toPort\":\"target:Transactions:chargeAmount:\",\"visible\":true,\"common\":false,\"__gohashid\":145403},{\"from\":\"target:Transactions:fields\",\"to\":\"target:Transactions:chargeCurrency:\",\"fromPort\":\"target:Transactions:fields\",\"toPort\":\"target:Transactions:chargeCurrency:\",\"visible\":true,\"common\":false,\"__gohashid\":145404},{\"from\":\"target:Transactions:fields\",\"to\":\"target:Transactions:sourceCurrency:\",\"fromPort\":\"target:Transactions:fields\",\"toPort\":\"target:Transactions:sourceCurrency:\",\"visible\":true,\"common\":false,\"__gohashid\":145405},{\"from\":\"target:Transactions:fields\",\"to\":\"target:Transactions:targetCurrency:\",\"fromPort\":\"target:Transactions:fields\",\"toPort\":\"target:Transactions:targetCurrency:\",\"visible\":true,\"common\":false,\"__gohashid\":145406},{\"from\":\"target:Transactions:fields\",\"to\":\"target:Transactions:unitCurrency:\",\"fromPort\":\"target:Transactions:fields\",\"toPort\":\"target:Transactions:unitCurrency:\",\"visible\":true,\"common\":false,\"__gohashid\":145407},{\"from\":\"target:Transactions:fields\",\"to\":\"target:Transactions:exchangeRate:\",\"fromPort\":\"target:Transactions:fields\",\"toPort\":\"target:Transactions:exchangeRate:\",\"visible\":true,\"common\":false,\"__gohashid\":145408},{\"from\":\"target:Transactions:fields\",\"to\":\"target:Transactions:contractIdentification:\",\"fromPort\":\"target:Transactions:fields\",\"toPort\":\"target:Transactions:contractIdentification:\",\"visible\":true,\"common\":false,\"__gohashid\":145409},{\"from\":\"target:Transactions:fields\",\"to\":\"target:Transactions:quotationDate:\",\"fromPort\":\"target:Transactions:fields\",\"toPort\":\"target:Transactions:quotationDate:\",\"visible\":true,\"common\":false,\"__gohashid\":145410},{\"from\":\"target:Transactions:fields\",\"to\":\"target:Transactions:instructedAmount:\",\"fromPort\":\"target:Transactions:fields\",\"toPort\":\"target:Transactions:instructedAmount:\",\"visible\":true,\"common\":false,\"__gohashid\":145411},{\"from\":\"target:Transactions:fields\",\"to\":\"target:Transactions:transactionCode:\",\"fromPort\":\"target:Transactions:fields\",\"toPort\":\"target:Transactions:transactionCode:\",\"visible\":true,\"common\":false,\"__gohashid\":145412},{\"from\":\"target:Transactions:fields\",\"to\":\"target:Transactions:transactionSubCode:\",\"fromPort\":\"target:Transactions:fields\",\"toPort\":\"target:Transactions:transactionSubCode:\",\"visible\":true,\"common\":false,\"__gohashid\":145413},{\"from\":\"target:Transactions:fields\",\"to\":\"target:Transactions:proprietaryTransactionCode:\",\"fromPort\":\"target:Transactions:fields\",\"toPort\":\"target:Transactions:proprietaryTransactionCode:\",\"visible\":true,\"common\":false,\"__gohashid\":145414},{\"from\":\"target:Transactions:fields\",\"to\":\"target:Transactions:proprietaryTransactionIssuer:\",\"fromPort\":\"target:Transactions:fields\",\"toPort\":\"target:Transactions:proprietaryTransactionIssuer:\",\"visible\":true,\"common\":false,\"__gohashid\":145415},{\"from\":\"target:Transactions:fields\",\"to\":\"target:Transactions:balanceCreditDebitIndicator:\",\"fromPort\":\"target:Transactions:fields\",\"toPort\":\"target:Transactions:balanceCreditDebitIndicator:\",\"visible\":true,\"common\":false,\"__gohashid\":145416},{\"from\":\"target:Transactions:fields\",\"to\":\"target:Transactions:balanceType:\",\"fromPort\":\"target:Transactions:fields\",\"toPort\":\"target:Transactions:balanceType:\",\"visible\":true,\"common\":false,\"__gohashid\":145417},{\"from\":\"target:Transactions:fields\",\"to\":\"target:Transactions:balanceAmount:\",\"fromPort\":\"target:Transactions:fields\",\"toPort\":\"target:Transactions:balanceAmount:\",\"visible\":true,\"common\":false,\"__gohashid\":145418},{\"from\":\"target:Transactions:fields\",\"to\":\"target:Transactions:balanceCurrency:\",\"fromPort\":\"target:Transactions:fields\",\"toPort\":\"target:Transactions:balanceCurrency:\",\"visible\":true,\"common\":false,\"__gohashid\":145419},{\"from\":\"target:Transactions:fields\",\"to\":\"target:Transactions:merchantName:\",\"fromPort\":\"target:Transactions:fields\",\"toPort\":\"target:Transactions:merchantName:\",\"visible\":true,\"common\":false,\"__gohashid\":145420},{\"from\":\"target:Transactions:fields\",\"to\":\"target:Transactions:merchantCategoryCode:\",\"fromPort\":\"target:Transactions:fields\",\"toPort\":\"target:Transactions:merchantCategoryCode:\",\"visible\":true,\"common\":false,\"__gohashid\":145421},{\"from\":\"target:Transactions:fields\",\"to\":\"target:Transactions:creditorAgentSchemeName:\",\"fromPort\":\"target:Transactions:fields\",\"toPort\":\"target:Transactions:creditorAgentSchemeName:\",\"visible\":true,\"common\":false,\"__gohashid\":145422},{\"from\":\"target:Transactions:fields\",\"to\":\"target:Transactions:creditorAgentIdentification:\",\"fromPort\":\"target:Transactions:fields\",\"toPort\":\"target:Transactions:creditorAgentIdentification:\",\"visible\":true,\"common\":false,\"__gohashid\":145423},{\"from\":\"target:Transactions:fields\",\"to\":\"target:Transactions:creditorAgentName:\",\"fromPort\":\"target:Transactions:fields\",\"toPort\":\"target:Transactions:creditorAgentName:\",\"visible\":true,\"common\":false,\"__gohashid\":145424},{\"from\":\"target:Transactions:fields\",\"to\":\"target:Transactions:creditorAgentaddressType:\",\"fromPort\":\"target:Transactions:fields\",\"toPort\":\"target:Transactions:creditorAgentaddressType:\",\"visible\":true,\"common\":false,\"__gohashid\":145425},{\"from\":\"target:Transactions:fields\",\"to\":\"target:Transactions:creditorAgentDepartment:\",\"fromPort\":\"target:Transactions:fields\",\"toPort\":\"target:Transactions:creditorAgentDepartment:\",\"visible\":true,\"common\":false,\"__gohashid\":145426},{\"from\":\"target:Transactions:fields\",\"to\":\"target:Transactions:creditorAgentSubDepartment:\",\"fromPort\":\"target:Transactions:fields\",\"toPort\":\"target:Transactions:creditorAgentSubDepartment:\",\"visible\":true,\"common\":false,\"__gohashid\":145427},{\"from\":\"target:Transactions:fields\",\"to\":\"target:Transactions:creditorAgentStreetName:\",\"fromPort\":\"target:Transactions:fields\",\"toPort\":\"target:Transactions:creditorAgentStreetName:\",\"visible\":true,\"common\":false,\"__gohashid\":145428},{\"from\":\"target:Transactions:fields\",\"to\":\"target:Transactions:creditorAgentBuildingNumber:\",\"fromPort\":\"target:Transactions:fields\",\"toPort\":\"target:Transactions:creditorAgentBuildingNumber:\",\"visible\":true,\"common\":false,\"__gohashid\":145429},{\"from\":\"target:Transactions:fields\",\"to\":\"target:Transactions:creditorAgentPostCode:\",\"fromPort\":\"target:Transactions:fields\",\"toPort\":\"target:Transactions:creditorAgentPostCode:\",\"visible\":true,\"common\":false,\"__gohashid\":145430},{\"from\":\"target:Transactions:fields\",\"to\":\"target:Transactions:creditorAgentTownName:\",\"fromPort\":\"target:Transactions:fields\",\"toPort\":\"target:Transactions:creditorAgentTownName:\",\"visible\":true,\"common\":false,\"__gohashid\":145431},{\"from\":\"target:Transactions:fields\",\"to\":\"target:Transactions:creditorAgentCountrySubDivision:\",\"fromPort\":\"target:Transactions:fields\",\"toPort\":\"target:Transactions:creditorAgentCountrySubDivision:\",\"visible\":true,\"common\":false,\"__gohashid\":145432},{\"from\":\"target:Transactions:fields\",\"to\":\"target:Transactions:creditorAgentCountry:\",\"fromPort\":\"target:Transactions:fields\",\"toPort\":\"target:Transactions:creditorAgentCountry:\",\"visible\":true,\"common\":false,\"__gohashid\":145433},{\"from\":\"target:Transactions:fields\",\"to\":\"target:Transactions:creditorAgentAddressLine:\",\"fromPort\":\"target:Transactions:fields\",\"toPort\":\"target:Transactions:creditorAgentAddressLine:\",\"visible\":true,\"common\":false,\"__gohashid\":145434},{\"from\":\"target:Transactions:fields\",\"to\":\"target:Transactions:creditorAccountSchemeName:\",\"fromPort\":\"target:Transactions:fields\",\"toPort\":\"target:Transactions:creditorAccountSchemeName:\",\"visible\":true,\"common\":false,\"__gohashid\":145435},{\"from\":\"target:Transactions:fields\",\"to\":\"target:Transactions:creditorAccountSeconIdentification:\",\"fromPort\":\"target:Transactions:fields\",\"toPort\":\"target:Transactions:creditorAccountSeconIdentification:\",\"visible\":true,\"common\":false,\"__gohashid\":145436},{\"from\":\"target:Transactions:fields\",\"to\":\"target:Transactions:debtorAgentSchemeName:\",\"fromPort\":\"target:Transactions:fields\",\"toPort\":\"target:Transactions:debtorAgentSchemeName:\",\"visible\":true,\"common\":false,\"__gohashid\":145437},{\"from\":\"target:Transactions:fields\",\"to\":\"target:Transactions:debtorAgentIdentification:\",\"fromPort\":\"target:Transactions:fields\",\"toPort\":\"target:Transactions:debtorAgentIdentification:\",\"visible\":true,\"common\":false,\"__gohashid\":145438},{\"from\":\"target:Transactions:fields\",\"to\":\"target:Transactions:debtorAgentName:\",\"fromPort\":\"target:Transactions:fields\",\"toPort\":\"target:Transactions:debtorAgentName:\",\"visible\":true,\"common\":false,\"__gohashid\":145439},{\"from\":\"target:Transactions:fields\",\"to\":\"target:Transactions:debtorAgentAddressType:\",\"fromPort\":\"target:Transactions:fields\",\"toPort\":\"target:Transactions:debtorAgentAddressType:\",\"visible\":true,\"common\":false,\"__gohashid\":145440},{\"from\":\"target:Transactions:fields\",\"to\":\"target:Transactions:debtorAgentDepartment:\",\"fromPort\":\"target:Transactions:fields\",\"toPort\":\"target:Transactions:debtorAgentDepartment:\",\"visible\":true,\"common\":false,\"__gohashid\":145441},{\"from\":\"target:Transactions:fields\",\"to\":\"target:Transactions:debtorAgentSubDepartment:\",\"fromPort\":\"target:Transactions:fields\",\"toPort\":\"target:Transactions:debtorAgentSubDepartment:\",\"visible\":true,\"common\":false,\"__gohashid\":145442},{\"from\":\"target:Transactions:fields\",\"to\":\"target:Transactions:debtorAgentStreetName:\",\"fromPort\":\"target:Transactions:fields\",\"toPort\":\"target:Transactions:debtorAgentStreetName:\",\"visible\":true,\"common\":false,\"__gohashid\":145443},{\"from\":\"target:Transactions:fields\",\"to\":\"target:Transactions:debtorAgentBuildingNumber:\",\"fromPort\":\"target:Transactions:fields\",\"toPort\":\"target:Transactions:debtorAgentBuildingNumber:\",\"visible\":true,\"common\":false,\"__gohashid\":145444},{\"from\":\"target:Transactions:fields\",\"to\":\"target:Transactions:dedtorAgentPostCode:\",\"fromPort\":\"target:Transactions:fields\",\"toPort\":\"target:Transactions:dedtorAgentPostCode:\",\"visible\":true,\"common\":false,\"__gohashid\":145445},{\"from\":\"target:Transactions:fields\",\"to\":\"target:Transactions:debtorAgentTownName:\",\"fromPort\":\"target:Transactions:fields\",\"toPort\":\"target:Transactions:debtorAgentTownName:\",\"visible\":true,\"common\":false,\"__gohashid\":145446},{\"from\":\"target:Transactions:fields\",\"to\":\"target:Transactions:debtorAgentCountrySubDivision:\",\"fromPort\":\"target:Transactions:fields\",\"toPort\":\"target:Transactions:debtorAgentCountrySubDivision:\",\"visible\":true,\"common\":false,\"__gohashid\":145447},{\"from\":\"target:Transactions:fields\",\"to\":\"target:Transactions:debtorAgentCountry:\",\"fromPort\":\"target:Transactions:fields\",\"toPort\":\"target:Transactions:debtorAgentCountry:\",\"visible\":true,\"common\":false,\"__gohashid\":145448},{\"from\":\"target:Transactions:fields\",\"to\":\"target:Transactions:debtorAgentAddressLine:\",\"fromPort\":\"target:Transactions:fields\",\"toPort\":\"target:Transactions:debtorAgentAddressLine:\",\"visible\":true,\"common\":false,\"__gohashid\":145449},{\"from\":\"target:Transactions:fields\",\"to\":\"target:Transactions:debtorAccountSchemeName:\",\"fromPort\":\"target:Transactions:fields\",\"toPort\":\"target:Transactions:debtorAccountSchemeName:\",\"visible\":true,\"common\":false,\"__gohashid\":145450},{\"from\":\"target:Transactions:fields\",\"to\":\"target:Transactions:debtorAccountName:\",\"fromPort\":\"target:Transactions:fields\",\"toPort\":\"target:Transactions:debtorAccountName:\",\"visible\":true,\"common\":false,\"__gohashid\":145451},{\"from\":\"target:Transactions:fields\",\"to\":\"target:Transactions:debtorAccountSeconIdentification:\",\"fromPort\":\"target:Transactions:fields\",\"toPort\":\"target:Transactions:debtorAccountSeconIdentification:\",\"visible\":true,\"common\":false,\"__gohashid\":145452},{\"from\":\"target:Transactions:fields\",\"to\":\"target:Transactions:cardInstrumentSchemeName:\",\"fromPort\":\"target:Transactions:fields\",\"toPort\":\"target:Transactions:cardInstrumentSchemeName:\",\"visible\":true,\"common\":false,\"__gohashid\":145453},{\"from\":\"target:Transactions:fields\",\"to\":\"target:Transactions:cardInstrumentAuthorisationType:\",\"fromPort\":\"target:Transactions:fields\",\"toPort\":\"target:Transactions:cardInstrumentAuthorisationType:\",\"visible\":true,\"common\":false,\"__gohashid\":145454},{\"from\":\"target:Transactions:fields\",\"to\":\"target:Transactions:cardInstrumentName:\",\"fromPort\":\"target:Transactions:fields\",\"toPort\":\"target:Transactions:cardInstrumentName:\",\"visible\":true,\"common\":false,\"__gohashid\":145455},{\"from\":\"target:Transactions:fields\",\"to\":\"target:Transactions:cardInstrumentIdentification:\",\"fromPort\":\"target:Transactions:fields\",\"toPort\":\"target:Transactions:cardInstrumentIdentification:\",\"visible\":true,\"common\":false,\"__gohashid\":145456},{\"from\":\"target:Transactions:fields\",\"to\":\"target:Transactions:sortCode:\",\"fromPort\":\"target:Transactions:fields\",\"toPort\":\"target:Transactions:sortCode:\",\"visible\":true,\"common\":false,\"__gohashid\":145457},{\"from\":\"target:Transactions:fields\",\"to\":\"target:Transactions:feeCurrency:\",\"fromPort\":\"target:Transactions:fields\",\"toPort\":\"target:Transactions:feeCurrency:\",\"visible\":true,\"common\":false,\"__gohashid\":145458},{\"from\":\"target:Transactions:fields\",\"to\":\"target:Transactions:feePaidByReceipent:\",\"fromPort\":\"target:Transactions:fields\",\"toPort\":\"target:Transactions:feePaidByReceipent:\",\"visible\":true,\"common\":false,\"__gohashid\":145459},{\"from\":\"target:Transactions:fields\",\"to\":\"target:Transactions:convertedAmount:\",\"fromPort\":\"target:Transactions:fields\",\"toPort\":\"target:Transactions:convertedAmount:\",\"visible\":true,\"common\":false,\"__gohashid\":145460},{\"from\":\"target:Transactions:fields\",\"to\":\"target:Transactions:baseCurrency:\",\"fromPort\":\"target:Transactions:fields\",\"toPort\":\"target:Transactions:baseCurrency:\",\"visible\":true,\"common\":false,\"__gohashid\":145461},{\"from\":\"target:Transactions:fields\",\"to\":\"target:Transactions:FirstPaymentDateTime:\",\"fromPort\":\"target:Transactions:fields\",\"toPort\":\"target:Transactions:FirstPaymentDateTime:\",\"visible\":true,\"common\":false,\"__gohashid\":145462},{\"from\":\"target:Transactions:fields\",\"to\":\"target:Transactions:NextPaymentDateTime:\",\"fromPort\":\"target:Transactions:fields\",\"toPort\":\"target:Transactions:NextPaymentDateTime:\",\"visible\":true,\"common\":false,\"__gohashid\":145463},{\"from\":\"target:Transactions:fields\",\"to\":\"target:Transactions:FinalPaymentDateTime:\",\"fromPort\":\"target:Transactions:fields\",\"toPort\":\"target:Transactions:FinalPaymentDateTime:\",\"visible\":true,\"common\":false,\"__gohashid\":145464},{\"from\":\"target:Transactions:fields\",\"to\":\"target:Transactions:StandingOrderStatusCode:\",\"fromPort\":\"target:Transactions:fields\",\"toPort\":\"target:Transactions:StandingOrderStatusCode:\",\"visible\":true,\"common\":false,\"__gohashid\":145465},{\"from\":\"target:Transactions:fields\",\"to\":\"target:Transactions:FP_Amount:\",\"fromPort\":\"target:Transactions:fields\",\"toPort\":\"target:Transactions:FP_Amount:\",\"visible\":true,\"common\":false,\"__gohashid\":145466},{\"from\":\"target:Transactions:fields\",\"to\":\"target:Transactions:FP_Currency:\",\"fromPort\":\"target:Transactions:fields\",\"toPort\":\"target:Transactions:FP_Currency:\",\"visible\":true,\"common\":false,\"__gohashid\":145467},{\"from\":\"target:Transactions:fields\",\"to\":\"target:Transactions:NP_Amount:\",\"fromPort\":\"target:Transactions:fields\",\"toPort\":\"target:Transactions:NP_Amount:\",\"visible\":true,\"common\":false,\"__gohashid\":145468},{\"from\":\"target:Transactions:fields\",\"to\":\"target:Transactions:NP_Currency:\",\"fromPort\":\"target:Transactions:fields\",\"toPort\":\"target:Transactions:NP_Currency:\",\"visible\":true,\"common\":false,\"__gohashid\":145469},{\"from\":\"target:Transactions:fields\",\"to\":\"target:Transactions:FPA_Amount:\",\"fromPort\":\"target:Transactions:fields\",\"toPort\":\"target:Transactions:FPA_Amount:\",\"visible\":true,\"common\":false,\"__gohashid\":145470},{\"from\":\"target:Transactions:fields\",\"to\":\"target:Transactions:FPA_Currency:\",\"fromPort\":\"target:Transactions:fields\",\"toPort\":\"target:Transactions:FPA_Currency:\",\"visible\":true,\"common\":false,\"__gohashid\":145471},{\"from\":\"target:Transactions:fields\",\"to\":\"target:Transactions:beneficiaryName:\",\"fromPort\":\"target:Transactions:fields\",\"toPort\":\"target:Transactions:beneficiaryName:\",\"visible\":true,\"common\":false,\"__gohashid\":145472},{\"from\":\"target:Transactions:fields\",\"to\":\"target:Transactions:isInternationalAccount:\",\"fromPort\":\"target:Transactions:fields\",\"toPort\":\"target:Transactions:isInternationalAccount:\",\"visible\":true,\"common\":false,\"__gohashid\":145473},{\"from\":\"target:Transactions:fields\",\"to\":\"target:Transactions:ConsentId:\",\"fromPort\":\"target:Transactions:fields\",\"toPort\":\"target:Transactions:ConsentId:\",\"visible\":true,\"common\":false,\"__gohashid\":145474},{\"from\":\"target:Transactions:fields\",\"to\":\"target:Transactions:Initiation_InstructionIdentification:\",\"fromPort\":\"target:Transactions:fields\",\"toPort\":\"target:Transactions:Initiation_InstructionIdentification:\",\"visible\":true,\"common\":false,\"__gohashid\":145475},{\"from\":\"target:Transactions:fields\",\"to\":\"target:Transactions:RI_Unstructured:\",\"fromPort\":\"target:Transactions:fields\",\"toPort\":\"target:Transactions:RI_Unstructured:\",\"visible\":true,\"common\":false,\"__gohashid\":145476},{\"from\":\"target:Transactions:fields\",\"to\":\"target:Transactions:RI_Reference:\",\"fromPort\":\"target:Transactions:fields\",\"toPort\":\"target:Transactions:RI_Reference:\",\"visible\":true,\"common\":false,\"__gohashid\":145477},{\"from\":\"target:Transactions:fields\",\"to\":\"target:Transactions:Initiation_EndToEndIdentification:\",\"fromPort\":\"target:Transactions:fields\",\"toPort\":\"target:Transactions:Initiation_EndToEndIdentification:\",\"visible\":true,\"common\":false,\"__gohashid\":145478},{\"from\":\"target:Transactions:fields\",\"to\":\"target:Transactions:RiskPaymentContextCode:\",\"fromPort\":\"target:Transactions:fields\",\"toPort\":\"target:Transactions:RiskPaymentContextCode:\",\"visible\":true,\"common\":false,\"__gohashid\":145479},{\"from\":\"target:Transactions:fields\",\"to\":\"target:Transactions:linkSelf:\",\"fromPort\":\"target:Transactions:fields\",\"toPort\":\"target:Transactions:linkSelf:\",\"visible\":true,\"common\":false,\"__gohashid\":145480},{\"from\":\"target:Transactions:fields\",\"to\":\"target:Transactions:StatusUpdateDateTime:\",\"fromPort\":\"target:Transactions:fields\",\"toPort\":\"target:Transactions:StatusUpdateDateTime:\",\"visible\":true,\"common\":false,\"__gohashid\":145481},{\"from\":\"target:Transactions:fields\",\"to\":\"target:Transactions:createdDate:\",\"fromPort\":\"target:Transactions:fields\",\"toPort\":\"target:Transactions:createdDate:\",\"visible\":true,\"common\":false,\"__gohashid\":145482},{\"from\":\"target:Transactions:fields\",\"to\":\"target:Transactions:DomesticPaymentId:\",\"fromPort\":\"target:Transactions:fields\",\"toPort\":\"target:Transactions:DomesticPaymentId:\",\"visible\":true,\"common\":false,\"__gohashid\":145483},{\"from\":\"target:Transactions:fields\",\"to\":\"target:Transactions:dataStatus:\",\"fromPort\":\"target:Transactions:fields\",\"toPort\":\"target:Transactions:dataStatus:\",\"visible\":true,\"common\":false,\"__gohashid\":145484},{\"from\":\"target:Transactions:fields\",\"to\":\"target:Transactions:Auth_Token:\",\"fromPort\":\"target:Transactions:fields\",\"toPort\":\"target:Transactions:Auth_Token:\",\"visible\":true,\"common\":false,\"__gohashid\":145485},{\"from\":\"target:Transactions:fields\",\"to\":\"target:Transactions:fileType:\",\"fromPort\":\"target:Transactions:fields\",\"toPort\":\"target:Transactions:fileType:\",\"visible\":true,\"common\":false,\"__gohashid\":145486},{\"from\":\"target:Transactions:fields\",\"to\":\"target:Transactions:MFAAttributes:\",\"fromPort\":\"target:Transactions:fields\",\"toPort\":\"target:Transactions:MFAAttributes:\",\"visible\":true,\"common\":false,\"__gohashid\":145487},{\"from\":\"target:Transactions:fields\",\"to\":\"target:Transactions:serviceName:\",\"fromPort\":\"target:Transactions:fields\",\"toPort\":\"target:Transactions:serviceName:\",\"visible\":true,\"common\":false,\"__gohashid\":145488}],\"blockCount\":{\"variableCount\":0},\"variableMap\":{},\"xmlMappingOverride\":true}",
    "applyCommonMapping" : false,
    "applyRequestCommonMapping" : true,
    "applyResponseCommonMapping" : false,
    "backendMeta" : {
      "serviceName" : "dbpRbLocalServicesJava",
      "serviceVersion" : "1.0",
      "operationName" : "GetAllTransactionsForAdmin"
    },
    "relationshipHierarchyMapping" : {
      "children" : [ ],
      "name" : "Transactions",
      "actions" : { },
      "selected" : true
    },
    "requestXmlMappingOverride" : false,
    "responseXmlMappingOverride" : true
  }
}