{
    "DNDConfig": null,
    "__parentReadjusting__": false,
    "_height_": {
        "type": "ref",
        "value": "preferred"
    },
    "_left_": {
        "type": "string",
        "value": "0dp"
    },
    "_margin_": [
        0,
        0,
        0,
        0
    ],
    "_orientation_": 6,
    "_padding_": [
        0,
        0,
        0,
        0
    ],
    "_percent_": true,
    "_skin_": "s24c92fc23b14f5484b693ee9b8a9b35",
    "_top_": {
        "type": "string",
        "value": "0dp"
    },
    "_width_": {
        "type": "string",
        "value": "100%"
    },
    "allboxes": [],
    "autogrowmode": 1,
    "canUpdateUI": true,
    "children": [
        "flxRequestMoneySentTo",
        "flxRequestMoneyAmount",
        "flxRequestMoneyRequiredDate",
        "lblRequestMoneyNote",
        "tbxRequestMoneyOptional",
        "flxRequestMoneySeparator2",
        "flxDetails",
        "flxNotify",
        "flxRequestMoneySeparator3",
        "flxRequestMoneybuttons"
    ],
    "clipbounds": false,
    "containerweight": 100,
    "enablescrolling": true,
    "id": "flxRequestMoneyDetails",
    "info": null,
    "iscustomlayout": false,
    "isvisible": true,
    "kuid": "b93a6dd0c4cb4a50bb3167387bd825c4",
    "layouttype": 4,
    "name": "kony.ui.FlexContainer",
    "parent": "flxRequestMoney",
    "pf": "userwidgetmodel",
    "retaincontentalignment": false,
    "retainflexpositionproperties": false,
    "snapgridsize": 10,
    "snaptogrid": true,
    "wType": "FlexContainer",
    "widgetalignment": 1
}