{
    "@class": "com.kony.gen.viz.model.component.KVizImage2",
    "DNDConfig": null,
    "__parentReadjusting__": false,
    "_base64_": null,
    "_height_": {
        "type": "string",
        "value": "20dp"
    },
    "_margin_": [
        0,
        0,
        0,
        0
    ],
    "_padding_": [
        0,
        0,
        0,
        0
    ],
    "_skin_": "s78a5f26c9f14cec9ebed1bb46098f80",
    "_src_": "contextual_menu.png",
    "_width_": {
        "type": "string",
        "value": "4dp"
    },
    "accessibilityconfig": {
        "a11yLabel": "DropDownList"
    },
    "canUpdateUI": true,
    "centerx": {
        "type": "string",
        "value": "50%"
    },
    "centery": {
        "type": "string",
        "value": "50%"
    },
    "containerId": true,
    "containerweight": 100,
    "context": {
        "channel": "desktop",
        "platform": "desktopweb",
        "templateType": "segments",
        "topLevelBox": null
    },
    "id": "CopyimgMenu0a97e7ab1e83140",
    "imagescalemode": 1,
    "imagewhiledownloading": "img_transparent.png",
    "info": null,
    "isvisible": false,
    "kuid": "f1b2b9dcdda54a7ba8864a18d104a350",
    "name": "kony.ui.Image2",
    "parent": "flxSeparator",
    "pf": "segAccountListItem",
    "srcType": 1,
    "tooltip": "DropDownList",
    "wType": "Image",
    "widgetalignment": 5,
    "zindex": 1
}