{
    "DNDConfig": null,
    "__parentReadjusting__": false,
    "_height_": {
        "type": "string",
        "value": "40dp"
    },
    "_left_": {
        "type": "string",
        "value": "17dp"
    },
    "_margin_": [
        0,
        0,
        0,
        0
    ],
    "_orientation_": 6,
    "_padding_": [
        0,
        0,
        0,
        0
    ],
    "_percent_": true,
    "_skin_": "s24c92fc23b14f5484b693ee9b8a9b35",
    "_top_": {
        "type": "string",
        "value": "14dp"
    },
    "_width_": {
        "type": "string",
        "value": "90%"
    },
    "allboxes": [],
    "canUpdateUI": true,
    "centerx": {
        "type": "number",
        "value": ""
    },
    "children": [
        "lblAlertDescription",
        "flxEnabledIcon"
    ],
    "clipbounds": true,
    "containerweight": 100,
    "enablescrolling": true,
    "id": "flxRegisterDevice",
    "info": null,
    "iscustomlayout": false,
    "isvisible": true,
    "kuid": "d7feb70300f14dd79476cf47dfb167c8",
    "layouttype": 2,
    "name": "kony.ui.FlexContainer",
    "parent": "flxActions",
    "pf": "frmMFAPreLogin",
    "responsiveData": {
        "b1": {
            "height": {
                "type": "string",
                "value": "80dp"
            },
            "layoutType": 3,
            "left": {
                "type": "string",
                "value": "0dp"
            },
            "top": {
                "type": "string",
                "value": "0dp"
            },
            "width": {
                "type": "string",
                "value": "100%"
            }
        },
        "b2": {
            "height": {
                "type": "string",
                "value": "39dp"
            },
            "layoutType": 3,
            "left": {
                "type": "string",
                "value": "10%"
            },
            "top": {
                "type": "string",
                "value": "15dp"
            },
            "width": {
                "type": "string",
                "value": "80%"
            }
        },
        "b3": {
            "centerX": {
                "type": "string",
                "value": "50%"
            },
            "layoutType": 3,
            "left": {
                "type": "string",
                "value": ""
            },
            "top": {
                "type": "string",
                "value": "10dp"
            },
            "width": {
                "type": "string",
                "value": "65%"
            }
        },
        "b4": {
            "layoutType": 3,
            "left": {
                "type": "string",
                "value": "0%"
            },
            "width": {
                "type": "string",
                "value": "100%"
            }
        }
    },
    "retaincontentalignment": false,
    "retainflexpositionproperties": false,
    "snapgridsize": 10,
    "snaptogrid": true,
    "wType": "FlexContainer",
    "widgetalignment": 1,
    "zindex": 1
}