{
    "@class": "com.kony.gen.viz.model.component.KVizButton",
    "DNDConfig": null,
    "__parentReadjusting__": false,
    "_height_": {
        "type": "string",
        "value": "50dp"
    },
    "_margin_": [
        6,
        6,
        6,
        6
    ],
    "_padding_": [
        0,
        0,
        0,
        0
    ],
    "_right_": {
        "type": "string",
        "value": "30%"
    },
    "_skin_": "s215ef7edf8c4ddb8f9f91fcc80f7b42",
    "_text_": "SAVE & CLOSE",
    "_top_": {
        "type": "string",
        "value": "20dp"
    },
    "_width_": {
        "type": "string",
        "value": "27.70%"
    },
    "accessibilityconfig": {
        "a11yLabel": "Save & Close"
    },
    "canUpdateUI": true,
    "containerweight": 100,
    "contentalignment": 5,
    "desktopweb": {
        "psp": {
            "hoverSkin": "s4c88ea5040649419fa0156d555105d0"
        }
    },
    "disabledSkins": {
        "focusSkin": "sf44d06ca8224832827ea7fdff757013"
    },
    "displaytext": true,
    "id": "btnUserInformationSaveClose",
    "info": null,
    "isvisible": true,
    "kuid": "h6f1aca27e294d97949179527a58cf25",
    "name": "kony.ui.Button",
    "parent": "flxbtnUserInformationButtons",
    "pf": "userwidgetmodel",
    "texti18n": "i18n.NUO.SaveClose",
    "tooltip": "Save & Close",
    "wType": "Button",
    "zindex": 1
}