{
    "DNDConfig": null,
    "__parentReadjusting__": false,
    "_bottom_": {
        "type": "string",
        "value": "2dp"
    },
    "_height_": {
        "type": "ref",
        "value": "preferred"
    },
    "_margin_": [
        0,
        0,
        0,
        0
    ],
    "_orientation_": 6,
    "_padding_": [
        0,
        0,
        0,
        0
    ],
    "_percent_": true,
    "_skin_": "saa09c5c1cef4ac4b81d8a2be0d0af8a",
    "_top_": {
        "type": "string",
        "value": "0dp"
    },
    "_width_": {
        "type": "string",
        "value": "100%"
    },
    "allboxes": [],
    "autogrowmode": 1,
    "canUpdateUI": true,
    "centerx": {
        "type": "string",
        "value": "50%"
    },
    "children": [
        "flxColorLine",
        "flxSeparator",
        "lblUserInformationMessage1",
        "flxProofs",
        "lblUserInformationMessage2",
        "lblUserInformationSepeartor2",
        "flxUserInformationFromComputer",
        "lblUserInformationSeperator3",
        "flxUserInformationFromPhone",
        "flxbtnUserInformationButtons"
    ],
    "clipbounds": false,
    "containerweight": 100,
    "enablescrolling": true,
    "id": "flxBodyUserInformation",
    "info": null,
    "isvisible": true,
    "kuid": "a912b59a32e640b0999940c55b8daba5",
    "layouttype": 4,
    "name": "kony.ui.FlexContainer",
    "parent": "UploadDocPhoneOrComputer",
    "pf": "userwidgetmodel",
    "snapgridsize": 10,
    "snaptogrid": true,
    "wType": "FlexContainer",
    "widgetalignment": 1,
    "zindex": 2
}