{
    "@class": "com.kony.gen.viz.model.component.KVizButton",
    "DNDConfig": null,
    "__parentReadjusting__": false,
    "_height_": {
        "type": "ref",
        "value": "preferred"
    },
    "_margin_": [
        6,
        6,
        6,
        6
    ],
    "_padding_": [
        0,
        0,
        0,
        0
    ],
    "_right_": {
        "type": "string",
        "value": "0dp"
    },
    "_skin_": "sf6ca31ec68641e5a2df8232c58cd39a",
    "_text_": "View E-Bill",
    "_top_": {
        "type": "string",
        "value": "0dp"
    },
    "_width_": {
        "type": "ref",
        "value": "preferred"
    },
    "accessibilityconfig": {
        "a11yLabel": "View E-Bill"
    },
    "canUpdateUI": true,
    "containerId": true,
    "containerweight": 100,
    "contentalignment": 6,
    "desktopweb": {
        "psp": {}
    },
    "disabledSkins": {
        "focusSkin": "sf44d06ca8224832827ea7fdff757013",
        "hoverSkin": "s8ba57bbb01e49f2acad2f1ea21d8717"
    },
    "displaytext": true,
    "id": "btnEbill",
    "ide_onClick": "AS_Button_ac5b94874e504d349e2999bc3e725476",
    "info": null,
    "isvisible": true,
    "kuid": "j5e5be4cb13b445e90e88c056d40b27b",
    "name": "kony.ui.Button",
    "parent": "flxEdit",
    "pf": "segBillPayScheduledSelectedMobile",
    "tooltip": "View E-Bill",
    "wType": "Button",
    "zindex": 1
}