{
    "DNDConfig": null,
    "__parentReadjusting__": false,
    "_height_": {
        "type": "ref",
        "value": "preferred"
    },
    "_left_": {
        "type": "string",
        "value": "0dp"
    },
    "_margin_": [
        0,
        0,
        0,
        0
    ],
    "_orientation_": 6,
    "_padding_": [
        0,
        0,
        0,
        0
    ],
    "_percent_": true,
    "_skin_": "s12e9117552b4e45a2f5f2631b232fc5",
    "_top_": {
        "type": "string",
        "value": "5px"
    },
    "_width_": {
        "type": "string",
        "value": "53%"
    },
    "allboxes": [],
    "autogrowmode": 1,
    "canUpdateUI": true,
    "children": [
        "flxRulespasswordHeader",
        "flxRulesPassword1",
        "flxRulesPassword2",
        "flxRulesPassword3",
        "flxRulesPassword4",
        "flxRulesPassword5",
        "flxRulesPassword6",
        "rtxRulesPassword"
    ],
    "clipbounds": true,
    "containerweight": 100,
    "enablescrolling": true,
    "id": "flxPasswordUsername",
    "info": null,
    "isvisible": false,
    "kuid": "abdd6f96569e43b683789f6a09bef40f",
    "layouttype": 4,
    "name": "kony.ui.FlexContainer",
    "parent": "flxCreateUsernamePasswordMessageBox",
    "pf": "userwidgetmodel",
    "snapgridsize": 10,
    "snaptogrid": true,
    "wType": "FlexContainer",
    "widgetalignment": 1,
    "zindex": 1
}