{
    "DNDConfig": null,
    "__parentReadjusting__": false,
    "_bottom_": {
        "type": "string",
        "value": "10px"
    },
    "_height_": {
        "type": "string",
        "value": "16px"
    },
    "_left_": {
        "type": "string",
        "value": "0dp"
    },
    "_margin_": [
        0,
        0,
        0,
        0
    ],
    "_orientation_": 6,
    "_padding_": [
        0,
        0,
        0,
        0
    ],
    "_percent_": true,
    "_skin_": "s24c92fc23b14f5484b693ee9b8a9b35",
    "_width_": {
        "type": "string",
        "value": "100%"
    },
    "allboxes": [],
    "autogrowmode": 0,
    "canUpdateUI": true,
    "children": [
        "lblMileValue1",
        "lblMileValue2",
        "lblMileValue3",
        "lblMileValue4",
        "lblMileValue5",
        "lblMileValue6"
    ],
    "clipbounds": true,
    "containerweight": 100,
    "enablescrolling": true,
    "id": "flxDistances",
    "info": null,
    "isvisible": true,
    "kuid": "c2db83e1a29144fbb4b31aa83cde02d4",
    "layouttype": 2,
    "name": "kony.ui.FlexContainer",
    "parent": "flxSlider",
    "pf": "userwidgetmodel",
    "snapgridsize": 10,
    "snaptogrid": true,
    "wType": "FlexContainer",
    "widgetalignment": 1,
    "zindex": 4
}