{
    "@class": "com.kony.gen.viz.model.component.KVizImage2",
    "DNDConfig": null,
    "__parentReadjusting__": false,
    "_base64_": null,
    "_height_": {
        "type": "string",
        "value": "15px"
    },
    "_left_": {
        "type": "string",
        "value": "46.30%"
    },
    "_margin_": [
        0,
        0,
        0,
        0
    ],
    "_padding_": [
        0,
        0,
        0,
        0
    ],
    "_skin_": "s78a5f26c9f14cec9ebed1bb46098f80",
    "_src_": "arrow_up.png",
    "_width_": {
        "type": "string",
        "value": "15px"
    },
    "canUpdateUI": true,
    "centery": {
        "type": "string",
        "value": "50%"
    },
    "containerId": true,
    "containerweight": 100,
    "context": {
        "channel": "desktop",
        "platform": "desktopweb",
        "templateType": "segments",
        "topLevelBox": null
    },
    "id": "imgRowSelected",
    "imagescalemode": 1,
    "imagewhiledownloading": "img_transparent.png",
    "info": null,
    "invokedProperty": "src",
    "isvisible": true,
    "kuid": "a11d249671a241a3818c954398c56ead",
    "name": "kony.ui.Image2",
    "parent": "flxDropdown",
    "pf": "segReceivedSelected",
    "srcType": 1,
    "tooltip": "Hide Transaction Details",
    "wType": "Image",
    "widgetalignment": 5,
    "zindex": 1,
    "accessibilityconfig": {
        "a11yLabel": "Hide Transaction Details"
    }
}