{
    "@class": "com.kony.gen.viz.model.component.KVizTextBox2",
    "DNDConfig": null,
    "__parentReadjusting__": false,
    "_height_": {
        "type": "string",
        "value": "30dp"
    },
    "_left_": {
        "type": "string",
        "value": "0dp"
    },
    "_margin_": [
        0,
        0,
        0,
        0
    ],
    "_padding_": [
        0,
        0,
        0,
        0
    ],
    "_placeholder_": "Y",
    "_skin_": "sb1da15b4fc74590b1afedc648a508c7",
    "_text_": "",
    "_top_": {
        "type": "string",
        "value": "0dp"
    },
    "_width_": {
        "type": "string",
        "value": "13dp"
    },
    "autocapitalize": "none",
    "autocomplete": false,
    "autocorrect": false,
    "autofilter": false,
    "canUpdateUI": true,
    "centery": {
        "type": "string",
        "value": "50%"
    },
    "containerheight": "",
    "containerheightmode": 1,
    "containerweight": 100,
    "contentalignment": 5,
    "desktopweb": {
        "placeholderSkin": "s06ee00896894ddca4f58fa597c62a95"
    },
    "disabledSkins": {
        "focusSkin": "s4d23b98640b48b49602a9f264cd7018"
    },
    "focusskin": null,
    "id": "txt8",
    "info": null,
    "iscustomlayout": false,
    "isvisible": true,
    "keyboardstyle": "A",
    "keyboardtype": "A",
    "kuid": "ecec88e96f5c45588918e5f79cd69389",
    "maxtextlength": 1,
    "mode": "A",
    "name": "kony.ui.TextBox2",
    "parent": "flxWrapper",
    "pf": "userwidgetmodel",
    "placeholderskin": "s06ee00896894ddca4f58fa597c62a95",
    "retaincontentalignment": false,
    "retainflexpositionproperties": false,
    "securetextentry": false,
    "textinputmode": "A",
    "tooltip": "",
    "viewtype": "default",
    "wType": "TextField",
    "zindex": 1
}