{
    "@class": "com.kony.gen.viz.model.component.KVizListBox",
    "DNDConfig": null,
    "__parentReadjusting__": false,
    "_height_": {
        "type": "string",
        "value": "100%"
    },
    "_left_": {
        "type": "string",
        "value": "0dp"
    },
    "_margin_": [
        0,
        0,
        0,
        0
    ],
    "_padding_": [
        3,
        0,
        0,
        0
    ],
    "_skin_": "sbaba22b80b348e6a9f536af0ad26b53",
    "_top_": {
        "type": "string",
        "value": "0dp"
    },
    "_width_": {
        "type": "string",
        "value": "30%"
    },
    "canUpdateUI": true,
    "containerweight": 100,
    "contentalignment": 5,
    "context": {
        "channel": "desktop",
        "formID": "uwucff12a70e6b417e94330c77c8de640b",
        "templateType": "userwidgets",
        "topLevelBox": null
    },
    "desktopweb": {
        "psp": {
            "hoverSkin": "sebb52e8110340d8b55c47045cb88530"
        }
    },
    "groupcells": false,
    "id": "lbxYear",
    "ide_onSelection": "AS_ListBox_jf35110f6ff04734821abb8e710e88f6",
    "info": null,
    "isvisible": true,
    "kiosk": {
        "psp": {
            "placeholder": "Date"
        }
    },
    "kuid": "ce534d5f4d324af8aeb9bad6e194d326",
    "masterdata": [],
    "name": "kony.ui.ListBox",
    "paddinginpixel": false,
    "parent": "flxDOB",
    "pf": "userwidgetmodel",
    "selectedkeys": null,
    "selectedkeyvalue": null,
    "selectedkeyvalues": null,
    "size": 18,
    "viewconfig": {
        "toggleViewConfig": {
            "viewStyle": 0
        }
    },
    "viewtype": 0,
    "wType": "ListBox",
    "zindex": 1
}