{
    "DNDConfig": null,
    "__parentReadjusting__": false,
    "_height_": {
        "type": "string",
        "value": "46dp"
    },
    "_left_": {
        "type": "string",
        "value": "0%"
    },
    "_margin_": [
        0,
        0,
        0,
        0
    ],
    "_orientation_": 6,
    "_padding_": [
        0,
        0,
        0,
        0
    ],
    "_percent_": true,
    "_skin_": "scbd4cac3526468089bf3013adff0549",
    "_top_": {
        "type": "string",
        "value": "10dp"
    },
    "_width_": {
        "type": "string",
        "value": "50%"
    },
    "allboxes": [],
    "autogrowmode": 0,
    "canUpdateUI": true,
    "children": [
        "flxEnterSecureAccessCodeDigit1",
        "flxEnterSecureAccessCodeDigit2",
        "flxEnterSecureAccessCodeDigit3",
        "flxEnterSecureAccessCodeDigit4",
        "flxEnterSecureAccessCodeDigit5",
        "flxEnterSecureAccessCodeDigit6"
    ],
    "clipbounds": true,
    "containerweight": 100,
    "desktopweb": {
        "psp": {}
    },
    "disabledSkins": {
        "focusSkin": "s3308b031b8e4da8a5965b769840b865",
        "hoverSkin": "s8da4b873a6c42cb9da7a6c855529587"
    },
    "enablescrolling": true,
    "id": "flxEnterSecureAccessCodeBox",
    "info": null,
    "isvisible": true,
    "kuid": "f8c7443fb6ba4c17934b3af3d901cef5",
    "layouttype": 3,
    "name": "kony.ui.FlexContainer",
    "parent": "flxEnterSecureAccessCodeMessageBox",
    "pf": "userwidgetmodel",
    "snapgridsize": 10,
    "snaptogrid": true,
    "wType": "FlexContainer",
    "widgetalignment": 1,
    "zindex": 1
}