{
    "@class": "com.kony.gen.viz.model.component.KVizTextBox2",
    "DNDConfig": null,
    "__parentReadjusting__": false,
    "_height_": {
        "type": "string",
        "value": "30dp"
    },
    "_left_": {
        "type": "string",
        "value": "0dp"
    },
    "_margin_": [
        0,
        0,
        0,
        0
    ],
    "_padding_": [
        27,
        0,
        2,
        0
    ],
    "_placeholder_": "",
    "_skin_": "sfc31615b7684e669ee7c1764171143c",
    "_text_": "",
    "_width_": {
        "type": "string",
        "value": "35dp"
    },
    "autocapitalize": "none",
    "autocomplete": false,
    "autocorrect": false,
    "autofilter": false,
    "canUpdateUI": true,
    "centery": {
        "type": "string",
        "value": "53%"
    },
    "containerheight": "",
    "containerheightmode": 1,
    "containerweight": 100,
    "contentalignment": 4,
    "desktopweb": {
        "psp": {
            "hoverSkin": "s3ad97ce70f14a4a813051ed401e9272"
        }
    },
    "disabledSkins": {
        "focusSkin": "s5472ba1ee3d49d8b87dfd39d43a0055"
    },
    "focusskin": null,
    "id": "tbxEnterSecureAccessCodeDigit6",
    "info": null,
    "isvisible": true,
    "keyboardtype": "A",
    "kuid": "afe75c18a8ed4ddfbf37809e3507a32f",
    "maxtextlength": 1,
    "mode": "A",
    "name": "kony.ui.TextBox2",
    "paddinginpixel": false,
    "parent": "flxEnterSecureAccessCodeDigit6",
    "pf": "userwidgetmodel",
    "securetextentry": false,
    "textinputmode": "A",
    "viewtype": "default",
    "wType": "TextField",
    "zindex": 1
}