{
  "operationConfig" : {
    "name" : "ACHVendorMockService7979",
    "type" : "MappedToBackend",
    "cachable" : false,
    "smsEnabled" : false,
    "security" : "authorized_app_user",
    "responseEncoding" : "UTF-8",
    "httpMethod" : "GET",
    "decodeResponseBody" : false,
    "iMapping" : "<?xml version=\"1.0\" encoding=\"UTF-8\" standalone=\"yes\"?><mapper xmlns=\"http://www.kony.com/ns/mapper\">  <map inputpath=\"request_in\" outputpath=\"request_out\">  \t<set-param inputpath=\"ConfirmationNumber\" outputpath=\"ConfirmationNumber\"/>                        <set-param inputpath=\"DebitAccount\" outputpath=\"DebitAccount\"/>                        <set-param inputpath=\"EffectiveDate\" outputpath=\"EffectiveDate\"/>                        <set-param inputpath=\"MaxAmount\" outputpath=\"MaxAmount\"/>                        <set-param inputpath=\"TotalAmount\" outputpath=\"TotalAmount\" />                        <set-param inputpath=\"Records\" outputpath=\"Records\"/>                        <set-param inputpath=\"TemplateRequestType_id\" outputpath=\"TemplateRequestType_id\"/>                        <set-param inputpath=\"TemplateType_id\" outputpath=\"TemplateType_id\"/>                        <set-param inputpath=\"TransactionType_id\" outputpath=\"TransactionType_id\"/>     </map></mapper>",
    "oMapping" : "<?xml version=\"1.0\" encoding=\"UTF-8\" standalone=\"yes\"?><mapper xmlns=\"http://www.kony.com/ns/mapper\">  <map inputpath=\"response_in\" outputpath=\"response_out\">    <set-param inputpath=\"Status\" outputpath=\"Status\"/>                    <set-param inputpath=\"ReferenceID\" outputpath=\"ReferenceID\"/>   </map></mapper>",
    "iVisualMappingData" : "{\"nodeDataArray\":[{\"isGroup\":true,\"key\":\"request_in\",\"text\":\"ACHTransactions\",\"xy\":\"150 100\",\"__gohashid\":16058},{\"isGroup\":true,\"key\":\"request_out\",\"text\":\"BBMockServices (1.0).ACHVendorMockService\",\"xy\":\"770 100\",\"__gohashid\":16059}],\"linkDataArray\":[{\"from\":\"source\",\"to\":\"source:ACHTransactions\",\"fromPort\":\"source\",\"toPort\":\"source:ACHTransactions\",\"visible\":true,\"common\":false,\"__gohashid\":16100},{\"from\":\"source:ACHTransactions\",\"to\":\"source:ACHTransactions:fields\",\"fromPort\":\"source:ACHTransactions\",\"toPort\":\"source:ACHTransactions:fields\",\"visible\":true,\"common\":false,\"__gohashid\":16101},{\"from\":\"source:ACHTransactions:fields\",\"to\":\"source:ACHTransactions:BBGeneralTransactionType_id:\",\"fromPort\":\"source:ACHTransactions:fields\",\"toPort\":\"source:ACHTransactions:BBGeneralTransactionType_id:\",\"visible\":true,\"common\":false,\"__gohashid\":16102},{\"from\":\"source:ACHTransactions:fields\",\"to\":\"source:ACHTransactions:Status:\",\"fromPort\":\"source:ACHTransactions:fields\",\"toPort\":\"source:ACHTransactions:Status:\",\"visible\":true,\"common\":false,\"__gohashid\":16103},{\"from\":\"source:ACHTransactions:fields\",\"to\":\"source:ACHTransactions:TemplateRequestType_id:\",\"fromPort\":\"source:ACHTransactions:fields\",\"toPort\":\"source:ACHTransactions:TemplateRequestType_id:\",\"visible\":true,\"common\":false,\"__gohashid\":16104},{\"from\":\"source:ACHTransactions:fields\",\"to\":\"source:ACHTransactions:Request_id:\",\"fromPort\":\"source:ACHTransactions:fields\",\"toPort\":\"source:ACHTransactions:Request_id:\",\"visible\":true,\"common\":false,\"__gohashid\":16105},{\"from\":\"source:ACHTransactions:fields\",\"to\":\"source:ACHTransactions:userName:\",\"fromPort\":\"source:ACHTransactions:fields\",\"toPort\":\"source:ACHTransactions:userName:\",\"visible\":true,\"common\":false,\"__gohashid\":16106},{\"from\":\"source:ACHTransactions:fields\",\"to\":\"source:ACHTransactions:DebitAccount:\",\"fromPort\":\"source:ACHTransactions:fields\",\"toPort\":\"source:ACHTransactions:DebitAccount:\",\"visible\":true,\"common\":false,\"__gohashid\":16107},{\"from\":\"source:ACHTransactions:fields\",\"to\":\"source:ACHTransactions:CreatedOn:\",\"fromPort\":\"source:ACHTransactions:fields\",\"toPort\":\"source:ACHTransactions:CreatedOn:\",\"visible\":true,\"common\":false,\"__gohashid\":16108},{\"from\":\"source:ACHTransactions:fields\",\"to\":\"source:ACHTransactions:MaxAmount:\",\"fromPort\":\"source:ACHTransactions:fields\",\"toPort\":\"source:ACHTransactions:MaxAmount:\",\"visible\":true,\"common\":false,\"__gohashid\":16109},{\"from\":\"source:ACHTransactions:fields\",\"to\":\"source:ACHTransactions:TemplateType_id:\",\"fromPort\":\"source:ACHTransactions:fields\",\"toPort\":\"source:ACHTransactions:TemplateType_id:\",\"visible\":true,\"common\":false,\"__gohashid\":16110},{\"from\":\"source:ACHTransactions:fields\",\"to\":\"source:ACHTransactions:CompanyName:\",\"fromPort\":\"source:ACHTransactions:fields\",\"toPort\":\"source:ACHTransactions:CompanyName:\",\"visible\":true,\"common\":false,\"__gohashid\":16111},{\"from\":\"source:ACHTransactions:fields\",\"to\":\"source:ACHTransactions:RequestType:\",\"fromPort\":\"source:ACHTransactions:fields\",\"toPort\":\"source:ACHTransactions:RequestType:\",\"visible\":true,\"common\":false,\"__gohashid\":16112},{\"from\":\"source:ACHTransactions:fields\",\"to\":\"source:ACHTransactions:TemplateTypeValue:\",\"fromPort\":\"source:ACHTransactions:fields\",\"toPort\":\"source:ACHTransactions:TemplateTypeValue:\",\"visible\":true,\"common\":false,\"__gohashid\":16113},{\"from\":\"source:ACHTransactions:fields\",\"to\":\"source:ACHTransactions:softDelete:\",\"fromPort\":\"source:ACHTransactions:fields\",\"toPort\":\"source:ACHTransactions:softDelete:\",\"visible\":true,\"common\":false,\"__gohashid\":16114},{\"from\":\"source:ACHTransactions:fields\",\"to\":\"source:ACHTransactions:TransactionType_id:\",\"fromPort\":\"source:ACHTransactions:fields\",\"toPort\":\"source:ACHTransactions:TransactionType_id:\",\"visible\":true,\"common\":false,\"__gohashid\":16115},{\"from\":\"source:ACHTransactions:fields\",\"to\":\"source:ACHTransactions:CreatedBy:\",\"fromPort\":\"source:ACHTransactions:fields\",\"toPort\":\"source:ACHTransactions:CreatedBy:\",\"visible\":true,\"common\":false,\"__gohashid\":16116},{\"from\":\"source:ACHTransactions:fields\",\"to\":\"source:ACHTransactions:Company_id:\",\"fromPort\":\"source:ACHTransactions:fields\",\"toPort\":\"source:ACHTransactions:Company_id:\",\"visible\":true,\"common\":false,\"__gohashid\":16117},{\"from\":\"source:ACHTransactions:fields\",\"to\":\"source:ACHTransactions:TransactionTypeValue:\",\"fromPort\":\"source:ACHTransactions:fields\",\"toPort\":\"source:ACHTransactions:TransactionTypeValue:\",\"visible\":true,\"common\":false,\"__gohashid\":16118},{\"from\":\"source:ACHTransactions:fields\",\"to\":\"source:ACHTransactions:StatusValue:\",\"fromPort\":\"source:ACHTransactions:fields\",\"toPort\":\"source:ACHTransactions:StatusValue:\",\"visible\":true,\"common\":false,\"__gohashid\":16119},{\"from\":\"source:ACHTransactions:fields\",\"to\":\"source:ACHTransactions:Transaction_id:\",\"fromPort\":\"source:ACHTransactions:fields\",\"toPort\":\"source:ACHTransactions:Transaction_id:\",\"visible\":true,\"common\":false,\"__gohashid\":16120},{\"from\":\"source:ACHTransactions:fields\",\"to\":\"source:ACHTransactions:EffectiveDate:\",\"fromPort\":\"source:ACHTransactions:fields\",\"toPort\":\"source:ACHTransactions:EffectiveDate:\",\"visible\":true,\"common\":false,\"__gohashid\":16121},{\"from\":\"source:ACHTransactions:fields\",\"to\":\"source:ACHTransactions:TemplateName:\",\"fromPort\":\"source:ACHTransactions:fields\",\"toPort\":\"source:ACHTransactions:TemplateName:\",\"visible\":true,\"common\":false,\"__gohashid\":16122},{\"from\":\"source:ACHTransactions:fields\",\"to\":\"source:ACHTransactions:ConfirmationNumber:\",\"fromPort\":\"source:ACHTransactions:fields\",\"toPort\":\"source:ACHTransactions:ConfirmationNumber:\",\"visible\":true,\"common\":false,\"__gohashid\":16123},{\"from\":\"source:ACHTransactions:fields\",\"to\":\"source:ACHTransactions:Approver:\",\"fromPort\":\"source:ACHTransactions:fields\",\"toPort\":\"source:ACHTransactions:Approver:\",\"visible\":true,\"common\":false,\"__gohashid\":16124},{\"from\":\"source:ACHTransactions:fields\",\"to\":\"source:ACHTransactions:Records:\",\"fromPort\":\"source:ACHTransactions:fields\",\"toPort\":\"source:ACHTransactions:Records:\",\"visible\":true,\"common\":false,\"__gohashid\":16125},{\"from\":\"source:ACHTransactions:fields\",\"to\":\"source:ACHTransactions:TemplateDescription:\",\"fromPort\":\"source:ACHTransactions:fields\",\"toPort\":\"source:ACHTransactions:TemplateDescription:\",\"visible\":true,\"common\":false,\"__gohashid\":16126},{\"from\":\"source:ACHTransactions:fields\",\"to\":\"source:ACHTransactions:TotalAmount:\",\"fromPort\":\"source:ACHTransactions:fields\",\"toPort\":\"source:ACHTransactions:TotalAmount:\",\"visible\":true,\"common\":false,\"__gohashid\":16127},{\"from\":\"target\",\"to\":\"target:parameters\",\"fromPort\":\"target\",\"toPort\":\"target:parameters\",\"visible\":true,\"common\":false,\"__gohashid\":16128},{\"from\":\"target:parameters\",\"to\":\"target:DebitAccount:\",\"fromPort\":\"target:parameters\",\"toPort\":\"target:DebitAccount:\",\"visible\":true,\"common\":false,\"__gohashid\":16129},{\"from\":\"target:parameters\",\"to\":\"target:EffectiveDate:\",\"fromPort\":\"target:parameters\",\"toPort\":\"target:EffectiveDate:\",\"visible\":true,\"common\":false,\"__gohashid\":16130},{\"from\":\"target:parameters\",\"to\":\"target:MaxAmount:\",\"fromPort\":\"target:parameters\",\"toPort\":\"target:MaxAmount:\",\"visible\":true,\"common\":false,\"__gohashid\":16131},{\"from\":\"target:parameters\",\"to\":\"target:Records:\",\"fromPort\":\"target:parameters\",\"toPort\":\"target:Records:\",\"visible\":true,\"common\":false,\"__gohashid\":16132},{\"from\":\"target:parameters\",\"to\":\"target:TemplateRequestType_id:\",\"fromPort\":\"target:parameters\",\"toPort\":\"target:TemplateRequestType_id:\",\"visible\":true,\"common\":false,\"__gohashid\":16133},{\"from\":\"target:parameters\",\"to\":\"target:TemplateType_id:\",\"fromPort\":\"target:parameters\",\"toPort\":\"target:TemplateType_id:\",\"visible\":true,\"common\":false,\"__gohashid\":16134},{\"from\":\"target:parameters\",\"to\":\"target:TotalAmount:\",\"fromPort\":\"target:parameters\",\"toPort\":\"target:TotalAmount:\",\"visible\":true,\"common\":false,\"__gohashid\":16135},{\"from\":\"target:parameters\",\"to\":\"target:TransactionType_id:\",\"fromPort\":\"target:parameters\",\"toPort\":\"target:TransactionType_id:\",\"visible\":true,\"common\":false,\"__gohashid\":16136}],\"blockCount\":{\"variableCount\":0},\"variableMap\":{},\"xmlMappingOverride\":true}",
    "oVisualMappingData" : "{\"nodeDataArray\":[{\"isGroup\":true,\"key\":\"response_out\",\"text\":\"ACHTransactions\",\"xy\":\"770 100\",\"__gohashid\":21969},{\"isGroup\":true,\"key\":\"response_in\",\"text\":\"BBMockServices (1.0).ACHVendorMockService\",\"xy\":\"150 100\",\"__gohashid\":21970}],\"linkDataArray\":[{\"from\":\"target\",\"to\":\"target:ACHTransactions\",\"fromPort\":\"target\",\"toPort\":\"target:ACHTransactions\",\"visible\":true,\"common\":false,\"__gohashid\":22002},{\"from\":\"target:ACHTransactions\",\"to\":\"target:ACHTransactions:fields\",\"fromPort\":\"target:ACHTransactions\",\"toPort\":\"target:ACHTransactions:fields\",\"visible\":true,\"common\":false,\"__gohashid\":22003},{\"from\":\"target:ACHTransactions:fields\",\"to\":\"target:ACHTransactions:BBGeneralTransactionType_id:\",\"fromPort\":\"target:ACHTransactions:fields\",\"toPort\":\"target:ACHTransactions:BBGeneralTransactionType_id:\",\"visible\":true,\"common\":false,\"__gohashid\":22004},{\"from\":\"target:ACHTransactions:fields\",\"to\":\"target:ACHTransactions:Status:\",\"fromPort\":\"target:ACHTransactions:fields\",\"toPort\":\"target:ACHTransactions:Status:\",\"visible\":true,\"common\":false,\"__gohashid\":22005},{\"from\":\"target:ACHTransactions:fields\",\"to\":\"target:ACHTransactions:TemplateRequestType_id:\",\"fromPort\":\"target:ACHTransactions:fields\",\"toPort\":\"target:ACHTransactions:TemplateRequestType_id:\",\"visible\":true,\"common\":false,\"__gohashid\":22006},{\"from\":\"target:ACHTransactions:fields\",\"to\":\"target:ACHTransactions:Request_id:\",\"fromPort\":\"target:ACHTransactions:fields\",\"toPort\":\"target:ACHTransactions:Request_id:\",\"visible\":true,\"common\":false,\"__gohashid\":22007},{\"from\":\"target:ACHTransactions:fields\",\"to\":\"target:ACHTransactions:userName:\",\"fromPort\":\"target:ACHTransactions:fields\",\"toPort\":\"target:ACHTransactions:userName:\",\"visible\":true,\"common\":false,\"__gohashid\":22008},{\"from\":\"target:ACHTransactions:fields\",\"to\":\"target:ACHTransactions:DebitAccount:\",\"fromPort\":\"target:ACHTransactions:fields\",\"toPort\":\"target:ACHTransactions:DebitAccount:\",\"visible\":true,\"common\":false,\"__gohashid\":22009},{\"from\":\"target:ACHTransactions:fields\",\"to\":\"target:ACHTransactions:CreatedOn:\",\"fromPort\":\"target:ACHTransactions:fields\",\"toPort\":\"target:ACHTransactions:CreatedOn:\",\"visible\":true,\"common\":false,\"__gohashid\":22010},{\"from\":\"target:ACHTransactions:fields\",\"to\":\"target:ACHTransactions:MaxAmount:\",\"fromPort\":\"target:ACHTransactions:fields\",\"toPort\":\"target:ACHTransactions:MaxAmount:\",\"visible\":true,\"common\":false,\"__gohashid\":22011},{\"from\":\"target:ACHTransactions:fields\",\"to\":\"target:ACHTransactions:TemplateType_id:\",\"fromPort\":\"target:ACHTransactions:fields\",\"toPort\":\"target:ACHTransactions:TemplateType_id:\",\"visible\":true,\"common\":false,\"__gohashid\":22012},{\"from\":\"target:ACHTransactions:fields\",\"to\":\"target:ACHTransactions:CompanyName:\",\"fromPort\":\"target:ACHTransactions:fields\",\"toPort\":\"target:ACHTransactions:CompanyName:\",\"visible\":true,\"common\":false,\"__gohashid\":22013},{\"from\":\"target:ACHTransactions:fields\",\"to\":\"target:ACHTransactions:RequestType:\",\"fromPort\":\"target:ACHTransactions:fields\",\"toPort\":\"target:ACHTransactions:RequestType:\",\"visible\":true,\"common\":false,\"__gohashid\":22014},{\"from\":\"target:ACHTransactions:fields\",\"to\":\"target:ACHTransactions:TemplateTypeValue:\",\"fromPort\":\"target:ACHTransactions:fields\",\"toPort\":\"target:ACHTransactions:TemplateTypeValue:\",\"visible\":true,\"common\":false,\"__gohashid\":22015},{\"from\":\"target:ACHTransactions:fields\",\"to\":\"target:ACHTransactions:softDelete:\",\"fromPort\":\"target:ACHTransactions:fields\",\"toPort\":\"target:ACHTransactions:softDelete:\",\"visible\":true,\"common\":false,\"__gohashid\":22016},{\"from\":\"target:ACHTransactions:fields\",\"to\":\"target:ACHTransactions:TransactionType_id:\",\"fromPort\":\"target:ACHTransactions:fields\",\"toPort\":\"target:ACHTransactions:TransactionType_id:\",\"visible\":true,\"common\":false,\"__gohashid\":22017},{\"from\":\"target:ACHTransactions:fields\",\"to\":\"target:ACHTransactions:CreatedBy:\",\"fromPort\":\"target:ACHTransactions:fields\",\"toPort\":\"target:ACHTransactions:CreatedBy:\",\"visible\":true,\"common\":false,\"__gohashid\":22018},{\"from\":\"target:ACHTransactions:fields\",\"to\":\"target:ACHTransactions:Company_id:\",\"fromPort\":\"target:ACHTransactions:fields\",\"toPort\":\"target:ACHTransactions:Company_id:\",\"visible\":true,\"common\":false,\"__gohashid\":22019},{\"from\":\"target:ACHTransactions:fields\",\"to\":\"target:ACHTransactions:TransactionTypeValue:\",\"fromPort\":\"target:ACHTransactions:fields\",\"toPort\":\"target:ACHTransactions:TransactionTypeValue:\",\"visible\":true,\"common\":false,\"__gohashid\":22020},{\"from\":\"target:ACHTransactions:fields\",\"to\":\"target:ACHTransactions:StatusValue:\",\"fromPort\":\"target:ACHTransactions:fields\",\"toPort\":\"target:ACHTransactions:StatusValue:\",\"visible\":true,\"common\":false,\"__gohashid\":22021},{\"from\":\"target:ACHTransactions:fields\",\"to\":\"target:ACHTransactions:Transaction_id:\",\"fromPort\":\"target:ACHTransactions:fields\",\"toPort\":\"target:ACHTransactions:Transaction_id:\",\"visible\":true,\"common\":false,\"__gohashid\":22022},{\"from\":\"target:ACHTransactions:fields\",\"to\":\"target:ACHTransactions:EffectiveDate:\",\"fromPort\":\"target:ACHTransactions:fields\",\"toPort\":\"target:ACHTransactions:EffectiveDate:\",\"visible\":true,\"common\":false,\"__gohashid\":22023},{\"from\":\"target:ACHTransactions:fields\",\"to\":\"target:ACHTransactions:TemplateName:\",\"fromPort\":\"target:ACHTransactions:fields\",\"toPort\":\"target:ACHTransactions:TemplateName:\",\"visible\":true,\"common\":false,\"__gohashid\":22024},{\"from\":\"target:ACHTransactions:fields\",\"to\":\"target:ACHTransactions:ConfirmationNumber:\",\"fromPort\":\"target:ACHTransactions:fields\",\"toPort\":\"target:ACHTransactions:ConfirmationNumber:\",\"visible\":true,\"common\":false,\"__gohashid\":22025},{\"from\":\"target:ACHTransactions:fields\",\"to\":\"target:ACHTransactions:Approver:\",\"fromPort\":\"target:ACHTransactions:fields\",\"toPort\":\"target:ACHTransactions:Approver:\",\"visible\":true,\"common\":false,\"__gohashid\":22026},{\"from\":\"target:ACHTransactions:fields\",\"to\":\"target:ACHTransactions:Records:\",\"fromPort\":\"target:ACHTransactions:fields\",\"toPort\":\"target:ACHTransactions:Records:\",\"visible\":true,\"common\":false,\"__gohashid\":22027},{\"from\":\"target:ACHTransactions:fields\",\"to\":\"target:ACHTransactions:TemplateDescription:\",\"fromPort\":\"target:ACHTransactions:fields\",\"toPort\":\"target:ACHTransactions:TemplateDescription:\",\"visible\":true,\"common\":false,\"__gohashid\":22028},{\"from\":\"target:ACHTransactions:fields\",\"to\":\"target:ACHTransactions:TotalAmount:\",\"fromPort\":\"target:ACHTransactions:fields\",\"toPort\":\"target:ACHTransactions:TotalAmount:\",\"visible\":true,\"common\":false,\"__gohashid\":22029}],\"blockCount\":{\"variableCount\":0},\"variableMap\":{},\"xmlMappingOverride\":true}",
    "applyCommonMapping" : false,
    "applyRequestCommonMapping" : false,
    "applyResponseCommonMapping" : false,
    "backendMeta" : {
      "serviceName" : "BBMockServices",
      "serviceVersion" : "1.0",
      "operationName" : "ACHVendorMockService"
    },
    "relationshipHierarchyMapping" : {
      "children" : [ ],
      "name" : "ACHTransactions",
      "actions" : { },
      "selected" : true
    },
    "requestXmlMappingOverride" : true,
    "responseXmlMappingOverride" : true
  }
}