{
    "DNDConfig": null,
    "__parentReadjusting__": false,
    "_height_": {
        "type": "ref",
        "value": "preferred"
    },
    "_left_": {
        "type": "string",
        "value": "0dp"
    },
    "_margin_": [
        0,
        0,
        0,
        0
    ],
    "_orientation_": 6,
    "_padding_": [
        0,
        0,
        0,
        0
    ],
    "_percent_": true,
    "_skin_": "sf94624be61d43e299a4790d019276ba",
    "_top_": {
        "type": "string",
        "value": "0dp"
    },
    "_width_": {
        "type": "string",
        "value": "100%"
    },
    "allboxes": [],
    "autogrowmode": 1,
    "canUpdateUI": true,
    "children": [
        "flxHeaderFundAccount",
        "flxSeparator",
        "lblFundAccountMessage1",
        "lblFundAccountMessage2",
        "lblFundAccountSeperator1",
        "flxFundAccountDirectDeposit",
        "lblFundAccountSeperator2",
        "flxFundAccountScanDeposit",
        "lblFundAccountSeperator3",
        "flxTransferfromDiffAccnt",
        "flxFundAccountButtons"
    ],
    "clipbounds": true,
    "containerweight": 100,
    "enablescrolling": true,
    "id": "FundAccountsNAO",
    "info": null,
    "iscustomlayout": false,
    "isvisible": true,
    "kuid": "ecf79ade2db947d18e012c5c37fda545",
    "layouttype": 4,
    "name": "kony.ui.FlexContainer",
    "parent": "userwidgetmodel",
    "pf": "userwidgetmodel",
    "retaincontentalignment": false,
    "retainflexpositionproperties": false,
    "snapgridsize": 10,
    "snaptogrid": true,
    "vizProps": {
        "hidewidgethierarchy": false
    },
    "wType": "FlexContainer",
    "widgetalignment": 1
}