{
    "@class": "com.kony.gen.viz.model.component.KVizButton",
    "DNDConfig": null,
    "__parentReadjusting__": false,
    "_height_": {
        "type": "string",
        "value": "40dp"
    },
    "_margin_": [
        6,
        6,
        6,
        6
    ],
    "_padding_": [
        0,
        0,
        0,
        0
    ],
    "_right_": {
        "type": "string",
        "value": "4.50%"
    },
    "_skin_": "s215ef7edf8c4ddb8f9f91fcc80f7b42",
    "_text_": "",
    "_width_": {
        "type": "string",
        "value": "27.70%"
    },
    "accessibilityconfig": {
        "a11yLabel": "Go to Accounts"
    },
    "canUpdateUI": true,
    "centery": {
        "type": "string",
        "value": "50%"
    },
    "containerweight": 100,
    "contentalignment": 5,
    "desktopweb": {
        "psp": {
            "hoverSkin": "s4c88ea5040649419fa0156d555105d0"
        }
    },
    "disabledSkins": {
        "focusSkin": "sf44d06ca8224832827ea7fdff757013"
    },
    "displaytext": true,
    "id": "btnAckGoToAccounts",
    "info": null,
    "isvisible": true,
    "kuid": "dbe4a92ada7b4d9d894c2313887e3eaf",
    "name": "kony.ui.Button",
    "parent": "flxAcknowledgementButtons",
    "pf": "userwidgetmodel",
    "texti18n": "i18n.NAO.GoToAccounts",
    "tooltip": "Go To Accounts",
    "wType": "Button",
    "zindex": 1
}