{
    "@class": "com.kony.gen.viz.model.component.KVizUserWidget",
    "DNDConfig": null,
    "__parentReadjusting__": false,
    "_children_": [],
    "_height_": {
        "type": "ref",
        "value": "preferred"
    },
    "_left_": {
        "type": "string",
        "value": "0dp"
    },
    "_margin_": [
        0,
        0,
        0,
        0
    ],
    "_orientation_": 1,
    "_padding_": [
        0,
        0,
        0,
        0
    ],
    "_percent_": true,
    "_render_": true,
    "_skin_": "s24c92fc23b14f5484b693ee9b8a9b35",
    "_top_": {
        "type": "string",
        "value": "0dp"
    },
    "_width_": {
        "type": "string",
        "value": "100%"
    },
    "areflexpropsreferenced": false,
    "autogrowmode": 1,
    "canUpdateUI": true,
    "clipbounds": true,
    "containerweight": 0,
    "dataDiffs": {
        "CommonHeader": {
            "__events__": {},
            "__info__": {
                "isRoot": true,
                "kuid": "j58d2738dc1e4b65aeed05d37cc5a0d2",
                "srcKUID": "fc262cfc376241858f6464bb6acce7ed",
                "wType": "FlexContainer"
            }
        },
        "btnRequest": {
            "__events__": {},
            "__info__": {
                "kuid": "g1d5d4f104844985b169a991d909158e",
                "srcKUID": "c8855780f2c24539bdac150fddb3eade",
                "wType": "Button"
            },
            "i18n_text": "i18n.PFM.ViewUncategorizedTransactions",
            "text": ""
        },
        "flxHeader": {
            "__events__": {},
            "__info__": {
                "kuid": "f250aff2298c4e74b997e50afa4c1762",
                "srcKUID": "ac4ddc384192440f9e8440fa909b9e19",
                "wType": "FlexContainer"
            }
        },
        "flxSeperator": {
            "__events__": {},
            "__info__": {
                "kuid": "b12acacfa38447049ac86ef026c2f10f",
                "srcKUID": "c964ea0ebe3f4c03ba22b719e2c8e2e8",
                "wType": "FlexContainer"
            }
        },
        "lblHeading": {
            "__events__": {},
            "__info__": {
                "kuid": "cc3c1b608afc4f8e8e09ceca3b49330f",
                "srcKUID": "bd38f9434a504b6a869469d928247bae",
                "wType": "Label"
            },
            "i18n_text": "i18n.PFM.ViewUncategorizedTransactions",
            "left": {
                "Default": {
                    "type": "string",
                    "value": "2.50%"
                }
            },
            "text": ""
        }
    },
    "id": "CommonHeader",
    "info": null,
    "isdatareferenced": false,
    "isvisible": true,
    "kuid": "e15061722f5445b1b34e2bd34e442a81",
    "layouttype": 2,
    "masterType": 0,
    "name": "kony.ui.UserWidgetInstance",
    "parent": "CategorizedMonthlySpending",
    "pf": "userwidgetmodel",
    "snaptogrid": true,
    "sourceUserWidget": "fc262cfc376241858f6464bb6acce7ed",
    "wType": "UserWidgetInstance"
}