{
    "DNDConfig": null,
    "__parentReadjusting__": false,
    "_height_": {
        "type": "ref",
        "value": "preferred"
    },
    "_left_": {
        "type": "string",
        "value": "0dp"
    },
    "_margin_": [
        0,
        0,
        0,
        0
    ],
    "_orientation_": 6,
    "_padding_": [
        0,
        0,
        0,
        0
    ],
    "_percent_": true,
    "_skin_": "s24c92fc23b14f5484b693ee9b8a9b35",
    "_top_": {
        "type": "string",
        "value": "0dp"
    },
    "_width_": {
        "type": "string",
        "value": "100%"
    },
    "allboxes": [],
    "autogrowmode": 1,
    "canUpdateUI": true,
    "children": [
        "lblAcknowledgementTitle",
        "flxMainAcknowledgment",
        "btnBackToAccountDeatil",
        "btnBackToAccountSummary"
    ],
    "clipbounds": false,
    "containerweight": 100,
    "enablescrolling": true,
    "id": "flxAcknowledgement",
    "info": null,
    "isvisible": true,
    "kuid": "bdc807cc4ed64a63bf474fb14a3a19d9",
    "layouttype": 2,
    "name": "kony.ui.FlexContainer",
    "parent": "flxMainContainer",
    "pf": "frmPayDueAmount",
    "responsiveData": {
        "b1": {
            "isVisible": false,
            "layoutType": 4,
            "left": {
                "type": "string",
                "value": "0dp"
            },
            "top": {
                "type": "string",
                "value": "0dp"
            }
        },
        "b2": {
            "isVisible": false,
            "layoutType": 4,
            "left": {
                "type": "string",
                "value": "0dp"
            }
        },
        "b3": {
            "isVisible": false,
            "top": {
                "type": "string",
                "value": "0dp"
            }
        },
        "b4": {
            "isVisible": false
        }
    },
    "snapgridsize": 10,
    "snaptogrid": true,
    "wType": "FlexContainer",
    "widgetalignment": 1,
    "zindex": 1
}