{
  "operationConfig" : {
    "name" : "readExternalBanksjava8860",
    "type" : "MappedToBackend",
    "cachable" : false,
    "smsEnabled" : false,
    "security" : "authorized_app_user",
    "responseEncoding" : "UTF-8",
    "httpMethod" : "GET",
    "decodeResponseBody" : false,
    "odata" : [ {
      "id" : "$select",
      "dataType" : "string",
      "encode" : true,
      "accessType" : "readonly"
    }, {
      "id" : "$filter",
      "dataType" : "string",
      "encode" : true,
      "accessType" : "readonly"
    }, {
      "id" : "$orderby",
      "dataType" : "string",
      "encode" : true,
      "accessType" : "readonly"
    }, {
      "id" : "$top",
      "dataType" : "string",
      "encode" : true,
      "accessType" : "readonly"
    }, {
      "id" : "$skip",
      "dataType" : "string",
      "encode" : true,
      "accessType" : "readonly"
    }, {
      "id" : "$expand",
      "dataType" : "string",
      "encode" : true,
      "accessType" : "readonly"
    }, {
      "id" : "$batchsize",
      "dataType" : "string",
      "encode" : true,
      "accessType" : "readonly"
    }, {
      "id" : "$batchid",
      "dataType" : "string",
      "encode" : true,
      "accessType" : "readonly"
    } ],
    "oMapping" : "<?xml version=\"1.0\" encoding=\"UTF-8\" standalone=\"yes\"?><mapper xmlns=\"http://www.kony.com/ns/mapper\">                <map inputpath=\"response_in\" outputpath=\"response_out\">                                <map inputpath=\"externalbank\" outputpath=\"ExternalBanks\">                                                <set-param inputpath=\"id\" outputpath=\"id\"/>                                                <set-param inputpath=\"BankName\" outputpath=\"BankName\"/>                                        <set-param inputpath=\"IdentityProvider\" outputpath=\"IdentityProvider\"/>                                    <set-param inputpath=\"Scheme\" outputpath=\"Scheme\"/>                                    <set-param inputpath=\"Address\" outputpath=\"Address\"/>                                    <set-param inputpath=\"Description\" outputpath=\"Description\"/>                  <set-param inputpath=\"Oauth2\" outputpath=\"Oauth2\"/>       <set-param inputpath=\"logo\" outputpath=\"logo\"/>    </map>                </map></mapper>",
    "oVisualMappingData" : "{\"nodeDataArray\":[{\"isGroup\":true,\"key\":\"response_out\",\"text\":\"ExternalBanks\",\"xy\":\"770 100\",\"__gohashid\":241},{\"isGroup\":true,\"key\":\"response_in\",\"text\":\"dbpAccountAggregationjava.readExternalBanksjava\",\"xy\":\"150 100\",\"__gohashid\":242}],\"linkDataArray\":[{\"from\":\"target\",\"to\":\"target:ExternalBanks\",\"fromPort\":\"target\",\"toPort\":\"target:ExternalBanks\",\"visible\":true,\"common\":false,\"__gohashid\":257},{\"from\":\"target:ExternalBanks\",\"to\":\"target:ExternalBanks:fields\",\"fromPort\":\"target:ExternalBanks\",\"toPort\":\"target:ExternalBanks:fields\",\"visible\":true,\"common\":false,\"__gohashid\":258}],\"blockCount\":{\"variableCount\":0},\"variableMap\":{},\"xmlMappingOverride\":true}",
    "applyCommonMapping" : false,
    "applyRequestCommonMapping" : true,
    "applyResponseCommonMapping" : false,
    "backendMeta" : {
      "serviceName" : "dbpAccountAggregationjava",
      "serviceVersion" : "1.0",
      "operationName" : "readExternalBanksjava"
    },
    "relationshipHierarchyMapping" : {
      "children" : [ ],
      "name" : "ExternalBanks",
      "actions" : {
        "get" : true
      },
      "selected" : true
    },
    "requestXmlMappingOverride" : false,
    "responseXmlMappingOverride" : true
  }
}