{
    "@class": "com.kony.gen.viz.model.component.KVizDateField",
    "DNDConfig": null,
    "Image": "calender.png",
    "__id": "uwu53b0de3a8a648eaa6f120313abbdbec_Calendar0ab9a3af748d245",
    "__input": "Calendar0ab9a3af748d245",
    "__markedForDelete__": true,
    "__parentReadjusting__": false,
    "_data_": null,
    "_date_": [
        "4",
        "7",
        "2017"
    ],
    "_height_": {
        "type": "string",
        "value": "40dp"
    },
    "_left_": {
        "type": "string",
        "value": "10%"
    },
    "_margin_": [
        0,
        0,
        0,
        0
    ],
    "_padding_": [
        1,
        2,
        0,
        0
    ],
    "_placeholder_": "",
    "_skin_": "s18edb78e01047999569a49004e3048b",
    "_startG": [
        0,
        "7",
        "2017"
    ],
    "_top_": {
        "type": "string",
        "value": "0dp"
    },
    "_width_": {
        "type": "string",
        "value": "86.49%"
    },
    "advview": "default",
    "calendaricon": "calbtn.png",
    "canUpdateUI": true,
    "containerweight": 100,
    "contentalignment": 4,
    "datecomponents": [
        "4",
        "7",
        "2017"
    ],
    "dateeditable": true,
    "dateformat": "MM/dd/yyyy",
    "datesGroup": [],
    "datesState": 0,
    "day": "4",
    "daytextalignmentincell": 5,
    "desktopweb": {
        "calendarIcon": "calender.png"
    },
    "displayedMonths": [
        7,
        2017
    ],
    "entereddate": [
        "4",
        "7",
        "2017",
        0,
        0,
        0
    ],
    "format": "MM/dd/yyyy",
    "formatteddate": "07/04/2017",
	"gridCellInactiveDaysSkin": "sd35029800e247beb86f04d6851b1b8d",
    "gridCellSelectedSkin": "se25cb8945064b57bbc9a41b3cd425f7",
    "gridCellSkin": "s5f875a55e8d4ce4bd8a22d01f285405",
    "gridCellTodaySkin": "s544d961e8084f759a5352dec12df3c8",
    "gridCellWeekendSkin": "s5f875a55e8d4ce4bd8a22d01f285405",
    "gridSkin": "s996ecb9dbc14113a367b19b028a1ef4",
    "hidedaysheader": false,
    "hidemonthsheader": false,
    "hour": 18,
    "id": "Calendar0ab9a3af748d245",
    "info": null,
    "isvisible": true,
    "kuid": "ie092bf74c2f44efadb80d8850f98bed",
    "luadate": [
        "4",
        "7",
        "2017",
        0,
        0,
        0
    ],
    "minutes": 3,
    "month": "7",
    "monthsinrow": 3,
    "name": "kony.ui.Calendar",
    "navigatorAlert": "Invalid Selection",
    "noofmonths": 1,
    "pagedate": "/2017",
    "parent": "flxCalender",
    "pf": "userwidgetmodel",
    "popupHeight": "auto",
    "popupWidth": "auto",
    "seconds": 45,
    "selectdate": "//2017",
    "startDay": 0,
    "viewconfig": {
        "gridConfig": {
            "allowWeekendSelectable": true,
			"gridCellInactiveDaysSkin": "sd35029800e247beb86f04d6851b1b8d",
            "gridCellSelectedSkin": "se25cb8945064b57bbc9a41b3cd425f7",
            "gridCellSkin": "s5f875a55e8d4ce4bd8a22d01f285405",
            "gridCellTodaySkin": "s544d961e8084f759a5352dec12df3c8",
            "gridCellWeekendSkin": "s5f875a55e8d4ce4bd8a22d01f285405",
            "gridSkin": "s996ecb9dbc14113a367b19b028a1ef4",
            "leftNavigationImage": "arrow_left.png",
            "rightNavigationImage": "arrow_right.png"
        }
    },
    "viewtype": "default",
    "wType": "Calendar",
    "widgetalignment": 5,
    "widths": [
        "14.2857%;",
        "14.2857%;",
        "14.2857%;",
        "14.2857%;",
        "14.2857%;",
        "14.2857%;",
        "14.2857%;"
    ],
    "year": "2017",
    "zindex": 2
}