{
    "@class": "com.kony.gen.viz.model.component.KVizRadio",
    "DNDConfig": null,
    "__parentReadjusting__": false,
    "_height_": {
        "type": "string",
        "value": "28dp"
    },
    "_left_": {
        "type": "string",
        "value": "2.50%"
    },
    "_margin_": [
        0,
        0,
        0,
        0
    ],
    "_padding_": [
        0,
        0,
        0,
        0
    ],
    "_skin_": "s08e9397217c4af4ae5dd354755f27a2",
    "_top_": {
        "type": "string",
        "value": "154dp"
    },
    "_width_": {
        "type": "string",
        "value": "73.48%"
    },
    "android": {
        "psp": {
            "viewType": 0
        }
    },
    "canUpdateUI": true,
    "containerweight": 100,
    "groupcells": false,
    "id": "radioBtn",
    "info": null,
    "ipad": {
        "psp": {
            "viewType": 0
        }
    },
    "iphone": {
        "psp": {
            "viewType": 0
        }
    },
    "isvisible": true,
    "itemorientation": "horizontal",
    "kuid": "j5925ae92e9e49169509269ef35445dd",
    "masterdata": [
        [
            "rbg1",
            "Pay Due Amount                          "
        ],
        [
            "rbg2",
            "Pay Other Amount"
        ]
    ],
    "name": "kony.ui.RadioButtonGroup",
    "paddinginpixel": false,
    "parent": "PayDueAmount",
    "pf": "userwidgetmodel",
    "selectedkey": "rbg2",
    "selectedkeyvalue": [
        "rbg2",
        "Pay Other Amount"
    ],
    "size": 18,
    "viewconfig": {
        "toggleViewConfig": {
            "viewStyle": 0
        }
    },
    "viewtype": 0,
    "wType": "RadioButtonGroup",
    "widgetalignment": 5,
    "zindex": 1
}