{
  "customCode" : {
    "requestProcessorName" : "com.kony.dbputilities.objpreprocessors.UsernamePasswordPolicyPreProcessor"
  },
  "operationConfig" : {
    "name" : "CreateDbxMicroBusinessUser7923",
    "type" : "MappedToBackend",
    "cachable" : false,
    "smsEnabled" : false,
    "security" : "public",
    "responseEncoding" : "UTF-8",
    "httpMethod" : "GET",
    "decodeResponseBody" : false,
    "iMapping" : "<?xml version=\"1.0\" encoding=\"UTF-8\" standalone=\"yes\"?><mapper xmlns=\"http://www.kony.com/ns/mapper\"><map inputpath=\"request_in\" outputpath=\"request_out\"><set-param inputpath=\"OtpGenaratedts\" outputpath=\"OtpGenaratedts\"/><set-param inputpath=\"areAccountStatementTermsAccepted\" outputpath=\"areAccountStatementTermsAccepted\"/><set-param inputpath=\"Email\" outputpath=\"Email\"/><set-param inputpath=\"Organization_id\" outputpath=\"Organization_Id\"/><set-param inputpath=\"unsuccessfulLoginAttempts\" outputpath=\"unsuccessfulLoginAttempts\"/><set-param inputpath=\"isSuperAdmin\" outputpath=\"isSuperAdmin\"/><set-param inputpath=\"Token\" outputpath=\"Token\"/><set-param inputpath=\"Otp\" outputpath=\"Otp\"/><set-param inputpath=\"Gender\" outputpath=\"Gender\"/><set-param inputpath=\"IDValue\" outputpath=\"IDValue\"/><set-param inputpath=\"Lastlogintime\" outputpath=\"Lastlogintime\"/><set-param inputpath=\"Location_id\" outputpath=\"Location_id\"/><set-param inputpath=\"ValidDate\" outputpath=\"ValidDate\"/><set-param inputpath=\"RegistrationLink\" outputpath=\"RegistrationLink\"/><set-param inputpath=\"createdby\" outputpath=\"createdby\"/><set-param inputpath=\"IDType_id\" outputpath=\"IDType_id\"/><set-param inputpath=\"NoOfDependents\" outputpath=\"NoOfDependents\"/><set-param inputpath=\"areUserAlertsTurnedOn\" outputpath=\"areUserAlertsTurnedOn\"/><set-param inputpath=\"id\" outputpath=\"id\"/><set-param inputpath=\"synctimestamp\" outputpath=\"synctimestamp\"/><set-param inputpath=\"isWireTransferActivated\" outputpath=\"isWireTransferActivated\"/><set-param inputpath=\"DateOfBirth\" outputpath=\"DateOfBirth\"/><set-param inputpath=\"MaritalStatus_id\" outputpath=\"MaritalStatus_id\"/><set-param inputpath=\"IsAssistConsented\" outputpath=\"IsAssistConsented\"/><set-param inputpath=\"EmployementStatus_id\" outputpath=\"EmployementStatus_id\"/><set-param inputpath=\"DrivingLicenseNumber\" outputpath=\"DrivingLicenseNumber\"/><set-param inputpath=\"IsOlbAllowed\" outputpath=\"IsOlbAllowed\"/><set-param inputpath=\"Is_MemberEligibile\" outputpath=\"Is_MemberEligibile\"/><set-param inputpath=\"Role\" outputpath=\"Role\"/><set-param inputpath=\"RegLinkValidity\" outputpath=\"RegLinkValidity\"/><set-param inputpath=\"IsPhoneEnabled\" outputpath=\"IsPhoneEnabled\"/><set-param inputpath=\"modifiedby\" outputpath=\"modifiedby\"/><set-param inputpath=\"LastName\" outputpath=\"LastName\"/><set-param inputpath=\"isUserAccountLocked\" outputpath=\"isUserAccountLocked\"/><set-param inputpath=\"isWireTransferEligible\" outputpath=\"isWireTransferEligible\"/><set-param inputpath=\"UserImage\" outputpath=\"UserImage\"/><set-param inputpath=\"CreditUnionMemberSince\" outputpath=\"CreditUnionMemberSince\"/><set-param inputpath=\"OlbEnrolmentStatus_id\" outputpath=\"OlbEnrolmentStatus_id\"/><set-param inputpath=\"Salutation\" outputpath=\"Salutation\"/><set-param inputpath=\"createdts\" outputpath=\"createdts\"/><set-param inputpath=\"softdeleteflag\" outputpath=\"softdeleteflag\"/><set-param inputpath=\"IsStaffMember\" outputpath=\"IsStaffMember\"/><set-param inputpath=\"IsCoreIdentityScope\" outputpath=\"IsCoreIdentityScope\"/><set-param inputpath=\"SecurityImage_id\" outputpath=\"SecurityImage_id\"/><set-param inputpath=\"IsPinSet\" outputpath=\"IsPinSet\"/><set-param inputpath=\"UserImageURL\" outputpath=\"UserImageURL\"/><set-param inputpath=\"CurrentLoginTime\" outputpath=\"CurrentLoginTime\"/><set-param inputpath=\"Phone\" outputpath=\"Phone\"/><set-param inputpath=\"CustomerType_id\" outputpath=\"CustomerType_id\"/><set-param inputpath=\"Is_BBOA\" outputpath=\"Is_BBOA\"/><set-param inputpath=\"CountryCode\" outputpath=\"CountryCode\"/><set-param inputpath=\"isEnrolled\" outputpath=\"isEnrolled\"/><set-param inputpath=\"Password\" outputpath=\"Password\"/><set-param inputpath=\"lastmodifiedts\" outputpath=\"lastmodifiedts\"/><set-param inputpath=\"EAgreementRequired\" outputpath=\"EAgreementRequired\"/><set-param inputpath=\"isBillPayActivated\" outputpath=\"isBillPayActivated\"/><set-param inputpath=\"UserName\" outputpath=\"UserName\"/><set-param inputpath=\"IDMidentifier\" outputpath=\"IDMidentifier\"/><set-param inputpath=\"Status_id\" outputpath=\"Status_id\"/><set-param inputpath=\"FirstName\" outputpath=\"FirstName\"/><set-param inputpath=\"IsEmailEnabled\" outputpath=\"IsEmailEnabled\"/><set-param inputpath=\"MiddleName\" outputpath=\"MiddleName\"/><set-param inputpath=\"isBillPaySupported\" outputpath=\"isBillPaySupported\"/><set-param inputpath=\"SpouseName\" outputpath=\"SpouseName\"/><set-param inputpath=\"Ssn\" outputpath=\"Ssn\"/><set-param inputpath=\"AtionProfile_id\" outputpath=\"AtionProfile_id\"/><set-param inputpath=\"isP2PSupported\" outputpath=\"isP2PSupported\"/><set-param inputpath=\"Pin\" outputpath=\"Pin\"/><set-param inputpath=\"MemberEligibilityData\" outputpath=\"MemberEligibilityData\"/><set-param inputpath=\"FullName\" outputpath=\"FullName\"/><set-param inputpath=\"areDepositTermsAccepted\" outputpath=\"areDepositTermsAccepted\"/><set-param inputpath=\"RegLinkResendCount\" outputpath=\"RegLinkResendCount\"/><set-param inputpath=\"isP2PActivated\" outputpath=\"isP2PActivated\"/></map></mapper>",
    "oMapping" : "<?xml version=\"1.0\" encoding=\"UTF-8\" standalone=\"yes\"?><mapper xmlns=\"http://www.kony.com/ns/mapper\"><map inputpath=\"response_in\" outputpath=\"response_out\"><set-param inputpath=\"dbpErrCode\" outputpath=\"dbpErrCode\"/><set-param inputpath=\"success\" outputpath=\"success\"/><set-param inputpath=\"isEagreementSigned\" outputpath=\"isEagreementSigned\"/><set-param inputpath=\"id\" outputpath=\"id\"/><set-param inputpath=\"dbpErrMsg\" outputpath=\"dbpErrMsg\"/><set-param inputpath=\"isEAgreementRequired\" outputpath=\"isEAgreementRequired\"/></map></mapper>",
    "applyCommonMapping" : true,
    "applyRequestCommonMapping" : true,
    "applyResponseCommonMapping" : true,
    "backendMeta" : {
      "serviceName" : "dbpRbLocalServicesJava",
      "serviceVersion" : "1.0",
      "operationName" : "CreateMicroBusinessUser"
    },
    "relationshipHierarchyMapping" : {
      "children" : [ ],
      "name" : "DbxUser",
      "actions" : { },
      "selected" : true
    },
    "requestXmlMappingOverride" : false,
    "responseXmlMappingOverride" : false
  }
}