{
  "operationConfig" : {
    "name" : "updateCustomerProfile6713",
    "type" : "MappedToBackend",
    "cachable" : false,
    "smsEnabled" : false,
    "security" : "authorized_app_user",
    "responseEncoding" : "UTF-8",
    "httpMethod" : "GET",
    "decodeResponseBody" : false,
    "iMapping" : "<?xml version=\"1.0\" encoding=\"UTF-8\" standalone=\"yes\"?><mapper xmlns=\"http://www.kony.com/ns/mapper\">              <map inputpath=\"request_in\" outputpath=\"request_out\">                            <set-param inputpath=\"id\" outputpath=\"id\"/>                            <set-param inputpath=\"FirstName\" outputpath=\"FirstName\"/>                            <set-param inputpath=\"MiddleName\" outputpath=\"MiddleName\"/>                            <set-param inputpath=\"LastName\" outputpath=\"LastName\"/>                            <set-param inputpath=\"Ssn\" outputpath=\"Ssn\"/>                            <set-param inputpath=\"DateOfBirth\" outputpath=\"DateOfBirth\"/>                            <set-param inputpath=\"PreferredContactMethod\" outputpath=\"PreferredContactMethod\"/>                            <set-param inputpath=\"Phone\" outputpath=\"Phone\"/>                            <set-param inputpath=\"Email\" outputpath=\"Email\"/>                            <map inputpath=\"CustomerAddress\" outputpath=\"CustomerAddress\">                                          <set-param inputpath=\"DurationOfStay\" outputpath=\"DurationOfStay\"/>                                          <set-param inputpath=\"HomeOwnership\" outputpath=\"HomeOwnership\"/>                  <set-param inputpath=\"isPrimary\" outputpath=\"isPrimary\"/>            </map>                            <map inputpath=\"Address\" outputpath=\"Address\">                                          <set-param inputpath=\"AddressLine1\" outputpath=\"addressLine1\"/>                                          <set-param inputpath=\"AddressLine2\" outputpath=\"addressLine2\"/>                                          <set-param inputpath=\"AddressLine3\" outputpath=\"addressLine3\"/>                                          <set-param inputpath=\"Region\" outputpath=\"state\"/>                                          <set-param inputpath=\"City\" outputpath=\"cityName\"/>                                          <set-param inputpath=\"Country\" outputpath=\"country\"/>                                          <set-param inputpath=\"ZipCode\" outputpath=\"zipCode\"/>                        <set-param inputpath=\"Type_id\" outputpath=\"Type_id\"/>                </map>                        <map inputpath=\"EmployementDetails\" outputpath=\"EmployementDetails\">                                    <set-param inputpath=\"EmploymentType\" outputpath=\"EmploymentType\"/>                                    <set-param inputpath=\"CurrentEmployer\" outputpath=\"CurrentEmployer\"/>                                    <set-param inputpath=\"Designation\" outputpath=\"Designation\"/>                                    <set-param inputpath=\"PayPeriod\" outputpath=\"PayPeriod\"/>                                    <set-param inputpath=\"GrossIncome\" outputpath=\"GrossIncome\"/>                                    <set-param inputpath=\"WeekWorkingHours\" outputpath=\"WeekWorkingHours\"/>                                    <set-param inputpath=\"EmploymentStartDate\" outputpath=\"EmploymentStartDate\"/>                                    <set-param inputpath=\"PreviousEmployer\" outputpath=\"PreviousEmployer\"/>                                    <set-param inputpath=\"PreviousDesignation\" outputpath=\"PreviousDesignation\"/>                                    <set-param inputpath=\"OtherEmployementType\" outputpath=\"OtherEmployementType\"/>                                    <set-param inputpath=\"OtherEmployementDescription\" outputpath=\"OtherEmployementDescription\"/>                        </map>                    <map inputpath=\"OthersourceOfIncome\" outputpath=\"OthersourceOfIncome\">                              <set-param inputpath=\"SourceType\" outputpath=\"SourceType\"/>                                    <set-param inputpath=\"PayPeriod\" outputpath=\"PayPeriod\"/>                                    <set-param inputpath=\"GrossIncome\" outputpath=\"GrossIncome\"/>                                    <set-param inputpath=\"WeekWorkingHours\" outputpath=\"WeekWorkingHours\"/>                                    <set-param inputpath=\"SourceOfIncomeName\" outputpath=\"SourceOfIncomeName\"/>                              <set-param inputpath=\"SourceofIncomeDescription\" outputpath=\"SourceofIncomeDescription\"/>                    </map>     <map inputpath=\"Expenses\" outputpath=\"Expenses\">                              <set-param inputpath=\"Type\" outputpath=\"Type\"/>                                    <set-param inputpath=\"Amount\" outputpath=\"Amount\"/>                                                 </map>  </map></mapper>",
    "oMapping" : "<?xml version=\"1.0\" encoding=\"UTF-8\" standalone=\"yes\"?><mapper xmlns=\"http://www.kony.com/ns/mapper\">    <map inputpath=\"response_in\" outputpath=\"response_out\">    <set-param inputpath=\"dbpErrCode\" outputpath=\"dbpErrCode\"/>    <set-param inputpath=\"dbpErrMsg\" outputpath=\"dbpErrMsg\"/>    <map inputpath=\"customer\" outputpath=\"Customer\">            <set-param inputpath=\"id\" outputpath=\"id\"/>            <set-param inputpath=\"FirstName\" outputpath=\"FirstName\"/>            <set-param inputpath=\"MiddleName\" outputpath=\"MiddleName\"/>            <set-param inputpath=\"LastName\" outputpath=\"LastName\"/>            <set-param inputpath=\"Ssn\" outputpath=\"Ssn\"/>            <set-param inputpath=\"DateOfBirth\" outputpath=\"DateOfBirth\"/>            <set-param inputpath=\"PreferredContactMethod\" outputpath=\"PreferredContactMethod\"/>        </map>    </map></mapper>",
    "iVisualMappingData" : "{\"nodeDataArray\":[{\"isGroup\":true,\"key\":\"request_in\",\"text\":\"DbxUser\",\"xy\":\"150 100\",\"__gohashid\":1861},{\"isGroup\":true,\"key\":\"request_out\",\"text\":\"dbpRbLocalServicesJava (1.0).updateCustomerProfile\",\"xy\":\"770 100\",\"__gohashid\":1862}],\"linkDataArray\":[{\"from\":\"source\",\"to\":\"source:DbxUser\",\"fromPort\":\"source\",\"toPort\":\"source:DbxUser\",\"visible\":true,\"common\":false,\"__gohashid\":334},{\"from\":\"source:DbxUser\",\"to\":\"source:DbxUser:fields\",\"fromPort\":\"source:DbxUser\",\"toPort\":\"source:DbxUser:fields\",\"visible\":true,\"common\":false,\"__gohashid\":335},{\"from\":\"source:DbxUser:fields\",\"to\":\"source:DbxUser:id:\",\"fromPort\":\"source:DbxUser:fields\",\"toPort\":\"source:DbxUser:id:\",\"visible\":true,\"common\":false,\"__gohashid\":336},{\"from\":\"source:DbxUser:fields\",\"to\":\"source:DbxUser:IDValue:\",\"fromPort\":\"source:DbxUser:fields\",\"toPort\":\"source:DbxUser:IDValue:\",\"visible\":true,\"common\":false,\"__gohashid\":337},{\"from\":\"source:DbxUser:fields\",\"to\":\"source:DbxUser:IDType_id:\",\"fromPort\":\"source:DbxUser:fields\",\"toPort\":\"source:DbxUser:IDType_id:\",\"visible\":true,\"common\":false,\"__gohashid\":338},{\"from\":\"source:DbxUser:fields\",\"to\":\"source:DbxUser:UserName:\",\"fromPort\":\"source:DbxUser:fields\",\"toPort\":\"source:DbxUser:UserName:\",\"visible\":true,\"common\":false,\"__gohashid\":339},{\"from\":\"source:DbxUser:fields\",\"to\":\"source:DbxUser:Password:\",\"fromPort\":\"source:DbxUser:fields\",\"toPort\":\"source:DbxUser:Password:\",\"visible\":true,\"common\":false,\"__gohashid\":340},{\"from\":\"source:DbxUser:fields\",\"to\":\"source:DbxUser:IsCoreIdentityScope:\",\"fromPort\":\"source:DbxUser:fields\",\"toPort\":\"source:DbxUser:IsCoreIdentityScope:\",\"visible\":true,\"common\":false,\"__gohashid\":341},{\"from\":\"source:DbxUser:fields\",\"to\":\"source:DbxUser:Salutation:\",\"fromPort\":\"source:DbxUser:fields\",\"toPort\":\"source:DbxUser:Salutation:\",\"visible\":true,\"common\":false,\"__gohashid\":342},{\"from\":\"source:DbxUser:fields\",\"to\":\"source:DbxUser:FirstName:\",\"fromPort\":\"source:DbxUser:fields\",\"toPort\":\"source:DbxUser:FirstName:\",\"visible\":true,\"common\":false,\"__gohashid\":343},{\"from\":\"source:DbxUser:fields\",\"to\":\"source:DbxUser:MiddleName:\",\"fromPort\":\"source:DbxUser:fields\",\"toPort\":\"source:DbxUser:MiddleName:\",\"visible\":true,\"common\":false,\"__gohashid\":344},{\"from\":\"source:DbxUser:fields\",\"to\":\"source:DbxUser:LastName:\",\"fromPort\":\"source:DbxUser:fields\",\"toPort\":\"source:DbxUser:LastName:\",\"visible\":true,\"common\":false,\"__gohashid\":345},{\"from\":\"source:DbxUser:fields\",\"to\":\"source:DbxUser:FullName:\",\"fromPort\":\"source:DbxUser:fields\",\"toPort\":\"source:DbxUser:FullName:\",\"visible\":true,\"common\":false,\"__gohashid\":346},{\"from\":\"source:DbxUser:fields\",\"to\":\"source:DbxUser:Gender:\",\"fromPort\":\"source:DbxUser:fields\",\"toPort\":\"source:DbxUser:Gender:\",\"visible\":true,\"common\":false,\"__gohashid\":347},{\"from\":\"source:DbxUser:fields\",\"to\":\"source:DbxUser:DateOfBirth:\",\"fromPort\":\"source:DbxUser:fields\",\"toPort\":\"source:DbxUser:DateOfBirth:\",\"visible\":true,\"common\":false,\"__gohashid\":348},{\"from\":\"source:DbxUser:fields\",\"to\":\"source:DbxUser:Ssn:\",\"fromPort\":\"source:DbxUser:fields\",\"toPort\":\"source:DbxUser:Ssn:\",\"visible\":true,\"common\":false,\"__gohashid\":349},{\"from\":\"source:DbxUser:fields\",\"to\":\"source:DbxUser:CustomerType_id:\",\"fromPort\":\"source:DbxUser:fields\",\"toPort\":\"source:DbxUser:CustomerType_id:\",\"visible\":true,\"common\":false,\"__gohashid\":350},{\"from\":\"source:DbxUser:fields\",\"to\":\"source:DbxUser:CustomerType:\",\"fromPort\":\"source:DbxUser:fields\",\"toPort\":\"source:DbxUser:CustomerType:\",\"visible\":true,\"common\":false,\"__gohashid\":351},{\"from\":\"source:DbxUser:fields\",\"to\":\"source:DbxUser:Status_id:\",\"fromPort\":\"source:DbxUser:fields\",\"toPort\":\"source:DbxUser:Status_id:\",\"visible\":true,\"common\":false,\"__gohashid\":352},{\"from\":\"source:DbxUser:fields\",\"to\":\"source:DbxUser:Status:\",\"fromPort\":\"source:DbxUser:fields\",\"toPort\":\"source:DbxUser:Status:\",\"visible\":true,\"common\":false,\"__gohashid\":353},{\"from\":\"source:DbxUser:fields\",\"to\":\"source:DbxUser:success:\",\"fromPort\":\"source:DbxUser:fields\",\"toPort\":\"source:DbxUser:success:\",\"visible\":true,\"common\":false,\"__gohashid\":354},{\"from\":\"source:DbxUser:fields\",\"to\":\"source:DbxUser:IsPhoneEnabled:\",\"fromPort\":\"source:DbxUser:fields\",\"toPort\":\"source:DbxUser:IsPhoneEnabled:\",\"visible\":true,\"common\":false,\"__gohashid\":355},{\"from\":\"source:DbxUser:fields\",\"to\":\"source:DbxUser:IsEmailEnabled:\",\"fromPort\":\"source:DbxUser:fields\",\"toPort\":\"source:DbxUser:IsEmailEnabled:\",\"visible\":true,\"common\":false,\"__gohashid\":356},{\"from\":\"source:DbxUser:fields\",\"to\":\"source:DbxUser:IsStaffMember:\",\"fromPort\":\"source:DbxUser:fields\",\"toPort\":\"source:DbxUser:IsStaffMember:\",\"visible\":true,\"common\":false,\"__gohashid\":357},{\"from\":\"source:DbxUser:fields\",\"to\":\"source:DbxUser:isSuperAdmin:\",\"fromPort\":\"source:DbxUser:fields\",\"toPort\":\"source:DbxUser:isSuperAdmin:\",\"visible\":true,\"common\":false,\"__gohashid\":358},{\"from\":\"source:DbxUser:fields\",\"to\":\"source:DbxUser:Role:\",\"fromPort\":\"source:DbxUser:fields\",\"toPort\":\"source:DbxUser:Role:\",\"visible\":true,\"common\":false,\"__gohashid\":359},{\"from\":\"source:DbxUser:fields\",\"to\":\"source:DbxUser:SecurityImage_id:\",\"fromPort\":\"source:DbxUser:fields\",\"toPort\":\"source:DbxUser:SecurityImage_id:\",\"visible\":true,\"common\":false,\"__gohashid\":360},{\"from\":\"source:DbxUser:fields\",\"to\":\"source:DbxUser:IsPinSet:\",\"fromPort\":\"source:DbxUser:fields\",\"toPort\":\"source:DbxUser:IsPinSet:\",\"visible\":true,\"common\":false,\"__gohashid\":361},{\"from\":\"source:DbxUser:fields\",\"to\":\"source:DbxUser:Pin:\",\"fromPort\":\"source:DbxUser:fields\",\"toPort\":\"source:DbxUser:Pin:\",\"visible\":true,\"common\":false,\"__gohashid\":362},{\"from\":\"source:DbxUser:fields\",\"to\":\"source:DbxUser:Token:\",\"fromPort\":\"source:DbxUser:fields\",\"toPort\":\"source:DbxUser:Token:\",\"visible\":true,\"common\":false,\"__gohashid\":363},{\"from\":\"source:DbxUser:fields\",\"to\":\"source:DbxUser:Otp:\",\"fromPort\":\"source:DbxUser:fields\",\"toPort\":\"source:DbxUser:Otp:\",\"visible\":true,\"common\":false,\"__gohashid\":364},{\"from\":\"source:DbxUser:fields\",\"to\":\"source:DbxUser:OtpGenaratedts:\",\"fromPort\":\"source:DbxUser:fields\",\"toPort\":\"source:DbxUser:OtpGenaratedts:\",\"visible\":true,\"common\":false,\"__gohashid\":365},{\"from\":\"source:DbxUser:fields\",\"to\":\"source:DbxUser:ValidDate:\",\"fromPort\":\"source:DbxUser:fields\",\"toPort\":\"source:DbxUser:ValidDate:\",\"visible\":true,\"common\":false,\"__gohashid\":366},{\"from\":\"source:DbxUser:fields\",\"to\":\"source:DbxUser:unsuccessfulLoginAttempts:\",\"fromPort\":\"source:DbxUser:fields\",\"toPort\":\"source:DbxUser:unsuccessfulLoginAttempts:\",\"visible\":true,\"common\":false,\"__gohashid\":367},{\"from\":\"source:DbxUser:fields\",\"to\":\"source:DbxUser:isUserAccountLocked:\",\"fromPort\":\"source:DbxUser:fields\",\"toPort\":\"source:DbxUser:isUserAccountLocked:\",\"visible\":true,\"common\":false,\"__gohashid\":368},{\"from\":\"source:DbxUser:fields\",\"to\":\"source:DbxUser:UserImage:\",\"fromPort\":\"source:DbxUser:fields\",\"toPort\":\"source:DbxUser:UserImage:\",\"visible\":true,\"common\":false,\"__gohashid\":369},{\"from\":\"source:DbxUser:fields\",\"to\":\"source:DbxUser:UserImageURL:\",\"fromPort\":\"source:DbxUser:fields\",\"toPort\":\"source:DbxUser:UserImageURL:\",\"visible\":true,\"common\":false,\"__gohashid\":370},{\"from\":\"source:DbxUser:fields\",\"to\":\"source:DbxUser:CountryCode:\",\"fromPort\":\"source:DbxUser:fields\",\"toPort\":\"source:DbxUser:CountryCode:\",\"visible\":true,\"common\":false,\"__gohashid\":371},{\"from\":\"source:DbxUser:fields\",\"to\":\"source:DbxUser:Location_id:\",\"fromPort\":\"source:DbxUser:fields\",\"toPort\":\"source:DbxUser:Location_id:\",\"visible\":true,\"common\":false,\"__gohashid\":372},{\"from\":\"source:DbxUser:fields\",\"to\":\"source:DbxUser:IsOlbAllowed:\",\"fromPort\":\"source:DbxUser:fields\",\"toPort\":\"source:DbxUser:IsOlbAllowed:\",\"visible\":true,\"common\":false,\"__gohashid\":373},{\"from\":\"source:DbxUser:fields\",\"to\":\"source:DbxUser:OlbEnrolmentStatus_id:\",\"fromPort\":\"source:DbxUser:fields\",\"toPort\":\"source:DbxUser:OlbEnrolmentStatus_id:\",\"visible\":true,\"common\":false,\"__gohashid\":374},{\"from\":\"source:DbxUser:fields\",\"to\":\"source:DbxUser:isEnrolled:\",\"fromPort\":\"source:DbxUser:fields\",\"toPort\":\"source:DbxUser:isEnrolled:\",\"visible\":true,\"common\":false,\"__gohashid\":375},{\"from\":\"source:DbxUser:fields\",\"to\":\"source:DbxUser:Is_MemberEligibile:\",\"fromPort\":\"source:DbxUser:fields\",\"toPort\":\"source:DbxUser:Is_MemberEligibile:\",\"visible\":true,\"common\":false,\"__gohashid\":376},{\"from\":\"source:DbxUser:fields\",\"to\":\"source:DbxUser:MemberEligibilityData:\",\"fromPort\":\"source:DbxUser:fields\",\"toPort\":\"source:DbxUser:MemberEligibilityData:\",\"visible\":true,\"common\":false,\"__gohashid\":377},{\"from\":\"source:DbxUser:fields\",\"to\":\"source:DbxUser:Is_BBOA:\",\"fromPort\":\"source:DbxUser:fields\",\"toPort\":\"source:DbxUser:Is_BBOA:\",\"visible\":true,\"common\":false,\"__gohashid\":378},{\"from\":\"source:DbxUser:fields\",\"to\":\"source:DbxUser:MaritalStatus_id:\",\"fromPort\":\"source:DbxUser:fields\",\"toPort\":\"source:DbxUser:MaritalStatus_id:\",\"visible\":true,\"common\":false,\"__gohashid\":379},{\"from\":\"source:DbxUser:fields\",\"to\":\"source:DbxUser:SpouseName:\",\"fromPort\":\"source:DbxUser:fields\",\"toPort\":\"source:DbxUser:SpouseName:\",\"visible\":true,\"common\":false,\"__gohashid\":380},{\"from\":\"source:DbxUser:fields\",\"to\":\"source:DbxUser:NoOfDependents:\",\"fromPort\":\"source:DbxUser:fields\",\"toPort\":\"source:DbxUser:NoOfDependents:\",\"visible\":true,\"common\":false,\"__gohashid\":381},{\"from\":\"source:DbxUser:fields\",\"to\":\"source:DbxUser:EmployementStatus_id:\",\"fromPort\":\"source:DbxUser:fields\",\"toPort\":\"source:DbxUser:EmployementStatus_id:\",\"visible\":true,\"common\":false,\"__gohashid\":382},{\"from\":\"source:DbxUser:fields\",\"to\":\"source:DbxUser:CurrentLoginTime:\",\"fromPort\":\"source:DbxUser:fields\",\"toPort\":\"source:DbxUser:CurrentLoginTime:\",\"visible\":true,\"common\":false,\"__gohashid\":383},{\"from\":\"source:DbxUser:fields\",\"to\":\"source:DbxUser:Lastlogintime:\",\"fromPort\":\"source:DbxUser:fields\",\"toPort\":\"source:DbxUser:Lastlogintime:\",\"visible\":true,\"common\":false,\"__gohashid\":384},{\"from\":\"source:DbxUser:fields\",\"to\":\"source:DbxUser:CreditUnionMemberSince:\",\"fromPort\":\"source:DbxUser:fields\",\"toPort\":\"source:DbxUser:CreditUnionMemberSince:\",\"visible\":true,\"common\":false,\"__gohashid\":385},{\"from\":\"source:DbxUser:fields\",\"to\":\"source:DbxUser:AtionProfile_id:\",\"fromPort\":\"source:DbxUser:fields\",\"toPort\":\"source:DbxUser:AtionProfile_id:\",\"visible\":true,\"common\":false,\"__gohashid\":386},{\"from\":\"source:DbxUser:fields\",\"to\":\"source:DbxUser:RegistrationLink:\",\"fromPort\":\"source:DbxUser:fields\",\"toPort\":\"source:DbxUser:RegistrationLink:\",\"visible\":true,\"common\":false,\"__gohashid\":387},{\"from\":\"source:DbxUser:fields\",\"to\":\"source:DbxUser:RegLinkResendCount:\",\"fromPort\":\"source:DbxUser:fields\",\"toPort\":\"source:DbxUser:RegLinkResendCount:\",\"visible\":true,\"common\":false,\"__gohashid\":388},{\"from\":\"source:DbxUser:fields\",\"to\":\"source:DbxUser:RegLinkValidity:\",\"fromPort\":\"source:DbxUser:fields\",\"toPort\":\"source:DbxUser:RegLinkValidity:\",\"visible\":true,\"common\":false,\"__gohashid\":389},{\"from\":\"source:DbxUser:fields\",\"to\":\"source:DbxUser:IsAssistConsented:\",\"fromPort\":\"source:DbxUser:fields\",\"toPort\":\"source:DbxUser:IsAssistConsented:\",\"visible\":true,\"common\":false,\"__gohashid\":390},{\"from\":\"source:DbxUser:fields\",\"to\":\"source:DbxUser:areDepositTermsAccepted:\",\"fromPort\":\"source:DbxUser:fields\",\"toPort\":\"source:DbxUser:areDepositTermsAccepted:\",\"visible\":true,\"common\":false,\"__gohashid\":391},{\"from\":\"source:DbxUser:fields\",\"to\":\"source:DbxUser:areAccountStatementTermsAccepted:\",\"fromPort\":\"source:DbxUser:fields\",\"toPort\":\"source:DbxUser:areAccountStatementTermsAccepted:\",\"visible\":true,\"common\":false,\"__gohashid\":392},{\"from\":\"source:DbxUser:fields\",\"to\":\"source:DbxUser:areUserAlertsTurnedOn:\",\"fromPort\":\"source:DbxUser:fields\",\"toPort\":\"source:DbxUser:areUserAlertsTurnedOn:\",\"visible\":true,\"common\":false,\"__gohashid\":393},{\"from\":\"source:DbxUser:fields\",\"to\":\"source:DbxUser:isBillPaySupported:\",\"fromPort\":\"source:DbxUser:fields\",\"toPort\":\"source:DbxUser:isBillPaySupported:\",\"visible\":true,\"common\":false,\"__gohashid\":394},{\"from\":\"source:DbxUser:fields\",\"to\":\"source:DbxUser:isBillPayActivated:\",\"fromPort\":\"source:DbxUser:fields\",\"toPort\":\"source:DbxUser:isBillPayActivated:\",\"visible\":true,\"common\":false,\"__gohashid\":395},{\"from\":\"source:DbxUser:fields\",\"to\":\"source:DbxUser:isP2PSupported:\",\"fromPort\":\"source:DbxUser:fields\",\"toPort\":\"source:DbxUser:isP2PSupported:\",\"visible\":true,\"common\":false,\"__gohashid\":396},{\"from\":\"source:DbxUser:fields\",\"to\":\"source:DbxUser:isP2PActivated:\",\"fromPort\":\"source:DbxUser:fields\",\"toPort\":\"source:DbxUser:isP2PActivated:\",\"visible\":true,\"common\":false,\"__gohashid\":397},{\"from\":\"source:DbxUser:fields\",\"to\":\"source:DbxUser:isWireTransferEligible:\",\"fromPort\":\"source:DbxUser:fields\",\"toPort\":\"source:DbxUser:isWireTransferEligible:\",\"visible\":true,\"common\":false,\"__gohashid\":398},{\"from\":\"source:DbxUser:fields\",\"to\":\"source:DbxUser:isWireTransferActivated:\",\"fromPort\":\"source:DbxUser:fields\",\"toPort\":\"source:DbxUser:isWireTransferActivated:\",\"visible\":true,\"common\":false,\"__gohashid\":399},{\"from\":\"source:DbxUser:fields\",\"to\":\"source:DbxUser:createdby:\",\"fromPort\":\"source:DbxUser:fields\",\"toPort\":\"source:DbxUser:createdby:\",\"visible\":true,\"common\":false,\"__gohashid\":400},{\"from\":\"source:DbxUser:fields\",\"to\":\"source:DbxUser:modifiedby:\",\"fromPort\":\"source:DbxUser:fields\",\"toPort\":\"source:DbxUser:modifiedby:\",\"visible\":true,\"common\":false,\"__gohashid\":401},{\"from\":\"source:DbxUser:fields\",\"to\":\"source:DbxUser:createdts:\",\"fromPort\":\"source:DbxUser:fields\",\"toPort\":\"source:DbxUser:createdts:\",\"visible\":true,\"common\":false,\"__gohashid\":402},{\"from\":\"source:DbxUser:fields\",\"to\":\"source:DbxUser:lastmodifiedts:\",\"fromPort\":\"source:DbxUser:fields\",\"toPort\":\"source:DbxUser:lastmodifiedts:\",\"visible\":true,\"common\":false,\"__gohashid\":403},{\"from\":\"source:DbxUser:fields\",\"to\":\"source:DbxUser:synctimestamp:\",\"fromPort\":\"source:DbxUser:fields\",\"toPort\":\"source:DbxUser:synctimestamp:\",\"visible\":true,\"common\":false,\"__gohashid\":404},{\"from\":\"source:DbxUser:fields\",\"to\":\"source:DbxUser:softdeleteflag:\",\"fromPort\":\"source:DbxUser:fields\",\"toPort\":\"source:DbxUser:softdeleteflag:\",\"visible\":true,\"common\":false,\"__gohashid\":405},{\"from\":\"source:DbxUser:fields\",\"to\":\"source:DbxUser:securityKey:\",\"fromPort\":\"source:DbxUser:fields\",\"toPort\":\"source:DbxUser:securityKey:\",\"visible\":true,\"common\":false,\"__gohashid\":406},{\"from\":\"source:DbxUser:fields\",\"to\":\"source:DbxUser:Phone:\",\"fromPort\":\"source:DbxUser:fields\",\"toPort\":\"source:DbxUser:Phone:\",\"visible\":true,\"common\":false,\"__gohashid\":407},{\"from\":\"source:DbxUser:fields\",\"to\":\"source:DbxUser:Email:\",\"fromPort\":\"source:DbxUser:fields\",\"toPort\":\"source:DbxUser:Email:\",\"visible\":true,\"common\":false,\"__gohashid\":408},{\"from\":\"source:DbxUser:fields\",\"to\":\"source:DbxUser:Result:\",\"fromPort\":\"source:DbxUser:fields\",\"toPort\":\"source:DbxUser:Result:\",\"visible\":true,\"common\":false,\"__gohashid\":409},{\"from\":\"source:DbxUser:fields\",\"to\":\"source:DbxUser:errMessage:\",\"fromPort\":\"source:DbxUser:fields\",\"toPort\":\"source:DbxUser:errMessage:\",\"visible\":true,\"common\":false,\"__gohashid\":410},{\"from\":\"source:DbxUser:fields\",\"to\":\"source:DbxUser:errCode:\",\"fromPort\":\"source:DbxUser:fields\",\"toPort\":\"source:DbxUser:errCode:\",\"visible\":true,\"common\":false,\"__gohashid\":411},{\"from\":\"source:DbxUser:fields\",\"to\":\"source:DbxUser:message:\",\"fromPort\":\"source:DbxUser:fields\",\"toPort\":\"source:DbxUser:message:\",\"visible\":true,\"common\":false,\"__gohashid\":412},{\"from\":\"source:DbxUser:fields\",\"to\":\"source:DbxUser:error:\",\"fromPort\":\"source:DbxUser:fields\",\"toPort\":\"source:DbxUser:error:\",\"visible\":true,\"common\":false,\"__gohashid\":413},{\"from\":\"source:DbxUser:fields\",\"to\":\"source:DbxUser:errmsg:\",\"fromPort\":\"source:DbxUser:fields\",\"toPort\":\"source:DbxUser:errmsg:\",\"visible\":true,\"common\":false,\"__gohashid\":414},{\"from\":\"source:DbxUser:fields\",\"to\":\"source:DbxUser:MemberId:\",\"fromPort\":\"source:DbxUser:fields\",\"toPort\":\"source:DbxUser:MemberId:\",\"visible\":true,\"common\":false,\"__gohashid\":415},{\"from\":\"source:DbxUser:fields\",\"to\":\"source:DbxUser:IDMidentifier:\",\"fromPort\":\"source:DbxUser:fields\",\"toPort\":\"source:DbxUser:IDMidentifier:\",\"visible\":true,\"common\":false,\"__gohashid\":416},{\"from\":\"source:DbxUser:fields\",\"to\":\"source:DbxUser:errorMessage:\",\"fromPort\":\"source:DbxUser:fields\",\"toPort\":\"source:DbxUser:errorMessage:\",\"visible\":true,\"common\":false,\"__gohashid\":417},{\"from\":\"source:DbxUser:fields\",\"to\":\"source:DbxUser:errorCode:\",\"fromPort\":\"source:DbxUser:fields\",\"toPort\":\"source:DbxUser:errorCode:\",\"visible\":true,\"common\":false,\"__gohashid\":418},{\"from\":\"source:DbxUser:fields\",\"to\":\"source:DbxUser:lockedOn:\",\"fromPort\":\"source:DbxUser:fields\",\"toPort\":\"source:DbxUser:lockedOn:\",\"visible\":true,\"common\":false,\"__gohashid\":419},{\"from\":\"source:DbxUser:fields\",\"to\":\"source:DbxUser:Subscribe:\",\"fromPort\":\"source:DbxUser:fields\",\"toPort\":\"source:DbxUser:Subscribe:\",\"visible\":true,\"common\":false,\"__gohashid\":420},{\"from\":\"source:DbxUser:fields\",\"to\":\"source:DbxUser:Membership_id:\",\"fromPort\":\"source:DbxUser:fields\",\"toPort\":\"source:DbxUser:Membership_id:\",\"visible\":true,\"common\":false,\"__gohashid\":421},{\"from\":\"source:DbxUser:fields\",\"to\":\"source:DbxUser:Taxid:\",\"fromPort\":\"source:DbxUser:fields\",\"toPort\":\"source:DbxUser:Taxid:\",\"visible\":true,\"common\":false,\"__gohashid\":422},{\"from\":\"source:DbxUser:fields\",\"to\":\"source:DbxUser:Customer_id:\",\"fromPort\":\"source:DbxUser:fields\",\"toPort\":\"source:DbxUser:Customer_id:\",\"visible\":true,\"common\":false,\"__gohashid\":423},{\"from\":\"source:DbxUser:fields\",\"to\":\"source:DbxUser:accounts:\",\"fromPort\":\"source:DbxUser:fields\",\"toPort\":\"source:DbxUser:accounts:\",\"visible\":true,\"common\":false,\"__gohashid\":424},{\"from\":\"source:DbxUser:fields\",\"to\":\"source:DbxUser:services:\",\"fromPort\":\"source:DbxUser:fields\",\"toPort\":\"source:DbxUser:services:\",\"visible\":true,\"common\":false,\"__gohashid\":425},{\"from\":\"source:DbxUser:fields\",\"to\":\"source:DbxUser:Role_id:\",\"fromPort\":\"source:DbxUser:fields\",\"toPort\":\"source:DbxUser:Role_id:\",\"visible\":true,\"common\":false,\"__gohashid\":426},{\"from\":\"source:DbxUser:fields\",\"to\":\"source:DbxUser:customeraccounts:\",\"fromPort\":\"source:DbxUser:fields\",\"toPort\":\"source:DbxUser:customeraccounts:\",\"visible\":true,\"common\":false,\"__gohashid\":427},{\"from\":\"source:DbxUser:fields\",\"to\":\"source:DbxUser:DrivingLicenseNumber:\",\"fromPort\":\"source:DbxUser:fields\",\"toPort\":\"source:DbxUser:DrivingLicenseNumber:\",\"visible\":true,\"common\":false,\"__gohashid\":428},{\"from\":\"source:DbxUser:fields\",\"to\":\"source:DbxUser:EAgreementRequired:\",\"fromPort\":\"source:DbxUser:fields\",\"toPort\":\"source:DbxUser:EAgreementRequired:\",\"visible\":true,\"common\":false,\"__gohashid\":429},{\"from\":\"source:DbxUser:fields\",\"to\":\"source:DbxUser:doNotSendOTP:\",\"fromPort\":\"source:DbxUser:fields\",\"toPort\":\"source:DbxUser:doNotSendOTP:\",\"visible\":true,\"common\":false,\"__gohashid\":430},{\"from\":\"source:DbxUser:fields\",\"to\":\"source:DbxUser:redirectLink:\",\"fromPort\":\"source:DbxUser:fields\",\"toPort\":\"source:DbxUser:redirectLink:\",\"visible\":true,\"common\":false,\"__gohashid\":431},{\"from\":\"source:DbxUser:fields\",\"to\":\"source:DbxUser:Organization_id:\",\"fromPort\":\"source:DbxUser:fields\",\"toPort\":\"source:DbxUser:Organization_id:\",\"visible\":true,\"common\":false,\"__gohashid\":432},{\"from\":\"source:DbxUser:fields\",\"to\":\"source:DbxUser:isEAgreementRequired:\",\"fromPort\":\"source:DbxUser:fields\",\"toPort\":\"source:DbxUser:isEAgreementRequired:\",\"visible\":true,\"common\":false,\"__gohashid\":433},{\"from\":\"source:DbxUser:fields\",\"to\":\"source:DbxUser:isEagreementSigned:\",\"fromPort\":\"source:DbxUser:fields\",\"toPort\":\"source:DbxUser:isEagreementSigned:\",\"visible\":true,\"common\":false,\"__gohashid\":434},{\"from\":\"source:DbxUser:fields\",\"to\":\"source:DbxUser:opCode:\",\"fromPort\":\"source:DbxUser:fields\",\"toPort\":\"source:DbxUser:opCode:\",\"visible\":true,\"common\":false,\"__gohashid\":435},{\"from\":\"source:DbxUser:fields\",\"to\":\"source:DbxUser:opMessage:\",\"fromPort\":\"source:DbxUser:fields\",\"toPort\":\"source:DbxUser:opMessage:\",\"visible\":true,\"common\":false,\"__gohashid\":436},{\"from\":\"source:DbxUser:fields\",\"to\":\"source:DbxUser:MessageType:\",\"fromPort\":\"source:DbxUser:fields\",\"toPort\":\"source:DbxUser:MessageType:\",\"visible\":true,\"common\":false,\"__gohashid\":437},{\"from\":\"source:DbxUser:fields\",\"to\":\"source:DbxUser:SendToMobiles:\",\"fromPort\":\"source:DbxUser:fields\",\"toPort\":\"source:DbxUser:SendToMobiles:\",\"visible\":true,\"common\":false,\"__gohashid\":438},{\"from\":\"source:DbxUser:fields\",\"to\":\"source:DbxUser:membershipID:\",\"fromPort\":\"source:DbxUser:fields\",\"toPort\":\"source:DbxUser:membershipID:\",\"visible\":true,\"common\":false,\"__gohashid\":439},{\"from\":\"target\",\"to\":\"target:parameters\",\"fromPort\":\"target\",\"toPort\":\"target:parameters\",\"visible\":true,\"common\":false,\"__gohashid\":440},{\"from\":\"target:parameters\",\"to\":\"target:Address:\",\"fromPort\":\"target:parameters\",\"toPort\":\"target:Address:\",\"visible\":true,\"common\":false,\"__gohashid\":441},{\"from\":\"target:parameters\",\"to\":\"target:CustomerAddress:\",\"fromPort\":\"target:parameters\",\"toPort\":\"target:CustomerAddress:\",\"visible\":true,\"common\":false,\"__gohashid\":442},{\"from\":\"target:parameters\",\"to\":\"target:DateOfBirth:\",\"fromPort\":\"target:parameters\",\"toPort\":\"target:DateOfBirth:\",\"visible\":true,\"common\":false,\"__gohashid\":443},{\"from\":\"target:parameters\",\"to\":\"target:Email:\",\"fromPort\":\"target:parameters\",\"toPort\":\"target:Email:\",\"visible\":true,\"common\":false,\"__gohashid\":444},{\"from\":\"target:parameters\",\"to\":\"target:EmployementDetails:\",\"fromPort\":\"target:parameters\",\"toPort\":\"target:EmployementDetails:\",\"visible\":true,\"common\":false,\"__gohashid\":445},{\"from\":\"target:parameters\",\"to\":\"target:FirstName:\",\"fromPort\":\"target:parameters\",\"toPort\":\"target:FirstName:\",\"visible\":true,\"common\":false,\"__gohashid\":446},{\"from\":\"target:parameters\",\"to\":\"target:id:\",\"fromPort\":\"target:parameters\",\"toPort\":\"target:id:\",\"visible\":true,\"common\":false,\"__gohashid\":447},{\"from\":\"target:parameters\",\"to\":\"target:LastName:\",\"fromPort\":\"target:parameters\",\"toPort\":\"target:LastName:\",\"visible\":true,\"common\":false,\"__gohashid\":448},{\"from\":\"target:parameters\",\"to\":\"target:MiddleName:\",\"fromPort\":\"target:parameters\",\"toPort\":\"target:MiddleName:\",\"visible\":true,\"common\":false,\"__gohashid\":449},{\"from\":\"target:parameters\",\"to\":\"target:OthersourceOfIncome:\",\"fromPort\":\"target:parameters\",\"toPort\":\"target:OthersourceOfIncome:\",\"visible\":true,\"common\":false,\"__gohashid\":450},{\"from\":\"target:parameters\",\"to\":\"target:Phone:\",\"fromPort\":\"target:parameters\",\"toPort\":\"target:Phone:\",\"visible\":true,\"common\":false,\"__gohashid\":451},{\"from\":\"target:parameters\",\"to\":\"target:PreferredContactMethod:\",\"fromPort\":\"target:parameters\",\"toPort\":\"target:PreferredContactMethod:\",\"visible\":true,\"common\":false,\"__gohashid\":452},{\"from\":\"target:parameters\",\"to\":\"target:Ssn:\",\"fromPort\":\"target:parameters\",\"toPort\":\"target:Ssn:\",\"visible\":true,\"common\":false,\"__gohashid\":453}],\"blockCount\":{\"variableCount\":0},\"variableMap\":{},\"xmlMappingOverride\":true}",
    "oVisualMappingData" : "{\"nodeDataArray\":[{\"isGroup\":true,\"key\":\"response_out\",\"text\":\"DbxUser\",\"xy\":\"770 100\",\"__gohashid\":12314},{\"isGroup\":true,\"key\":\"response_in\",\"text\":\"dbpRbLocalServicesJava (1.0).updateCustomerProfile\",\"xy\":\"150 100\",\"__gohashid\":12315}],\"linkDataArray\":[{\"from\":\"target\",\"to\":\"target:DbxUser\",\"fromPort\":\"target\",\"toPort\":\"target:DbxUser\",\"visible\":true,\"common\":false,\"__gohashid\":640},{\"from\":\"target:DbxUser\",\"to\":\"target:DbxUser:fields\",\"fromPort\":\"target:DbxUser\",\"toPort\":\"target:DbxUser:fields\",\"visible\":true,\"common\":false,\"__gohashid\":641},{\"from\":\"target:DbxUser:fields\",\"to\":\"target:DbxUser:id:\",\"fromPort\":\"target:DbxUser:fields\",\"toPort\":\"target:DbxUser:id:\",\"visible\":true,\"common\":false,\"__gohashid\":642},{\"from\":\"target:DbxUser:fields\",\"to\":\"target:DbxUser:IDValue:\",\"fromPort\":\"target:DbxUser:fields\",\"toPort\":\"target:DbxUser:IDValue:\",\"visible\":true,\"common\":false,\"__gohashid\":643},{\"from\":\"target:DbxUser:fields\",\"to\":\"target:DbxUser:IDType_id:\",\"fromPort\":\"target:DbxUser:fields\",\"toPort\":\"target:DbxUser:IDType_id:\",\"visible\":true,\"common\":false,\"__gohashid\":644},{\"from\":\"target:DbxUser:fields\",\"to\":\"target:DbxUser:UserName:\",\"fromPort\":\"target:DbxUser:fields\",\"toPort\":\"target:DbxUser:UserName:\",\"visible\":true,\"common\":false,\"__gohashid\":645},{\"from\":\"target:DbxUser:fields\",\"to\":\"target:DbxUser:Password:\",\"fromPort\":\"target:DbxUser:fields\",\"toPort\":\"target:DbxUser:Password:\",\"visible\":true,\"common\":false,\"__gohashid\":646},{\"from\":\"target:DbxUser:fields\",\"to\":\"target:DbxUser:IsCoreIdentityScope:\",\"fromPort\":\"target:DbxUser:fields\",\"toPort\":\"target:DbxUser:IsCoreIdentityScope:\",\"visible\":true,\"common\":false,\"__gohashid\":647},{\"from\":\"target:DbxUser:fields\",\"to\":\"target:DbxUser:Salutation:\",\"fromPort\":\"target:DbxUser:fields\",\"toPort\":\"target:DbxUser:Salutation:\",\"visible\":true,\"common\":false,\"__gohashid\":648},{\"from\":\"target:DbxUser:fields\",\"to\":\"target:DbxUser:FirstName:\",\"fromPort\":\"target:DbxUser:fields\",\"toPort\":\"target:DbxUser:FirstName:\",\"visible\":true,\"common\":false,\"__gohashid\":649},{\"from\":\"target:DbxUser:fields\",\"to\":\"target:DbxUser:MiddleName:\",\"fromPort\":\"target:DbxUser:fields\",\"toPort\":\"target:DbxUser:MiddleName:\",\"visible\":true,\"common\":false,\"__gohashid\":650},{\"from\":\"target:DbxUser:fields\",\"to\":\"target:DbxUser:LastName:\",\"fromPort\":\"target:DbxUser:fields\",\"toPort\":\"target:DbxUser:LastName:\",\"visible\":true,\"common\":false,\"__gohashid\":651},{\"from\":\"target:DbxUser:fields\",\"to\":\"target:DbxUser:FullName:\",\"fromPort\":\"target:DbxUser:fields\",\"toPort\":\"target:DbxUser:FullName:\",\"visible\":true,\"common\":false,\"__gohashid\":652},{\"from\":\"target:DbxUser:fields\",\"to\":\"target:DbxUser:Gender:\",\"fromPort\":\"target:DbxUser:fields\",\"toPort\":\"target:DbxUser:Gender:\",\"visible\":true,\"common\":false,\"__gohashid\":653},{\"from\":\"target:DbxUser:fields\",\"to\":\"target:DbxUser:DateOfBirth:\",\"fromPort\":\"target:DbxUser:fields\",\"toPort\":\"target:DbxUser:DateOfBirth:\",\"visible\":true,\"common\":false,\"__gohashid\":654},{\"from\":\"target:DbxUser:fields\",\"to\":\"target:DbxUser:Ssn:\",\"fromPort\":\"target:DbxUser:fields\",\"toPort\":\"target:DbxUser:Ssn:\",\"visible\":true,\"common\":false,\"__gohashid\":655},{\"from\":\"target:DbxUser:fields\",\"to\":\"target:DbxUser:CustomerType_id:\",\"fromPort\":\"target:DbxUser:fields\",\"toPort\":\"target:DbxUser:CustomerType_id:\",\"visible\":true,\"common\":false,\"__gohashid\":656},{\"from\":\"target:DbxUser:fields\",\"to\":\"target:DbxUser:CustomerType:\",\"fromPort\":\"target:DbxUser:fields\",\"toPort\":\"target:DbxUser:CustomerType:\",\"visible\":true,\"common\":false,\"__gohashid\":657},{\"from\":\"target:DbxUser:fields\",\"to\":\"target:DbxUser:Status_id:\",\"fromPort\":\"target:DbxUser:fields\",\"toPort\":\"target:DbxUser:Status_id:\",\"visible\":true,\"common\":false,\"__gohashid\":658},{\"from\":\"target:DbxUser:fields\",\"to\":\"target:DbxUser:Status:\",\"fromPort\":\"target:DbxUser:fields\",\"toPort\":\"target:DbxUser:Status:\",\"visible\":true,\"common\":false,\"__gohashid\":659},{\"from\":\"target:DbxUser:fields\",\"to\":\"target:DbxUser:success:\",\"fromPort\":\"target:DbxUser:fields\",\"toPort\":\"target:DbxUser:success:\",\"visible\":true,\"common\":false,\"__gohashid\":660},{\"from\":\"target:DbxUser:fields\",\"to\":\"target:DbxUser:IsPhoneEnabled:\",\"fromPort\":\"target:DbxUser:fields\",\"toPort\":\"target:DbxUser:IsPhoneEnabled:\",\"visible\":true,\"common\":false,\"__gohashid\":661},{\"from\":\"target:DbxUser:fields\",\"to\":\"target:DbxUser:IsEmailEnabled:\",\"fromPort\":\"target:DbxUser:fields\",\"toPort\":\"target:DbxUser:IsEmailEnabled:\",\"visible\":true,\"common\":false,\"__gohashid\":662},{\"from\":\"target:DbxUser:fields\",\"to\":\"target:DbxUser:IsStaffMember:\",\"fromPort\":\"target:DbxUser:fields\",\"toPort\":\"target:DbxUser:IsStaffMember:\",\"visible\":true,\"common\":false,\"__gohashid\":663},{\"from\":\"target:DbxUser:fields\",\"to\":\"target:DbxUser:isSuperAdmin:\",\"fromPort\":\"target:DbxUser:fields\",\"toPort\":\"target:DbxUser:isSuperAdmin:\",\"visible\":true,\"common\":false,\"__gohashid\":664},{\"from\":\"target:DbxUser:fields\",\"to\":\"target:DbxUser:Role:\",\"fromPort\":\"target:DbxUser:fields\",\"toPort\":\"target:DbxUser:Role:\",\"visible\":true,\"common\":false,\"__gohashid\":665},{\"from\":\"target:DbxUser:fields\",\"to\":\"target:DbxUser:SecurityImage_id:\",\"fromPort\":\"target:DbxUser:fields\",\"toPort\":\"target:DbxUser:SecurityImage_id:\",\"visible\":true,\"common\":false,\"__gohashid\":666},{\"from\":\"target:DbxUser:fields\",\"to\":\"target:DbxUser:IsPinSet:\",\"fromPort\":\"target:DbxUser:fields\",\"toPort\":\"target:DbxUser:IsPinSet:\",\"visible\":true,\"common\":false,\"__gohashid\":667},{\"from\":\"target:DbxUser:fields\",\"to\":\"target:DbxUser:Pin:\",\"fromPort\":\"target:DbxUser:fields\",\"toPort\":\"target:DbxUser:Pin:\",\"visible\":true,\"common\":false,\"__gohashid\":668},{\"from\":\"target:DbxUser:fields\",\"to\":\"target:DbxUser:Token:\",\"fromPort\":\"target:DbxUser:fields\",\"toPort\":\"target:DbxUser:Token:\",\"visible\":true,\"common\":false,\"__gohashid\":669},{\"from\":\"target:DbxUser:fields\",\"to\":\"target:DbxUser:Otp:\",\"fromPort\":\"target:DbxUser:fields\",\"toPort\":\"target:DbxUser:Otp:\",\"visible\":true,\"common\":false,\"__gohashid\":670},{\"from\":\"target:DbxUser:fields\",\"to\":\"target:DbxUser:OtpGenaratedts:\",\"fromPort\":\"target:DbxUser:fields\",\"toPort\":\"target:DbxUser:OtpGenaratedts:\",\"visible\":true,\"common\":false,\"__gohashid\":671},{\"from\":\"target:DbxUser:fields\",\"to\":\"target:DbxUser:ValidDate:\",\"fromPort\":\"target:DbxUser:fields\",\"toPort\":\"target:DbxUser:ValidDate:\",\"visible\":true,\"common\":false,\"__gohashid\":672},{\"from\":\"target:DbxUser:fields\",\"to\":\"target:DbxUser:unsuccessfulLoginAttempts:\",\"fromPort\":\"target:DbxUser:fields\",\"toPort\":\"target:DbxUser:unsuccessfulLoginAttempts:\",\"visible\":true,\"common\":false,\"__gohashid\":673},{\"from\":\"target:DbxUser:fields\",\"to\":\"target:DbxUser:isUserAccountLocked:\",\"fromPort\":\"target:DbxUser:fields\",\"toPort\":\"target:DbxUser:isUserAccountLocked:\",\"visible\":true,\"common\":false,\"__gohashid\":674},{\"from\":\"target:DbxUser:fields\",\"to\":\"target:DbxUser:UserImage:\",\"fromPort\":\"target:DbxUser:fields\",\"toPort\":\"target:DbxUser:UserImage:\",\"visible\":true,\"common\":false,\"__gohashid\":675},{\"from\":\"target:DbxUser:fields\",\"to\":\"target:DbxUser:UserImageURL:\",\"fromPort\":\"target:DbxUser:fields\",\"toPort\":\"target:DbxUser:UserImageURL:\",\"visible\":true,\"common\":false,\"__gohashid\":676},{\"from\":\"target:DbxUser:fields\",\"to\":\"target:DbxUser:CountryCode:\",\"fromPort\":\"target:DbxUser:fields\",\"toPort\":\"target:DbxUser:CountryCode:\",\"visible\":true,\"common\":false,\"__gohashid\":677},{\"from\":\"target:DbxUser:fields\",\"to\":\"target:DbxUser:Location_id:\",\"fromPort\":\"target:DbxUser:fields\",\"toPort\":\"target:DbxUser:Location_id:\",\"visible\":true,\"common\":false,\"__gohashid\":678},{\"from\":\"target:DbxUser:fields\",\"to\":\"target:DbxUser:IsOlbAllowed:\",\"fromPort\":\"target:DbxUser:fields\",\"toPort\":\"target:DbxUser:IsOlbAllowed:\",\"visible\":true,\"common\":false,\"__gohashid\":679},{\"from\":\"target:DbxUser:fields\",\"to\":\"target:DbxUser:OlbEnrolmentStatus_id:\",\"fromPort\":\"target:DbxUser:fields\",\"toPort\":\"target:DbxUser:OlbEnrolmentStatus_id:\",\"visible\":true,\"common\":false,\"__gohashid\":680},{\"from\":\"target:DbxUser:fields\",\"to\":\"target:DbxUser:isEnrolled:\",\"fromPort\":\"target:DbxUser:fields\",\"toPort\":\"target:DbxUser:isEnrolled:\",\"visible\":true,\"common\":false,\"__gohashid\":681},{\"from\":\"target:DbxUser:fields\",\"to\":\"target:DbxUser:Is_MemberEligibile:\",\"fromPort\":\"target:DbxUser:fields\",\"toPort\":\"target:DbxUser:Is_MemberEligibile:\",\"visible\":true,\"common\":false,\"__gohashid\":682},{\"from\":\"target:DbxUser:fields\",\"to\":\"target:DbxUser:MemberEligibilityData:\",\"fromPort\":\"target:DbxUser:fields\",\"toPort\":\"target:DbxUser:MemberEligibilityData:\",\"visible\":true,\"common\":false,\"__gohashid\":683},{\"from\":\"target:DbxUser:fields\",\"to\":\"target:DbxUser:Is_BBOA:\",\"fromPort\":\"target:DbxUser:fields\",\"toPort\":\"target:DbxUser:Is_BBOA:\",\"visible\":true,\"common\":false,\"__gohashid\":684},{\"from\":\"target:DbxUser:fields\",\"to\":\"target:DbxUser:MaritalStatus_id:\",\"fromPort\":\"target:DbxUser:fields\",\"toPort\":\"target:DbxUser:MaritalStatus_id:\",\"visible\":true,\"common\":false,\"__gohashid\":685},{\"from\":\"target:DbxUser:fields\",\"to\":\"target:DbxUser:SpouseName:\",\"fromPort\":\"target:DbxUser:fields\",\"toPort\":\"target:DbxUser:SpouseName:\",\"visible\":true,\"common\":false,\"__gohashid\":686},{\"from\":\"target:DbxUser:fields\",\"to\":\"target:DbxUser:NoOfDependents:\",\"fromPort\":\"target:DbxUser:fields\",\"toPort\":\"target:DbxUser:NoOfDependents:\",\"visible\":true,\"common\":false,\"__gohashid\":687},{\"from\":\"target:DbxUser:fields\",\"to\":\"target:DbxUser:EmployementStatus_id:\",\"fromPort\":\"target:DbxUser:fields\",\"toPort\":\"target:DbxUser:EmployementStatus_id:\",\"visible\":true,\"common\":false,\"__gohashid\":688},{\"from\":\"target:DbxUser:fields\",\"to\":\"target:DbxUser:CurrentLoginTime:\",\"fromPort\":\"target:DbxUser:fields\",\"toPort\":\"target:DbxUser:CurrentLoginTime:\",\"visible\":true,\"common\":false,\"__gohashid\":689},{\"from\":\"target:DbxUser:fields\",\"to\":\"target:DbxUser:Lastlogintime:\",\"fromPort\":\"target:DbxUser:fields\",\"toPort\":\"target:DbxUser:Lastlogintime:\",\"visible\":true,\"common\":false,\"__gohashid\":690},{\"from\":\"target:DbxUser:fields\",\"to\":\"target:DbxUser:CreditUnionMemberSince:\",\"fromPort\":\"target:DbxUser:fields\",\"toPort\":\"target:DbxUser:CreditUnionMemberSince:\",\"visible\":true,\"common\":false,\"__gohashid\":691},{\"from\":\"target:DbxUser:fields\",\"to\":\"target:DbxUser:AtionProfile_id:\",\"fromPort\":\"target:DbxUser:fields\",\"toPort\":\"target:DbxUser:AtionProfile_id:\",\"visible\":true,\"common\":false,\"__gohashid\":692},{\"from\":\"target:DbxUser:fields\",\"to\":\"target:DbxUser:RegistrationLink:\",\"fromPort\":\"target:DbxUser:fields\",\"toPort\":\"target:DbxUser:RegistrationLink:\",\"visible\":true,\"common\":false,\"__gohashid\":693},{\"from\":\"target:DbxUser:fields\",\"to\":\"target:DbxUser:RegLinkResendCount:\",\"fromPort\":\"target:DbxUser:fields\",\"toPort\":\"target:DbxUser:RegLinkResendCount:\",\"visible\":true,\"common\":false,\"__gohashid\":694},{\"from\":\"target:DbxUser:fields\",\"to\":\"target:DbxUser:RegLinkValidity:\",\"fromPort\":\"target:DbxUser:fields\",\"toPort\":\"target:DbxUser:RegLinkValidity:\",\"visible\":true,\"common\":false,\"__gohashid\":695},{\"from\":\"target:DbxUser:fields\",\"to\":\"target:DbxUser:IsAssistConsented:\",\"fromPort\":\"target:DbxUser:fields\",\"toPort\":\"target:DbxUser:IsAssistConsented:\",\"visible\":true,\"common\":false,\"__gohashid\":696},{\"from\":\"target:DbxUser:fields\",\"to\":\"target:DbxUser:areDepositTermsAccepted:\",\"fromPort\":\"target:DbxUser:fields\",\"toPort\":\"target:DbxUser:areDepositTermsAccepted:\",\"visible\":true,\"common\":false,\"__gohashid\":697},{\"from\":\"target:DbxUser:fields\",\"to\":\"target:DbxUser:areAccountStatementTermsAccepted:\",\"fromPort\":\"target:DbxUser:fields\",\"toPort\":\"target:DbxUser:areAccountStatementTermsAccepted:\",\"visible\":true,\"common\":false,\"__gohashid\":698},{\"from\":\"target:DbxUser:fields\",\"to\":\"target:DbxUser:areUserAlertsTurnedOn:\",\"fromPort\":\"target:DbxUser:fields\",\"toPort\":\"target:DbxUser:areUserAlertsTurnedOn:\",\"visible\":true,\"common\":false,\"__gohashid\":699},{\"from\":\"target:DbxUser:fields\",\"to\":\"target:DbxUser:isBillPaySupported:\",\"fromPort\":\"target:DbxUser:fields\",\"toPort\":\"target:DbxUser:isBillPaySupported:\",\"visible\":true,\"common\":false,\"__gohashid\":700},{\"from\":\"target:DbxUser:fields\",\"to\":\"target:DbxUser:isBillPayActivated:\",\"fromPort\":\"target:DbxUser:fields\",\"toPort\":\"target:DbxUser:isBillPayActivated:\",\"visible\":true,\"common\":false,\"__gohashid\":701},{\"from\":\"target:DbxUser:fields\",\"to\":\"target:DbxUser:isP2PSupported:\",\"fromPort\":\"target:DbxUser:fields\",\"toPort\":\"target:DbxUser:isP2PSupported:\",\"visible\":true,\"common\":false,\"__gohashid\":702},{\"from\":\"target:DbxUser:fields\",\"to\":\"target:DbxUser:isP2PActivated:\",\"fromPort\":\"target:DbxUser:fields\",\"toPort\":\"target:DbxUser:isP2PActivated:\",\"visible\":true,\"common\":false,\"__gohashid\":703},{\"from\":\"target:DbxUser:fields\",\"to\":\"target:DbxUser:isWireTransferEligible:\",\"fromPort\":\"target:DbxUser:fields\",\"toPort\":\"target:DbxUser:isWireTransferEligible:\",\"visible\":true,\"common\":false,\"__gohashid\":704},{\"from\":\"target:DbxUser:fields\",\"to\":\"target:DbxUser:isWireTransferActivated:\",\"fromPort\":\"target:DbxUser:fields\",\"toPort\":\"target:DbxUser:isWireTransferActivated:\",\"visible\":true,\"common\":false,\"__gohashid\":705},{\"from\":\"target:DbxUser:fields\",\"to\":\"target:DbxUser:createdby:\",\"fromPort\":\"target:DbxUser:fields\",\"toPort\":\"target:DbxUser:createdby:\",\"visible\":true,\"common\":false,\"__gohashid\":706},{\"from\":\"target:DbxUser:fields\",\"to\":\"target:DbxUser:modifiedby:\",\"fromPort\":\"target:DbxUser:fields\",\"toPort\":\"target:DbxUser:modifiedby:\",\"visible\":true,\"common\":false,\"__gohashid\":707},{\"from\":\"target:DbxUser:fields\",\"to\":\"target:DbxUser:createdts:\",\"fromPort\":\"target:DbxUser:fields\",\"toPort\":\"target:DbxUser:createdts:\",\"visible\":true,\"common\":false,\"__gohashid\":708},{\"from\":\"target:DbxUser:fields\",\"to\":\"target:DbxUser:lastmodifiedts:\",\"fromPort\":\"target:DbxUser:fields\",\"toPort\":\"target:DbxUser:lastmodifiedts:\",\"visible\":true,\"common\":false,\"__gohashid\":709},{\"from\":\"target:DbxUser:fields\",\"to\":\"target:DbxUser:synctimestamp:\",\"fromPort\":\"target:DbxUser:fields\",\"toPort\":\"target:DbxUser:synctimestamp:\",\"visible\":true,\"common\":false,\"__gohashid\":710},{\"from\":\"target:DbxUser:fields\",\"to\":\"target:DbxUser:softdeleteflag:\",\"fromPort\":\"target:DbxUser:fields\",\"toPort\":\"target:DbxUser:softdeleteflag:\",\"visible\":true,\"common\":false,\"__gohashid\":711},{\"from\":\"target:DbxUser:fields\",\"to\":\"target:DbxUser:securityKey:\",\"fromPort\":\"target:DbxUser:fields\",\"toPort\":\"target:DbxUser:securityKey:\",\"visible\":true,\"common\":false,\"__gohashid\":712},{\"from\":\"target:DbxUser:fields\",\"to\":\"target:DbxUser:Phone:\",\"fromPort\":\"target:DbxUser:fields\",\"toPort\":\"target:DbxUser:Phone:\",\"visible\":true,\"common\":false,\"__gohashid\":713},{\"from\":\"target:DbxUser:fields\",\"to\":\"target:DbxUser:Email:\",\"fromPort\":\"target:DbxUser:fields\",\"toPort\":\"target:DbxUser:Email:\",\"visible\":true,\"common\":false,\"__gohashid\":714},{\"from\":\"target:DbxUser:fields\",\"to\":\"target:DbxUser:Result:\",\"fromPort\":\"target:DbxUser:fields\",\"toPort\":\"target:DbxUser:Result:\",\"visible\":true,\"common\":false,\"__gohashid\":715},{\"from\":\"target:DbxUser:fields\",\"to\":\"target:DbxUser:errMessage:\",\"fromPort\":\"target:DbxUser:fields\",\"toPort\":\"target:DbxUser:errMessage:\",\"visible\":true,\"common\":false,\"__gohashid\":716},{\"from\":\"target:DbxUser:fields\",\"to\":\"target:DbxUser:errCode:\",\"fromPort\":\"target:DbxUser:fields\",\"toPort\":\"target:DbxUser:errCode:\",\"visible\":true,\"common\":false,\"__gohashid\":717},{\"from\":\"target:DbxUser:fields\",\"to\":\"target:DbxUser:message:\",\"fromPort\":\"target:DbxUser:fields\",\"toPort\":\"target:DbxUser:message:\",\"visible\":true,\"common\":false,\"__gohashid\":718},{\"from\":\"target:DbxUser:fields\",\"to\":\"target:DbxUser:error:\",\"fromPort\":\"target:DbxUser:fields\",\"toPort\":\"target:DbxUser:error:\",\"visible\":true,\"common\":false,\"__gohashid\":719},{\"from\":\"target:DbxUser:fields\",\"to\":\"target:DbxUser:errmsg:\",\"fromPort\":\"target:DbxUser:fields\",\"toPort\":\"target:DbxUser:errmsg:\",\"visible\":true,\"common\":false,\"__gohashid\":720},{\"from\":\"target:DbxUser:fields\",\"to\":\"target:DbxUser:MemberId:\",\"fromPort\":\"target:DbxUser:fields\",\"toPort\":\"target:DbxUser:MemberId:\",\"visible\":true,\"common\":false,\"__gohashid\":721},{\"from\":\"target:DbxUser:fields\",\"to\":\"target:DbxUser:IDMidentifier:\",\"fromPort\":\"target:DbxUser:fields\",\"toPort\":\"target:DbxUser:IDMidentifier:\",\"visible\":true,\"common\":false,\"__gohashid\":722},{\"from\":\"target:DbxUser:fields\",\"to\":\"target:DbxUser:errorMessage:\",\"fromPort\":\"target:DbxUser:fields\",\"toPort\":\"target:DbxUser:errorMessage:\",\"visible\":true,\"common\":false,\"__gohashid\":723},{\"from\":\"target:DbxUser:fields\",\"to\":\"target:DbxUser:errorCode:\",\"fromPort\":\"target:DbxUser:fields\",\"toPort\":\"target:DbxUser:errorCode:\",\"visible\":true,\"common\":false,\"__gohashid\":724},{\"from\":\"target:DbxUser:fields\",\"to\":\"target:DbxUser:lockedOn:\",\"fromPort\":\"target:DbxUser:fields\",\"toPort\":\"target:DbxUser:lockedOn:\",\"visible\":true,\"common\":false,\"__gohashid\":725},{\"from\":\"target:DbxUser:fields\",\"to\":\"target:DbxUser:Subscribe:\",\"fromPort\":\"target:DbxUser:fields\",\"toPort\":\"target:DbxUser:Subscribe:\",\"visible\":true,\"common\":false,\"__gohashid\":726},{\"from\":\"target:DbxUser:fields\",\"to\":\"target:DbxUser:Membership_id:\",\"fromPort\":\"target:DbxUser:fields\",\"toPort\":\"target:DbxUser:Membership_id:\",\"visible\":true,\"common\":false,\"__gohashid\":727},{\"from\":\"target:DbxUser:fields\",\"to\":\"target:DbxUser:Taxid:\",\"fromPort\":\"target:DbxUser:fields\",\"toPort\":\"target:DbxUser:Taxid:\",\"visible\":true,\"common\":false,\"__gohashid\":728},{\"from\":\"target:DbxUser:fields\",\"to\":\"target:DbxUser:Customer_id:\",\"fromPort\":\"target:DbxUser:fields\",\"toPort\":\"target:DbxUser:Customer_id:\",\"visible\":true,\"common\":false,\"__gohashid\":729},{\"from\":\"target:DbxUser:fields\",\"to\":\"target:DbxUser:accounts:\",\"fromPort\":\"target:DbxUser:fields\",\"toPort\":\"target:DbxUser:accounts:\",\"visible\":true,\"common\":false,\"__gohashid\":730},{\"from\":\"target:DbxUser:fields\",\"to\":\"target:DbxUser:services:\",\"fromPort\":\"target:DbxUser:fields\",\"toPort\":\"target:DbxUser:services:\",\"visible\":true,\"common\":false,\"__gohashid\":731},{\"from\":\"target:DbxUser:fields\",\"to\":\"target:DbxUser:Role_id:\",\"fromPort\":\"target:DbxUser:fields\",\"toPort\":\"target:DbxUser:Role_id:\",\"visible\":true,\"common\":false,\"__gohashid\":732},{\"from\":\"target:DbxUser:fields\",\"to\":\"target:DbxUser:customeraccounts:\",\"fromPort\":\"target:DbxUser:fields\",\"toPort\":\"target:DbxUser:customeraccounts:\",\"visible\":true,\"common\":false,\"__gohashid\":733},{\"from\":\"target:DbxUser:fields\",\"to\":\"target:DbxUser:DrivingLicenseNumber:\",\"fromPort\":\"target:DbxUser:fields\",\"toPort\":\"target:DbxUser:DrivingLicenseNumber:\",\"visible\":true,\"common\":false,\"__gohashid\":734},{\"from\":\"target:DbxUser:fields\",\"to\":\"target:DbxUser:EAgreementRequired:\",\"fromPort\":\"target:DbxUser:fields\",\"toPort\":\"target:DbxUser:EAgreementRequired:\",\"visible\":true,\"common\":false,\"__gohashid\":735},{\"from\":\"target:DbxUser:fields\",\"to\":\"target:DbxUser:doNotSendOTP:\",\"fromPort\":\"target:DbxUser:fields\",\"toPort\":\"target:DbxUser:doNotSendOTP:\",\"visible\":true,\"common\":false,\"__gohashid\":736},{\"from\":\"target:DbxUser:fields\",\"to\":\"target:DbxUser:redirectLink:\",\"fromPort\":\"target:DbxUser:fields\",\"toPort\":\"target:DbxUser:redirectLink:\",\"visible\":true,\"common\":false,\"__gohashid\":737},{\"from\":\"target:DbxUser:fields\",\"to\":\"target:DbxUser:Organization_id:\",\"fromPort\":\"target:DbxUser:fields\",\"toPort\":\"target:DbxUser:Organization_id:\",\"visible\":true,\"common\":false,\"__gohashid\":738},{\"from\":\"target:DbxUser:fields\",\"to\":\"target:DbxUser:isEAgreementRequired:\",\"fromPort\":\"target:DbxUser:fields\",\"toPort\":\"target:DbxUser:isEAgreementRequired:\",\"visible\":true,\"common\":false,\"__gohashid\":739},{\"from\":\"target:DbxUser:fields\",\"to\":\"target:DbxUser:isEagreementSigned:\",\"fromPort\":\"target:DbxUser:fields\",\"toPort\":\"target:DbxUser:isEagreementSigned:\",\"visible\":true,\"common\":false,\"__gohashid\":740},{\"from\":\"target:DbxUser:fields\",\"to\":\"target:DbxUser:opCode:\",\"fromPort\":\"target:DbxUser:fields\",\"toPort\":\"target:DbxUser:opCode:\",\"visible\":true,\"common\":false,\"__gohashid\":741},{\"from\":\"target:DbxUser:fields\",\"to\":\"target:DbxUser:opMessage:\",\"fromPort\":\"target:DbxUser:fields\",\"toPort\":\"target:DbxUser:opMessage:\",\"visible\":true,\"common\":false,\"__gohashid\":742},{\"from\":\"target:DbxUser:fields\",\"to\":\"target:DbxUser:MessageType:\",\"fromPort\":\"target:DbxUser:fields\",\"toPort\":\"target:DbxUser:MessageType:\",\"visible\":true,\"common\":false,\"__gohashid\":743},{\"from\":\"target:DbxUser:fields\",\"to\":\"target:DbxUser:SendToMobiles:\",\"fromPort\":\"target:DbxUser:fields\",\"toPort\":\"target:DbxUser:SendToMobiles:\",\"visible\":true,\"common\":false,\"__gohashid\":744},{\"from\":\"target:DbxUser:fields\",\"to\":\"target:DbxUser:membershipID:\",\"fromPort\":\"target:DbxUser:fields\",\"toPort\":\"target:DbxUser:membershipID:\",\"visible\":true,\"common\":false,\"__gohashid\":745},{\"from\":\"target:DbxUser:fields\",\"to\":\"target:DbxUser:isUserNameExists:\",\"fromPort\":\"target:DbxUser:fields\",\"toPort\":\"target:DbxUser:isUserNameExists:\",\"visible\":true,\"common\":false,\"__gohashid\":746},{\"from\":\"target:DbxUser:fields\",\"to\":\"target:DbxUser:isUserExists:\",\"fromPort\":\"target:DbxUser:fields\",\"toPort\":\"target:DbxUser:isUserExists:\",\"visible\":true,\"common\":false,\"__gohashid\":747},{\"from\":\"target:DbxUser:fields\",\"to\":\"target:DbxUser:dbpErrMsg:\",\"fromPort\":\"target:DbxUser:fields\",\"toPort\":\"target:DbxUser:dbpErrMsg:\",\"visible\":true,\"common\":false,\"__gohashid\":748},{\"from\":\"target:DbxUser:fields\",\"to\":\"target:DbxUser:dbpErrCode:\",\"fromPort\":\"target:DbxUser:fields\",\"toPort\":\"target:DbxUser:dbpErrCode:\",\"visible\":true,\"common\":false,\"__gohashid\":749},{\"from\":\"target:DbxUser:fields\",\"to\":\"target:DbxUser:MFAAttributes:\",\"fromPort\":\"target:DbxUser:fields\",\"toPort\":\"target:DbxUser:MFAAttributes:\",\"visible\":true,\"common\":false,\"__gohashid\":750},{\"from\":\"target:DbxUser:fields\",\"to\":\"target:DbxUser:sacMaxResendRequestsAllowed:\",\"fromPort\":\"target:DbxUser:fields\",\"toPort\":\"target:DbxUser:sacMaxResendRequestsAllowed:\",\"visible\":true,\"common\":false,\"__gohashid\":751},{\"from\":\"target:DbxUser:fields\",\"to\":\"target:DbxUser:remainingResendAttempts:\",\"fromPort\":\"target:DbxUser:fields\",\"toPort\":\"target:DbxUser:remainingResendAttempts:\",\"visible\":true,\"common\":false,\"__gohashid\":752},{\"from\":\"target:DbxUser:fields\",\"to\":\"target:DbxUser:sacCodeLength:\",\"fromPort\":\"target:DbxUser:fields\",\"toPort\":\"target:DbxUser:sacCodeLength:\",\"visible\":true,\"common\":false,\"__gohashid\":753},{\"from\":\"target:DbxUser:fields\",\"to\":\"target:DbxUser:maxFailedAttemptsAllowed:\",\"fromPort\":\"target:DbxUser:fields\",\"toPort\":\"target:DbxUser:maxFailedAttemptsAllowed:\",\"visible\":true,\"common\":false,\"__gohashid\":754},{\"from\":\"target:DbxUser:fields\",\"to\":\"target:DbxUser:remainingFailedAttempts:\",\"fromPort\":\"target:DbxUser:fields\",\"toPort\":\"target:DbxUser:remainingFailedAttempts:\",\"visible\":true,\"common\":false,\"__gohashid\":755},{\"from\":\"target:DbxUser:fields\",\"to\":\"target:DbxUser:failedAttempts:\",\"fromPort\":\"target:DbxUser:fields\",\"toPort\":\"target:DbxUser:failedAttempts:\",\"visible\":true,\"common\":false,\"__gohashid\":756},{\"from\":\"target:DbxUser:fields\",\"to\":\"target:DbxUser:serviceKey:\",\"fromPort\":\"target:DbxUser:fields\",\"toPort\":\"target:DbxUser:serviceKey:\",\"visible\":true,\"common\":false,\"__gohashid\":757},{\"from\":\"target:DbxUser:fields\",\"to\":\"target:DbxUser:oldPassword:\",\"fromPort\":\"target:DbxUser:fields\",\"toPort\":\"target:DbxUser:oldPassword:\",\"visible\":true,\"common\":false,\"__gohashid\":758},{\"from\":\"target:DbxUser:fields\",\"to\":\"target:DbxUser:newPassword:\",\"fromPort\":\"target:DbxUser:fields\",\"toPort\":\"target:DbxUser:newPassword:\",\"visible\":true,\"common\":false,\"__gohashid\":759},{\"from\":\"target:DbxUser:fields\",\"to\":\"target:DbxUser:oldUserName:\",\"fromPort\":\"target:DbxUser:fields\",\"toPort\":\"target:DbxUser:oldUserName:\",\"visible\":true,\"common\":false,\"__gohashid\":760},{\"from\":\"target:DbxUser:fields\",\"to\":\"target:DbxUser:newUserName:\",\"fromPort\":\"target:DbxUser:fields\",\"toPort\":\"target:DbxUser:newUserName:\",\"visible\":true,\"common\":false,\"__gohashid\":761},{\"from\":\"target:DbxUser:fields\",\"to\":\"target:DbxUser:isOtpVerified:\",\"fromPort\":\"target:DbxUser:fields\",\"toPort\":\"target:DbxUser:isOtpVerified:\",\"visible\":true,\"common\":false,\"__gohashid\":762},{\"from\":\"target:DbxUser:fields\",\"to\":\"target:DbxUser:lockUser:\",\"fromPort\":\"target:DbxUser:fields\",\"toPort\":\"target:DbxUser:lockUser:\",\"visible\":true,\"common\":false,\"__gohashid\":763},{\"from\":\"target:DbxUser:fields\",\"to\":\"target:DbxUser:logoutUser:\",\"fromPort\":\"target:DbxUser:fields\",\"toPort\":\"target:DbxUser:logoutUser:\",\"visible\":true,\"common\":false,\"__gohashid\":764},{\"from\":\"source\",\"to\":\"source:parameters\",\"fromPort\":\"source\",\"toPort\":\"source:parameters\",\"visible\":true,\"common\":false,\"__gohashid\":765},{\"from\":\"source:parameters\",\"to\":\"source:DateOfBirth:\",\"fromPort\":\"source:parameters\",\"toPort\":\"source:DateOfBirth:\",\"visible\":true,\"common\":false,\"__gohashid\":766},{\"from\":\"source:parameters\",\"to\":\"source:FirstName:\",\"fromPort\":\"source:parameters\",\"toPort\":\"source:FirstName:\",\"visible\":true,\"common\":false,\"__gohashid\":767},{\"from\":\"source:parameters\",\"to\":\"source:id:\",\"fromPort\":\"source:parameters\",\"toPort\":\"source:id:\",\"visible\":true,\"common\":false,\"__gohashid\":768},{\"from\":\"source:parameters\",\"to\":\"source:LastName:\",\"fromPort\":\"source:parameters\",\"toPort\":\"source:LastName:\",\"visible\":true,\"common\":false,\"__gohashid\":769},{\"from\":\"source:parameters\",\"to\":\"source:MiddleName:\",\"fromPort\":\"source:parameters\",\"toPort\":\"source:MiddleName:\",\"visible\":true,\"common\":false,\"__gohashid\":770},{\"from\":\"source:parameters\",\"to\":\"source:PreferredContactMethod:\",\"fromPort\":\"source:parameters\",\"toPort\":\"source:PreferredContactMethod:\",\"visible\":true,\"common\":false,\"__gohashid\":771},{\"from\":\"source:parameters\",\"to\":\"source:Ssn:\",\"fromPort\":\"source:parameters\",\"toPort\":\"source:Ssn:\",\"visible\":true,\"common\":false,\"__gohashid\":772}],\"blockCount\":{\"variableCount\":0},\"variableMap\":{},\"xmlMappingOverride\":true}",
    "applyCommonMapping" : false,
    "applyRequestCommonMapping" : false,
    "applyResponseCommonMapping" : false,
    "backendMeta" : {
      "serviceName" : "dbpRbLocalServicesJava",
      "serviceVersion" : "1.0",
      "operationName" : "updateCustomerProfile"
    },
    "relationshipHierarchyMapping" : {
      "children" : [ ],
      "name" : "DbxUser",
      "actions" : { },
      "selected" : true
    },
    "requestXmlMappingOverride" : true,
    "responseXmlMappingOverride" : true
  }
}