{
    "DNDConfig": null,
    "_height_": {
        "type": "ref",
        "value": "preferred"
    },
    "_left_": {
        "type": "string",
        "value": "0dp"
    },
    "_margin_": [
        0,
        0,
        0,
        0
    ],
    "_orientation_": 6,
    "_padding_": [
        0,
        0,
        0,
        0
    ],
    "_percent_": true,
    "_skin_": "secff68ee7904525acebc42c36c39094",
    "_top_": {
        "type": "string",
        "value": "0dp"
    },
    "_width_": {
        "type": "string",
        "value": "100%"
    },
    "allboxes": [],
    "autogrowmode": 1,
    "canUpdateUI": true,
    "children": [
        "flxAlertsEnabledStatus",
        "flxAccBalanceInBetween",
        "flxAccBalanceCreditedDebited",
        "flxNotifyBalance",
        "lblSeperator"
    ],
    "clipbounds": true,
    "containerId": true,
    "containerweight": 100,
    "controllerInfo": {
        "default": {
            "channel": "desktop",
            "name": "flxAccountAlertsCategoryDetailsController"
        }
    },
    "enablescrolling": true,
    "id": "flxAccountAlertsCategoryDetails",
    "info": null,
    "iscustomlayout": false,
    "isvisible": true,
    "kuid": "ga265a4364b445e8a68e3371d1671a02",
    "layouttype": 2,
    "name": "kony.ui.FlexContainer",
    "parent": "segAccountAlertsCategoryDetails",
    "pf": "segAccountAlertsCategoryDetails",
    "retaincontentalignment": false,
    "retainflexpositionproperties": false,
    "snapgridsize": 10,
    "snaptogrid": true,
    "wType": "FlexContainer",
    "widgetalignment": 1
}