{
    "@class": "com.kony.gen.viz.model.component.KVizRichText",
    "DNDConfig": null,
    "__parentReadjusting__": false,
    "_height_": {
        "type": "ref",
        "value": "preferred"
    },
    "_left_": {
        "type": "string",
        "value": "44.82%"
    },
    "_margin_": [
        0,
        0,
        0,
        0
    ],
    "_padding_": [
        0,
        0,
        0,
        0
    ],
    "_right_": {
        "type": "string",
        "value": "30dp"
    },
    "_skin_": "sc4cc30bc71442ee9f8b2e9230a973fa",
    "_text_": "Time Warner Cable On-Line\n",
    "_top_": {
        "type": "string",
        "value": "27dp"
    },
    "_wrapping_": 2,
    "canUpdateUI": true,
    "containerId": true,
    "containerweight": 100,
    "contentalignment": 4,
    "id": "rtxNotes2",
    "info": null,
    "isvisible": true,
    "kuid": "ad436de723194d4bbddc41f325c265cf",
    "name": "kony.ui.RichText",
    "parent": "flxNotes2",
    "pf": "segDisputeTransactionConfirmDetails",
    "wType": "RichText",
    "watchos": {
        "render": false
    },
    "widgetalignment": 5,
    "windows10": {
        "render": false
    },
    "winphone10": {
        "render": false
    },
    "zindex": 1,
    "accessibilityconfig": {
        "a11yLabel": "Time Warner Cable On-Line\n"
    }
}