{
  "customCode" : {
    "responseProcessorName" : "com.kony.postprocessors.GetExternalTransactionsAggregationObjectServicePostProcessor"
  },
  "operationConfig" : {
    "name" : "getTransactionsorch8365",
    "type" : "MappedToBackend",
    "cachable" : false,
    "smsEnabled" : false,
    "security" : "authorized_app_user",
    "responseEncoding" : "UTF-8",
    "httpMethod" : "GET",
    "decodeResponseBody" : false,
    "odata" : [ {
      "id" : "$select",
      "dataType" : "string",
      "encode" : true,
      "accessType" : "readonly"
    }, {
      "id" : "$filter",
      "dataType" : "string",
      "encode" : true,
      "accessType" : "readonly"
    }, {
      "id" : "$orderby",
      "dataType" : "string",
      "encode" : true,
      "accessType" : "readonly"
    }, {
      "id" : "$top",
      "dataType" : "string",
      "encode" : true,
      "accessType" : "readonly"
    }, {
      "id" : "$skip",
      "dataType" : "string",
      "encode" : true,
      "accessType" : "readonly"
    }, {
      "id" : "$expand",
      "dataType" : "string",
      "encode" : true,
      "accessType" : "readonly"
    }, {
      "id" : "$batchsize",
      "dataType" : "string",
      "encode" : true,
      "accessType" : "readonly"
    }, {
      "id" : "$batchid",
      "dataType" : "string",
      "encode" : true,
      "accessType" : "readonly"
    } ],
    "iMapping" : "<?xml version=\"1.0\" encoding=\"UTF-8\" standalone=\"yes\"?><mapper xmlns=\"http://www.kony.com/ns/mapper\">              <map inputpath=\"request_in\" outputpath=\"request_out\">                            <set-param inputpath=\"main_user\" outputpath=\"main_user\"/>                            <set-param inputpath=\"username\" outputpath=\"username\"/>                            <set-param inputpath=\"bank_id\" outputpath=\"bank_id\"/>                          <set-param inputpath=\"account\" outputpath=\"account\"/>               <set-param inputpath=\"no_of_transactions\" outputpath=\"no_of_transactions\"/>             <set-param inputpath=\"page_id\" outputpath=\"page_id\"/>         <set-param inputpath=\"isSearch\" outputpath=\"isSearch\"/>        <set-param inputpath=\"keyword\" outputpath=\"keyword\"/>      <set-param inputpath=\"startDate\" outputpath=\"startDate\"/>      <set-param inputpath=\"endDate\" outputpath=\"endDate\"/>      <set-param inputpath=\"minAmount\" outputpath=\"minAmount\"/>      <set-param inputpath=\"maxAmount\" outputpath=\"maxAmount\"/>      <set-param inputpath=\"transactionType\" outputpath=\"transactionType\"/>      <set-param inputpath=\"sortby\" outputpath=\"sortby\"/>     <set-param inputpath=\"orderby\" outputpath=\"orderby\"/>   </map></mapper>",
    "oMapping" : "<?xml version=\"1.0\" encoding=\"UTF-8\" standalone=\"yes\"?><mapper xmlns=\"http://www.kony.com/ns/mapper\">                                <map inputpath=\"response_in\" outputpath=\"response_out\">                                                                <map inputpath=\"CreatedTransactions\" outputpath=\"ExternalTransactionsAggregation\">                                                                                                <set-param inputpath=\"AccountID\" outputpath=\"AccountId\"/>                                                                                                <set-param inputpath=\"Amount\" outputpath=\"Amount\"/>                                                                                                <set-param inputpath=\"Description\" outputpath=\"description\"/>                                                                                                <set-param inputpath=\"TransactionDate\" outputpath=\"TransactionDate\"/>                                                                                                <set-param inputpath=\"PayeeId\" outputpath=\"PayeeId\"/>                                                                                                <set-param inputpath=\"TransactionId\" outputpath=\"TransactionId\"/>                                                                                                <set-param inputpath=\"PayPersonName\" outputpath=\"PayPersonName\"/>                                                                                                <set-param inputpath=\"AvailableBalance\" outputpath=\"AvailableBalance\"/>                                                                                                <set-param inputpath=\"ScheduledDate\" outputpath=\"ScheduledDate\"/>                                                                                                <set-param inputpath=\"TransactionType\" outputpath=\"TransactionType\"/>                                                                                        <set-param inputpath=\"StatusDescription\" outputpath=\"Status\"/>                         <set-param inputpath=\"LastUpdated\" outputpath=\"LastUpdated\"/>                         <set-param inputpath=\"error\" outputpath=\"error\"/>                 </map>                                </map></mapper>",
    "iVisualMappingData" : "{\"nodeDataArray\":[{\"isGroup\":true,\"key\":\"request_in\",\"text\":\"ExternalTransactionsAggregation\",\"xy\":\"150 100\",\"__gohashid\":20976},{\"isGroup\":true,\"key\":\"request_out\",\"text\":\"dbpTransactionsorch.getTransactionsorch\",\"xy\":\"770 100\",\"__gohashid\":20977}],\"linkDataArray\":[{\"from\":\"source\",\"to\":\"source:ExternalTransactionsAggregation\",\"fromPort\":\"source\",\"toPort\":\"source:ExternalTransactionsAggregation\",\"visible\":true,\"common\":false,\"__gohashid\":261},{\"from\":\"source:ExternalTransactionsAggregation\",\"to\":\"source:ExternalTransactionsAggregation:fields\",\"fromPort\":\"source:ExternalTransactionsAggregation\",\"toPort\":\"source:ExternalTransactionsAggregation:fields\",\"visible\":true,\"common\":false,\"__gohashid\":262},{\"from\":\"source:ExternalTransactionsAggregation:fields\",\"to\":\"source:ExternalTransactionsAggregation:AccountId:\",\"fromPort\":\"source:ExternalTransactionsAggregation:fields\",\"toPort\":\"source:ExternalTransactionsAggregation:AccountId:\",\"visible\":true,\"common\":false,\"__gohashid\":263},{\"from\":\"source:ExternalTransactionsAggregation:fields\",\"to\":\"source:ExternalTransactionsAggregation:Amount:\",\"fromPort\":\"source:ExternalTransactionsAggregation:fields\",\"toPort\":\"source:ExternalTransactionsAggregation:Amount:\",\"visible\":true,\"common\":false,\"__gohashid\":264},{\"from\":\"source:ExternalTransactionsAggregation:fields\",\"to\":\"source:ExternalTransactionsAggregation:TransactionDate:\",\"fromPort\":\"source:ExternalTransactionsAggregation:fields\",\"toPort\":\"source:ExternalTransactionsAggregation:TransactionDate:\",\"visible\":true,\"common\":false,\"__gohashid\":265},{\"from\":\"source:ExternalTransactionsAggregation:fields\",\"to\":\"source:ExternalTransactionsAggregation:id:\",\"fromPort\":\"source:ExternalTransactionsAggregation:fields\",\"toPort\":\"source:ExternalTransactionsAggregation:id:\",\"visible\":true,\"common\":false,\"__gohashid\":266},{\"from\":\"source:ExternalTransactionsAggregation:fields\",\"to\":\"source:ExternalTransactionsAggregation:name:\",\"fromPort\":\"source:ExternalTransactionsAggregation:fields\",\"toPort\":\"source:ExternalTransactionsAggregation:name:\",\"visible\":true,\"common\":false,\"__gohashid\":267},{\"from\":\"source:ExternalTransactionsAggregation:fields\",\"to\":\"source:ExternalTransactionsAggregation:AvailableBalance:\",\"fromPort\":\"source:ExternalTransactionsAggregation:fields\",\"toPort\":\"source:ExternalTransactionsAggregation:AvailableBalance:\",\"visible\":true,\"common\":false,\"__gohashid\":268},{\"from\":\"source:ExternalTransactionsAggregation:fields\",\"to\":\"source:ExternalTransactionsAggregation:ScheduledDate:\",\"fromPort\":\"source:ExternalTransactionsAggregation:fields\",\"toPort\":\"source:ExternalTransactionsAggregation:ScheduledDate:\",\"visible\":true,\"common\":false,\"__gohashid\":269},{\"from\":\"source:ExternalTransactionsAggregation:fields\",\"to\":\"source:ExternalTransactionsAggregation:TransactionType:\",\"fromPort\":\"source:ExternalTransactionsAggregation:fields\",\"toPort\":\"source:ExternalTransactionsAggregation:TransactionType:\",\"visible\":true,\"common\":false,\"__gohashid\":270},{\"from\":\"source:ExternalTransactionsAggregation:fields\",\"to\":\"source:ExternalTransactionsAggregation:allowed_attempts:\",\"fromPort\":\"source:ExternalTransactionsAggregation:fields\",\"toPort\":\"source:ExternalTransactionsAggregation:allowed_attempts:\",\"visible\":true,\"common\":false,\"__gohashid\":271},{\"from\":\"source:ExternalTransactionsAggregation:fields\",\"to\":\"source:ExternalTransactionsAggregation:challenge_id:\",\"fromPort\":\"source:ExternalTransactionsAggregation:fields\",\"toPort\":\"source:ExternalTransactionsAggregation:challenge_id:\",\"visible\":true,\"common\":false,\"__gohashid\":272},{\"from\":\"source:ExternalTransactionsAggregation:fields\",\"to\":\"source:ExternalTransactionsAggregation:challenge_type:\",\"fromPort\":\"source:ExternalTransactionsAggregation:fields\",\"toPort\":\"source:ExternalTransactionsAggregation:challenge_type:\",\"visible\":true,\"common\":false,\"__gohashid\":273},{\"from\":\"source:ExternalTransactionsAggregation:fields\",\"to\":\"source:ExternalTransactionsAggregation:charged_amount:\",\"fromPort\":\"source:ExternalTransactionsAggregation:fields\",\"toPort\":\"source:ExternalTransactionsAggregation:charged_amount:\",\"visible\":true,\"common\":false,\"__gohashid\":274},{\"from\":\"source:ExternalTransactionsAggregation:fields\",\"to\":\"source:ExternalTransactionsAggregation:charged_currency_type:\",\"fromPort\":\"source:ExternalTransactionsAggregation:fields\",\"toPort\":\"source:ExternalTransactionsAggregation:charged_currency_type:\",\"visible\":true,\"common\":false,\"__gohashid\":275},{\"from\":\"source:ExternalTransactionsAggregation:fields\",\"to\":\"source:ExternalTransactionsAggregation:charge_policy:\",\"fromPort\":\"source:ExternalTransactionsAggregation:fields\",\"toPort\":\"source:ExternalTransactionsAggregation:charge_policy:\",\"visible\":true,\"common\":false,\"__gohashid\":276},{\"from\":\"source:ExternalTransactionsAggregation:fields\",\"to\":\"source:ExternalTransactionsAggregation:charge_summary:\",\"fromPort\":\"source:ExternalTransactionsAggregation:fields\",\"toPort\":\"source:ExternalTransactionsAggregation:charge_summary:\",\"visible\":true,\"common\":false,\"__gohashid\":277},{\"from\":\"source:ExternalTransactionsAggregation:fields\",\"to\":\"source:ExternalTransactionsAggregation:PayeeId:\",\"fromPort\":\"source:ExternalTransactionsAggregation:fields\",\"toPort\":\"source:ExternalTransactionsAggregation:PayeeId:\",\"visible\":true,\"common\":false,\"__gohashid\":278},{\"from\":\"source:ExternalTransactionsAggregation:fields\",\"to\":\"source:ExternalTransactionsAggregation:end_date:\",\"fromPort\":\"source:ExternalTransactionsAggregation:fields\",\"toPort\":\"source:ExternalTransactionsAggregation:end_date:\",\"visible\":true,\"common\":false,\"__gohashid\":279},{\"from\":\"source:ExternalTransactionsAggregation:fields\",\"to\":\"source:ExternalTransactionsAggregation:payee_account_id:\",\"fromPort\":\"source:ExternalTransactionsAggregation:fields\",\"toPort\":\"source:ExternalTransactionsAggregation:payee_account_id:\",\"visible\":true,\"common\":false,\"__gohashid\":280},{\"from\":\"source:ExternalTransactionsAggregation:fields\",\"to\":\"source:ExternalTransactionsAggregation:payee_bank_id:\",\"fromPort\":\"source:ExternalTransactionsAggregation:fields\",\"toPort\":\"source:ExternalTransactionsAggregation:payee_bank_id:\",\"visible\":true,\"common\":false,\"__gohashid\":281},{\"from\":\"source:ExternalTransactionsAggregation:fields\",\"to\":\"source:ExternalTransactionsAggregation:payer_account_id:\",\"fromPort\":\"source:ExternalTransactionsAggregation:fields\",\"toPort\":\"source:ExternalTransactionsAggregation:payer_account_id:\",\"visible\":true,\"common\":false,\"__gohashid\":282},{\"from\":\"source:ExternalTransactionsAggregation:fields\",\"to\":\"source:ExternalTransactionsAggregation:payer_bank_id:\",\"fromPort\":\"source:ExternalTransactionsAggregation:fields\",\"toPort\":\"source:ExternalTransactionsAggregation:payer_bank_id:\",\"visible\":true,\"common\":false,\"__gohashid\":283},{\"from\":\"source:ExternalTransactionsAggregation:fields\",\"to\":\"source:ExternalTransactionsAggregation:start_date:\",\"fromPort\":\"source:ExternalTransactionsAggregation:fields\",\"toPort\":\"source:ExternalTransactionsAggregation:start_date:\",\"visible\":true,\"common\":false,\"__gohashid\":284},{\"from\":\"source:ExternalTransactionsAggregation:fields\",\"to\":\"source:ExternalTransactionsAggregation:transacted_amount:\",\"fromPort\":\"source:ExternalTransactionsAggregation:fields\",\"toPort\":\"source:ExternalTransactionsAggregation:transacted_amount:\",\"visible\":true,\"common\":false,\"__gohashid\":285},{\"from\":\"source:ExternalTransactionsAggregation:fields\",\"to\":\"source:ExternalTransactionsAggregation:transacted_currency_type:\",\"fromPort\":\"source:ExternalTransactionsAggregation:fields\",\"toPort\":\"source:ExternalTransactionsAggregation:transacted_currency_type:\",\"visible\":true,\"common\":false,\"__gohashid\":286},{\"from\":\"source:ExternalTransactionsAggregation:fields\",\"to\":\"source:ExternalTransactionsAggregation:transaction_description:\",\"fromPort\":\"source:ExternalTransactionsAggregation:fields\",\"toPort\":\"source:ExternalTransactionsAggregation:transaction_description:\",\"visible\":true,\"common\":false,\"__gohashid\":287},{\"from\":\"source:ExternalTransactionsAggregation:fields\",\"to\":\"source:ExternalTransactionsAggregation:TransactionId:\",\"fromPort\":\"source:ExternalTransactionsAggregation:fields\",\"toPort\":\"source:ExternalTransactionsAggregation:TransactionId:\",\"visible\":true,\"common\":false,\"__gohashid\":288},{\"from\":\"source:ExternalTransactionsAggregation:fields\",\"to\":\"source:ExternalTransactionsAggregation:transaction_ids:\",\"fromPort\":\"source:ExternalTransactionsAggregation:fields\",\"toPort\":\"source:ExternalTransactionsAggregation:transaction_ids:\",\"visible\":true,\"common\":false,\"__gohashid\":289},{\"from\":\"source:ExternalTransactionsAggregation:fields\",\"to\":\"source:ExternalTransactionsAggregation:transaction_type:\",\"fromPort\":\"source:ExternalTransactionsAggregation:fields\",\"toPort\":\"source:ExternalTransactionsAggregation:transaction_type:\",\"visible\":true,\"common\":false,\"__gohashid\":290},{\"from\":\"source:ExternalTransactionsAggregation:fields\",\"to\":\"source:ExternalTransactionsAggregation:transation_status:\",\"fromPort\":\"source:ExternalTransactionsAggregation:fields\",\"toPort\":\"source:ExternalTransactionsAggregation:transation_status:\",\"visible\":true,\"common\":false,\"__gohashid\":291},{\"from\":\"source:ExternalTransactionsAggregation:fields\",\"to\":\"source:ExternalTransactionsAggregation:currency_type:\",\"fromPort\":\"source:ExternalTransactionsAggregation:fields\",\"toPort\":\"source:ExternalTransactionsAggregation:currency_type:\",\"visible\":true,\"common\":false,\"__gohashid\":292},{\"from\":\"source:ExternalTransactionsAggregation:fields\",\"to\":\"source:ExternalTransactionsAggregation:account:\",\"fromPort\":\"source:ExternalTransactionsAggregation:fields\",\"toPort\":\"source:ExternalTransactionsAggregation:account:\",\"visible\":true,\"common\":false,\"__gohashid\":293},{\"from\":\"source:ExternalTransactionsAggregation:fields\",\"to\":\"source:ExternalTransactionsAggregation:bank_name:\",\"fromPort\":\"source:ExternalTransactionsAggregation:fields\",\"toPort\":\"source:ExternalTransactionsAggregation:bank_name:\",\"visible\":true,\"common\":false,\"__gohashid\":294},{\"from\":\"source:ExternalTransactionsAggregation:fields\",\"to\":\"source:ExternalTransactionsAggregation:main_user:\",\"fromPort\":\"source:ExternalTransactionsAggregation:fields\",\"toPort\":\"source:ExternalTransactionsAggregation:main_user:\",\"visible\":true,\"common\":false,\"__gohashid\":295},{\"from\":\"source:ExternalTransactionsAggregation:fields\",\"to\":\"source:ExternalTransactionsAggregation:username:\",\"fromPort\":\"source:ExternalTransactionsAggregation:fields\",\"toPort\":\"source:ExternalTransactionsAggregation:username:\",\"visible\":true,\"common\":false,\"__gohashid\":296},{\"from\":\"source:ExternalTransactionsAggregation:fields\",\"to\":\"source:ExternalTransactionsAggregation:bank_id:\",\"fromPort\":\"source:ExternalTransactionsAggregation:fields\",\"toPort\":\"source:ExternalTransactionsAggregation:bank_id:\",\"visible\":true,\"common\":false,\"__gohashid\":297},{\"from\":\"source:ExternalTransactionsAggregation:fields\",\"to\":\"source:ExternalTransactionsAggregation:description:\",\"fromPort\":\"source:ExternalTransactionsAggregation:fields\",\"toPort\":\"source:ExternalTransactionsAggregation:description:\",\"visible\":true,\"common\":false,\"__gohashid\":298},{\"from\":\"source:ExternalTransactionsAggregation:fields\",\"to\":\"source:ExternalTransactionsAggregation:PayPersonName:\",\"fromPort\":\"source:ExternalTransactionsAggregation:fields\",\"toPort\":\"source:ExternalTransactionsAggregation:PayPersonName:\",\"visible\":true,\"common\":false,\"__gohashid\":299},{\"from\":\"source:ExternalTransactionsAggregation:fields\",\"to\":\"source:ExternalTransactionsAggregation:Status:\",\"fromPort\":\"source:ExternalTransactionsAggregation:fields\",\"toPort\":\"source:ExternalTransactionsAggregation:Status:\",\"visible\":true,\"common\":false,\"__gohashid\":300},{\"from\":\"source:ExternalTransactionsAggregation:fields\",\"to\":\"source:ExternalTransactionsAggregation:no_of_transactions:\",\"fromPort\":\"source:ExternalTransactionsAggregation:fields\",\"toPort\":\"source:ExternalTransactionsAggregation:no_of_transactions:\",\"visible\":true,\"common\":false,\"__gohashid\":301},{\"from\":\"target\",\"to\":\"target:parameters\",\"fromPort\":\"target\",\"toPort\":\"target:parameters\",\"visible\":true,\"common\":false,\"__gohashid\":302},{\"from\":\"target:parameters\",\"to\":\"target:account:\",\"fromPort\":\"target:parameters\",\"toPort\":\"target:account:\",\"visible\":true,\"common\":false,\"__gohashid\":303},{\"from\":\"target:parameters\",\"to\":\"target:bank_id:\",\"fromPort\":\"target:parameters\",\"toPort\":\"target:bank_id:\",\"visible\":true,\"common\":false,\"__gohashid\":304},{\"from\":\"target:parameters\",\"to\":\"target:main_user:\",\"fromPort\":\"target:parameters\",\"toPort\":\"target:main_user:\",\"visible\":true,\"common\":false,\"__gohashid\":305},{\"from\":\"target:parameters\",\"to\":\"target:password:\",\"fromPort\":\"target:parameters\",\"toPort\":\"target:password:\",\"visible\":true,\"common\":false,\"__gohashid\":306},{\"from\":\"target:parameters\",\"to\":\"target:username:\",\"fromPort\":\"target:parameters\",\"toPort\":\"target:username:\",\"visible\":true,\"common\":false,\"__gohashid\":307}],\"blockCount\":{\"variableCount\":0},\"variableMap\":{},\"xmlMappingOverride\":true}",
    "oVisualMappingData" : "{\"nodeDataArray\":[{\"isGroup\":true,\"key\":\"response_out\",\"text\":\"ExternalTransactionsAggregation\",\"xy\":\"770 100\",\"__gohashid\":467},{\"isGroup\":true,\"key\":\"response_in\",\"text\":\"dbpTransactionsorch (1.0).getTransactionsorch\",\"xy\":\"150 100\",\"__gohashid\":468}],\"linkDataArray\":[{\"from\":\"target\",\"to\":\"target:ExternalTransactionsAggregation\",\"fromPort\":\"target\",\"toPort\":\"target:ExternalTransactionsAggregation\",\"visible\":true,\"common\":false,\"__gohashid\":806},{\"from\":\"target:ExternalTransactionsAggregation\",\"to\":\"target:ExternalTransactionsAggregation:fields\",\"fromPort\":\"target:ExternalTransactionsAggregation\",\"toPort\":\"target:ExternalTransactionsAggregation:fields\",\"visible\":true,\"common\":false,\"__gohashid\":807},{\"from\":\"target:ExternalTransactionsAggregation:fields\",\"to\":\"target:ExternalTransactionsAggregation:AccountId:\",\"fromPort\":\"target:ExternalTransactionsAggregation:fields\",\"toPort\":\"target:ExternalTransactionsAggregation:AccountId:\",\"visible\":true,\"common\":false,\"__gohashid\":808},{\"from\":\"target:ExternalTransactionsAggregation:fields\",\"to\":\"target:ExternalTransactionsAggregation:Amount:\",\"fromPort\":\"target:ExternalTransactionsAggregation:fields\",\"toPort\":\"target:ExternalTransactionsAggregation:Amount:\",\"visible\":true,\"common\":false,\"__gohashid\":809},{\"from\":\"target:ExternalTransactionsAggregation:fields\",\"to\":\"target:ExternalTransactionsAggregation:TransactionDate:\",\"fromPort\":\"target:ExternalTransactionsAggregation:fields\",\"toPort\":\"target:ExternalTransactionsAggregation:TransactionDate:\",\"visible\":true,\"common\":false,\"__gohashid\":810},{\"from\":\"target:ExternalTransactionsAggregation:fields\",\"to\":\"target:ExternalTransactionsAggregation:id:\",\"fromPort\":\"target:ExternalTransactionsAggregation:fields\",\"toPort\":\"target:ExternalTransactionsAggregation:id:\",\"visible\":true,\"common\":false,\"__gohashid\":811},{\"from\":\"target:ExternalTransactionsAggregation:fields\",\"to\":\"target:ExternalTransactionsAggregation:name:\",\"fromPort\":\"target:ExternalTransactionsAggregation:fields\",\"toPort\":\"target:ExternalTransactionsAggregation:name:\",\"visible\":true,\"common\":false,\"__gohashid\":812},{\"from\":\"target:ExternalTransactionsAggregation:fields\",\"to\":\"target:ExternalTransactionsAggregation:AvailableBalance:\",\"fromPort\":\"target:ExternalTransactionsAggregation:fields\",\"toPort\":\"target:ExternalTransactionsAggregation:AvailableBalance:\",\"visible\":true,\"common\":false,\"__gohashid\":813},{\"from\":\"target:ExternalTransactionsAggregation:fields\",\"to\":\"target:ExternalTransactionsAggregation:ScheduledDate:\",\"fromPort\":\"target:ExternalTransactionsAggregation:fields\",\"toPort\":\"target:ExternalTransactionsAggregation:ScheduledDate:\",\"visible\":true,\"common\":false,\"__gohashid\":814},{\"from\":\"target:ExternalTransactionsAggregation:fields\",\"to\":\"target:ExternalTransactionsAggregation:TransactionType:\",\"fromPort\":\"target:ExternalTransactionsAggregation:fields\",\"toPort\":\"target:ExternalTransactionsAggregation:TransactionType:\",\"visible\":true,\"common\":false,\"__gohashid\":815},{\"from\":\"target:ExternalTransactionsAggregation:fields\",\"to\":\"target:ExternalTransactionsAggregation:allowed_attempts:\",\"fromPort\":\"target:ExternalTransactionsAggregation:fields\",\"toPort\":\"target:ExternalTransactionsAggregation:allowed_attempts:\",\"visible\":true,\"common\":false,\"__gohashid\":816},{\"from\":\"target:ExternalTransactionsAggregation:fields\",\"to\":\"target:ExternalTransactionsAggregation:challenge_id:\",\"fromPort\":\"target:ExternalTransactionsAggregation:fields\",\"toPort\":\"target:ExternalTransactionsAggregation:challenge_id:\",\"visible\":true,\"common\":false,\"__gohashid\":817},{\"from\":\"target:ExternalTransactionsAggregation:fields\",\"to\":\"target:ExternalTransactionsAggregation:challenge_type:\",\"fromPort\":\"target:ExternalTransactionsAggregation:fields\",\"toPort\":\"target:ExternalTransactionsAggregation:challenge_type:\",\"visible\":true,\"common\":false,\"__gohashid\":818},{\"from\":\"target:ExternalTransactionsAggregation:fields\",\"to\":\"target:ExternalTransactionsAggregation:charged_amount:\",\"fromPort\":\"target:ExternalTransactionsAggregation:fields\",\"toPort\":\"target:ExternalTransactionsAggregation:charged_amount:\",\"visible\":true,\"common\":false,\"__gohashid\":819},{\"from\":\"target:ExternalTransactionsAggregation:fields\",\"to\":\"target:ExternalTransactionsAggregation:charged_currency_type:\",\"fromPort\":\"target:ExternalTransactionsAggregation:fields\",\"toPort\":\"target:ExternalTransactionsAggregation:charged_currency_type:\",\"visible\":true,\"common\":false,\"__gohashid\":820},{\"from\":\"target:ExternalTransactionsAggregation:fields\",\"to\":\"target:ExternalTransactionsAggregation:charge_policy:\",\"fromPort\":\"target:ExternalTransactionsAggregation:fields\",\"toPort\":\"target:ExternalTransactionsAggregation:charge_policy:\",\"visible\":true,\"common\":false,\"__gohashid\":821},{\"from\":\"target:ExternalTransactionsAggregation:fields\",\"to\":\"target:ExternalTransactionsAggregation:charge_summary:\",\"fromPort\":\"target:ExternalTransactionsAggregation:fields\",\"toPort\":\"target:ExternalTransactionsAggregation:charge_summary:\",\"visible\":true,\"common\":false,\"__gohashid\":822},{\"from\":\"target:ExternalTransactionsAggregation:fields\",\"to\":\"target:ExternalTransactionsAggregation:PayeeId:\",\"fromPort\":\"target:ExternalTransactionsAggregation:fields\",\"toPort\":\"target:ExternalTransactionsAggregation:PayeeId:\",\"visible\":true,\"common\":false,\"__gohashid\":823},{\"from\":\"target:ExternalTransactionsAggregation:fields\",\"to\":\"target:ExternalTransactionsAggregation:end_date:\",\"fromPort\":\"target:ExternalTransactionsAggregation:fields\",\"toPort\":\"target:ExternalTransactionsAggregation:end_date:\",\"visible\":true,\"common\":false,\"__gohashid\":824},{\"from\":\"target:ExternalTransactionsAggregation:fields\",\"to\":\"target:ExternalTransactionsAggregation:payee_account_id:\",\"fromPort\":\"target:ExternalTransactionsAggregation:fields\",\"toPort\":\"target:ExternalTransactionsAggregation:payee_account_id:\",\"visible\":true,\"common\":false,\"__gohashid\":825},{\"from\":\"target:ExternalTransactionsAggregation:fields\",\"to\":\"target:ExternalTransactionsAggregation:payee_bank_id:\",\"fromPort\":\"target:ExternalTransactionsAggregation:fields\",\"toPort\":\"target:ExternalTransactionsAggregation:payee_bank_id:\",\"visible\":true,\"common\":false,\"__gohashid\":826},{\"from\":\"target:ExternalTransactionsAggregation:fields\",\"to\":\"target:ExternalTransactionsAggregation:payer_account_id:\",\"fromPort\":\"target:ExternalTransactionsAggregation:fields\",\"toPort\":\"target:ExternalTransactionsAggregation:payer_account_id:\",\"visible\":true,\"common\":false,\"__gohashid\":827},{\"from\":\"target:ExternalTransactionsAggregation:fields\",\"to\":\"target:ExternalTransactionsAggregation:payer_bank_id:\",\"fromPort\":\"target:ExternalTransactionsAggregation:fields\",\"toPort\":\"target:ExternalTransactionsAggregation:payer_bank_id:\",\"visible\":true,\"common\":false,\"__gohashid\":828},{\"from\":\"target:ExternalTransactionsAggregation:fields\",\"to\":\"target:ExternalTransactionsAggregation:start_date:\",\"fromPort\":\"target:ExternalTransactionsAggregation:fields\",\"toPort\":\"target:ExternalTransactionsAggregation:start_date:\",\"visible\":true,\"common\":false,\"__gohashid\":829},{\"from\":\"target:ExternalTransactionsAggregation:fields\",\"to\":\"target:ExternalTransactionsAggregation:transacted_amount:\",\"fromPort\":\"target:ExternalTransactionsAggregation:fields\",\"toPort\":\"target:ExternalTransactionsAggregation:transacted_amount:\",\"visible\":true,\"common\":false,\"__gohashid\":830},{\"from\":\"target:ExternalTransactionsAggregation:fields\",\"to\":\"target:ExternalTransactionsAggregation:transacted_currency_type:\",\"fromPort\":\"target:ExternalTransactionsAggregation:fields\",\"toPort\":\"target:ExternalTransactionsAggregation:transacted_currency_type:\",\"visible\":true,\"common\":false,\"__gohashid\":831},{\"from\":\"target:ExternalTransactionsAggregation:fields\",\"to\":\"target:ExternalTransactionsAggregation:transaction_description:\",\"fromPort\":\"target:ExternalTransactionsAggregation:fields\",\"toPort\":\"target:ExternalTransactionsAggregation:transaction_description:\",\"visible\":true,\"common\":false,\"__gohashid\":832},{\"from\":\"target:ExternalTransactionsAggregation:fields\",\"to\":\"target:ExternalTransactionsAggregation:TransactionId:\",\"fromPort\":\"target:ExternalTransactionsAggregation:fields\",\"toPort\":\"target:ExternalTransactionsAggregation:TransactionId:\",\"visible\":true,\"common\":false,\"__gohashid\":833},{\"from\":\"target:ExternalTransactionsAggregation:fields\",\"to\":\"target:ExternalTransactionsAggregation:transaction_ids:\",\"fromPort\":\"target:ExternalTransactionsAggregation:fields\",\"toPort\":\"target:ExternalTransactionsAggregation:transaction_ids:\",\"visible\":true,\"common\":false,\"__gohashid\":834},{\"from\":\"target:ExternalTransactionsAggregation:fields\",\"to\":\"target:ExternalTransactionsAggregation:transaction_type:\",\"fromPort\":\"target:ExternalTransactionsAggregation:fields\",\"toPort\":\"target:ExternalTransactionsAggregation:transaction_type:\",\"visible\":true,\"common\":false,\"__gohashid\":835},{\"from\":\"target:ExternalTransactionsAggregation:fields\",\"to\":\"target:ExternalTransactionsAggregation:transation_status:\",\"fromPort\":\"target:ExternalTransactionsAggregation:fields\",\"toPort\":\"target:ExternalTransactionsAggregation:transation_status:\",\"visible\":true,\"common\":false,\"__gohashid\":836},{\"from\":\"target:ExternalTransactionsAggregation:fields\",\"to\":\"target:ExternalTransactionsAggregation:currency_type:\",\"fromPort\":\"target:ExternalTransactionsAggregation:fields\",\"toPort\":\"target:ExternalTransactionsAggregation:currency_type:\",\"visible\":true,\"common\":false,\"__gohashid\":837},{\"from\":\"target:ExternalTransactionsAggregation:fields\",\"to\":\"target:ExternalTransactionsAggregation:account:\",\"fromPort\":\"target:ExternalTransactionsAggregation:fields\",\"toPort\":\"target:ExternalTransactionsAggregation:account:\",\"visible\":true,\"common\":false,\"__gohashid\":838},{\"from\":\"target:ExternalTransactionsAggregation:fields\",\"to\":\"target:ExternalTransactionsAggregation:bank_name:\",\"fromPort\":\"target:ExternalTransactionsAggregation:fields\",\"toPort\":\"target:ExternalTransactionsAggregation:bank_name:\",\"visible\":true,\"common\":false,\"__gohashid\":839},{\"from\":\"target:ExternalTransactionsAggregation:fields\",\"to\":\"target:ExternalTransactionsAggregation:main_user:\",\"fromPort\":\"target:ExternalTransactionsAggregation:fields\",\"toPort\":\"target:ExternalTransactionsAggregation:main_user:\",\"visible\":true,\"common\":false,\"__gohashid\":840},{\"from\":\"target:ExternalTransactionsAggregation:fields\",\"to\":\"target:ExternalTransactionsAggregation:username:\",\"fromPort\":\"target:ExternalTransactionsAggregation:fields\",\"toPort\":\"target:ExternalTransactionsAggregation:username:\",\"visible\":true,\"common\":false,\"__gohashid\":841},{\"from\":\"target:ExternalTransactionsAggregation:fields\",\"to\":\"target:ExternalTransactionsAggregation:bank_id:\",\"fromPort\":\"target:ExternalTransactionsAggregation:fields\",\"toPort\":\"target:ExternalTransactionsAggregation:bank_id:\",\"visible\":true,\"common\":false,\"__gohashid\":842},{\"from\":\"target:ExternalTransactionsAggregation:fields\",\"to\":\"target:ExternalTransactionsAggregation:description:\",\"fromPort\":\"target:ExternalTransactionsAggregation:fields\",\"toPort\":\"target:ExternalTransactionsAggregation:description:\",\"visible\":true,\"common\":false,\"__gohashid\":843},{\"from\":\"target:ExternalTransactionsAggregation:fields\",\"to\":\"target:ExternalTransactionsAggregation:PayPersonName:\",\"fromPort\":\"target:ExternalTransactionsAggregation:fields\",\"toPort\":\"target:ExternalTransactionsAggregation:PayPersonName:\",\"visible\":true,\"common\":false,\"__gohashid\":844},{\"from\":\"target:ExternalTransactionsAggregation:fields\",\"to\":\"target:ExternalTransactionsAggregation:Status:\",\"fromPort\":\"target:ExternalTransactionsAggregation:fields\",\"toPort\":\"target:ExternalTransactionsAggregation:Status:\",\"visible\":true,\"common\":false,\"__gohashid\":845},{\"from\":\"target:ExternalTransactionsAggregation:fields\",\"to\":\"target:ExternalTransactionsAggregation:no_of_transactions:\",\"fromPort\":\"target:ExternalTransactionsAggregation:fields\",\"toPort\":\"target:ExternalTransactionsAggregation:no_of_transactions:\",\"visible\":true,\"common\":false,\"__gohashid\":846},{\"from\":\"target:ExternalTransactionsAggregation:fields\",\"to\":\"target:ExternalTransactionsAggregation:isSearch:\",\"fromPort\":\"target:ExternalTransactionsAggregation:fields\",\"toPort\":\"target:ExternalTransactionsAggregation:isSearch:\",\"visible\":true,\"common\":false,\"__gohashid\":847},{\"from\":\"target:ExternalTransactionsAggregation:fields\",\"to\":\"target:ExternalTransactionsAggregation:keyword:\",\"fromPort\":\"target:ExternalTransactionsAggregation:fields\",\"toPort\":\"target:ExternalTransactionsAggregation:keyword:\",\"visible\":true,\"common\":false,\"__gohashid\":848},{\"from\":\"target:ExternalTransactionsAggregation:fields\",\"to\":\"target:ExternalTransactionsAggregation:startDate:\",\"fromPort\":\"target:ExternalTransactionsAggregation:fields\",\"toPort\":\"target:ExternalTransactionsAggregation:startDate:\",\"visible\":true,\"common\":false,\"__gohashid\":849},{\"from\":\"target:ExternalTransactionsAggregation:fields\",\"to\":\"target:ExternalTransactionsAggregation:endDate:\",\"fromPort\":\"target:ExternalTransactionsAggregation:fields\",\"toPort\":\"target:ExternalTransactionsAggregation:endDate:\",\"visible\":true,\"common\":false,\"__gohashid\":850},{\"from\":\"target:ExternalTransactionsAggregation:fields\",\"to\":\"target:ExternalTransactionsAggregation:minAmount:\",\"fromPort\":\"target:ExternalTransactionsAggregation:fields\",\"toPort\":\"target:ExternalTransactionsAggregation:minAmount:\",\"visible\":true,\"common\":false,\"__gohashid\":851},{\"from\":\"target:ExternalTransactionsAggregation:fields\",\"to\":\"target:ExternalTransactionsAggregation:maxAmount:\",\"fromPort\":\"target:ExternalTransactionsAggregation:fields\",\"toPort\":\"target:ExternalTransactionsAggregation:maxAmount:\",\"visible\":true,\"common\":false,\"__gohashid\":852},{\"from\":\"target:ExternalTransactionsAggregation:fields\",\"to\":\"target:ExternalTransactionsAggregation:sortby:\",\"fromPort\":\"target:ExternalTransactionsAggregation:fields\",\"toPort\":\"target:ExternalTransactionsAggregation:sortby:\",\"visible\":true,\"common\":false,\"__gohashid\":853},{\"from\":\"target:ExternalTransactionsAggregation:fields\",\"to\":\"target:ExternalTransactionsAggregation:orderby:\",\"fromPort\":\"target:ExternalTransactionsAggregation:fields\",\"toPort\":\"target:ExternalTransactionsAggregation:orderby:\",\"visible\":true,\"common\":false,\"__gohashid\":854},{\"from\":\"source\",\"to\":\"source:parameters\",\"fromPort\":\"source\",\"toPort\":\"source:parameters\",\"visible\":true,\"common\":false,\"__gohashid\":855},{\"from\":\"source:parameters\",\"to\":\"source:SessionToken:\",\"fromPort\":\"source:parameters\",\"toPort\":\"source:SessionToken:\",\"visible\":true,\"common\":false,\"__gohashid\":856},{\"from\":\"source:parameters\",\"to\":\"source:errmsg:\",\"fromPort\":\"source:parameters\",\"toPort\":\"source:errmsg:\",\"visible\":true,\"common\":false,\"__gohashid\":857},{\"from\":\"source\",\"to\":\"source:Transactions\",\"fromPort\":\"source\",\"toPort\":\"source:Transactions\",\"visible\":true,\"common\":false,\"__gohashid\":858},{\"from\":\"source:Transactions\",\"to\":\"source:Transactions:parameters\",\"fromPort\":\"source:Transactions\",\"toPort\":\"source:Transactions:parameters\",\"visible\":true,\"common\":false,\"__gohashid\":859},{\"from\":\"source:Transactions:parameters\",\"to\":\"source:Transactions:account:\",\"fromPort\":\"source:Transactions:parameters\",\"toPort\":\"source:Transactions:account:\",\"visible\":true,\"common\":false,\"__gohashid\":860},{\"from\":\"source:Transactions:parameters\",\"to\":\"source:Transactions:amount:\",\"fromPort\":\"source:Transactions:parameters\",\"toPort\":\"source:Transactions:amount:\",\"visible\":true,\"common\":false,\"__gohashid\":861},{\"from\":\"source:Transactions:parameters\",\"to\":\"source:Transactions:comments:\",\"fromPort\":\"source:Transactions:parameters\",\"toPort\":\"source:Transactions:comments:\",\"visible\":true,\"common\":false,\"__gohashid\":862},{\"from\":\"source:Transactions:parameters\",\"to\":\"source:Transactions:completed:\",\"fromPort\":\"source:Transactions:parameters\",\"toPort\":\"source:Transactions:completed:\",\"visible\":true,\"common\":false,\"__gohashid\":863},{\"from\":\"source:Transactions:parameters\",\"to\":\"source:Transactions:counterpartyID:\",\"fromPort\":\"source:Transactions:parameters\",\"toPort\":\"source:Transactions:counterpartyID:\",\"visible\":true,\"common\":false,\"__gohashid\":864},{\"from\":\"source:Transactions:parameters\",\"to\":\"source:Transactions:id:\",\"fromPort\":\"source:Transactions:parameters\",\"toPort\":\"source:Transactions:id:\",\"visible\":true,\"common\":false,\"__gohashid\":865},{\"from\":\"source:Transactions:parameters\",\"to\":\"source:Transactions:name:\",\"fromPort\":\"source:Transactions:parameters\",\"toPort\":\"source:Transactions:name:\",\"visible\":true,\"common\":false,\"__gohashid\":866},{\"from\":\"source:Transactions:parameters\",\"to\":\"source:Transactions:netBalance:\",\"fromPort\":\"source:Transactions:parameters\",\"toPort\":\"source:Transactions:netBalance:\",\"visible\":true,\"common\":false,\"__gohashid\":867},{\"from\":\"source:Transactions:parameters\",\"to\":\"source:Transactions:posted:\",\"fromPort\":\"source:Transactions:parameters\",\"toPort\":\"source:Transactions:posted:\",\"visible\":true,\"common\":false,\"__gohashid\":868},{\"from\":\"source:Transactions:parameters\",\"to\":\"source:Transactions:type:\",\"fromPort\":\"source:Transactions:parameters\",\"toPort\":\"source:Transactions:type:\",\"visible\":true,\"common\":false,\"__gohashid\":869}],\"blockCount\":{\"variableCount\":0},\"variableMap\":{},\"xmlMappingOverride\":true}",
    "applyCommonMapping" : false,
    "applyRequestCommonMapping" : false,
    "applyResponseCommonMapping" : false,
    "backendMeta" : {
      "serviceName" : "dbpTransactionsorch",
      "serviceVersion" : "1.0",
      "operationName" : "getTransactionsorch"
    },
    "relationshipHierarchyMapping" : {
      "children" : [ ],
      "name" : "ExternalTransactionsAggregation",
      "actions" : {
        "get" : true
      },
      "selected" : true
    },
    "requestXmlMappingOverride" : true,
    "responseXmlMappingOverride" : true
  }
}