{
    "DNDConfig": null,
    "__parentReadjusting__": false,
    "_height_": {
        "type": "string",
        "value": "20dp"
    },
    "_left_": {
        "type": "string",
        "value": "4dp"
    },
    "_margin_": [
        0,
        0,
        0,
        0
    ],
    "_orientation_": 6,
    "_padding_": [
        0,
        0,
        0,
        0
    ],
    "_percent_": true,
    "_skin_": "s24c92fc23b14f5484b693ee9b8a9b35",
    "_top_": {
        "type": "string",
        "value": "0dp"
    },
    "_width_": {
        "type": "string",
        "value": "20dp"
    },
    "allboxes": [],
    "autogrowmode": 0,
    "canUpdateUI": true,
    "centery": {
        "type": "string",
        "value": "51%"
    },
    "children": [
        "imgInfo"
    ],
    "clipbounds": true,
    "containerId": true,
    "containerweight": 100,
    "desktopweb": {
        "psp": {
            "hoverSkin": "s3e0ac30f9774278a868cb7c73908a76"
        }
    },
    "enablescrolling": true,
    "id": "flxInfo",
    "ide_onClick": "AS_FlexContainer_j52303c4a33d4f86aab6da287142bedd",
    "info": null,
    "isvisible": true,
    "kuid": "de064358beaf42e88b22e04cbc77bd26",
    "layouttype": 3,
    "name": "kony.ui.FlexContainer",
    "parent": "flxPrimary",
    "pf": "segProfileManagementEmailTablet",
    "snapgridsize": 10,
    "snaptogrid": true,
    "wType": "FlexContainer",
    "widgetalignment": 1,
    "zindex": 1
}