{
    "@class": "com.kony.gen.viz.model.component.KVizButton",
    "DNDConfig": null,
    "__parentReadjusting__": false,
    "_height_": {
        "type": "ref",
        "value": "preferred"
    },
    "_margin_": [
        6,
        6,
        6,
        6
    ],
    "_padding_": [
        0,
        0,
        0,
        0
    ],
    "_right_": {
        "type": "string",
        "value": "20dp"
    },
    "_skin_": "sf6ca31ec68641e5a2df8232c58cd39a",
    "_text_": "EDIT",
    "_width_": {
        "type": "ref",
        "value": "preferred"
    },
    "accessibilityconfig": {
        "a11yLabel": "Edit"
    },
    "canUpdateUI": true,
    "centery": {
        "type": "string",
        "value": "50%"
    },
    "containerId": true,
    "containerweight": 100,
    "contentalignment": 5,
    "disabledSkins": {
        "focusSkin": "sf44d06ca8224832827ea7fdff757013"
    },
    "displaytext": true,
    "id": "btnEdit",
    "ide_onClick": "AS_Button_ce9b325ecfea4add898ee6be8f0395ee",
    "info": null,
    "isvisible": true,
    "kuid": "id45991bc78d428da489f3f7674616a4",
    "name": "kony.ui.Button",
    "parent": "flxEdit",
    "pf": "segProfileManagementEmail",
    "texti18n": "i18n.billPay.Edit",
    "tooltip": "Edit",
    "wType": "Button",
    "zindex": 1
}