{
	"DNDConfig": null,
	"__parentReadjusting__": false,
	"_height_": {
		"type": "string",
		"value": "150dp"
	},
	"_left_": {
		"type": "string",
		"value": "0dp"
	},
	"_margin_": [
		0,
		0,
		0,
		0
	],
	"_orientation_": 6,
	"_padding_": [
		0,
		0,
		0,
		0
	],
	"_percent_": true,
	"_skin_": "s24c92fc23b14f5484b693ee9b8a9b35",
	"_top_": {
		"type": "string",
		"value": "1100dp"
	},
	"_width_": {
		"type": "string",
		"value": "100%"
	},
	"allboxes": [],
	"autogrowmode": 0,
	"canUpdateUI": true,
	"children": [
		"customfooter",
		"Copyflxleftcontainer0c2717d3a13cb45",
		"Copyflxrightcontainer0c249a43c08314b"
	],
	"clipbounds": false,
	"containerweight": 100,
	"enablescrolling": true,
	"id": "flxFooter",
	"info": null,
	"isvisible": true,
	"kuid": "b7ce74da176c420a89bf5da22d96f91d",
	"layouttype": 2,
	"name": "kony.ui.FlexContainer",
	"parent": "frmAccountsDetails",
	"pf": "frmAccountsDetails",
	"responsiveData": {
		"b2": {
			"isVisible": true
		},
		"b3": {
			"isVisible": true,
			"top": {
				"type": "string",
				"value": "900dp"
			}
		}
	},
	"snapgridsize": 10,
	"snaptogrid": true,
	"wType": "FlexContainer",
	"widgetalignment": 1,
	"zindex": 1
}