{
    "@class": "com.kony.gen.viz.model.component.KVizUserWidget",
    "DNDConfig": null,
    "__parentReadjusting__": false,
    "_android_": {},
    "_androidwearos_": {},
    "_children_": [],
    "_desktopweb_": {},
    "_height_": {
        "type": "ref",
        "value": "preferred"
    },
    "_ipad_": {},
    "_iphone_": {},
    "_kiosk_": {},
    "_left_": {
        "type": "string",
        "value": "6%"
    },
    "_margin_": [
        0,
        0,
        0,
        0
    ],
    "_orientation_": 1,
    "_padding_": [
        0,
        0,
        0,
        0
    ],
    "_percent_": true,
    "_render_": true,
    "_responsiveData_": {
        "b1": {
            "left": {
                "type": "string",
                "value": "6.40%"
            },
            "right": {
                "type": "string",
                "value": "6.40%"
            }
        },
        "b2": {
            "left": {
                "type": "string",
                "value": "0%"
            },
            "right": {
                "type": "string",
                "value": "0%"
            },
            "top": {
                "type": "string",
                "value": "0dp"
            },
            "zIndex": 1
        },
        "b3": {
            "left": {
                "type": "string",
                "value": "34dp"
            },
            "right": {
                "type": "string",
                "value": "34dp"
            }
        },
        "b4": {
            "left": {
                "type": "string",
                "value": "6.40%"
            },
            "right": {
                "type": "string",
                "value": "6.40%"
            },
            "top": {
                "type": "string",
                "value": "0dp"
            }
        }
    },
    "_right_": {
        "type": "string",
        "value": "6%"
    },
    "_skin_": "s159c64666dc45ae9e98c0f9ca773d14",
    "_spa_": {},
    "_spaan_": {},
    "_spaandroidtablet_": {},
    "_spabb_": {},
    "_spaip_": {},
    "_spaipad_": {},
    "_spamobile_": {},
    "_spatablet_": {},
    "_spawindowstablet_": {},
    "_spawinphone8_": {},
    "_tabrcandroid_": {},
    "_top_": {
        "type": "string",
        "value": "0dp"
    },
    "_vizProps_": {
        "hidewidgethierarchy": false
    },
    "_width_": {
        "type": "string",
        "value": ""
    },
    "_windows10_": {},
    "_windows8_": {},
    "_winphone10_": {},
    "_winphone8_": {},
    "areflexpropsreferenced": false,
    "autogrowmode": 1,
    "canUpdateUI": true,
    "clipbounds": false,
    "containerweight": 100,
    "dataDiffs": {
        "btnAllChecking": {
            "__events__": {
                "ide_onClick": "AS_Button_db058c4251a0406db8efc47907d0f288"
            },
            "__info__": {
                "kuid": "ccd602171f0f47eeafe1b37abd8c3622",
                "srcKUID": "a1957aaffa8a40e29b4855b99c5ec40a",
                "wType": "Button"
            },
            "i18n_text": "i18n.AccountsDetails.ALL",
            "left": {},
            "responsiveData": {
                "b2": {
                    "left": {
                        "type": "string",
                        "value": "12dp"
                    }
                }
            }
        },
        "btnAllCredit": {
            "__events__": {
                "ide_onClick": "AS_Button_hbd7d377f4344676bfa25ecf3412bfa6"
            },
            "__info__": {
                "kuid": "h0cc241966964abfbab3ba628dc4faa1",
                "srcKUID": "ga4a8d0f6c944b9598d77f3fac7a07e0",
                "wType": "Button"
            },
            "i18n_text": "i18n.AccountsDetails.ALL",
            "left": {},
            "responsiveData": {
                "b2": {
                    "left": {
                        "type": "string",
                        "value": "12dp"
                    }
                }
            }
        },
        "btnAllDeposit": {
            "__events__": {
                "ide_onClick": "AS_Button_e6b198ffd59247a197e5765e0783d5ff"
            },
            "__info__": {
                "kuid": "de509c995f9c4e3c93b2a955613773a0",
                "srcKUID": "b5080817d9484d36bed5516941223f25",
                "wType": "Button"
            },
            "i18n_text": "i18n.AccountsDetails.ALL",
            "left": {},
            "responsiveData": {
                "b2": {
                    "left": {
                        "type": "string",
                        "value": "12dp"
                    }
                }
            }
        },
        "btnAllLoan": {
            "__events__": {
                "ide_onClick": "AS_Button_f19c3e48c7164d6c90597dc986e2ddb5"
            },
            "__info__": {
                "kuid": "c4e3bc24951146939dfe8436d57bcd66",
                "srcKUID": "fd5e64271ff44f0488c524316027bd64",
                "wType": "Button"
            },
            "i18n_text": "i18n.AccountsDetails.ALL",
            "left": {},
            "responsiveData": {
                "b2": {
                    "left": {
                        "type": "string",
                        "value": "12dp"
                    }
                }
            }
        },
        "btnCancel": {
            "__events__": {},
            "__info__": {
                "kuid": "ad47f857ece44728858f7b7eda736922",
                "srcKUID": "g0afb70164694f87922ca8e01b649486",
                "wType": "Button"
            },
            "height": {},
            "i18n_text": "i18n.transfers.Cancel",
            "responsiveData": {
                "b2": {
                    "height": {
                        "type": "string",
                        "value": "40dp"
                    },
                    "top": {
                        "type": "string",
                        "value": "60dp"
                    },
                    "width": {
                        "type": "string",
                        "value": "100%"
                    }
                }
            },
            "top": {},
            "width": {}
        },
        "btnChecksChecking": {
            "__events__": {
                "ide_onClick": "AS_Button_aed33baeda8c40faa84d6682154c6335"
            },
            "__info__": {
                "kuid": "efb3954c7d934da1b840d0547f97c08a",
                "srcKUID": "cd489967191f4f35aaed77ff649cc0cb",
                "wType": "Button"
            },
            "i18n_text": "i18n.accounts.checks"
        },
        "btnClearSearch": {
            "__events__": {},
            "__info__": {
                "kuid": "dd1a4ede98a5445289275d619b6eca8e",
                "srcKUID": "f3ea2253a17544c88b435604f7584041",
                "wType": "Button"
            },
            "bottom": {},
            "height": {},
            "i18n_text": "i18n.AccountsDetails.CLEARSEARCH",
            "left": {},
            "responsiveData": {
                "b2": {
                    "bottom": {
                        "type": "string",
                        "value": ""
                    },
                    "height": {
                        "type": "ref",
                        "value": "preferred"
                    },
                    "left": {
                        "type": "string",
                        "value": "0.50%"
                    },
                    "text": "Clear Search"
                }
            },
            "text": "CLEAR SEARCH"
        },
        "btnDepositDeposit": {
            "__events__": {
                "ide_onClick": "AS_Button_h8921900becf47429f102bb44d9dbd51"
            },
            "__info__": {
                "kuid": "ddfab3d7b1334e4483aa4add8b31fe71",
                "srcKUID": "f3f720ee2c0142efb957fa0e60741ca5",
                "wType": "Button"
            },
            "i18n_text": "i18n.accounts.deposits"
        },
        "btnDepositsChecking": {
            "__events__": {
                "ide_onClick": "AS_Button_de94fd7dc8dc456a8a5beee49439d358"
            },
            "__info__": {
                "kuid": "de275632df004ae5b8e294c0dddbe325",
                "srcKUID": "h1ec54b98f2b4fd1959f5909fee6f1e6",
                "wType": "Button"
            },
            "i18n_text": "i18n.accounts.deposits"
        },
        "btnDummyLeftChecking": {
            "__events__": {},
            "__info__": {
                "kuid": "fd4f65f5bc4c4af39b6d31fa4a6ebe63",
                "srcKUID": "i0dfa2dd67a34a569103ea11cc462e17",
                "wType": "Button"
            }
        },
        "btnDummyLeftCredit": {
            "__events__": {},
            "__info__": {
                "kuid": "a542f51145d04aba9e88d772504463dc",
                "srcKUID": "b87818455b7f4ed8be31177b6db6ffe3",
                "wType": "Button"
            }
        },
        "btnDummyLeftDeposit": {
            "__events__": {},
            "__info__": {
                "kuid": "hff0abe3d9a34cd2ba78ac9155026e6c",
                "srcKUID": "c3c41262c5014b679ae025b843d50aff",
                "wType": "Button"
            }
        },
        "btnDummyLeftLoan": {
            "__events__": {},
            "__info__": {
                "kuid": "bec7d5c9aaa64b10bb86ab5c489e08e2",
                "srcKUID": "f847df465b0f4b31b8738f7805393702",
                "wType": "Button"
            }
        },
        "btnDummyRightCredit": {
            "__events__": {},
            "__info__": {
                "kuid": "ef07540045834264913738cb35f66f8d",
                "srcKUID": "ib6b4d4bb31f4358ba58a07d4da4f28a",
                "wType": "Button"
            }
        },
        "btnDummyRightDeposit": {
            "__events__": {},
            "__info__": {
                "kuid": "a14e10d16a52409aa597c477b5a9826e",
                "srcKUID": "cd6aa3fc36054132939571d9d9ea573f",
                "wType": "Button"
            }
        },
        "btnDummyRightLoan": {
            "__events__": {},
            "__info__": {
                "kuid": "bb216ee693be4f5b8236da9c637b95b6",
                "srcKUID": "ce79080c34af44869ac718800442de5e",
                "wType": "Button"
            }
        },
        "btnInterestDeposit": {
            "__events__": {
                "ide_onClick": "AS_Button_j1bbf11663434227b581ed7c02716466"
            },
            "__info__": {
                "kuid": "bc1b4cfaf23d41cba028fc4babcf0bd4",
                "srcKUID": "b2f18ab8df1d4dfe94d9277b3ce473f3",
                "wType": "Button"
            },
            "i18n_text": "i18n.AccountsDetails.INTEREST"
        },
        "btnModifySearch": {
            "__events__": {},
            "__info__": {
                "kuid": "ha77ed51f78140faad0eeb6c84c80aa5",
                "srcKUID": "cdd0a317a4f74ad88ed197edbd4295b5",
                "wType": "Button"
            },
            "bottom": {},
            "height": {},
            "i18n_text": "i18n.AccountsDetails.MODIFYSEARCH",
            "left": {},
            "responsiveData": {
                "b2": {
                    "bottom": {
                        "type": "string",
                        "value": ""
                    },
                    "height": {
                        "type": "ref",
                        "value": "preferred"
                    },
                    "left": {
                        "type": "string",
                        "value": ""
                    },
                    "right": {
                        "type": "string",
                        "value": "0.50%"
                    },
                    "text": "Modify Search",
                    "top": {
                        "type": "string",
                        "value": "0dp"
                    }
                }
            },
            "right": {},
            "text": "MODIFY SEARCH",
            "top": {}
        },
        "btnPaymentsCredit": {
            "__events__": {
                "ide_onClick": "AS_Button_g63b7ea21a884599bf4ef22505f0988f"
            },
            "__info__": {
                "kuid": "daf8e7ed30fc43389304f55df6fb2f7d",
                "srcKUID": "f71ebd31949e449ca9ed937c261c7844",
                "wType": "Button"
            },
            "i18n_text": "i18n.AccountsDetails.PAYMENTS"
        },
        "btnPurchasesCredit": {
            "__events__": {
                "ide_onClick": "AS_Button_d80cf3cffa454fd2b5976eb15a90bdb2"
            },
            "__info__": {
                "kuid": "a1370ee4b64042ab8d8b892420d67d59",
                "srcKUID": "gbee2192aa5d4bd499ca4124a32e19ee",
                "wType": "Button"
            },
            "i18n_text": "i18n.AccountsDetails.PURCHASES"
        },
        "btnSearch": {
            "__events__": {},
            "__info__": {
                "kuid": "j2cb60aaebd64383ab0b43f875155a61",
                "srcKUID": "d1dfe298620e4acf8f8179c303e4c23c",
                "wType": "Button"
            },
            "height": {},
            "i18n_text": "i18n.billPay.Search",
            "left": {},
            "responsiveData": {
                "b2": {
                    "height": {
                        "type": "string",
                        "value": "40dp"
                    },
                    "left": {
                        "type": "string",
                        "value": "0dp"
                    },
                    "right": {
                        "type": "string",
                        "value": ""
                    },
                    "top": {
                        "type": "string",
                        "value": "0dp"
                    },
                    "width": {
                        "type": "string",
                        "value": "100%"
                    }
                }
            },
            "right": {},
            "top": {},
            "width": {}
        },
        "btnTransfersChecking": {
            "__events__": {
                "ide_onClick": "AS_Button_f94299e52d1d4aef97c1ae2d79dd3246"
            },
            "__info__": {
                "kuid": "ec60105458f841b3bc73cc494dc7c487",
                "srcKUID": "b3aa48aba2d54f7a902580232014e48b",
                "wType": "Button"
            },
            "i18n_text": "i18n.hamburger.transfers"
        },
        "btnWithdrawDeposit": {
            "__events__": {
                "ide_onClick": "AS_Button_da9325cbe40346b6acd538a57c5d2c90"
            },
            "__info__": {
                "kuid": "fba42f89b5954229838d6a799efbb27e",
                "srcKUID": "e7ca7505795c4f9eb7b147522e657f96",
                "wType": "Button"
            },
            "text": "Withdraw"
        },
        "btnWithdrawsChecking": {
            "__events__": {
                "ide_onClick": "AS_Button_gc5e06cd8afc4fffaef056a3022d34c1"
            },
            "__info__": {
                "kuid": "ja926a9427f9409c9e975b102b63871e",
                "srcKUID": "a721b9380c0c42b9a55036bd69ac5703",
                "wType": "Button"
            },
            "i18n_text": "i18n.accounts.withdrawls"
        },
        "calDateFrom": {
            "__events__": {},
            "__info__": {
                "kuid": "bf2e1eca68f545ed90597e29a17f713f",
                "srcKUID": "h2c4333530a046a4a9fe67bfbd3039ac",
                "wType": "Calendar"
            },
            "left": {},
            "responsiveData": {
                "b2": {
                    "left": {
                        "type": "string",
                        "value": "0dp"
                    },
                    "width": {
                        "type": "string",
                        "value": "45%"
                    }
                }
            },
            "width": {}
        },
        "calDateTo": {
            "__events__": {},
            "__info__": {
                "kuid": "hf9b5adcecd84b6891a4bcf1e08104b5",
                "srcKUID": "b39a57653fca46faa13b1012f48bbbe1",
                "wType": "Calendar"
            },
            "left": {},
            "responsiveData": {
                "b2": {
                    "left": {
                        "type": "string",
                        "value": ""
                    },
                    "right": {
                        "type": "string",
                        "value": "0dp"
                    },
                    "width": {
                        "type": "string",
                        "value": "45%"
                    }
                }
            },
            "right": {},
            "width": {}
        },
        "flxActions": {
            "__events__": {},
            "__info__": {
                "kuid": "e3a02d8c6b1f4654a26565ee42da3b7c",
                "srcKUID": "a7a91bd493a8495ea91231669220f5b1",
                "wType": "FlexContainer"
            },
            "autogrowMode": {
                "Default": 0
            },
            "height": {},
            "left": {},
            "responsiveData": {
                "b2": {
                    "height": {
                        "type": "string",
                        "value": "100dp"
                    },
                    "layoutType": 2,
                    "left": {
                        "type": "string",
                        "value": "2.50%"
                    },
                    "right": {
                        "type": "string",
                        "value": ""
                    },
                    "top": {
                        "type": "string",
                        "value": "16dp"
                    },
                    "width": {
                        "type": "string",
                        "value": "95%"
                    }
                }
            },
            "right": {},
            "top": {},
            "width": {}
        },
        "flxActionsContainer": {
            "__events__": {},
            "__info__": {
                "kuid": "aa194ab20c7542ed81a0a6a8e758b324",
                "srcKUID": "hb8fca0352f545a5b3a18e4f48f72589",
                "wType": "FlexContainer"
            }
        },
        "flxAmountRangeFrom": {
            "__events__": {},
            "__info__": {
                "kuid": "cd3e71ce9890418183d79e815598a013",
                "srcKUID": "a7d859a1860740c4aa77822d6895a6ab",
                "wType": "FlexContainer"
            },
            "responsiveData": {
                "b2": {
                    "width": {
                        "type": "string",
                        "value": "45%"
                    }
                }
            },
            "width": {}
        },
        "flxAmountRangeTo": {
            "__events__": {},
            "__info__": {
                "kuid": "hb1d4ad34d8546618f5dd425856bd63a",
                "srcKUID": "j3a4d1724e7a468ab1a8204eb602a4d4",
                "wType": "FlexContainer"
            },
            "clipBounds": false,
            "left": {},
            "responsiveData": {
                "b2": {
                    "left": {
                        "type": "string",
                        "value": ""
                    },
                    "right": {
                        "type": "string",
                        "value": "0dp"
                    },
                    "width": {
                        "type": "string",
                        "value": "45%"
                    }
                }
            },
            "right": {},
            "width": {}
        },
        "flxAmountRangeWrapper": {
            "__events__": {},
            "__info__": {
                "kuid": "j197d3d72baa485fbbf224a8d3191056",
                "srcKUID": "cffdba3591904476b399bfe960c098f0",
                "wType": "FlexContainer"
            },
            "left": {},
            "responsiveData": {
                "b2": {
                    "left": {
                        "type": "string",
                        "value": "0dp"
                    }
                }
            }
        },
        "flxBlankSpace": {
            "__events__": {},
            "__info__": {
                "kuid": "fd9d379bb8fa4e379671db733eea3eac",
                "srcKUID": "c0780112173342c6a9fcd7e7df7b1643",
                "wType": "FlexContainer"
            },
            "autogrowMode": {
                "Default": 0
            },
            "height": {},
            "left": {},
            "responsiveData": {
                "b2": {
                    "height": {
                        "type": "string",
                        "value": "1dp"
                    },
                    "isVisible": true,
                    "left": {
                        "type": "string",
                        "value": "0dp"
                    }
                }
            }
        },
        "flxByAmountRange": {
            "__events__": {},
            "__info__": {
                "kuid": "a9f0782a35ea4c7bad2920375890d794",
                "srcKUID": "f1d31b87275b42cd953f0559c906155b",
                "wType": "FlexContainer"
            },
            "left": {},
            "responsiveData": {
                "b2": {
                    "layoutType": 2,
                    "left": {
                        "type": "string",
                        "value": "2.50%"
                    },
                    "width": {
                        "type": "string",
                        "value": "95%"
                    }
                }
            },
            "width": {}
        },
        "flxByCheckNumber": {
            "__events__": {},
            "__info__": {
                "kuid": "ea3acb2b8fa44bf1918e3508d50d8fbb",
                "srcKUID": "hecfc8104c9a4d20a86f36075c411d5c",
                "wType": "FlexContainer"
            },
            "left": {},
            "responsiveData": {
                "b2": {
                    "layoutType": 2,
                    "left": {
                        "type": "string",
                        "value": "2.50%"
                    },
                    "right": {
                        "type": "string",
                        "value": ""
                    },
                    "width": {
                        "type": "string",
                        "value": "95%"
                    }
                }
            },
            "right": {},
            "width": {}
        },
        "flxByDate": {
            "__events__": {},
            "__info__": {
                "kuid": "a163216f37b644b1900cd9c861f9f0a3",
                "srcKUID": "f17a190dbbee485f8d0879c5c4c9d211",
                "wType": "FlexContainer"
            },
            "left": {},
            "responsiveData": {
                "b2": {
                    "layoutType": 2,
                    "left": {
                        "type": "string",
                        "value": "2.50%"
                    },
                    "width": {
                        "type": "string",
                        "value": "95%"
                    }
                }
            },
            "width": {}
        },
        "flxCancelAmountRange": {
            "__events__": {},
            "__info__": {
                "kuid": "aa5ba7d7da2b46b39e9bccda5bffe7dc",
                "srcKUID": "ae5f9b3349fb429b8bca47a566f05af5",
                "wType": "FlexContainer"
            }
        },
        "flxCancelAmountRangeM": {
            "__events__": {},
            "__info__": {
                "kuid": "f7f76e4070a94adf8442c94e70179a0d",
                "srcKUID": "f9a6f21b65014826a2062cbcbd439bdc",
                "wType": "FlexContainer"
            }
        },
        "flxCancelCheckNumber": {
            "__events__": {},
            "__info__": {
                "kuid": "ce74eda11b6945f89510cdac7771d8e5",
                "srcKUID": "e60af527b598441ebc6e7a08447c27f3",
                "wType": "FlexContainer"
            }
        },
        "flxCancelCheckNumberM": {
            "__events__": {},
            "__info__": {
                "kuid": "f8b00d20153b48e5b789ce53f5fe6f32",
                "srcKUID": "bc9502a0182a489aa3a81d6293dee94d",
                "wType": "FlexContainer"
            }
        },
        "flxCancelDateRange": {
            "__events__": {},
            "__info__": {
                "kuid": "g435e60d7f75485b95701065875d9104",
                "srcKUID": "f4d0a8946d0f46639d173e19839ed6bf",
                "wType": "FlexContainer"
            }
        },
        "flxCancelDateRangeM": {
            "__events__": {},
            "__info__": {
                "kuid": "j2c378c82d4748f29b748391b04e7f77",
                "srcKUID": "ea00ddbafe644e3c81e518e76691128f",
                "wType": "FlexContainer"
            }
        },
        "flxCancelKeyword": {
            "__events__": {},
            "__info__": {
                "kuid": "f5714d2d2f8c46e2a974dc3a2b9c9fb8",
                "srcKUID": "a8834621c24742049c81d376ae6aca46",
                "wType": "FlexContainer"
            }
        },
        "flxCancelKeywordM": {
            "__events__": {},
            "__info__": {
                "kuid": "ab343f43f59641f2b58662335851cd8e",
                "srcKUID": "d0287ceff18942f7b99bdf12f3ca570f",
                "wType": "FlexContainer"
            }
        },
        "flxCancelType": {
            "__events__": {},
            "__info__": {
                "kuid": "b3c1cc4905cb47a4a0806c3a354eefaf",
                "srcKUID": "g47668ed33de4a568c1960018a2a797e",
                "wType": "FlexContainer"
            }
        },
        "flxCancelTypeM": {
            "__events__": {},
            "__info__": {
                "kuid": "ea4724c14d78482284eab5987e1525c7",
                "srcKUID": "g1ee04e48f5a4a32863ab3a215b370d5",
                "wType": "FlexContainer"
            }
        },
        "flxCheckNumberWrapper": {
            "__events__": {},
            "__info__": {
                "kuid": "h2ccb884be1842c1939ad2cf0f1c0811",
                "srcKUID": "j824ecb7e418443aa6a703e792a4ce02",
                "wType": "FlexContainer"
            },
            "autogrowMode": {
                "Default": 0
            },
            "height": {},
            "responsiveData": {
                "b2": {
                    "height": {
                        "type": "string",
                        "value": "22dp"
                    },
                    "isVisible": true,
                    "layoutType": 3,
                    "top": {
                        "type": "string",
                        "value": "10dp"
                    }
                }
            },
            "top": {}
        },
        "flxDateRangeWrapper": {
            "__events__": {},
            "__info__": {
                "kuid": "i1b9259cd99842dfb43285fa5909bc45",
                "srcKUID": "f78e876edd8e4326a66e637b167f3edf",
                "wType": "FlexContainer"
            },
            "autogrowMode": {
                "Default": 0
            },
            "height": {},
            "responsiveData": {
                "b2": {
                    "height": {
                        "type": "string",
                        "value": "22dp"
                    },
                    "layoutType": 3,
                    "top": {
                        "type": "string",
                        "value": "10dp"
                    }
                }
            },
            "top": {}
        },
        "flxDownload": {
            "__events__": {},
            "__info__": {
                "kuid": "df689a9d2dfb4e66be9dea68bbae9e52",
                "srcKUID": "ee36947caaae439491cad3c7f448ca5d",
                "wType": "FlexContainer"
            },
            "isVisible": false,
            "responsiveData": {
                "b1": {
                    "right": {
                        "type": "string",
                        "value": ""
                    }
                },
                "b4": {
                    "right": {
                        "type": "string",
                        "value": ""
                    }
                }
            },
            "right": {}
        },
        "flxHeader": {
            "__events__": {},
            "__info__": {
                "kuid": "bf545c8ef3dd44cd87ae77a3cefe67d1",
                "srcKUID": "ccb0913acb1642e8877a8d9a923c66e2",
                "wType": "FlexContainer"
            },
            "autogrowMode": {
                "Default": 0
            },
            "height": {},
            "responsiveData": {
                "b1": {
                    "height": {
                        "type": "string",
                        "value": "55dp"
                    }
                },
                "b3": {
                    "height": {
                        "type": "string",
                        "value": "55dp"
                    }
                },
                "b4": {
                    "height": {
                        "type": "string",
                        "value": "55dp"
                    }
                }
            }
        },
        "flxKeywordWrapper": {
            "__events__": {},
            "__info__": {
                "kuid": "ae046b66607d4fa5b703da674dd95600",
                "srcKUID": "d153e0f95a3e498dadd101b1662cef53",
                "wType": "FlexContainer"
            },
            "left": {},
            "responsiveData": {
                "b2": {
                    "isVisible": true,
                    "left": {
                        "type": "string",
                        "value": "0dp"
                    },
                    "top": {
                        "type": "string",
                        "value": "10dp"
                    },
                    "width": {
                        "type": "string",
                        "value": "100%"
                    }
                }
            },
            "top": {},
            "width": {}
        },
        "flxLeftSearch": {
            "__events__": {},
            "__info__": {
                "kuid": "i41336e7b9af445099771d4d83e14404",
                "srcKUID": "bca20f135ff3473bb68fcc5ed6137051",
                "wType": "FlexContainer"
            },
            "autogrowMode": {
                "Default": 0
            },
            "height": {},
            "responsiveData": {
                "b2": {
                    "height": {
                        "type": "string",
                        "value": "280dp"
                    },
                    "width": {
                        "type": "string",
                        "value": "100%"
                    },
                    "zIndex": 2
                }
            },
            "width": {},
            "zIndex": {}
        },
        "flxNoTransactions": {
            "__events__": {},
            "__info__": {
                "kuid": "b57ac4f56ace42e58d478c855bf391fb",
                "srcKUID": "f9677e5ef1f44ee7aa2cf170b7995981",
                "wType": "FlexContainer"
            },
            "isVisible": false,
            "responsiveData": {
                "b2": {
                    "top": {
                        "type": "string",
                        "value": "0dp"
                    }
                }
            },
            "top": {}
        },
        "flxPagination": {
            "__events__": {},
            "__info__": {
                "kuid": "ddb6deefa5cc41ddaffd93ffa1153acc",
                "srcKUID": "h3abb723ad714f79a0f03009706d258a",
                "wType": "FlexContainer"
            },
            "responsiveData": {
                "b2": {
                    "isVisible": true
                }
            }
        },
        "flxPaginationNext": {
            "__events__": {},
            "__info__": {
                "kuid": "gc1ea0b592cf4caa89fb635118ee2ddd",
                "srcKUID": "a0125d3d5ebe4ea2988bfcb7848a8552",
                "wType": "FlexContainer"
            },
            "autogrowMode": {
                "Default": 0
            },
            "height": {},
            "left": {},
            "responsiveData": {
                "b4": {
                    "height": {
                        "type": "string",
                        "value": "32dp"
                    },
                    "left": {
                        "type": "number",
                        "value": "0"
                    },
                    "width": {
                        "type": "string",
                        "value": "32dp"
                    }
                }
            },
            "width": {}
        },
        "flxPaginationPrevious": {
            "__events__": {},
            "__info__": {
                "kuid": "j55808457e054b6bbba75700d0b57981",
                "srcKUID": "ef675db945b946e3b9cce0cbca995314",
                "wType": "FlexContainer"
            },
            "left": {},
            "responsiveData": {
                "b1": {
                    "left": {
                        "type": "string",
                        "value": "75dp"
                    },
                    "top": {
                        "type": "number",
                        "value": "4"
                    }
                },
                "b2": {
                    "left": {
                        "type": "string",
                        "value": "0dp"
                    },
                    "top": {
                        "type": "string",
                        "value": "4dp"
                    }
                },
                "b3": {
                    "left": {
                        "type": "string",
                        "value": "128dp"
                    },
                    "top": {
                        "type": "string",
                        "value": "4dp"
                    }
                },
                "b4": {
                    "left": {
                        "type": "string",
                        "value": "75dp"
                    },
                    "top": {
                        "type": "string",
                        "value": "0dp"
                    }
                }
            },
            "top": {}
        },
        "flxPaginationWrapper": {
            "__events__": {},
            "__info__": {
                "kuid": "j5ae25901cbd47f48b6590130600b4ff",
                "srcKUID": "ace9b4f4a5904927a42f348c2b900fa8",
                "wType": "FlexContainer"
            },
            "centerX": {
                "Default": {
                    "type": "string",
                    "value": ""
                }
            },
            "centerY": {
                "Default": {
                    "type": "string",
                    "value": ""
                }
            },
            "clipBounds": false,
            "responsiveData": {
                "b1": {
                    "width": {
                        "type": "string",
                        "value": "26.50%"
                    }
                },
                "b2": {
                    "centerX": {
                        "type": "string",
                        "value": "50%"
                    },
                    "width": {
                        "type": "string",
                        "value": "290dp"
                    }
                },
                "b3": {
                    "width": {
                        "type": "string",
                        "value": "400dp"
                    }
                },
                "b4": {
                    "width": {
                        "type": "string",
                        "value": "26.50%"
                    }
                }
            },
            "right": {
                "Default": {
                    "type": "string",
                    "value": "0dp"
                }
            },
            "width": {
                "Default": {
                    "type": "string",
                    "value": "25%"
                }
            }
        },
        "flxPrint": {
            "__events__": {},
            "__info__": {
                "kuid": "b6b74e961ec446228d6a2df0f70a2ede",
                "srcKUID": "a7b8fc6ab1fc43308db813e2844590ab",
                "wType": "FlexContainer"
            },
            "responsiveData": {
                "b1": {
                    "right": {
                        "type": "string",
                        "value": ""
                    }
                },
                "b2": {
                    "isVisible": false
                },
                "b3": {
                    "isVisible": false
                },
                "b4": {
                    "right": {
                        "type": "string",
                        "value": ""
                    }
                }
            },
            "right": {}
        },
        "flxRightSearchWrapper": {
            "__events__": {},
            "__info__": {
                "kuid": "ge6e16034c664c1dbc9a15017b6ac8f6",
                "srcKUID": "ea4d9f029b29430194748dd3323669be",
                "wType": "FlexContainer"
            },
            "autogrowMode": {
                "Default": 0
            },
            "height": {},
            "left": {
                "Default": {
                    "type": "string",
                    "value": "0dp"
                }
            },
            "responsiveData": {
                "b2": {
                    "height": {
                        "type": "string",
                        "value": "60%"
                    },
                    "top": {
                        "type": "string",
                        "value": "-30dp"
                    },
                    "width": {
                        "type": "string",
                        "value": "100%"
                    }
                }
            },
            "top": {},
            "width": {}
        },
        "flxSearch": {
            "__events__": {},
            "__info__": {
                "kuid": "fafbaabbb7ab48c99d6adc9756de47e2",
                "srcKUID": "bdcbc4075a7e4520805599e92954d867",
                "wType": "FlexContainer"
            },
            "responsiveData": {
                "b1": {
                    "right": {
                        "type": "string",
                        "value": ""
                    }
                },
                "b3": {
                    "isVisible": true
                },
                "b4": {
                    "right": {
                        "type": "string",
                        "value": ""
                    }
                }
            },
            "right": {}
        },
        "flxSearchContainer": {
            "__events__": {},
            "__info__": {
                "kuid": "b4e138b1418e4c068ffde08c36db95ce",
                "srcKUID": "fefbc92d54c247be82c5bac69bbcaf67",
                "wType": "FlexContainer"
            },
            "autogrowMode": {
                "Default": 0
            },
            "clipBounds": false,
            "height": {},
            "isVisible": false,
            "left": {},
            "responsiveData": {
                "b2": {
                    "height": {
                        "type": "string",
                        "value": "660dp"
                    },
                    "isVisible": false,
                    "left": {
                        "type": "string",
                        "value": "0dp"
                    },
                    "width": {
                        "type": "string",
                        "value": "100%"
                    }
                },
                "b3": {
                    "width": {
                        "type": "string",
                        "value": "100%"
                    }
                }
            },
            "top": {
                "Default": {
                    "type": "string",
                    "value": "0dp"
                }
            },
            "width": {}
        },
        "flxSearchContainerWrapper": {
            "__events__": {},
            "__info__": {
                "kuid": "b60f8e7c44724175b764563fedd5b2b0",
                "srcKUID": "fe021d665d1243129cae37021c17cd36",
                "wType": "FlexContainer"
            },
            "autogrowMode": {
                "Default": 0
            },
            "height": {},
            "responsiveData": {
                "b2": {
                    "height": {
                        "type": "string",
                        "value": "100%"
                    },
                    "layoutType": 4
                }
            }
        },
        "flxSearchItemKeyword": {
            "__events__": {},
            "__info__": {
                "kuid": "c10f990b2e3b485dbf60a5e2b059dd02",
                "srcKUID": "j0975c7d56654a28b8d0236e12e8e50f",
                "wType": "FlexContainer"
            },
            "responsiveData": {
                "b2": {
                    "width": {
                        "type": "string",
                        "value": "100%"
                    }
                }
            },
            "width": {}
        },
        "flxSearchItemOthers": {
            "__events__": {},
            "__info__": {
                "kuid": "d246977264c343e581239b3bd362ce0f",
                "srcKUID": "jab3ae48daaf4d5d8d00319d669532ed",
                "wType": "FlexContainer"
            },
            "responsiveData": {
                "b2": {
                    "layoutType": 2
                }
            }
        },
        "flxSearchItems": {
            "__events__": {},
            "__info__": {
                "kuid": "a39209eb6788446b895e62739ef7065e",
                "srcKUID": "h26ad53e9dab4620a28b83581d844afb",
                "wType": "FlexContainer"
            },
            "responsiveData": {
                "b2": {
                    "isVisible": false,
                    "layoutType": 4,
                    "right": {
                        "type": "string",
                        "value": "120dp"
                    },
                    "width": {
                        "type": "string",
                        "value": ""
                    }
                }
            },
            "right": {},
            "width": {}
        },
        "flxSearchItemsMobile": {
            "__events__": {},
            "__info__": {
                "kuid": "eeb03b058382415da038b4ff94229bc1",
                "srcKUID": "ef47abe4a06b46168239aa4b008fc11e",
                "wType": "FlexContainer"
            },
            "autogrowMode": {
                "Default": 0
            },
            "height": {},
            "left": {},
            "maxHeight": {},
            "responsiveData": {
                "b2": {
                    "height": {
                        "type": "string",
                        "value": "160dp"
                    },
                    "isVisible": true,
                    "left": {
                        "type": "string",
                        "value": "2.50%"
                    },
                    "maxHeight": {
                        "type": "string",
                        "value": ""
                    },
                    "top": {
                        "type": "string",
                        "value": "0dp"
                    },
                    "width": {
                        "type": "string",
                        "value": "95%"
                    }
                }
            },
            "top": {},
            "width": {}
        },
        "flxSearchResultActions": {
            "__events__": {},
            "__info__": {
                "kuid": "d5f91083c2494c38a0b93adc902a7fe9",
                "srcKUID": "dc4a90ad16694b8583c6b5c68747ded2",
                "wType": "FlexContainer"
            },
            "autogrowMode": {
                "Default": 0
            },
            "bottom": {},
            "height": {},
            "left": {},
            "responsiveData": {
                "b2": {
                    "bottom": {
                        "type": "string",
                        "value": ""
                    },
                    "height": {
                        "type": "string",
                        "value": "22dp"
                    },
                    "isVisible": true,
                    "layoutType": 2,
                    "left": {
                        "type": "string",
                        "value": "0%"
                    },
                    "right": {
                        "type": "string",
                        "value": ""
                    },
                    "top": {
                        "type": "string",
                        "value": "15dp"
                    },
                    "width": {
                        "type": "string",
                        "value": "100%"
                    }
                }
            },
            "right": {},
            "top": {},
            "width": {}
        },
        "flxSearchResults": {
            "__events__": {},
            "__info__": {
                "kuid": "i115e2267ff849fdb505ce44cc9d2719",
                "srcKUID": "fa82015acb7e4a9eb7da31566f078447",
                "wType": "FlexContainer"
            },
            "autogrowMode": {
                "Default": 0
            },
            "clipBounds": false,
            "height": {},
            "isVisible": false,
            "maxHeight": {},
            "responsiveData": {
                "b2": {
                    "height": {
                        "type": "string",
                        "value": "240dp"
                    },
                    "isVisible": false,
                    "maxHeight": {
                        "type": "string",
                        "value": ""
                    },
                    "top": {
                        "type": "string",
                        "value": "0dp"
                    },
                    "width": {
                        "type": "string",
                        "value": "100%"
                    }
                },
                "b4": {
                    "isVisible": false
                }
            },
            "top": {},
            "width": {}
        },
        "flxSegmentContainer": {
            "__events__": {},
            "__info__": {
                "kuid": "b9d9af0412bd4c4383e4759a08c8a58e",
                "srcKUID": "c1209849ad884501b155bb25e1fd12a1",
                "wType": "FlexContainer"
            },
            "clipBounds": false,
            "responsiveData": {
                "b2": {
                    "top": {
                        "type": "string",
                        "value": "0dp"
                    },
                    "width": {
                        "type": "string",
                        "value": "100%"
                    },
                    "zIndex": 4
                }
            },
            "top": {},
            "width": {},
            "zIndex": {}
        },
        "flxSeparator": {
            "__events__": {},
            "__info__": {
                "kuid": "ja579e67da0648428dc6ec45dd770348",
                "srcKUID": "ebde454fc9bf4532b4f3b752775941b6",
                "wType": "FlexContainer"
            },
            "isVisible": false
        },
        "flxSeparatorNoResults": {
            "__events__": {},
            "__info__": {
                "kuid": "b4406360b0934acb98d97542f253c2f6",
                "srcKUID": "e2d97735da9146769158ec71278c5cbf",
                "wType": "FlexContainer"
            }
        },
        "flxSeparatorSearch": {
            "__events__": {},
            "__info__": {
                "kuid": "b399d9a2145d4f04a07accb9fee6f544",
                "srcKUID": "a2a9d36e7574420fad436703ae2f2133",
                "wType": "FlexContainer"
            },
            "responsiveData": {
                "b2": {
                    "isVisible": false,
                    "top": {
                        "type": "string",
                        "value": "15dp"
                    }
                },
                "b4": {
                    "isVisible": false
                }
            },
            "top": {}
        },
        "flxSeparatorSearchTwo": {
            "__events__": {},
            "__info__": {
                "kuid": "cd9516b6ee494342af87ed7fe6b19e4f",
                "srcKUID": "ee2f8356724b41e098d9645c2783d256",
                "wType": "FlexContainer"
            }
        },
        "flxSeparatorSort": {
            "__events__": {},
            "__info__": {
                "kuid": "d90f9f04fad34ef38cdefdf1a83f286d",
                "srcKUID": "i5b42be5cf8a4155ad17f0c3c6b012ab",
                "wType": "FlexContainer"
            }
        },
        "flxShadowSort": {
            "__events__": {},
            "__info__": {
                "kuid": "a9600a8242654aaaa1f3c097e1b80761",
                "srcKUID": "c60f734f6e974d89bd412b49e7c877cf",
                "wType": "FlexContainer"
            }
        },
        "flxSort": {
            "__events__": {},
            "__info__": {
                "kuid": "efce798328ee4ff9b54f6166715d0bad",
                "srcKUID": "g241718ac6e0411ab4e05f2abbcae135",
                "wType": "FlexContainer"
            },
            "autogrowMode": {
                "Default": 0
            },
            "clipBounds": false,
            "height": {},
            "responsiveData": {
                "b2": {
                    "height": {
                        "type": "string",
                        "value": "40dp"
                    },
                    "isVisible": false,
                    "top": {
                        "type": "string",
                        "value": "0dp"
                    }
                }
            },
            "top": {}
        },
        "flxSortAmount": {
            "__events__": {},
            "__info__": {
                "kuid": "d657cac282324790a48ec93a579744e9",
                "srcKUID": "j328661fb2944483b72c3e6628115340",
                "wType": "FlexContainer"
            },
            "left": {},
            "responsiveData": {
                "b3": {
                    "left": {
                        "type": "string",
                        "value": "68%"
                    }
                }
            }
        },
        "flxSortBalance": {
            "__events__": {},
            "__info__": {
                "kuid": "daf94cc0c7194fa5a3e485fedec81ed6",
                "srcKUID": "a3678241e30c40e99114bf34e4e84f42",
                "wType": "FlexContainer"
            }
        },
        "flxSortCategory": {
            "__events__": {},
            "__info__": {
                "kuid": "j4296dce591e4b81a2cf16b063f45e57",
                "srcKUID": "a7bd8b85412747c091f697273c7ed636",
                "wType": "FlexContainer"
            }
        },
        "flxSortDate": {
            "__events__": {},
            "__info__": {
                "kuid": "c52af76cc0be48c980b22b26d3722efb",
                "srcKUID": "ecbafd370d574cc78ce84e076f44c4c3",
                "wType": "FlexContainer"
            },
            "left": {
                "Default": {
                    "type": "string",
                    "value": "6%"
                }
            },
            "responsiveData": {}
        },
        "flxSortDescription": {
            "__events__": {},
            "__info__": {
                "kuid": "gddcdd40cb35403cb100f36599cba29a",
                "srcKUID": "eb6420188cda4b7ab1654a9d36209b86",
                "wType": "FlexContainer"
            }
        },
        "flxSortSeparator": {
            "__events__": {},
            "__info__": {
                "kuid": "a5b2fe7b0c544313a176a984e90391bf",
                "srcKUID": "d6614d380da24247b6d0444cab0c7008",
                "wType": "FlexContainer"
            }
        },
        "flxSortSixColumn": {
            "__events__": {},
            "__info__": {
                "kuid": "fc9c4d42eec140dc996a3ef1b075a460",
                "srcKUID": "b7be59c09be046fea8d651d80ba5b071",
                "wType": "FlexContainer"
            }
        },
        "flxSortType": {
            "__events__": {},
            "__info__": {
                "kuid": "f72ba256fdc5482caa5c96d65aec17a5",
                "srcKUID": "bc712e32f3774e988d86a79fe19d5d6e",
                "wType": "FlexContainer"
            }
        },
        "flxTabsChecking": {
            "__events__": {},
            "__info__": {
                "kuid": "fb39b64ee5904a54b63f48ca88176afb",
                "srcKUID": "f3df24e92ff34eafbbfac71ae33f328a",
                "wType": "FlexContainer"
            },
            "isVisible": true,
            "responsiveData": {
                "b2": {
                    "top": {
                        "type": "string",
                        "value": "0dp"
                    }
                }
            },
            "top": {}
        },
        "flxTabsCredit": {
            "__events__": {},
            "__info__": {
                "kuid": "d8123362e1934831af4d136f5b17914e",
                "srcKUID": "fb8cbad294d945e891732839ce4d1868",
                "wType": "FlexContainer"
            },
            "clipBounds": false,
            "responsiveData": {
                "b2": {
                    "top": {
                        "type": "string",
                        "value": "0dp"
                    }
                }
            },
            "top": {}
        },
        "flxTabsDeposit": {
            "__events__": {},
            "__info__": {
                "kuid": "cafc95bfbf6d42a090f2d68249c9a118",
                "srcKUID": "d90860f8f0a74d5ca41c2e56d2473404",
                "wType": "FlexContainer"
            },
            "clipBounds": false,
            "isVisible": false,
            "responsiveData": {
                "b2": {
                    "top": {
                        "type": "string",
                        "value": "0dp"
                    }
                }
            },
            "top": {}
        },
        "flxTabsLoan": {
            "__events__": {},
            "__info__": {
                "kuid": "a57904a9a0af488d8434665b23c29cf7",
                "srcKUID": "a3dc139816384f9694bc3ab6893e0527",
                "wType": "FlexContainer"
            },
            "clipBounds": false,
            "isVisible": false,
            "responsiveData": {
                "b2": {
                    "top": {
                        "type": "string",
                        "value": "0dp"
                    }
                }
            },
            "top": {}
        },
        "flxTypeWrapper": {
            "__events__": {},
            "__info__": {
                "kuid": "gcb74428658c4f02a92a1f9b2ed8c73c",
                "srcKUID": "b68b013b1555403a8da75a4a5964963f",
                "wType": "FlexContainer"
            },
            "autogrowMode": {
                "Default": 0
            },
            "height": {},
            "left": {},
            "responsiveData": {
                "b2": {
                    "height": {
                        "type": "string",
                        "value": "22dp"
                    },
                    "layoutType": 3,
                    "left": {
                        "type": "string",
                        "value": "0dp"
                    },
                    "top": {
                        "type": "string",
                        "value": "10dp"
                    },
                    "width": {
                        "type": "string",
                        "value": "100%"
                    }
                }
            },
            "top": {},
            "width": {}
        },
        "flxWrapper": {
            "__events__": {},
            "__info__": {
                "kuid": "bb5834a5ccc24b129b6f2cae15214ed6",
                "srcKUID": "dd520fb60a094835a6cf63e4407d7ca0",
                "wType": "FlexContainer"
            },
            "autogrowMode": {
                "Default": 0
            },
            "height": {},
            "maxHeight": {},
            "responsiveData": {
                "b2": {
                    "height": {
                        "type": "string",
                        "value": "197dp"
                    },
                    "isVisible": true,
                    "layoutType": 4,
                    "maxHeight": {
                        "type": "string",
                        "value": ""
                    },
                    "top": {
                        "type": "string",
                        "value": "0dp"
                    },
                    "zIndex": 1
                }
            },
            "top": {},
            "zIndex": {}
        },
        "imgCancel": {
            "__events__": {},
            "__info__": {
                "kuid": "e702e4d6995f4197a7fa866172fa9fbe",
                "srcKUID": "ja35a644e26a4cfdbc34be6bd88a584a",
                "wType": "Image"
            },
            "left": {},
            "responsiveData": {
                "b2": {
                    "left": {
                        "type": "string",
                        "value": "5dp"
                    }
                }
            },
            "src": "search_close.png"
        },
        "imgCancelAmountRange": {
            "__events__": {},
            "__info__": {
                "kuid": "idfbd81357ee40b88cb43922fc74abd4",
                "srcKUID": "fdf26eb1ce3a4c9eb82634cffb1ee7e3",
                "wType": "Image"
            },
            "left": {},
            "responsiveData": {
                "b2": {
                    "left": {
                        "type": "string",
                        "value": "5dp"
                    }
                }
            },
            "src": "search_close.png"
        },
        "imgCancelAmountRangeM": {
            "__events__": {},
            "__info__": {
                "kuid": "h9aa93b7084a4ad9b8f2621c087b458e",
                "srcKUID": "ceee1ac705e7410996ce735eab29d18f",
                "wType": "Image"
            },
            "src": "search_close.png"
        },
        "imgCancelCheckNumber": {
            "__events__": {},
            "__info__": {
                "kuid": "c8deafd581cf4549966334d92db73a4a",
                "srcKUID": "e952bba4450a43048000472d26696e37",
                "wType": "Image"
            },
            "left": {},
            "responsiveData": {
                "b2": {
                    "left": {
                        "type": "string",
                        "value": "5dp"
                    }
                }
            },
            "src": "search_close.png"
        },
        "imgCancelCheckNumberM": {
            "__events__": {},
            "__info__": {
                "kuid": "bb08e68aca9843258a1161c3a9e2e675",
                "srcKUID": "b3ecd8d3daf04b898dc2ec51c051b0b0",
                "wType": "Image"
            },
            "src": "search_close.png"
        },
        "imgCancelDateRange": {
            "__events__": {},
            "__info__": {
                "kuid": "j0b41076952b4d3aa0236ec46f456b65",
                "srcKUID": "h777633e9fbe443d927c28d6c4778c67",
                "wType": "Image"
            },
            "left": {},
            "responsiveData": {
                "b2": {
                    "left": {
                        "type": "string",
                        "value": "5dp"
                    }
                }
            },
            "src": "search_close.png"
        },
        "imgCancelDateRangeM": {
            "__events__": {},
            "__info__": {
                "kuid": "c1740344562a4ae1bd74aeb3657d3124",
                "srcKUID": "g800cc5b010a4c01b6fecaf6a5132156",
                "wType": "Image"
            },
            "src": "search_close.png"
        },
        "imgCancelM": {
            "__events__": {},
            "__info__": {
                "kuid": "d7c382ac582a419eb0feab999594c0a4",
                "srcKUID": "jf4d3cf80ef74e0d9fa11186fca9d3f1",
                "wType": "Image"
            },
            "src": "search_close.png"
        },
        "imgCancelType": {
            "__events__": {},
            "__info__": {
                "kuid": "b5cf37a02d2c4e9badfb20c38fc98761",
                "srcKUID": "jd1ad6d41a1e4c3097d1294b212c8ee3",
                "wType": "Image"
            },
            "left": {},
            "responsiveData": {
                "b2": {
                    "left": {
                        "type": "string",
                        "value": "5dp"
                    }
                }
            },
            "src": "search_close.png"
        },
        "imgCancelTypeM": {
            "__events__": {},
            "__info__": {
                "kuid": "e1b47531c08a484886c1fab1e974bd96",
                "srcKUID": "a85ab6f8ed254d38994f039a2f1b29db",
                "wType": "Image"
            },
            "src": "search_close.png"
        },
        "imgDownload": {
            "__events__": {},
            "__info__": {
                "kuid": "f16daa3b195647d9a04b892622c3279c",
                "srcKUID": "a1bb423d0cee4e80a7f783d87c577a60",
                "wType": "Image"
            },
            "src": "download_blue.png"
        },
        "imgDownloadIcon": {
            "__events__": {},
            "__info__": {
                "kuid": "ha013efdc135486cac83192e36c4680b",
                "srcKUID": "b05dbc42d84f4c3580e182ffc6b516bf",
                "wType": "Label"
            }
        },
        "imgInfo": {
            "__events__": {},
            "__info__": {
                "kuid": "g9a90298d6334ffda35fcdc44aa9ef9b",
                "srcKUID": "e1afa354adf14a83aa9415f9336952ea",
                "wType": "Image"
            },
            "left": {},
            "responsiveData": {
                "b1": {
                    "left": {
                        "type": "string",
                        "value": "30dp"
                    }
                },
                "b2": {
                    "left": {
                        "type": "string",
                        "value": "10dp"
                    }
                },
                "b3": {
                    "left": {
                        "type": "string",
                        "value": "30dp"
                    }
                },
                "b4": {
                    "left": {
                        "type": "string",
                        "value": "30dp"
                    }
                }
            },
            "src": "info_large.png"
        },
        "imgPaginationFirst": {
            "__events__": {},
            "__info__": {
                "kuid": "fc3dcb68f4904735aa52935ccadfaa3c",
                "srcKUID": "jf651804c7214acebda932bed20bd14a",
                "wType": "Image"
            },
            "src": "pagination_inactive.png"
        },
        "imgPaginationLast": {
            "__events__": {},
            "__info__": {
                "kuid": "h53d3441877d42f8848a31903fbe30a4",
                "srcKUID": "f6b9132d1bba402687575bff596b18ac",
                "wType": "Image"
            },
            "src": "pagination_next_active.png"
        },
        "imgPaginationNext": {
            "__events__": {},
            "__info__": {
                "kuid": "a40aecd7c9344376a2b48967a1e9702c",
                "srcKUID": "b99cc565b1424293b62650114a123ab3",
                "wType": "Image"
            },
            "src": "pagination_next_active.png"
        },
        "imgPaginationPrevious": {
            "__events__": {},
            "__info__": {
                "kuid": "ee12dba67d8a48d3997af82b4d7fd7c6",
                "srcKUID": "g3507e89da86488796b0205aefb53f28",
                "wType": "Image"
            },
            "src": "pagination_back_inactive.png"
        },
        "imgPrint": {
            "__events__": {},
            "__info__": {
                "kuid": "j7eee8b575934041bfb4f8be5d8298da",
                "srcKUID": "bc6d241ccee24e4eb9b6a14a36d50d6d",
                "wType": "Image"
            },
            "src": "print_blue.png"
        },
        "imgPrintIcon": {
            "__events__": {},
            "__info__": {
                "kuid": "ff75fdb6d14c40c68c4b9534fd0b38ad",
                "srcKUID": "gbfd52da96b6462da1aa0fbf92665b42",
                "wType": "Label"
            }
        },
        "imgSearch": {
            "__events__": {},
            "__info__": {
                "kuid": "ba80c3c06f2440709dbd86930abe353d",
                "srcKUID": "hd254ccacda34a7795de3f652462050e",
                "wType": "Image"
            },
            "src": "search_blue.png"
        },
        "imgSearchIcon": {
            "__events__": {},
            "__info__": {
                "kuid": "f8cd4d58ca824e648cbb94b72cc9ab94",
                "srcKUID": "g3a5e982236148b0a8e9a6f9c6d96c63",
                "wType": "Label"
            }
        },
        "imgSortAmount": {
            "__events__": {},
            "__info__": {
                "kuid": "da5c9f8b9f284a61a29bac14d92a4ffe",
                "srcKUID": "e4e8bf3ae2cc4707852d499474a15352",
                "wType": "Image"
            },
            "src": "sorting.png"
        },
        "imgSortBalance": {
            "__events__": {},
            "__info__": {
                "kuid": "dcbce7a871c947aa8fa44395d9ac44b5",
                "srcKUID": "ec0c535c5e5b4bb88f95b8aeffbbcdf6",
                "wType": "Image"
            },
            "responsiveData": {},
            "src": "not_applied_sort.png"
        },
        "imgSortCategory": {
            "__events__": {},
            "__info__": {
                "kuid": "hf2f006db6d547ccb739eae547c1d39c",
                "srcKUID": "i5cec6fa4f054f40a7dc3065a6e1a9ee",
                "wType": "Image"
            },
            "src": "sorting.png"
        },
        "imgSortDate": {
            "__events__": {},
            "__info__": {
                "kuid": "bde9ec1531a64a9fa719d646ec3f377c",
                "srcKUID": "a4a2c930272c4f33a7055c05793f78fb",
                "wType": "Image"
            },
            "responsiveData": {},
            "src": "sorting_next.png"
        },
        "imgSortDescription": {
            "__events__": {},
            "__info__": {
                "kuid": "d13837d160cd4b869306ed97d344b19f",
                "srcKUID": "e3ae12ef8f2d4fda8d2799b531494d91",
                "wType": "Image"
            },
            "responsiveData": {},
            "src": "not_applied_sort.png"
        },
        "imgSortType": {
            "__events__": {},
            "__info__": {
                "kuid": "c33f4960983b4b0da877f1ffe8f17480",
                "srcKUID": "f93a8fd27e8648a08630c99ffe2aaa35",
                "wType": "Image"
            },
            "responsiveData": {},
            "src": "not_applied_sort.png"
        },
        "lblAmountRangeTitle": {
            "__events__": {},
            "__info__": {
                "kuid": "i0e4d6fb062e45a599784a6569b3af12",
                "srcKUID": "id422110f0244e808659f0b0e576fc54",
                "wType": "Label"
            },
            "i18n_text": "i18n.AccountsDetails.AmountRange",
            "left": {},
            "responsiveData": {
                "b2": {
                    "left": {
                        "type": "string",
                        "value": "2.50%"
                    }
                }
            }
        },
        "lblAmountRangeTitleM": {
            "__events__": {},
            "__info__": {
                "kuid": "e6b3482c332949568fab98a851e3c5da",
                "srcKUID": "hca44c0fdf004a2da84a18811f61efbe",
                "wType": "Label"
            },
            "left": {},
            "responsiveData": {
                "b2": {
                    "left": {
                        "type": "string",
                        "value": "0dp"
                    }
                }
            }
        },
        "lblAmountRangeValue": {
            "__events__": {},
            "__info__": {
                "kuid": "fde1cf48ec3948849cbfe020b9b8e15d",
                "srcKUID": "ecc44d963bab46e7b04ba6ec18d3fc92",
                "wType": "Label"
            }
        },
        "lblAmountRangeValueM": {
            "__events__": {},
            "__info__": {
                "kuid": "ca7304e9afb94e1d86861801b6574044",
                "srcKUID": "d0e5fa31fef540b1914c159132a3c040",
                "wType": "Label"
            }
        },
        "lblByAmountRange": {
            "__events__": {},
            "__info__": {
                "kuid": "cec37fcd9e6d4afb9294bf97a5feb409",
                "srcKUID": "ac975f8def83463c8449ee15f4282242",
                "wType": "Label"
            },
            "left": {},
            "responsiveData": {
                "b2": {
                    "left": {
                        "type": "string",
                        "value": "2.50%"
                    }
                }
            }
        },
        "lblByCheckNumber": {
            "__events__": {},
            "__info__": {
                "kuid": "f2005d62978e440da3666f999923b72d",
                "srcKUID": "fb56145f3b244ce480f34d6036c76cf3",
                "wType": "Label"
            },
            "i18n_text": "i18n.AccountsDetails.ByCheckNumber",
            "left": {},
            "responsiveData": {
                "b2": {
                    "left": {
                        "type": "string",
                        "value": "2.50%"
                    }
                }
            }
        },
        "lblByDate": {
            "__events__": {},
            "__info__": {
                "kuid": "b2c3ae3ce02e4dd69bddbcb1607ad923",
                "srcKUID": "cb22d231376b4ab6ba0398f867df00ea",
                "wType": "Label"
            },
            "left": {},
            "responsiveData": {
                "b2": {
                    "left": {
                        "type": "string",
                        "value": "2.50%"
                    }
                }
            }
        },
        "lblByKeyword": {
            "__events__": {},
            "__info__": {
                "kuid": "ebd762473ecb400d92e85687bf62ae5c",
                "srcKUID": "eb727143546e4029a7cc2c5bbef48373",
                "wType": "Label"
            },
            "i18n_text": "i18n.AccountsDetails.ByKeyword",
            "left": {},
            "responsiveData": {
                "b2": {
                    "left": {
                        "type": "string",
                        "value": "2.50%"
                    },
                    "width": {
                        "type": "string",
                        "value": "95%"
                    }
                }
            },
            "width": {}
        },
        "lblByTimePeriod": {
            "__events__": {},
            "__info__": {
                "kuid": "aed61a0fc60f4d439ceb96ceea236a9a",
                "srcKUID": "h0d94ee7ad864c949b4f204fb5a003d8",
                "wType": "Label"
            },
            "i18n_text": "i18n.AccountsDetails.ByTimePeriod",
            "left": {},
            "responsiveData": {
                "b2": {
                    "left": {
                        "type": "string",
                        "value": "2.50%"
                    },
                    "width": {
                        "type": "string",
                        "value": "95%"
                    }
                }
            },
            "width": {}
        },
        "lblByTransactionType": {
            "__events__": {},
            "__info__": {
                "kuid": "f9ba406147a7401398ca747e85414605",
                "srcKUID": "d9ece1349426402e95a4a193a9f8f055",
                "wType": "Label"
            },
            "i18n_text": "i18n.AccountsDetails.ByTransactionType",
            "left": {},
            "responsiveData": {
                "b2": {
                    "left": {
                        "type": "string",
                        "value": "2.50%"
                    },
                    "width": {
                        "type": "string",
                        "value": "95%"
                    }
                }
            },
            "width": {}
        },
        "lblCheckNumberTitle": {
            "__events__": {},
            "__info__": {
                "kuid": "a7cb3d4b56714a2aba26525e73fb26b1",
                "srcKUID": "b4563c416f754d2b952fa5a21d5e6a5e",
                "wType": "Label"
            },
            "i18n_text": "i18n.StopcheckPayments.CheckNumber"
        },
        "lblCheckNumberTitleM": {
            "__events__": {},
            "__info__": {
                "kuid": "a4ba0f440766467ab3eca0f4177366ff",
                "srcKUID": "bf742d1d89624481b4f2271590b73e08",
                "wType": "Label"
            },
            "left": {},
            "responsiveData": {
                "b2": {
                    "left": {
                        "type": "string",
                        "value": "0dp"
                    }
                }
            }
        },
        "lblCheckNumberValue": {
            "__events__": {},
            "__info__": {
                "kuid": "e5a4fe4cbce0404bab00cddf62c32f16",
                "srcKUID": "da7a26ead75a4fe38d40951e7bcaa4d9",
                "wType": "Label"
            }
        },
        "lblCheckNumberValueM": {
            "__events__": {},
            "__info__": {
                "kuid": "f4fc0093013442caa4836a5c2b0174d8",
                "srcKUID": "f4edcf8de63641a1b150b1b40eb2fffd",
                "wType": "Label"
            }
        },
        "lblCurrencySymbolFrom": {
            "__events__": {},
            "__info__": {
                "kuid": "bc29829200444e77a4027d4df55094e3",
                "srcKUID": "a79dc349fe8a4efa8c000ee526aa1ecc",
                "wType": "Label"
            }
        },
        "lblCurrencySymbolTo": {
            "__events__": {},
            "__info__": {
                "kuid": "de035983772c4970bc4a1ecca613b8da",
                "srcKUID": "b6518096a8324ec6bfaec09583408630",
                "wType": "Label"
            }
        },
        "lblDateRangeTitle": {
            "__events__": {},
            "__info__": {
                "kuid": "a4e2177755684055aa39af2bf7d3a5ab",
                "srcKUID": "cc1eece186f34ab3a13937d6cf350f35",
                "wType": "Label"
            },
            "i18n_text": "i18n.AccountsDetails.DateRange"
        },
        "lblDateRangeTitleM": {
            "__events__": {},
            "__info__": {
                "kuid": "b9fab17be15a4f7fa33ee62eed50e40a",
                "srcKUID": "j282fae4d5684a14829579adcae6587f",
                "wType": "Label"
            },
            "left": {},
            "responsiveData": {
                "b2": {
                    "left": {
                        "type": "string",
                        "value": "0dp"
                    }
                }
            }
        },
        "lblDateRangeValue": {
            "__events__": {},
            "__info__": {
                "kuid": "a0398ab22d634d48bcf4cf3ccb9f2fbb",
                "srcKUID": "e2e889dcd04a41d2a5194e76d352dfc7",
                "wType": "Label"
            }
        },
        "lblDateRangeValueM": {
            "__events__": {},
            "__info__": {
                "kuid": "db7f31b65a1c4e59acd32b55b0249d37",
                "srcKUID": "h932e363fb56402f9a9f174d9f5e73f2",
                "wType": "Label"
            }
        },
        "lblKeywordTitle": {
            "__events__": {},
            "__info__": {
                "kuid": "g6536132a7604e94ac0c6016040d37b7",
                "srcKUID": "f1e32bf0e7f04a7d8ee14f8dae91a210",
                "wType": "Label"
            },
            "i18n_text": "i18n.AccountsDetails.keyword",
            "left": {},
            "responsiveData": {
                "b2": {
                    "left": {
                        "type": "string",
                        "value": "2.50%"
                    }
                }
            }
        },
        "lblKeywordTitleM": {
            "__events__": {},
            "__info__": {
                "kuid": "c862461a5bdf454ab2d2cf1489268760",
                "srcKUID": "j83e4190f5784d97a7db3521fdc63917",
                "wType": "Label"
            },
            "left": {},
            "responsiveData": {
                "b2": {
                    "left": {
                        "type": "string",
                        "value": "0dp"
                    }
                }
            }
        },
        "lblKeywordValue": {
            "__events__": {},
            "__info__": {
                "kuid": "fd3bb46214534b21b7da024a4f5ac083",
                "srcKUID": "f1c5009c2fec4f7ab19254e93f4bf696",
                "wType": "Label"
            },
            "i18n_text": "i18n.AccountsDetails.ATT"
        },
        "lblKeywordValueM": {
            "__events__": {},
            "__info__": {
                "kuid": "cbdb92716b114a7d935e2e00ff355b85",
                "srcKUID": "g8b2d1121b3642f683babbeef399da77",
                "wType": "Label"
            }
        },
        "lblPagination": {
            "__events__": {},
            "__info__": {
                "kuid": "d5a2d0633a634814ac6eaae7f98fdc17",
                "srcKUID": "g53f228f1f8e478fb3cc871466128e7a",
                "wType": "Label"
            },
            "centerY": {
                "Default": {
                    "type": "string",
                    "value": "50%"
                }
            },
            "i18n_text": "i18n.AccountsDetails.10001000of1000Transactions",
            "left": {
                "Default": {
                    "type": "string",
                    "value": "4dp"
                }
            },
            "responsiveData": {
                "b1": {
                    "top": {
                        "type": "string",
                        "value": "0dp"
                    },
                    "width": {
                        "type": "string",
                        "value": "55%"
                    }
                },
                "b2": {
                    "width": {
                        "type": "string",
                        "value": "220dp"
                    }
                },
                "b3": {
                    "width": {
                        "type": "string",
                        "value": "50%"
                    }
                },
                "b4": {
                    "centerY": {
                        "type": "string",
                        "value": ""
                    },
                    "left": {
                        "type": "string",
                        "value": "4dp"
                    },
                    "top": {
                        "type": "string",
                        "value": "6dp"
                    },
                    "width": {
                        "type": "string",
                        "value": "55%"
                    }
                }
            },
            "text": "1000-1000 of 1000 Transactions",
            "top": {
                "Default": {
                    "type": "string",
                    "value": "0"
                }
            },
            "width": {
                "Default": {
                    "type": "ref",
                    "value": "preferred"
                }
            }
        },
        "lblSortAmount": {
            "__events__": {},
            "__info__": {
                "kuid": "j3b31606882d4719936c6287020b9ef2",
                "srcKUID": "i1ab5f954d01402fab4f9e5d4bf4a23e",
                "wType": "Label"
            },
            "i18n_text": "i18n.transfers.amountlabel"
        },
        "lblSortBalance": {
            "__events__": {},
            "__info__": {
                "kuid": "a6c2eebe423d401f8472cd2b2b88a249",
                "srcKUID": "gaab49e731964a79ad8d9c3dd4ca5504",
                "wType": "Label"
            },
            "i18n_text": "i18n.AccountsDetails.Balance",
            "responsiveData": {
                "b4": {
                    "right": {
                        "type": "string",
                        "value": "16dp"
                    }
                }
            },
            "right": {}
        },
        "lblSortCategory": {
            "__events__": {},
            "__info__": {
                "kuid": "ha8ce5faf74d45b78676ed81b06b4a1d",
                "srcKUID": "a78d78eb3a39481394e34644cb9a1f1b",
                "wType": "Label"
            }
        },
        "lblSortDate": {
            "__events__": {},
            "__info__": {
                "kuid": "bdcf2fc0d822479b8f2f890947417f21",
                "srcKUID": "ee4824b4d87a4e8fbeceb2b10ac50825",
                "wType": "Label"
            },
            "i18n_text": "i18n.billPay.DueDate",
            "responsiveData": {}
        },
        "lblSortDescription": {
            "__events__": {},
            "__info__": {
                "kuid": "ecb88584c7db4795aa9f4c40ebcac8c7",
                "srcKUID": "e4692422b01c4106a5dda3962d54bdeb",
                "wType": "Label"
            },
            "i18n_text": "i18n.StopPayments.Description",
            "responsiveData": {}
        },
        "lblSortType": {
            "__events__": {},
            "__info__": {
                "kuid": "f34960d962d04ce6b8f038258028e810",
                "srcKUID": "eeacbf6f197b4365b74b2fda7b0dadd7",
                "wType": "Label"
            },
            "i18n_text": "i18n.common.Type"
        },
        "lblToByAmountRange": {
            "__events__": {},
            "__info__": {
                "kuid": "ff5fbd73f4684e8fbe103335fad834e2",
                "srcKUID": "hfb4d84e0e22409d944472af7b7b5be2",
                "wType": "Label"
            },
            "centerX": {},
            "left": {},
            "responsiveData": {
                "b2": {
                    "centerX": {
                        "type": "string",
                        "value": "50%"
                    },
                    "left": {
                        "type": "string",
                        "value": ""
                    }
                }
            }
        },
        "lblToByCheckNumber": {
            "__events__": {},
            "__info__": {
                "kuid": "b0a0593fa6ef437bada4e2b60a5954f2",
                "srcKUID": "b0aa91f3db5e4909b38113ad5e6222d8",
                "wType": "Label"
            },
            "centerX": {},
            "left": {},
            "responsiveData": {
                "b2": {
                    "centerX": {
                        "type": "string",
                        "value": "50%"
                    },
                    "left": {
                        "type": "string",
                        "value": ""
                    }
                }
            }
        },
        "lblToByDate": {
            "__events__": {},
            "__info__": {
                "kuid": "ee41a105342e48bfa0b1e085af6a0016",
                "srcKUID": "ab3c4ab38b394d90a0ba24e2ee613bf5",
                "wType": "Label"
            },
            "centerX": {},
            "left": {},
            "responsiveData": {
                "b2": {
                    "centerX": {
                        "type": "string",
                        "value": "50%"
                    },
                    "left": {
                        "type": "string",
                        "value": ""
                    }
                }
            }
        },
        "lblTransactions": {
            "__events__": {},
            "__info__": {
                "kuid": "i7556395691e429cb1c713357e50ae8c",
                "srcKUID": "jf109b46c68b47da832dc69050b5219f",
                "wType": "Label"
            },
            "i18n_text": "i18n.common.transactions",
            "left": {
                "Default": {
                    "type": "string",
                    "value": "0dp"
                }
            },
            "responsiveData": {
                "b2": {
                    "left": {
                        "type": "string",
                        "value": "12dp"
                    }
                }
            }
        },
        "lblTypeTitle": {
            "__events__": {},
            "__info__": {
                "kuid": "b928870bcdae4acd89fc27d39c84268b",
                "srcKUID": "d207aadae0cb447e877a130741527c81",
                "wType": "Label"
            },
            "i18n_text": "i18n.ProfileManagement.Type"
        },
        "lblTypeTitleM": {
            "__events__": {},
            "__info__": {
                "kuid": "f332029dbe2d4aba9b34768e79854707",
                "srcKUID": "b6b406e98665460bab22e2944bcf7ecd",
                "wType": "Label"
            },
            "left": {},
            "responsiveData": {
                "b2": {
                    "left": {
                        "type": "string",
                        "value": "0dp"
                    }
                }
            }
        },
        "lblTypeValue": {
            "__events__": {},
            "__info__": {
                "kuid": "ed932627ba5f49b696f66b19177e69cc",
                "srcKUID": "c1ea46aecdf74ce4a17f11157c42fe12",
                "wType": "Label"
            },
            "i18n_text": "i18n.accounts.allTransactions"
        },
        "lblTypeValueM": {
            "__events__": {},
            "__info__": {
                "kuid": "g6acbde27cdf4117a0a9f5ce567b9c47",
                "srcKUID": "j6cbe1cd379248c6bdc254e6f8922b6f",
                "wType": "Label"
            }
        },
        "lblYouHaveSearchedFor": {
            "__events__": {},
            "__info__": {
                "kuid": "bbed25b347c54b15aa40cacdd2d12ab0",
                "srcKUID": "be359fffc2db4b62ae3926fd03fde6e3",
                "wType": "Label"
            },
            "i18n_text": "i18n.AccountsDetails.Youhavesearchedfor",
            "left": {},
            "responsiveData": {
                "b2": {
                    "left": {
                        "type": "string",
                        "value": "2.50%"
                    },
                    "top": {
                        "type": "string",
                        "value": "15dp"
                    }
                }
            },
            "top": {}
        },
        "lstbxTimePeriod": {
            "__events__": {},
            "__info__": {
                "kuid": "aa1c2cf06c9b48a29f499d0505b932d1",
                "srcKUID": "a7e22b9365f647f3899aaeafbc3fd81e",
                "wType": "ListBox"
            },
            "left": {},
            "responsiveData": {
                "b2": {
                    "left": {
                        "type": "string",
                        "value": "2.50%"
                    },
                    "width": {
                        "type": "string",
                        "value": "95%"
                    }
                }
            },
            "width": {}
        },
        "lstbxTransactionType": {
            "__events__": {},
            "__info__": {
                "kuid": "de720c570c614dc7b7c175f4fd9672a7",
                "srcKUID": "b3c5f9af7e36475e8827bede681c81d0",
                "wType": "ListBox"
            },
            "left": {},
            "responsiveData": {
                "b2": {
                    "left": {
                        "type": "string",
                        "value": "2.50%"
                    },
                    "width": {
                        "type": "string",
                        "value": "95%"
                    }
                }
            },
            "width": {}
        },
        "rtxNoPaymentMessage": {
            "__events__": {},
            "__info__": {
                "kuid": "e7b11977cdd049c2907c3c4bbc8a08da",
                "srcKUID": "b9fb4ffa3b334b87a8885bf47ab5b54c",
                "wType": "RichText"
            },
            "left": {},
            "responsiveData": {
                "b1": {
                    "left": {
                        "type": "string",
                        "value": "80dp"
                    }
                },
                "b2": {
                    "left": {
                        "type": "string",
                        "value": "60dp"
                    }
                },
                "b3": {
                    "left": {
                        "type": "string",
                        "value": "80dp"
                    }
                },
                "b4": {
                    "left": {
                        "type": "string",
                        "value": "80dp"
                    }
                }
            }
        },
        "segTransactions": {
            "__events__": {},
            "__info__": {
                "kuid": "e80a60d38cd345fe9db4ab28b2a9d206",
                "srcKUID": "a5e5fe21996b4dd6bdeaf49e82ef2908",
                "wType": "Segment"
            },
            "data": {
                "desktop": []
            },
            "responsiveData": {
                "b2": {
                    "top": {
                        "type": "string",
                        "value": "0dp"
                    }
                }
            },
            "top": {}
        },
        "transactions": {
            "__events__": {},
            "__info__": {
                "isRoot": true,
                "kuid": "h7fce59f27614c429918e416b5ee0e8d",
                "srcKUID": "b1ee28f9281f450c9d89d4cdf219088c",
                "wType": "FlexContainer"
            },
            "left": {
                "Default": {
                    "type": "string",
                    "value": "6%"
                }
            },
            "responsiveData": {
                "b1": {
                    "left": {
                        "type": "string",
                        "value": "6.40%"
                    },
                    "right": {
                        "type": "string",
                        "value": "6.40%"
                    }
                },
                "b2": {
                    "left": {
                        "type": "string",
                        "value": "0%"
                    },
                    "right": {
                        "type": "string",
                        "value": "0%"
                    },
                    "top": {
                        "type": "string",
                        "value": "0dp"
                    },
                    "zIndex": 1
                },
                "b3": {
                    "left": {
                        "type": "string",
                        "value": "34dp"
                    },
                    "right": {
                        "type": "string",
                        "value": "34dp"
                    }
                },
                "b4": {
                    "left": {
                        "type": "string",
                        "value": "6.40%"
                    },
                    "right": {
                        "type": "string",
                        "value": "6.40%"
                    },
                    "top": {
                        "type": "string",
                        "value": "0dp"
                    }
                }
            },
            "right": {
                "Default": {
                    "type": "string",
                    "value": "6%"
                }
            },
            "top": {
                "Default": {
                    "type": "string",
                    "value": "0dp"
                }
            },
            "width": {
                "Default": {
                    "type": "string",
                    "value": ""
                }
            },
            "zIndex": {}
        },
        "txtAmountRangeFrom": {
            "__events__": {},
            "__info__": {
                "kuid": "f6fd2a2953594540bea0b487ec8176f0",
                "srcKUID": "b8b49ed225614116a1975288b44d1a3e",
                "wType": "TextField"
            },
            "i18n_placeholder": null,
            "left": {},
            "placeholder": "",
            "responsiveData": {
                "b2": {
                    "left": {
                        "type": "string",
                        "value": "0dp"
                    },
                    "width": {
                        "type": "string",
                        "value": "100%"
                    }
                }
            },
            "text": "",
            "width": {}
        },
        "txtAmountRangeTo": {
            "__events__": {},
            "__info__": {
                "kuid": "d749009cb2da4b3f80e7f7d3fdb25a8a",
                "srcKUID": "b68c1001346f49409e3bf2f68d814fb4",
                "wType": "TextField"
            },
            "i18n_placeholder": null,
            "left": {},
            "responsiveData": {
                "b2": {
                    "left": {
                        "type": "string",
                        "value": ""
                    },
                    "right": {
                        "type": "string",
                        "value": "0dp"
                    },
                    "width": {
                        "type": "string",
                        "value": "100%"
                    }
                }
            },
            "right": {},
            "width": {}
        },
        "txtCheckNumberFrom": {
            "__events__": {},
            "__info__": {
                "kuid": "i1ee6ecaa6684461aad36a04588b2c87",
                "srcKUID": "d7aaf48af98647748f3b2dbf19a24b61",
                "wType": "TextField"
            },
            "i18n_placeholder": "i18n.StopcheckPayments.CheckNumber",
            "left": {},
            "responsiveData": {
                "b2": {
                    "left": {
                        "type": "string",
                        "value": "0dp"
                    },
                    "width": {
                        "type": "string",
                        "value": "45%"
                    }
                }
            },
            "width": {}
        },
        "txtCheckNumberTo": {
            "__events__": {},
            "__info__": {
                "kuid": "bd19d5724cec428d818fc278dcb287a8",
                "srcKUID": "e938069f0080458192d1cdc038c91044",
                "wType": "TextField"
            },
            "i18n_placeholder": "i18n.StopcheckPayments.CheckNumber",
            "left": {},
            "responsiveData": {
                "b2": {
                    "left": {
                        "type": "string",
                        "value": ""
                    },
                    "right": {
                        "type": "string",
                        "value": "0dp"
                    },
                    "width": {
                        "type": "string",
                        "value": "45%"
                    }
                }
            },
            "right": {},
            "width": {}
        },
        "txtKeyword": {
            "__events__": {},
            "__info__": {
                "kuid": "ie51b99f758f463e969678508e02aee9",
                "srcKUID": "ece81243765b4725964527419ae4579c",
                "wType": "TextField"
            },
            "left": {},
            "responsiveData": {
                "b2": {
                    "left": {
                        "type": "string",
                        "value": "2.50%"
                    },
                    "width": {
                        "type": "string",
                        "value": "95%"
                    }
                }
            },
            "width": {}
        }
    },
    "id": "transactions",
    "info": null,
    "isdatareferenced": false,
    "issegmentchild": false,
    "isvisible": true,
    "kuid": "h7fce59f27614c429918e416b5ee0e8d",
    "layouttype": 4,
    "masterType": 0,
    "name": "kony.ui.UserWidgetInstance",
    "parent": "flxTransactions",
    "pf": "frmAccountsDetails",
    "snapgridsize": 10,
    "snaptogrid": true,
    "sourceUserWidget": "b1ee28f9281f450c9d89d4cdf219088c",
    "vizprops": {
        "hidewidgethierarchy": false
    },
    "wType": "UserWidgetInstance",
    "zindex": 1
}