{
    "@class": "com.kony.gen.viz.model.component.KVizButton",
    "DNDConfig": null,
    "__parentReadjusting__": false,
    "_height_": {
        "type": "string",
        "value": "50dp"
    },
    "_left_": {
        "type": "string",
        "value": "83dp"
    },
    "_margin_": [
        6,
        6,
        6,
        6
    ],
    "_padding_": [
        0,
        0,
        0,
        0
    ],
    "_skin_": "s8e36b0f445c4bdebea8a7bf912a6e2a",
    "_text_": "Button",
    "_top_": {
        "type": "string",
        "value": "553dp"
    },
    "_width_": {
        "type": "string",
        "value": "260dp"
    },
    "accessibilityconfig": {
        "a11yLabel": "Download the Mobile App From a Store"
    },
    "canUpdateUI": true,
    "centerx": {
        "type": "number",
        "value": ""
    },
    "containerweight": 100,
    "contentalignment": 5,
    "displaytext": true,
    "focusskin": "sf44d06ca8224832827ea7fdff757013",
    "id": "btnUseMobileApp",
    "info": null,
    "iscustomlayout": false,
    "isvisible": true,
    "kuid": "j4e04db2a11b495e8f731c3b2074ed2a",
    "name": "kony.ui.Button",
    "parent": "flxMain",
    "pf": "frmLogin",
    "responsiveData": {
        "b1": {
            "height": {
                "type": "string",
                "value": "40dp"
            },
            "isVisible": false,
            "left": {
                "type": "string",
                "value": "81dp"
            },
            "top": {
                "type": "string",
                "value": "583dp"
            },
            "width": {
                "type": "string",
                "value": "341dp"
            }
        },
        "b2": {
            "centerX": {
                "type": "string",
                "value": "50%"
            },
            "height": {
                "type": "string",
                "value": "40dp"
            },
            "isVisible": false,
            "left": {
                "type": "string",
                "value": ""
            },
            "top": {
                "type": "string",
                "value": "625dp"
            },
            "width": {
                "type": "string",
                "value": "51%"
            }
        },
        "b3": {
            "centerX": {
                "type": "string",
                "value": "50%"
            },
            "height": {
                "type": "string",
                "value": "40dp"
            },
            "isVisible": false,
            "left": {
                "type": "string",
                "value": ""
            },
            "skin": "s8e36b0f445c4bdebea8a7bf912a6e2a",
            "top": {
                "type": "string",
                "value": "80%"
            },
            "width": {
                "type": "string",
                "value": "72.30%"
            }
        },
        "b4": {
            "centerX": {
                "type": "string",
                "value": "49.94%"
            },
            "height": {
                "type": "string",
                "value": "40dp"
            },
            "isVisible": false,
            "left": {
                "type": "string",
                "value": "202dp"
            },
            "top": {
                "type": "string",
                "value": "552dp"
            },
            "width": {
                "type": "string",
                "value": "59.40%"
            }
        }
    },
    "retaincontentalignment": false,
    "retainflexpositionproperties": false,
    "texti18n": "i18n.login.DownloadApp",
    "wType": "Button",
    "zindex": 20
}