{
    "DNDConfig": null,
    "__parentReadjusting__": false,
    "_height_": {
        "type": "string",
        "value": "15dp"
    },
    "_margin_": [
        0,
        0,
        0,
        0
    ],
    "_orientation_": 6,
    "_padding_": [
        0,
        0,
        0,
        0
    ],
    "_percent_": true,
    "_right_": {
        "type": "string",
        "value": "30dp"
    },
    "_skin_": "s24c92fc23b14f5484b693ee9b8a9b35",
    "_top_": {
        "type": "string",
        "value": "30dp"
    },
    "_width_": {
        "type": "string",
        "value": "15dp"
    },
    "allboxes": [],
    "autogrowmode": 0,
    "canUpdateUI": true,
    "children": [
        "imgCloseMFA"
    ],
    "clipbounds": true,
    "containerweight": 100,
    "desktopweb": {
        "psp": {
            "hoverSkin": "s6c4cbf31f7c4fc08f7236fc38f01a0e"
        }
    },
    "enablescrolling": true,
    "id": "flxCloseMFA",
    "info": null,
    "isvisible": false,
    "kuid": "a750df51f2144b46931576182f9f9365",
    "layouttype": 2,
    "name": "kony.ui.FlexContainer",
    "parent": "flxPhoneAndEmail",
    "pf": "frmLogin",
    "responsiveData": {
        "b1": {
            "top": {
                "type": "string",
                "value": "20dp"
            }
        },
        "b2": {
            "top": {
                "type": "string",
                "value": "20dp"
            }
        },
        "b3": {
            "top": {
                "type": "string",
                "value": "20dp"
            }
        },
        "b4": {
            "top": {
                "type": "string",
                "value": "20dp"
            }
        }
    },
    "snapgridsize": 10,
    "snaptogrid": true,
    "wType": "FlexContainer",
    "widgetalignment": 1,
    "zindex": 1
}