{
	"DNDConfig": null,
	"__parentReadjusting__": false,
	"_bottom_": {
		"type": "number",
		"value": ""
	},
	"_height_": {
		"type": "string",
		"value": "25dp"
	},
	"_left_": {
		"type": "string",
		"value": "42.50%"
	},
	"_margin_": [
		0,
		0,
		0,
		0
	],
	"_orientation_": 6,
	"_padding_": [
		0,
		0,
		0,
		0
	],
	"_percent_": true,
	"_right_": {
		"type": "number",
		"value": ""
	},
	"_skin_": "s24c92fc23b14f5484b693ee9b8a9b35",
	"_top_": {
		"type": "string",
		"value": "84%"
	},
	"_width_": {
		"type": "string",
		"value": "148dp"
	},
	"allboxes": [],
	"canUpdateUI": true,
	"centerx": {
		"type": "number",
		"value": ""
	},
	"children": [
		"flxFooterContainer"
	],
	"clipbounds": true,
	"containerweight": 100,
	"enablescrolling": true,
	"id": "flxFooterMenu",
	"info": null,
	"isvisible": true,
	"kuid": "e53c22f57b734557986a50d5496d7fe2",
	"layouttype": 3,
	"name": "kony.ui.FlexContainer",
	"parent": "flxMain",
	"pf": "frmLogin",
	"responsiveData": {
		"b1": {
			"bottom": {
				"type": "string",
				"value": "70dp"
			},
			"height": {
				"type": "string",
				"value": "20dp"
			},
			"layoutType": 2,
			"left": {
				"type": "string",
				"value": "565dp"
			},
			"right": {
				"type": "string",
				"value": "20dp"
			},
			"top": {
				"type": "string",
				"value": ""
			},
			"width": {
				"type": "string",
				"value": "640dp"
			}
		},
		"b2": {
			"centerX": {
				"type": "string",
				"value": "50%"
			},
			"isVisible": true,
			"layoutType": 2,
			"left": {
				"type": "string",
				"value": ""
			},
			"top": {
				"type": "string",
				"value": "820dp"
			},
			"width": {
				"type": "string",
				"value": "640dp"
			}
		},
		"b3": {
			"centerX": {
				"type": "string",
				"value": "50%"
			},
			"isVisible": true,
			"left": {
				"type": "string",
				"value": ""
			},
			"top": {
				"type": "string",
				"value": "715dp"
			},
			"width": {
				"type": "string",
				"value": "145dp"
			}
		},
		"b4": {
			"centerX": {
				"type": "string",
				"value": "50%"
			},
			"left": {
				"type": "string",
				"value": ""
			},
			"top": {
				"type": "string",
				"value": "820dp"
			},
			"width": {
				"type": "string",
				"value": "640dp"
			}
		}
	},
	"snapgridsize": 10,
	"snaptogrid": true,
	"wType": "FlexContainer",
	"widgetalignment": 1,
	"zindex": 1
}