{
    "DNDConfig": null,
    "__parentReadjusting__": false,
    "_height_": {
        "type": "string",
        "value": "150dp"
    },
    "_margin_": [
        0,
        0,
        0,
        0
    ],
    "_orientation_": 6,
    "_padding_": [
        0,
        0,
        0,
        0
    ],
    "_percent_": true,
    "_skin_": "s957fdf6b59c4b0689f6d1bd4c29d0d9",
    "_top_": {
        "type": "string",
        "value": "250dp"
    },
    "_width_": {
        "type": "string",
        "value": "150dp"
    },
    "allboxes": [],
    "autogrowmode": 0,
    "canUpdateUI": true,
    "centerx": {
        "type": "string",
        "value": "50%"
    },
    "children": [
        "flxImageContainerChangeLang"
    ],
    "clipbounds": false,
    "containerweight": 100,
    "enablescrolling": true,
    "id": "flxLoadingWrapperChangeLang",
    "info": null,
    "isvisible": true,
    "kuid": "gee7872a12eb4112a1df670ce81bfd4b",
    "layouttype": 2,
    "name": "kony.ui.FlexContainer",
    "parent": "flxLoadingChangeLanguage",
    "pf": "frmLogin",
    "responsiveData": {
        "b1": {
            "layoutType": 2,
            "zIndex": 1000
        }
    },
    "snapgridsize": 10,
    "snaptogrid": true,
    "wType": "FlexContainer",
    "widgetalignment": 1,
    "zindex": 1000
}