{
    "DNDConfig": null,
    "__parentReadjusting__": false,
    "_height_": {
        "type": "string",
        "value": "220dp"
    },
    "_left_": {
        "type": "string",
        "value": "147dp"
    },
    "_margin_": [
        0,
        0,
        0,
        0
    ],
    "_orientation_": 6,
    "_padding_": [
        0,
        0,
        0,
        0
    ],
    "_percent_": true,
    "_right_": {
        "type": "number",
        "value": ""
    },
    "_skin_": "s24c92fc23b14f5484b693ee9b8a9b35",
    "_top_": {
        "type": "string",
        "value": "180dp"
    },
    "_width_": {
        "type": "string",
        "value": "100%"
    },
    "allboxes": [],
    "canUpdateUI": true,
    "centerx": {
        "type": "number",
        "value": ""
    },
    "children": [
        "flxWelcomeUserImageSelectUsername",
        "lblYourSelectUsername",
        "lblVerifiedSelectUsername"
    ],
    "clipbounds": true,
    "containerweight": 100,
    "enablescrolling": true,
    "id": "flxUserContentSelectUsername",
    "info": null,
    "iscustomlayout": false,
    "isvisible": true,
    "kuid": "db799500bebd453c9606705b44d5d5b8",
    "layouttype": 2,
    "name": "kony.ui.FlexContainer",
    "parent": "flxLoginSelectedUsername",
    "pf": "frmLogin",
    "responsiveData": {
        "b1": {
            "height": {
                "type": "string",
                "value": "82dp"
            },
            "isVisible": true,
            "left": {
                "type": "string",
                "value": "80dp"
            },
            "width": {
                "type": "string",
                "value": "84.00%"
            }
        },
        "b2": {
            "centerX": {
                "type": "string",
                "value": "50%"
            },
            "height": {
                "type": "string",
                "value": "140dp"
            },
            "left": {
                "type": "string",
                "value": ""
            }
        },
        "b3": {
            "centerX": {
                "type": "string",
                "value": "50%"
            },
            "height": {
                "type": "string",
                "value": "130dp"
            },
            "isVisible": true,
            "left": {
                "type": "string",
                "value": ""
            }
        },
        "b4": {
            "centerX": {
                "type": "string",
                "value": "50%"
            },
            "height": {
                "type": "string",
                "value": "140dp"
            },
            "left": {
                "type": "string",
                "value": ""
            },
            "right": {
                "type": "string",
                "value": "50%"
            },
            "width": {
                "type": "string",
                "value": "60%"
            }
        }
    },
    "retaincontentalignment": false,
    "retainflexpositionproperties": false,
    "snapgridsize": 10,
    "snaptogrid": true,
    "wType": "FlexContainer",
    "widgetalignment": 1,
    "zindex": 1
}