{
    "@class": "com.kony.gen.viz.model.component.KVizImage2",
    "DNDConfig": null,
    "__parentReadjusting__": false,
    "_base64_": null,
    "_height_": {
        "type": "string",
        "value": "9dp"
    },
    "_left_": {
        "type": "string",
        "value": "6.40%"
    },
    "_margin_": [
        0,
        0,
        0,
        0
    ],
    "_padding_": [
        0,
        0,
        0,
        0
    ],
    "_skin_": "s78a5f26c9f14cec9ebed1bb46098f80",
    "_src_": "reply_arrowtip.png",
    "_top_": {
        "type": "string",
        "value": "12dp"
    },
    "_width_": {
        "type": "string",
        "value": "9dp"
    },
    "canUpdateUI": true,
    "containerId": true,
    "containerweight": 100,
    "context": {
        "channel": "desktop",
        "platform": "desktopweb",
        "templateType": "segments",
        "topLevelBox": null
    },
    "id": "imgToolTip",
    "imagescalemode": 1,
    "info": null,
    "invokedProperty": "src",
    "isvisible": false,
    "kuid": "b3b617b8e6ce4be68fe6a94a501e806d",
    "name": "kony.ui.Image2",
    "paddinginpixel": false,
    "parent": "flxMessagesLeft",
    "pf": "segMessagesLeft",
    "srcType": 1,
    "wType": "Image",
    "widgetalignment": 5,
    "zindex": 4
}