{
  "customCode" : {
    "responseProcessorName" : "com.kony.postprocessors.UpdateExternalAccountNicknameObjectServicePostProcessor"
  },
  "operationConfig" : {
    "name" : "updateAccountjava8918",
    "type" : "MappedToBackend",
    "cachable" : false,
    "smsEnabled" : false,
    "security" : "authorized_app_user",
    "responseEncoding" : "UTF-8",
    "httpMethod" : "GET",
    "decodeResponseBody" : false,
    "iMapping" : "<?xml version=\"1.0\" encoding=\"UTF-8\" standalone=\"yes\"?><mapper xmlns=\"http://www.kony.com/ns/mapper\">                  <map inputpath=\"request_in\" outputpath=\"request_out\">                                    <set-param inputpath=\"Account_id\" outputpath=\"Account_id\"/>                                    <set-param inputpath=\"NickName\" outputpath=\"NickName\"/>     <set-param inputpath=\"FavouriteStatus\" outputpath=\"FavouriteStatus\"/>   </map></mapper>",
    "iVisualMappingData" : "{\"nodeDataArray\":[{\"isGroup\":true,\"key\":\"request_in\",\"text\":\"SelectedAccounts\",\"xy\":\"150 100\",\"__gohashid\":211},{\"isGroup\":true,\"key\":\"request_out\",\"text\":\"dbpAccountAggregationjava.updateAccountjava\",\"xy\":\"770 100\",\"__gohashid\":212}],\"linkDataArray\":[{\"from\":\"source\",\"to\":\"source:SelectedAccounts\",\"fromPort\":\"source\",\"toPort\":\"source:SelectedAccounts\",\"visible\":true,\"common\":false,\"__gohashid\":230},{\"from\":\"source:SelectedAccounts\",\"to\":\"source:SelectedAccounts:fields\",\"fromPort\":\"source:SelectedAccounts\",\"toPort\":\"source:SelectedAccounts:fields\",\"visible\":true,\"common\":false,\"__gohashid\":231},{\"from\":\"source:SelectedAccounts:fields\",\"to\":\"source:SelectedAccounts:main_user:\",\"fromPort\":\"source:SelectedAccounts:fields\",\"toPort\":\"source:SelectedAccounts:main_user:\",\"visible\":true,\"common\":false,\"__gohashid\":232},{\"from\":\"source:SelectedAccounts:fields\",\"to\":\"source:SelectedAccounts:username:\",\"fromPort\":\"source:SelectedAccounts:fields\",\"toPort\":\"source:SelectedAccounts:username:\",\"visible\":true,\"common\":false,\"__gohashid\":233},{\"from\":\"source:SelectedAccounts:fields\",\"to\":\"source:SelectedAccounts:bank_id:\",\"fromPort\":\"source:SelectedAccounts:fields\",\"toPort\":\"source:SelectedAccounts:bank_id:\",\"visible\":true,\"common\":false,\"__gohashid\":234},{\"from\":\"source:SelectedAccounts:fields\",\"to\":\"source:SelectedAccounts:AccountName:\",\"fromPort\":\"source:SelectedAccounts:fields\",\"toPort\":\"source:SelectedAccounts:AccountName:\",\"visible\":true,\"common\":false,\"__gohashid\":235},{\"from\":\"source:SelectedAccounts:fields\",\"to\":\"source:SelectedAccounts:AvailableBalance:\",\"fromPort\":\"source:SelectedAccounts:fields\",\"toPort\":\"source:SelectedAccounts:AvailableBalance:\",\"visible\":true,\"common\":false,\"__gohashid\":236},{\"from\":\"source:SelectedAccounts:fields\",\"to\":\"source:SelectedAccounts:id:\",\"fromPort\":\"source:SelectedAccounts:fields\",\"toPort\":\"source:SelectedAccounts:id:\",\"visible\":true,\"common\":false,\"__gohashid\":237},{\"from\":\"source:SelectedAccounts:fields\",\"to\":\"source:SelectedAccounts:loop_count:\",\"fromPort\":\"source:SelectedAccounts:fields\",\"toPort\":\"source:SelectedAccounts:loop_count:\",\"visible\":true,\"common\":false,\"__gohashid\":238},{\"from\":\"source:SelectedAccounts:fields\",\"to\":\"source:SelectedAccounts:Account_id:\",\"fromPort\":\"source:SelectedAccounts:fields\",\"toPort\":\"source:SelectedAccounts:Account_id:\",\"visible\":true,\"common\":false,\"__gohashid\":239},{\"from\":\"source:SelectedAccounts:fields\",\"to\":\"source:SelectedAccounts:NickName:\",\"fromPort\":\"source:SelectedAccounts:fields\",\"toPort\":\"source:SelectedAccounts:NickName:\",\"visible\":true,\"common\":false,\"__gohashid\":240},{\"from\":\"source:SelectedAccounts:fields\",\"to\":\"source:SelectedAccounts:Number:\",\"fromPort\":\"source:SelectedAccounts:fields\",\"toPort\":\"source:SelectedAccounts:Number:\",\"visible\":true,\"common\":false,\"__gohashid\":241},{\"from\":\"source:SelectedAccounts:fields\",\"to\":\"source:SelectedAccounts:CurrencyCode:\",\"fromPort\":\"source:SelectedAccounts:fields\",\"toPort\":\"source:SelectedAccounts:CurrencyCode:\",\"visible\":true,\"common\":false,\"__gohashid\":242},{\"from\":\"source:SelectedAccounts:fields\",\"to\":\"source:SelectedAccounts:Type_id:\",\"fromPort\":\"source:SelectedAccounts:fields\",\"toPort\":\"source:SelectedAccounts:Type_id:\",\"visible\":true,\"common\":false,\"__gohashid\":243},{\"from\":\"source:SelectedAccounts:fields\",\"to\":\"source:SelectedAccounts:AccountHolder:\",\"fromPort\":\"source:SelectedAccounts:fields\",\"toPort\":\"source:SelectedAccounts:AccountHolder:\",\"visible\":true,\"common\":false,\"__gohashid\":244},{\"from\":\"source:SelectedAccounts:fields\",\"to\":\"source:SelectedAccounts:FavouriteStatus:\",\"fromPort\":\"source:SelectedAccounts:fields\",\"toPort\":\"source:SelectedAccounts:FavouriteStatus:\",\"visible\":true,\"common\":false,\"__gohashid\":245}],\"blockCount\":{\"variableCount\":0},\"variableMap\":{},\"xmlMappingOverride\":true}",
    "applyCommonMapping" : false,
    "applyRequestCommonMapping" : false,
    "applyResponseCommonMapping" : true,
    "backendMeta" : {
      "serviceName" : "dbpAccountAggregationjava",
      "serviceVersion" : "1.0",
      "operationName" : "updateAccountjava"
    },
    "relationshipHierarchyMapping" : {
      "children" : [ ],
      "name" : "SelectedAccounts",
      "actions" : {
        "create" : true,
        "update" : true,
        "partialupdate" : true,
        "delete" : true
      },
      "selected" : true
    },
    "requestXmlMappingOverride" : true,
    "responseXmlMappingOverride" : false
  }
}