{
    "@class": "com.kony.gen.viz.model.component.KVizRichText",
    "DNDConfig": null,
    "__parentReadjusting__": false,
    "_height_": {
        "type": "ref",
        "value": "preferred"
    },
    "_left_": {
        "type": "string",
        "value": "20dp"
    },
    "_margin_": [
        0,
        0,
        0,
        0
    ],
    "_padding_": [
        0,
        0,
        0,
        0
    ],
    "_right_": {
        "type": "string",
        "value": "30dp"
    },
    "_skin_": "sc4cc30bc71442ee9f8b2e9230a973fa",
    "_text_": "9845121",
    "_top_": {
        "type": "string",
        "value": "5dp"
    },
    "_wrapping_": 2,
    "accessibilityconfig": {
        "a11yLabel": "9845121"
    },
    "canUpdateUI": true,
    "containerId": true,
    "containerweight": 100,
    "contentalignment": 4,
    "id": "rtxReferenceNumber1",
    "info": null,
    "isvisible": true,
    "kuid": "d1cc8adbdff240dfacebb5550a446f1a",
    "name": "kony.ui.RichText",
    "parent": "flxReferenceNumber1",
    "pf": "segDisputeTransactionConfirmDetailsMobile",
    "wType": "RichText",
    "watchos": {
        "render": false
    },
    "widgetalignment": 5,
    "windows10": {
        "render": false
    },
    "winphone10": {
        "render": false
    },
    "zindex": 1
}