{
  "operationConfig" : {
    "name" : "getPreviousBillsForBiller6502",
    "type" : "MappedToBackend",
    "cachable" : false,
    "smsEnabled" : false,
    "security" : "authorized_app_user",
    "responseEncoding" : "UTF-8",
    "httpMethod" : "GET",
    "decodeResponseBody" : false,
    "iMapping" : "<?xml version=\"1.0\" encoding=\"UTF-8\" standalone=\"yes\"?><mapper xmlns=\"http://www.kony.com/ns/mapper\"><map inputpath=\"request_in\" outputpath=\"request_out\"><set-param inputpath=\"payeeId\" outputpath=\"PayeeId\"/></map></mapper>",
    "oMapping" : "<?xml version=\"1.0\" encoding=\"UTF-8\" standalone=\"yes\"?><mapper xmlns=\"http://www.kony.com/ns/mapper\">      <map inputpath=\"response_in\" outputpath=\"response_out\">            <map inputpath=\"bill\" outputpath=\"Bills\">                  <set-param inputpath=\"balanceAmount\" outputpath=\"balanceAmount\"/>                  <set-param inputpath=\"billDueDate\" outputpath=\"billDueDate\"/>                  <set-param inputpath=\"billerCategory\" outputpath=\"billerCategory\"/>                  <set-param inputpath=\"billGeneratedDate\" outputpath=\"billGeneratedDate\"/>                  <set-param inputpath=\"description\" outputpath=\"description\"/>                  <set-param inputpath=\"dueAmount\" outputpath=\"dueAmount\"/>          <set-param inputpath=\"currencyCode\" outputpath=\"currencyCode\"/>      <set-param inputpath=\"ebillStatus\" outputpath=\"ebillStatus\"/>                  <set-param inputpath=\"fromAccountName\" outputpath=\"fromAccountName\"/>                  <set-param inputpath=\"fromAccountNumber\" outputpath=\"fromAccountNumber\"/>                  <set-param inputpath=\"id\" outputpath=\"id\"/>                  <set-param inputpath=\"paidAmount\" outputpath=\"paidAmount\"/>                  <set-param inputpath=\"paidDate\" outputpath=\"paidDate\"/>                  <set-param inputpath=\"payeeName\" outputpath=\"payeeName\"/>            </map>      </map></mapper>",
    "oVisualMappingData" : "{\"nodeDataArray\":[{\"isGroup\":true,\"key\":\"response_out\",\"text\":\"Bills\",\"xy\":\"770 100\",\"__gohashid\":13548},{\"isGroup\":true,\"key\":\"response_in\",\"text\":\"dbpRbLocalServicesJava (1.0).getPreviousBillsForBiller\",\"xy\":\"150 100\",\"__gohashid\":13549}],\"linkDataArray\":[{\"category\":\"Mapping\",\"from\":\"source:Bills:balanceAmount:\",\"to\":\"target:Bills:balanceAmount:\",\"fromPort\":\"source:Bills:balanceAmount:\",\"toPort\":\"target:Bills:balanceAmount:\",\"visible\":true,\"common\":true,\"__gohashid\":16359},{\"category\":\"Mapping\",\"from\":\"source:Bills:billDueDate:\",\"to\":\"target:Bills:billDueDate:\",\"fromPort\":\"source:Bills:billDueDate:\",\"toPort\":\"target:Bills:billDueDate:\",\"visible\":true,\"common\":true,\"__gohashid\":16366},{\"category\":\"Mapping\",\"from\":\"source:Bills:billerCategory:\",\"to\":\"target:Bills:billerCategory:\",\"fromPort\":\"source:Bills:billerCategory:\",\"toPort\":\"target:Bills:billerCategory:\",\"visible\":true,\"common\":true,\"__gohashid\":16373},{\"category\":\"Mapping\",\"from\":\"source:Bills:billGeneratedDate:\",\"to\":\"target:Bills:billGeneratedDate:\",\"fromPort\":\"source:Bills:billGeneratedDate:\",\"toPort\":\"target:Bills:billGeneratedDate:\",\"visible\":true,\"common\":true,\"__gohashid\":16380},{\"category\":\"Mapping\",\"from\":\"source:Bills:description:\",\"to\":\"target:Bills:description:\",\"fromPort\":\"source:Bills:description:\",\"toPort\":\"target:Bills:description:\",\"visible\":true,\"common\":true,\"__gohashid\":16387},{\"category\":\"Mapping\",\"from\":\"source:Bills:dueAmount:\",\"to\":\"target:Bills:dueAmount:\",\"fromPort\":\"source:Bills:dueAmount:\",\"toPort\":\"target:Bills:dueAmount:\",\"visible\":true,\"common\":true,\"__gohashid\":16394},{\"category\":\"Mapping\",\"from\":\"source:Bills:ebillStatus:\",\"to\":\"target:Bills:ebillStatus:\",\"fromPort\":\"source:Bills:ebillStatus:\",\"toPort\":\"target:Bills:ebillStatus:\",\"visible\":true,\"common\":true,\"__gohashid\":16401},{\"category\":\"Mapping\",\"from\":\"source:Bills:fromAccountName:\",\"to\":\"target:Bills:fromAccountName:\",\"fromPort\":\"source:Bills:fromAccountName:\",\"toPort\":\"target:Bills:fromAccountName:\",\"visible\":true,\"common\":true,\"__gohashid\":16408},{\"category\":\"Mapping\",\"from\":\"source:Bills:fromAccountNumber:\",\"to\":\"target:Bills:fromAccountNumber:\",\"fromPort\":\"source:Bills:fromAccountNumber:\",\"toPort\":\"target:Bills:fromAccountNumber:\",\"visible\":true,\"common\":true,\"__gohashid\":16415},{\"category\":\"Mapping\",\"from\":\"source:Bills:id:\",\"to\":\"target:Bills:id:\",\"fromPort\":\"source:Bills:id:\",\"toPort\":\"target:Bills:id:\",\"visible\":true,\"common\":true,\"__gohashid\":16422},{\"category\":\"Mapping\",\"from\":\"source:Bills:paidAmount:\",\"to\":\"target:Bills:paidAmount:\",\"fromPort\":\"source:Bills:paidAmount:\",\"toPort\":\"target:Bills:paidAmount:\",\"visible\":true,\"common\":true,\"__gohashid\":16429},{\"category\":\"Mapping\",\"from\":\"source:Bills:paidDate:\",\"to\":\"target:Bills:paidDate:\",\"fromPort\":\"source:Bills:paidDate:\",\"toPort\":\"target:Bills:paidDate:\",\"visible\":true,\"common\":true,\"__gohashid\":16436},{\"category\":\"Mapping\",\"from\":\"source:Bills:payeeName:\",\"to\":\"target:Bills:payeeName:\",\"fromPort\":\"source:Bills:payeeName:\",\"toPort\":\"target:Bills:payeeName:\",\"visible\":true,\"common\":true,\"__gohashid\":16443},{\"from\":\"target\",\"to\":\"target:Bills\",\"fromPort\":\"target\",\"toPort\":\"target:Bills\",\"visible\":true,\"common\":false,\"__gohashid\":24602},{\"from\":\"target:Bills\",\"to\":\"target:Bills:fields\",\"fromPort\":\"target:Bills\",\"toPort\":\"target:Bills:fields\",\"visible\":true,\"common\":false,\"__gohashid\":24603},{\"from\":\"target:Bills:fields\",\"to\":\"target:Bills:balanceAmount:\",\"fromPort\":\"target:Bills:fields\",\"toPort\":\"target:Bills:balanceAmount:\",\"visible\":true,\"common\":false,\"__gohashid\":24604},{\"from\":\"target:Bills:fields\",\"to\":\"target:Bills:billDueDate:\",\"fromPort\":\"target:Bills:fields\",\"toPort\":\"target:Bills:billDueDate:\",\"visible\":true,\"common\":false,\"__gohashid\":24605},{\"from\":\"target:Bills:fields\",\"to\":\"target:Bills:billerCategory:\",\"fromPort\":\"target:Bills:fields\",\"toPort\":\"target:Bills:billerCategory:\",\"visible\":true,\"common\":false,\"__gohashid\":24606},{\"from\":\"target:Bills:fields\",\"to\":\"target:Bills:billerName:\",\"fromPort\":\"target:Bills:fields\",\"toPort\":\"target:Bills:billerName:\",\"visible\":true,\"common\":false,\"__gohashid\":24607},{\"from\":\"target:Bills:fields\",\"to\":\"target:Bills:billGeneratedDate:\",\"fromPort\":\"target:Bills:fields\",\"toPort\":\"target:Bills:billGeneratedDate:\",\"visible\":true,\"common\":false,\"__gohashid\":24608},{\"from\":\"target:Bills:fields\",\"to\":\"target:Bills:description:\",\"fromPort\":\"target:Bills:fields\",\"toPort\":\"target:Bills:description:\",\"visible\":true,\"common\":false,\"__gohashid\":24609},{\"from\":\"target:Bills:fields\",\"to\":\"target:Bills:dueAmount:\",\"fromPort\":\"target:Bills:fields\",\"toPort\":\"target:Bills:dueAmount:\",\"visible\":true,\"common\":false,\"__gohashid\":24610},{\"from\":\"target:Bills:fields\",\"to\":\"target:Bills:ebillStatus:\",\"fromPort\":\"target:Bills:fields\",\"toPort\":\"target:Bills:ebillStatus:\",\"visible\":true,\"common\":false,\"__gohashid\":24611},{\"from\":\"target:Bills:fields\",\"to\":\"target:Bills:ebillURL:\",\"fromPort\":\"target:Bills:fields\",\"toPort\":\"target:Bills:ebillURL:\",\"visible\":true,\"common\":false,\"__gohashid\":24612},{\"from\":\"target:Bills:fields\",\"to\":\"target:Bills:fromAccountName:\",\"fromPort\":\"target:Bills:fields\",\"toPort\":\"target:Bills:fromAccountName:\",\"visible\":true,\"common\":false,\"__gohashid\":24613},{\"from\":\"target:Bills:fields\",\"to\":\"target:Bills:fromAccountNumber:\",\"fromPort\":\"target:Bills:fields\",\"toPort\":\"target:Bills:fromAccountNumber:\",\"visible\":true,\"common\":false,\"__gohashid\":24614},{\"from\":\"target:Bills:fields\",\"to\":\"target:Bills:id:\",\"fromPort\":\"target:Bills:fields\",\"toPort\":\"target:Bills:id:\",\"visible\":true,\"common\":false,\"__gohashid\":24615},{\"from\":\"target:Bills:fields\",\"to\":\"target:Bills:order:\",\"fromPort\":\"target:Bills:fields\",\"toPort\":\"target:Bills:order:\",\"visible\":true,\"common\":false,\"__gohashid\":24616},{\"from\":\"target:Bills:fields\",\"to\":\"target:Bills:paidAmount:\",\"fromPort\":\"target:Bills:fields\",\"toPort\":\"target:Bills:paidAmount:\",\"visible\":true,\"common\":false,\"__gohashid\":24617},{\"from\":\"target:Bills:fields\",\"to\":\"target:Bills:paidDate:\",\"fromPort\":\"target:Bills:fields\",\"toPort\":\"target:Bills:paidDate:\",\"visible\":true,\"common\":false,\"__gohashid\":24618},{\"from\":\"target:Bills:fields\",\"to\":\"target:Bills:payeeId:\",\"fromPort\":\"target:Bills:fields\",\"toPort\":\"target:Bills:payeeId:\",\"visible\":true,\"common\":false,\"__gohashid\":24619},{\"from\":\"target:Bills:fields\",\"to\":\"target:Bills:payeeName:\",\"fromPort\":\"target:Bills:fields\",\"toPort\":\"target:Bills:payeeName:\",\"visible\":true,\"common\":false,\"__gohashid\":24620},{\"from\":\"target:Bills:fields\",\"to\":\"target:Bills:sortBy:\",\"fromPort\":\"target:Bills:fields\",\"toPort\":\"target:Bills:sortBy:\",\"visible\":true,\"common\":false,\"__gohashid\":24621},{\"from\":\"target:Bills:fields\",\"to\":\"target:Bills:payeeAddressLine1:\",\"fromPort\":\"target:Bills:fields\",\"toPort\":\"target:Bills:payeeAddressLine1:\",\"visible\":true,\"common\":false,\"__gohashid\":24622},{\"from\":\"target:Bills:fields\",\"to\":\"target:Bills:type_id:\",\"fromPort\":\"target:Bills:fields\",\"toPort\":\"target:Bills:type_id:\",\"visible\":true,\"common\":false,\"__gohashid\":24623},{\"from\":\"target:Bills:fields\",\"to\":\"target:Bills:transactionType:\",\"fromPort\":\"target:Bills:fields\",\"toPort\":\"target:Bills:transactionType:\",\"visible\":true,\"common\":false,\"__gohashid\":24624},{\"from\":\"target:Bills:fields\",\"to\":\"target:Bills:recurrenceDesc:\",\"fromPort\":\"target:Bills:fields\",\"toPort\":\"target:Bills:recurrenceDesc:\",\"visible\":true,\"common\":false,\"__gohashid\":24625},{\"from\":\"source\",\"to\":\"source:Bills\",\"fromPort\":\"source\",\"toPort\":\"source:Bills\",\"visible\":true,\"common\":false,\"__gohashid\":24626},{\"from\":\"source:Bills\",\"to\":\"source:Bills:parameters\",\"fromPort\":\"source:Bills\",\"toPort\":\"source:Bills:parameters\",\"visible\":true,\"common\":false,\"__gohashid\":24627},{\"from\":\"source:Bills:parameters\",\"to\":\"source:Bills:balanceAmount:\",\"fromPort\":\"source:Bills:parameters\",\"toPort\":\"source:Bills:balanceAmount:\",\"visible\":true,\"common\":false,\"__gohashid\":24628},{\"from\":\"source:Bills:parameters\",\"to\":\"source:Bills:billDueDate:\",\"fromPort\":\"source:Bills:parameters\",\"toPort\":\"source:Bills:billDueDate:\",\"visible\":true,\"common\":false,\"__gohashid\":24629},{\"from\":\"source:Bills:parameters\",\"to\":\"source:Bills:billerCategory:\",\"fromPort\":\"source:Bills:parameters\",\"toPort\":\"source:Bills:billerCategory:\",\"visible\":true,\"common\":false,\"__gohashid\":24630},{\"from\":\"source:Bills:parameters\",\"to\":\"source:Bills:billGeneratedDate:\",\"fromPort\":\"source:Bills:parameters\",\"toPort\":\"source:Bills:billGeneratedDate:\",\"visible\":true,\"common\":false,\"__gohashid\":24631},{\"from\":\"source:Bills:parameters\",\"to\":\"source:Bills:description:\",\"fromPort\":\"source:Bills:parameters\",\"toPort\":\"source:Bills:description:\",\"visible\":true,\"common\":false,\"__gohashid\":24632},{\"from\":\"source:Bills:parameters\",\"to\":\"source:Bills:dueAmount:\",\"fromPort\":\"source:Bills:parameters\",\"toPort\":\"source:Bills:dueAmount:\",\"visible\":true,\"common\":false,\"__gohashid\":24633},{\"from\":\"source:Bills:parameters\",\"to\":\"source:Bills:ebillStatus:\",\"fromPort\":\"source:Bills:parameters\",\"toPort\":\"source:Bills:ebillStatus:\",\"visible\":true,\"common\":false,\"__gohashid\":24634},{\"from\":\"source:Bills:parameters\",\"to\":\"source:Bills:fromAccountName:\",\"fromPort\":\"source:Bills:parameters\",\"toPort\":\"source:Bills:fromAccountName:\",\"visible\":true,\"common\":false,\"__gohashid\":24635},{\"from\":\"source:Bills:parameters\",\"to\":\"source:Bills:fromAccountNumber:\",\"fromPort\":\"source:Bills:parameters\",\"toPort\":\"source:Bills:fromAccountNumber:\",\"visible\":true,\"common\":false,\"__gohashid\":24636},{\"from\":\"source:Bills:parameters\",\"to\":\"source:Bills:id:\",\"fromPort\":\"source:Bills:parameters\",\"toPort\":\"source:Bills:id:\",\"visible\":true,\"common\":false,\"__gohashid\":24637},{\"from\":\"source:Bills:parameters\",\"to\":\"source:Bills:paidAmount:\",\"fromPort\":\"source:Bills:parameters\",\"toPort\":\"source:Bills:paidAmount:\",\"visible\":true,\"common\":false,\"__gohashid\":24638},{\"from\":\"source:Bills:parameters\",\"to\":\"source:Bills:paidDate:\",\"fromPort\":\"source:Bills:parameters\",\"toPort\":\"source:Bills:paidDate:\",\"visible\":true,\"common\":false,\"__gohashid\":24639},{\"from\":\"source:Bills:parameters\",\"to\":\"source:Bills:payeeName:\",\"fromPort\":\"source:Bills:parameters\",\"toPort\":\"source:Bills:payeeName:\",\"visible\":true,\"common\":false,\"__gohashid\":24640}],\"blockCount\":{\"variableCount\":0},\"variableMap\":{},\"xmlMappingOverride\":true}",
    "applyCommonMapping" : false,
    "applyRequestCommonMapping" : true,
    "applyResponseCommonMapping" : false,
    "backendMeta" : {
      "serviceName" : "dbpRbLocalServicesJava",
      "serviceVersion" : "1.0",
      "operationName" : "getPreviousBillsForBiller"
    },
    "relationshipHierarchyMapping" : {
      "children" : [ ],
      "name" : "Bills",
      "actions" : { },
      "selected" : true
    },
    "requestXmlMappingOverride" : false,
    "responseXmlMappingOverride" : true
  }
}