{
    "@class": "com.kony.gen.viz.model.component.KVizImage2",
    "DNDConfig": null,
    "__parentReadjusting__": false,
    "_base64_": null,
    "_height_": {
        "type": "string",
        "value": "7dp"
    },
    "_left_": {
        "type": "string",
        "value": "15dp"
    },
    "_margin_": [
        0,
        0,
        0,
        0
    ],
    "_padding_": [
        0,
        0,
        0,
        0
    ],
    "_skin_": "s78a5f26c9f14cec9ebed1bb46098f80",
    "_src_": "arrow_down.png",
    "_width_": {
        "type": "string",
        "value": "14dp"
    },
    "accessibilityconfig": {
        "a11yLabel": "DropDownList"
    },
    "canUpdateUI": true,
    "centery": {
        "type": "string",
        "value": "50%"
    },
    "containerId": true,
    "containerweight": 100,
    "context": {
        "channel": "desktop",
        "platform": "desktopweb",
        "templateType": "segments",
        "topLevelBox": null
    },
    "id": "imgCategoryDropdown",
    "imagescalemode": 1,
    "imagewhiledownloading": "img_transparent.png",
    "info": null,
    "isvisible": true,
    "kuid": "c1334925d1974a6c822fd3c2c8e8f1d9",
    "name": "kony.ui.Image2",
    "parent": "flxCategory",
    "pf": "segPFMUnCategorizedTransactionsPFM",
    "srcType": 1,
    "tooltip": "DropDownList",
    "wType": "Image",
    "widgetalignment": 5,
    "zindex": 1
}