{
    "@class": "com.kony.gen.viz.model.container.KVizScrollFlexForm",
    "DNDConfig": null,
    "_margin_": [
        0,
        0,
        0,
        0
    ],
    "_orientation_": 1,
    "_padding_": [
        0,
        0,
        0,
        0
    ],
    "_percent_": true,
    "_skin_": "s2f58a140c5647b8a643edf5a6309600",
    "_title_": null,
    "addWidgetsdone": false,
    "allboxes": [],
    "android": {
        "psp": {
            "windowSoftInputMode": 2
        }
    },
    "breakpointInfo": {
        "b1": {
            "width": 1366
        },
        "b2": {
            "width": 1024
        },
        "b3": {
            "width": 640
        },
        "b4": {
            "width": 1380
        }
    },
    "canUpdateUI": true,
    "canvasWidth": 2000,
    "children": [
        "flxHeader",
        "flxContainer",
        "flxLogout",
        "FlxDismiss",
        "flxLoading",
        "flxFooter"
    ],
    "containerweight": 100,
    "controllerInfo": {
        "default": {
            "channel": "desktop",
            "name": "frmNotificationsAndMessagesController"
        }
    },
    "currentLocale": "default",
    "desktopweb": {
        "needAppMenu": false
    },
    "device": "desktopweb",
    "displayorientation": 1,
    "enabledforidletimeout": true,
    "friendlyName": "frmNotificationsAndMessages",
    "id": "frmNotificationsAndMessages",
    "ide_onDeviceBack": "AS_Form_c25de95e48a04ccb81587c1758e62be0",
    "ide_onTouchEnd": "AS_Form_jc89e0f1798348888ad96f03a01930d5",
    "ide_postShow": "AS_Form_c577f98e99594a89ada0d0eeef83e7ae",
    "ide_preShow": "AS_Form_ddf367ae84c94d78b2c653aa25fbbe6f",
    "info": null,
    "initdone": false,
    "inputaccessoryviewtype": 4,
    "ipad": {
        "psp": {
            "inputAccessoryViewType": 4
        }
    },
    "iphone": {
        "psp": {
            "inputAccessoryViewType": 4
        }
    },
    "isvisible": true,
    "kuid": "a83a23bb52bc4894a44b027a89964c1b",
    "layouttype": 2,
    "name": "kony.ui.Form2",
    "needappmenu": true,
    "paddinginpixel": false,
    "platform": "desktopweb",
    "prevDevice": "desktopweb",
    "prevPlatform": "desktopweb",
    "retainscrollposition": false,
    "shellCSS": "desktop",
    "snapgridsize": 10,
    "snaptogrid": true,
    "titleBarSkin": "s2e24ee0a8ca46b089d8a5bea8a1a32e",
    "titlebar": true,
    "type": 3,
    "vizProps": {
        "globalRespDesignEnabled": true
    },
    "wType": "Form"
}