{
    "DNDConfig": null,
    "__parentReadjusting__": false,
    "_bottom_": {
        "type": "string",
        "value": "30dp"
    },
    "_height_": {
        "type": "string",
        "value": "330dp"
    },
    "_left_": {
        "type": "string",
        "value": "30dp"
    },
    "_margin_": [
        0,
        0,
        0,
        0
    ],
    "_orientation_": 6,
    "_padding_": [
        0,
        0,
        0,
        0
    ],
    "_percent_": true,
    "_skin_": "s6ee01d1fed2406d99bfbea5e78b4638",
    "_top_": {
        "type": "string",
        "value": "50dp"
    },
    "_width_": {
        "type": "string",
        "value": "46.66%"
    },
    "allboxes": [],
    "autogrowmode": 0,
    "canUpdateUI": true,
    "children": [
        "lblDetailsKey1",
        "rtxDetailsValue1",
        "lblDetailsKey2",
        "rtxDetailsValue2",
        "lblDetailsKey3",
        "rtxDetailsValue3",
        "lblDetailsKey4",
        "rtxDetailsValue4"
    ],
    "clipbounds": true,
    "containerweight": 100,
    "enablescrolling": true,
    "id": "flxRecipientDetails",
    "info": null,
    "isvisible": true,
    "kuid": "ad9d96b7ec214cb6a9dcf3778697692d",
    "layouttype": 2,
    "name": "kony.ui.FlexContainer",
    "parent": "flxDetails",
    "pf": "userwidgetmodel",
    "snapgridsize": 10,
    "snaptogrid": true,
    "wType": "FlexContainer",
    "widgetalignment": 1,
    "zindex": 1
}