{
    "@class": "com.kony.gen.viz.model.component.KVizRichText",
    "DNDConfig": null,
    "__parentReadjusting__": false,
    "_height_": {
        "type": "ref",
        "value": "preferred"
    },
    "_left_": {
        "type": "string",
        "value": "48.39%"
    },
    "_margin_": [
        0,
        0,
        0,
        0
    ],
    "_padding_": [
        0,
        0,
        0,
        0
    ],
    "_right_": {
        "type": "string",
        "value": "20dp"
    },
    "_skin_": "sc4cc30bc71442ee9f8b2e9230a973fa",
    "_text_": "FSSU2878901",
    "_top_": {
        "type": "string",
        "value": "27dp"
    },
    "_wrapping_": 2,
    "accessibilityconfig": {
        "a11yLabel": "FSSU2878901"
    },
    "canUpdateUI": true,
    "containerweight": 100,
    "contentalignment": 4,
    "id": "rtxBankDetailsValue1",
    "info": null,
    "isvisible": true,
    "kuid": "a1f9e35575df4edd8e2a67fe202008d7",
    "name": "kony.ui.RichText",
    "parent": "flxRow1",
    "pf": "userwidgetmodel",
    "wType": "RichText",
    "widgetalignment": 5,
    "zindex": 1
}