{
	"@class": "com.kony.gen.viz.model.component.KVizUserWidget",
	"DNDConfig": null,
	"__parentReadjusting__": false,
	"_children_": [],
	"_desktopweb_": {},
	"_height_": {
		"type": "string",
		"value": "120px"
	},
	"_left_": {
		"type": "string",
		"value": "0dp"
	},
	"_margin_": [
		0,
		0,
		0,
		0
	],
	"_orientation_": 1,
	"_padding_": [
		0,
		0,
		0,
		0
	],
	"_percent_": true,
	"_render_": true,
	"_responsiveData_": {
		"b2": {
			"width": {
				"type": "string",
				"value": "100%"
			}
		},
		"b3": {
			"height": {
				"type": "string",
				"value": "50px"
			}
		},
		"b4": {
			"width": {
				"type": "string",
				"value": "100%"
			}
		}
	},
	"_skin_": "s24c92fc23b14f5484b693ee9b8a9b35",
	"_top_": {
		"type": "string",
		"value": "0dp"
	},
	"_vizProps_": {
		"hidewidgethierarchy": false
	},
	"_width_": {
		"type": "string",
		"value": "100%"
	},
	"areflexpropsreferenced": false,
	"autogrowmode": 0,
	"canUpdateUI": true,
	"clipbounds": false,
	"containerweight": 0,
	"dataDiffs": {
		"CopyflxUserDetails0b35eb5be884043": {
			"__events__": {},
			"__info__": {
				"kuid": "d117984203cc4268ba6fb52a4025b7fe",
				"srcKUID": "b692716bd51e422ead7f111a1bfbe5cb",
				"wType": "FlexContainer"
			}
		},
		"CopyflxVerticalSeperator0b961fc23108f4b": {
			"__events__": {},
			"__info__": {
				"kuid": "j10a2d0c93c44d6996c9c3ee1aa9cd6f",
				"srcKUID": "b6e0434c2f904010bfff7590777daf67",
				"wType": "FlexContainer"
			}
		},
		"CopyflxVerticalSeperator0dbd20466efa64b": {
			"__events__": {},
			"__info__": {
				"kuid": "jfce8c7e61da4e598635455f93bd836b",
				"srcKUID": "d06f368d0065481d81dc512212fd2b95",
				"wType": "FlexContainer"
			}
		},
		"CopyimgToolTip0i580d9acc07c42": {
			"__events__": {},
			"__info__": {
				"kuid": "dff58a73aa1440838ef73fe03441d9b4",
				"srcKUID": "f5065fdfa2d0406bb7fafd4073fe33c5",
				"wType": "Image"
			}
		},
		"FlexContainer0e2898aa93bca45": {
			"__events__": {},
			"__info__": {
				"kuid": "b978ee00a1974a17b7f6cb2a3ce31d85",
				"srcKUID": "f85d68fc07dd44c2938e507df0fe87fc",
				"wType": "FlexContainer"
			},
			"autogrowMode": {
				"Default": 0
			},
			"height": {},
			"responsiveData": {
				"b3": {
					"height": {
						"type": "string",
						"value": "50px"
					},
					"isVisible": true,
					"width": {
						"type": "string",
						"value": "100%"
					}
				},
				"b4": {
					"width": {
						"type": "string",
						"value": "100%"
					}
				},
				"b1": {
					"width": {
						"type": "string",
						"value": "100%"
					}
				}
			},
			"width": {}
		},
		"customhamburger": {
			"__events__": {},
			"__info__": {
				"kuid": "ddd86ee804084704b7f16351f2f1615b",
				"srcKUID": "dea66199c9fd433fab636de553a6116f",
				"wType": "UserWidgetInstance"
			}
		},
		"customhamburger.CopyFlexContainer0f46534a0a94e41": {
			"__events__": {},
			"__info__": {
				"kuid": "da75d6c9d7cd45aeba7a5bb1ccb1a074",
				"srcKUID": "ba7b5440b44f4e7a88be10a58c83104e",
				"wType": "FlexContainer"
			}
		},
		"customhamburger.CopyflxSeperator0a7fd02d026804c": {
			"__events__": {},
			"__info__": {
				"kuid": "eeb81febd5994d128b44fcee73102393",
				"srcKUID": "e6c67e99b0b64a4e83a34c312dc501a5",
				"wType": "FlexContainer"
			}
		},
		"customhamburger.CopyflxSeperator0ab6ff437e8524e": {
			"__events__": {},
			"__info__": {
				"kuid": "jf69c79fc4da4536bd22816e308ed294",
				"srcKUID": "ca4dec9fb13344e8a9eaab7c89b68088",
				"wType": "FlexContainer"
			}
		},
		"customhamburger.CopyflxSeperator0acb2897e84374f": {
			"__events__": {},
			"__info__": {
				"kuid": "db7b9576f98b495a8a0d2882a5c8ce92",
				"srcKUID": "h931230261a14f28817596d7d2bbfee2",
				"wType": "FlexContainer"
			}
		},
		"customhamburger.CopyflxSeperator0bd0b5a0f50074d": {
			"__events__": {},
			"__info__": {
				"kuid": "d1ad7b5b701b4b28ab8ead92f011ad07",
				"srcKUID": "b8213949527b424f92c6600b3e792ecc",
				"wType": "FlexContainer"
			}
		},
		"customhamburger.CopyflxSeperator0c1fe53523f5e44": {
			"__events__": {},
			"__info__": {
				"kuid": "cd4c00e1ddcd4bde9eb79fd3fe2d5cc8",
				"srcKUID": "ffdae6459d5d450c9b5a5df56704081e",
				"wType": "FlexContainer"
			}
		},
		"customhamburger.CopyflxSeperator0dd0dea943f174f": {
			"__events__": {},
			"__info__": {
				"kuid": "e3d514cda1ac4ddea205361bc81cb984",
				"srcKUID": "j5306d2984814d9d93c24f84d7db8ba7",
				"wType": "FlexContainer"
			}
		},
		"customhamburger.CopyflxSeperator0dfcbfe80de1946": {
			"__events__": {},
			"__info__": {
				"kuid": "h181b10876a4443393124ea15208a165",
				"srcKUID": "ec5e9cdda1b4473aa156d59730730f65",
				"wType": "FlexContainer"
			}
		},
		"customhamburger.CopyflxSeperator0dfe0994effc642": {
			"__events__": {},
			"__info__": {
				"kuid": "cffb6ff4a0fd4e00834437e7809e5540",
				"srcKUID": "c7eb127bdde140e382ab0f3726c08d48",
				"wType": "FlexContainer"
			}
		},
		"customhamburger.CopyflxSeperator0e0b844b2206d42": {
			"__events__": {},
			"__info__": {
				"kuid": "bb256a0407994993b19622448f5d1dad",
				"srcKUID": "d407d1c0e2b74a5c8858107d1963ab91",
				"wType": "FlexContainer"
			}
		},
		"customhamburger.CopyflxSeperator0e9219bd0514c46": {
			"__events__": {},
			"__info__": {
				"kuid": "a5c3793740d0472c9c36fbd5293fb490",
				"srcKUID": "g39fe81fa7b0498b87ae946e0e5daf27",
				"wType": "FlexContainer"
			}
		},
		"customhamburger.CopyflxSeperator0ef41d1ef612f4a": {
			"__events__": {},
			"__info__": {
				"kuid": "dbda63ce12484a30ab3de9c389a1074e",
				"srcKUID": "adeb509fbec84150b31a2aa4a215fb19",
				"wType": "FlexContainer"
			}
		},
		"customhamburger.CopyflxSeperator0ef56548331074b": {
			"__events__": {},
			"__info__": {
				"kuid": "a8408d2c804b41c09d446cd5409bd594",
				"srcKUID": "j62d0667a0e5431d94bbeb7127ae6e11",
				"wType": "FlexContainer"
			}
		},
		"customhamburger.CopyflxSeperator0f0efd703f4a84e": {
			"__events__": {},
			"__info__": {
				"kuid": "hcab10435d994a28ae696259ecf1fb66",
				"srcKUID": "jc0b907adf1f4e1ea39d354fc2e41d23",
				"wType": "FlexContainer"
			}
		},
		"customhamburger.CopyflxSeperator0f697b8a8bbcf46": {
			"__events__": {},
			"__info__": {
				"kuid": "ee0fbe85a197464a8292b20ad4dcb7c4",
				"srcKUID": "d7122805ba3b40f493b7d79f749c5c1f",
				"wType": "FlexContainer"
			}
		},
		"customhamburger.CopyflxSeperator0f7229c978c5c47": {
			"__events__": {},
			"__info__": {
				"kuid": "f35015a6be7c4d6d97d78d7a4d8f03f3",
				"srcKUID": "a87745dcb66b4f4c83b0725af5c1251b",
				"wType": "FlexContainer"
			}
		},
		"customhamburger.CopyflxSeperator0f85cfae3ca0048": {
			"__events__": {},
			"__info__": {
				"kuid": "c2d9792f0e594f50979b73214b9b273c",
				"srcKUID": "dc99871787d24ab28840acb5727529ca",
				"wType": "FlexContainer"
			}
		},
		"customhamburger.CopyflxSeperator0i4d31af56d2d40": {
			"__events__": {},
			"__info__": {
				"kuid": "ab5dad91a8e14ebfb55c59652991f785",
				"srcKUID": "f3f4b62efb0a4dd8bf89e2d38860cfd7",
				"wType": "FlexContainer"
			}
		},
		"customhamburger.CopyflxSeperator0j3213d9f303b41": {
			"__events__": {},
			"__info__": {
				"kuid": "dd8da5de1a9f451cb88ab55df9cc90a1",
				"srcKUID": "fe9c8dd71102415db76f64c461560080",
				"wType": "FlexContainer"
			}
		},
		"customhamburger.CopyflxSeperator0jc2b704f97fa4d": {
			"__events__": {},
			"__info__": {
				"kuid": "df291e99e67e452c95ff01894f63d5ce",
				"srcKUID": "d0c5fd0e52bf405ab3a5b62910c15dfc",
				"wType": "FlexContainer"
			}
		},
		"customhamburger.CopylblAddPayee0b508c1c7ac1342": {
			"__events__": {},
			"__info__": {
				"kuid": "fdaa408da3914b9da55d581d170b6aef",
				"srcKUID": "gecce85ab70e458f8184668a61d2a72a",
				"wType": "Label"
			}
		},
		"customhamburger.CopylblAddPayee0bee2cf73d22b4d": {
			"__events__": {},
			"__info__": {
				"kuid": "e21dff9469eb40a7bae3d73d3b1a7bba",
				"srcKUID": "e21a4f39e45c4ea4b684e82952e0da1f",
				"wType": "Label"
			}
		},
		"customhamburger.CopylblAddPayee0g70cc090ed6245": {
			"__events__": {},
			"__info__": {
				"kuid": "e745191de0124b9297c61002da135db1",
				"srcKUID": "f6dfffbbcd7d48ac80ff2d95331aeef0",
				"wType": "Label"
			}
		},
		"customhamburger.CopylblBillPay0a6bc0b0a48dd4b": {
			"__events__": {},
			"__info__": {
				"kuid": "d765da687913434aa41ee44f9fa1bec6",
				"srcKUID": "iece97379dcf4992bd7afc5f0ac6ed8a",
				"wType": "Label"
			}
		},
		"customhamburger.CopylblBillPay0e8e9903a20a440": {
			"__events__": {},
			"__info__": {
				"kuid": "b3cd2dc1c1b54784acebda0e03aa805a",
				"srcKUID": "i5c72f4c617e4a9fa18d6460cc8c41cb",
				"wType": "Label"
			}
		},
		"customhamburger.CopylblBillPay0eda6178b407a4e": {
			"__events__": {},
			"__info__": {
				"kuid": "ed5f14fdda16435282e745da9d631876",
				"srcKUID": "b5f49ce65f43422e8ba064d0383c8b60",
				"wType": "Label"
			}
		},
		"customhamburger.CopylblBillPayHistory0b38a2ee4fe0d47": {
			"__events__": {},
			"__info__": {
				"kuid": "bc47ee10333a4742b42dc96b5ea8de2b",
				"srcKUID": "hbc213bb8f7a4233b1396cd4bdabbaa3",
				"wType": "Label"
			}
		},
		"customhamburger.CopylblBillPayHistory0gc07c297701741": {
			"__events__": {},
			"__info__": {
				"kuid": "ce8c07f4a39b413986e29a46abac92e7",
				"srcKUID": "cb22b1482ffc4bfb95ecec9f6a141fab",
				"wType": "Label"
			}
		},
		"customhamburger.CopylblMyPayee0dcb9e690692a4f": {
			"__events__": {},
			"__info__": {
				"kuid": "f50f79cedcb4476fa525b61697b7a4db",
				"srcKUID": "bed01243f6a547179d4bf810e22191f0",
				"wType": "Label"
			}
		},
		"customhamburger.CopylblMyPayee0e33403d7890441": {
			"__events__": {},
			"__info__": {
				"kuid": "fd3d0d23ba3a42648dcca523bca5c5ed",
				"srcKUID": "bce63faed54a4d5f8189fb31de9e3ee7",
				"wType": "Label"
			}
		},
		"customhamburger.CopylblMyPayee0i8f11a9bf3734f": {
			"__events__": {},
			"__info__": {
				"kuid": "ba503fb4062544cb997df613b7c813c9",
				"srcKUID": "b43285cfc5b14a5ba8ac5b1edff46d10",
				"wType": "Label"
			}
		},
		"customhamburger.CopylblPayABill0d56ffee2b48f4c": {
			"__events__": {},
			"__info__": {
				"kuid": "bde7bd0acd49442da45557fc60bce44a",
				"srcKUID": "a37d5172e5d04c99a7b381dbdb0c1f0e",
				"wType": "Label"
			}
		},
		"customhamburger.CopylblPayABill0g84c7aa6fce048": {
			"__events__": {},
			"__info__": {
				"kuid": "bb836f1d9d1a46428462154699815539",
				"srcKUID": "e68c07ae9fae4911aa7ec55b76ac1d9e",
				"wType": "Label"
			}
		},
		"customhamburger.CopylblPayABill0h56a2d285cea46": {
			"__events__": {},
			"__info__": {
				"kuid": "e656013f383e4b8b97d210bc49dbb3b1",
				"srcKUID": "ade9130b3841494c9f59781a7587c3e1",
				"wType": "Label"
			}
		},
		"customhamburger.FlexContainer0a82014659b0e48": {
			"__events__": {},
			"__info__": {
				"kuid": "hcc4f93e74264d2fae77ec9ad561c263",
				"srcKUID": "h7ad82c8fb9b437486ad6c4d49320ce2",
				"wType": "FlexContainer"
			}
		},
		"customhamburger.flxAboutUs": {
			"__events__": {},
			"__info__": {
				"kuid": "b36bef7c6ec54e2b9c38d408e93c5d0e",
				"srcKUID": "cca79f5d16b045408f311a815ae6b289",
				"wType": "FlexContainer"
			}
		},
		"customhamburger.flxAboutUsCollapse": {
			"__events__": {},
			"__info__": {
				"kuid": "hc3ca0f5ded240e5bc11b622180a6502",
				"srcKUID": "e41d16cfc04e458693670ae7e87e34aa",
				"wType": "FlexContainer"
			}
		},
		"customhamburger.flxAboutUsSubMenu": {
			"__events__": {},
			"__info__": {
				"kuid": "h6bdee0ef34f4dae8c78cf68777dd7a0",
				"srcKUID": "ad066a23a8cd41e983c434b90da35923",
				"wType": "FlexContainer"
			}
		},
		"customhamburger.flxAccountSettings": {
			"__events__": {},
			"__info__": {
				"kuid": "a4c1587d43004a7ba4ff8c10f4aa5aa5",
				"srcKUID": "g69da15184e04d089b0f58da40a7157e",
				"wType": "FlexContainer"
			}
		},
		"customhamburger.flxAccountsCollapse": {
			"__events__": {},
			"__info__": {
				"kuid": "a55499c820664eeba1cd192fc47b6590",
				"srcKUID": "e0af0f6ab9614020b7fc5e89406a63dc",
				"wType": "FlexContainer"
			}
		},
		"customhamburger.flxAccountsMenu": {
			"__events__": {},
			"__info__": {
				"kuid": "d353a11f82664a1788c9f1a1b138292f",
				"srcKUID": "cf43ccc491384cce8e692bf0c7b73f90",
				"wType": "FlexContainer"
			}
		},
		"customhamburger.flxAccountsSubMenu": {
			"__events__": {},
			"__info__": {
				"kuid": "e3f88d8bd4e142b3b4739337d1093e13",
				"srcKUID": "dc00eecfa1d34328ba4230f17db49066",
				"wType": "FlexContainer"
			}
		},
		"customhamburger.flxAddExternalBankAccounts": {
			"__events__": {},
			"__info__": {
				"kuid": "f2398dddc4f84288b76dac0f9145f357",
				"srcKUID": "d829e28813f643ab8cc7b53a38a11877",
				"wType": "FlexContainer"
			}
		},
		"customhamburger.flxAddKonyAccounts": {
			"__events__": {},
			"__info__": {
				"kuid": "d89c3dca2b6e4f09a7209deb335dfba1",
				"srcKUID": "i7907247783340e6bd2e6d28ef1b46ee",
				"wType": "FlexContainer"
			}
		},
		"customhamburger.flxAddNonKonyAccounts": {
			"__events__": {},
			"__info__": {
				"kuid": "e977df11b894401397fa60929206c59e",
				"srcKUID": "ic3031f46db3438a903562f1278ef9cc",
				"wType": "FlexContainer"
			}
		},
		"customhamburger.flxAddPayee": {
			"__events__": {},
			"__info__": {
				"kuid": "b6cdfe0a5a734ea59db24a74d8d5d68f",
				"srcKUID": "aefd502a752f424387ac0e1a7d6cee42",
				"wType": "FlexContainer"
			}
		},
		"customhamburger.flxAddRecipients": {
			"__events__": {},
			"__info__": {
				"kuid": "b18d014302f14d0ea6b0d28d2d70b872",
				"srcKUID": "f96d8995e54f407cb41a20dbef08e36f",
				"wType": "FlexContainer"
			}
		},
		"customhamburger.flxAlerts": {
			"__events__": {},
			"__info__": {
				"kuid": "e62d739ef9294367823c130b49d47950",
				"srcKUID": "habdea8c510a4db183a6c1d319dc26cf",
				"wType": "FlexContainer"
			}
		},
		"customhamburger.flxAlertsAndMessages": {
			"__events__": {},
			"__info__": {
				"kuid": "f7974859c71946bc8d1266a2b2d15623",
				"srcKUID": "a6047045dc8a45488e4434ae31a9d04e",
				"wType": "FlexContainer"
			}
		},
		"customhamburger.flxAlertsAndMessagesCollapse": {
			"__events__": {},
			"__info__": {
				"kuid": "f212930e766c4b918453e53c857d9a1e",
				"srcKUID": "b5b47f89075c4e738fdfbe5afa6a27a2",
				"wType": "FlexContainer"
			}
		},
		"customhamburger.flxAlertsAndMessagesSeperator": {
			"__events__": {},
			"__info__": {
				"kuid": "g58ed59053be4ebb8d48250aaa0b00d9",
				"srcKUID": "g5f28c8fa61149299a48ec5562c1c35b",
				"wType": "FlexContainer"
			}
		},
		"customhamburger.flxAlertsAndMessagesSubMenu": {
			"__events__": {},
			"__info__": {
				"kuid": "eb32690d8fad437f9fbe2d8a8636290e",
				"srcKUID": "ec498bbee2a54caf825c1cc57f8c0f46",
				"wType": "FlexContainer"
			}
		},
		"customhamburger.flxBillPay": {
			"__events__": {},
			"__info__": {
				"kuid": "de69760c2d774acfb9b28074bf497b9b",
				"srcKUID": "bafa4dff778347ac84a9f492a0e5dff1",
				"wType": "FlexContainer"
			}
		},
		"customhamburger.flxBillPayCollapse": {
			"__events__": {},
			"__info__": {
				"kuid": "dbe48608b1f441429bd7112bdb45ed1e",
				"srcKUID": "a0dcaee0ed354e579861b6fe542d4093",
				"wType": "FlexContainer"
			}
		},
		"customhamburger.flxBillPayHistory": {
			"__events__": {},
			"__info__": {
				"kuid": "ha1db549ab8d43f2be90d3e60a85a0e9",
				"srcKUID": "f62b8e2cab074c0c9fa00cc1d81c39d0",
				"wType": "FlexContainer"
			}
		},
		"customhamburger.flxBillPaySubMenu": {
			"__events__": {},
			"__info__": {
				"kuid": "fef4886abfbb446cb2f8cc0311523bf8",
				"srcKUID": "ea568784be934341979a1fd5e490e2cb",
				"wType": "FlexContainer"
			}
		},
		"customhamburger.flxCardManagement": {
			"__events__": {},
			"__info__": {
				"kuid": "a255c467e0a947a1a7813c7fa96d8eb6",
				"srcKUID": "fca38cea39334c569e00cf833a296ff0",
				"wType": "FlexContainer"
			}
		},
		"customhamburger.flxClose": {
			"__events__": {},
			"__info__": {
				"kuid": "d0b607f8cf7548a09e4a2b2f2d9589b1",
				"srcKUID": "c66fd7f3bd2c4e6e8f7bd01e6287550e",
				"wType": "FlexContainer"
			}
		},
		"customhamburger.flxCollapseTransfers": {
			"__events__": {},
			"__info__": {
				"kuid": "b6f8ab518b084806850f3d4d796f4e71",
				"srcKUID": "h384e8dc0bd24e29af85efafe7e025fc",
				"wType": "FlexContainer"
			}
		},
		"customhamburger.flxContactUs": {
			"__events__": {},
			"__info__": {
				"kuid": "fe248c532474416b84cc4ebf3ab93d91",
				"srcKUID": "abf11674e0d94d85a1fe50e46f4c51bc",
				"wType": "FlexContainer"
			}
		},
		"customhamburger.flxExternalAccounts": {
			"__events__": {},
			"__info__": {
				"kuid": "c38e82755937481099cba6f71f63aca2",
				"srcKUID": "abc9ac58f56e4fb493c8d1f1bff47b24",
				"wType": "FlexContainer"
			}
		},
		"customhamburger.flxFaq": {
			"__events__": {},
			"__info__": {
				"kuid": "e47f2d2cf39b472fb20599b365c3b053",
				"srcKUID": "h28703eed887497abf8a3f907abdbc2e",
				"wType": "FlexContainer"
			}
		},
		"customhamburger.flxFeedback": {
			"__events__": {},
			"__info__": {
				"kuid": "d317c18666164791807ff2df463a0945",
				"srcKUID": "c27fd3af5ffb45b38c720480ef414290",
				"wType": "FlexContainer"
			}
		},
		"customhamburger.flxFeedbackCollapse": {
			"__events__": {},
			"__info__": {
				"kuid": "f4ffe7374c414efcbd960aea4df096d6",
				"srcKUID": "f324fdf8d1134c45bd40d2c9858e0c43",
				"wType": "FlexContainer"
			}
		},
		"customhamburger.flxHamburgerHeader": {
			"__events__": {},
			"__info__": {
				"kuid": "dc9641b99bb641bab0c245e6ec62660a",
				"srcKUID": "h465700017fe4781975045dab9ed41c5",
				"wType": "FlexContainer"
			}
		},
		"customhamburger.flxHistory": {
			"__events__": {},
			"__info__": {
				"kuid": "ea32dc139a8c416b9866dc8455cc34cc",
				"srcKUID": "af822cb01fd549e09ae70f7a5caf134d",
				"wType": "FlexContainer"
			}
		},
		"customhamburger.flxLocateUs": {
			"__events__": {},
			"__info__": {
				"kuid": "d61ef91c6ebb442dbed7c246b89be66d",
				"srcKUID": "g85f2c9a423e42a58e10e8686c1fba74",
				"wType": "FlexContainer"
			}
		},
		"customhamburger.flxLogout": {
			"__events__": {},
			"__info__": {
				"kuid": "d09e128c152b4c79bd7535a4d60dfb9d",
				"srcKUID": "c9904c20e8a5464285e846a22514783d",
				"wType": "FlexContainer"
			}
		},
		"customhamburger.flxMenu": {
			"__events__": {},
			"__info__": {
				"kuid": "h282bd011ab642e29e62fe1a5008e81e",
				"srcKUID": "i1c684442e854218bc2c08f78c55f971",
				"wType": "FlexContainer"
			}
		},
		"customhamburger.flxMenuWrapper": {
			"__events__": {},
			"__info__": {
				"kuid": "b5428a70746a47cb9b6733c8110b7aa7",
				"srcKUID": "ad010d1f868d49eea330fb84586cbd46",
				"wType": "FlexScrollContainer"
			}
		},
		"customhamburger.flxMessages": {
			"__events__": {},
			"__info__": {
				"kuid": "c877da57ad284d47baf5e9bda363dc64",
				"srcKUID": "a8c136feada044d8aae02c45642a3aef",
				"wType": "FlexContainer"
			}
		},
		"customhamburger.flxMyAccounts": {
			"__events__": {},
			"__info__": {
				"kuid": "ce61f71c86e64eac8688b578b79f13e0",
				"srcKUID": "f7379b95da4148de8bad2885b68ce3c6",
				"wType": "FlexContainer"
			}
		},
		"customhamburger.flxMyPayeeList": {
			"__events__": {},
			"__info__": {
				"kuid": "b712f92660a4484680efbd76870929d4",
				"srcKUID": "j0ff9253248645ff8612f1090fabea1b",
				"wType": "FlexContainer"
			}
		},
		"customhamburger.flxMyRecipients": {
			"__events__": {},
			"__info__": {
				"kuid": "f894eb36af6c4715af8c8f6b3ccd4e5f",
				"srcKUID": "gc5138a3b6ed40e5a8d376d8900322ac",
				"wType": "FlexContainer"
			}
		},
		"customhamburger.flxNewMessages": {
			"__events__": {},
			"__info__": {
				"kuid": "a7c32179a6864d148d53637aa5acbc66",
				"srcKUID": "bfad3abb96b54f6687ec8d8ae08b8a89",
				"wType": "FlexContainer"
			}
		},
		"customhamburger.flxPFM": {
			"__events__": {},
			"__info__": {
				"kuid": "j5a01a257f1a4e61a54c652982be412a",
				"srcKUID": "bfc8636c05da4c4e9131d447fb520a97",
				"wType": "FlexContainer"
			}
		},
		"customhamburger.flxPayABill": {
			"__events__": {},
			"__info__": {
				"kuid": "e9289213044b4cf685ba7efb420739a1",
				"srcKUID": "cabc5ae19734442ca472692f76360a26",
				"wType": "FlexContainer"
			}
		},
		"customhamburger.flxPayAPerson": {
			"__events__": {},
			"__info__": {
				"kuid": "h9d83e62871240dd99c0f420dfa687b8",
				"srcKUID": "c3c34d9fdac2420fb3cf01ada4338616",
				"wType": "FlexContainer"
			}
		},
		"customhamburger.flxPayAPersonCollapse": {
			"__events__": {},
			"__info__": {
				"kuid": "d3533b75d6414367b5925cfe3595b6c8",
				"srcKUID": "f0eb0c0751d7408db1c234c07637bb8f",
				"wType": "FlexContainer"
			}
		},
		"customhamburger.flxPayAPersonSubMenu": {
			"__events__": {},
			"__info__": {
				"kuid": "jea7c2820bee4f208ad64bcde1072497",
				"srcKUID": "aeb2426f276a4cdc8c73046302e57323",
				"wType": "FlexContainer"
			}
		},
		"customhamburger.flxPrivacyPolicy": {
			"__events__": {},
			"__info__": {
				"kuid": "a2d044dc06b84a299d75c95c5d93c3c6",
				"srcKUID": "e53f0d53bf524807b19900124ae5e5cc",
				"wType": "FlexContainer"
			}
		},
		"customhamburger.flxProfileManagement": {
			"__events__": {},
			"__info__": {
				"kuid": "bbb343ea45c7424a907c52415772d56d",
				"srcKUID": "c4c99abbdc854639a275f0d1966f9d2a",
				"wType": "FlexContainer"
			}
		},
		"customhamburger.flxProfileManagementCollapse": {
			"__events__": {},
			"__info__": {
				"kuid": "dd02f115f13347a296262b7d95d61193",
				"srcKUID": "e3074e95c1584c26b3c00839871a8ec1",
				"wType": "FlexContainer"
			}
		},
		"customhamburger.flxProfileManagementSubMenu": {
			"__events__": {},
			"__info__": {
				"kuid": "f06e31c19030487a8aac011678d9b270",
				"srcKUID": "dedf5323b4f04d9bb0857acaba413ed2",
				"wType": "FlexContainer"
			}
		},
		"customhamburger.flxProfileSettings": {
			"__events__": {},
			"__info__": {
				"kuid": "f0ffb3dcb195440c8c13fe0100453354",
				"srcKUID": "c9e266a61e794666abaa382a1974bd50",
				"wType": "FlexContainer"
			}
		},
		"customhamburger.flxSecuritySettings": {
			"__events__": {},
			"__info__": {
				"kuid": "g7a38f9628d74859b4bc277411b9cde3",
				"srcKUID": "h35c8ab7f8114eb883dbe77eb239d5bc",
				"wType": "FlexContainer"
			}
		},
		"customhamburger.flxSendRequest": {
			"__events__": {},
			"__info__": {
				"kuid": "e81cdef977834f969385dce5da879bac",
				"srcKUID": "d977218b05dc49ada933fde699153602",
				"wType": "FlexContainer"
			}
		},
		"customhamburger.flxSeperator10": {
			"__events__": {},
			"__info__": {
				"kuid": "d2acc15d1ecd4c18aa1c8469d32811e4",
				"srcKUID": "f9bfa4fca0dd4125be7663cbecdaaee0",
				"wType": "FlexContainer"
			}
		},
		"customhamburger.flxSeperator11": {
			"__events__": {},
			"__info__": {
				"kuid": "d3405ee64e0f4a57820f56c7e1f7bb73",
				"srcKUID": "f0e6a5bf00e24b55a131b00e736ad0f1",
				"wType": "FlexContainer"
			}
		},
		"customhamburger.flxSeperator12": {
			"__events__": {},
			"__info__": {
				"kuid": "fa589a77693c4cd9aac1df0cff1d6468",
				"srcKUID": "c0ad725976704507a8aa1b268bc97087",
				"wType": "FlexContainer"
			}
		},
		"customhamburger.flxSeperator13": {
			"__events__": {},
			"__info__": {
				"kuid": "dd19e1fada2a48c4a63f461bc84e77be",
				"srcKUID": "j636db10e4604851913f33aee409ae48",
				"wType": "FlexContainer"
			}
		},
		"customhamburger.flxSeperator14": {
			"__events__": {},
			"__info__": {
				"kuid": "f37776a8f47e48018892269a3f27864d",
				"srcKUID": "f671f1951bbd44bcbaea3b445e3c6c3b",
				"wType": "FlexContainer"
			}
		},
		"customhamburger.flxSeperator15": {
			"__events__": {},
			"__info__": {
				"kuid": "d323455db30344c3b80f70a1d060737c",
				"srcKUID": "j11be2166fc34b419da967d077f32299",
				"wType": "FlexContainer"
			}
		},
		"customhamburger.flxSeperator16": {
			"__events__": {},
			"__info__": {
				"kuid": "e4469a4e7e9d483aa5eb1c37a8c32bb0",
				"srcKUID": "if0c694e156a4703b7545e789492c020",
				"wType": "FlexContainer"
			}
		},
		"customhamburger.flxSeperator17": {
			"__events__": {},
			"__info__": {
				"kuid": "h7176a8b266843be98bbf919bcb6a402",
				"srcKUID": "b50f7b34350e4dec8af632653ab083c5",
				"wType": "FlexContainer"
			}
		},
		"customhamburger.flxSeperator18": {
			"__events__": {},
			"__info__": {
				"kuid": "abd085544f7f4903aab5729b02d63c14",
				"srcKUID": "dccbe42cfb7b4494b0ef8aa3c4f6be41",
				"wType": "FlexContainer"
			}
		},
		"customhamburger.flxSeperator2": {
			"__events__": {},
			"__info__": {
				"kuid": "c6b8f81dfa01467a9eecac9f1a10aaa4",
				"srcKUID": "c80156f4b587452bb66f7eeceecaf50a",
				"wType": "FlexContainer"
			}
		},
		"customhamburger.flxSeperator3": {
			"__events__": {},
			"__info__": {
				"kuid": "j7325b3855e64917b9ce948c52cba4c5",
				"srcKUID": "b6518efe46a64f52901e8c3d65c11ce9",
				"wType": "FlexContainer"
			}
		},
		"customhamburger.flxSeperator4": {
			"__events__": {},
			"__info__": {
				"kuid": "bd707552356a4ab4a042d6db4f24905c",
				"srcKUID": "cc2eee43aa8a45d08bf13a5e5718afcd",
				"wType": "FlexContainer"
			}
		},
		"customhamburger.flxSeperator5": {
			"__events__": {},
			"__info__": {
				"kuid": "a4cffbf5b99b4bd6961552c3d16cb853",
				"srcKUID": "c8c3ef97147f40f2865efb0cb670d50b",
				"wType": "FlexContainer"
			}
		},
		"customhamburger.flxSeperator6": {
			"__events__": {},
			"__info__": {
				"kuid": "f4fb26287d094a7d9deb8ed47192436a",
				"srcKUID": "jdcc06ffd6c140b09d7a452d4412adef",
				"wType": "FlexContainer"
			}
		},
		"customhamburger.flxSeperator7": {
			"__events__": {},
			"__info__": {
				"kuid": "b643a8827ee04bf488975091a7dd5983",
				"srcKUID": "ga22cbc58a634b6fb13935ed90d0aced",
				"wType": "FlexContainer"
			}
		},
		"customhamburger.flxSeperator8": {
			"__events__": {},
			"__info__": {
				"kuid": "gd7ae4702d1c482b88f3b8db05dbbb50",
				"srcKUID": "c7558fdf51bf47fe824b91a07cf6b714",
				"wType": "FlexContainer"
			}
		},
		"customhamburger.flxSeperator9": {
			"__events__": {},
			"__info__": {
				"kuid": "a0d4c8b0660b4426a2369974852af157",
				"srcKUID": "b122e6579708465082812c6e7068d7f6",
				"wType": "FlexContainer"
			}
		},
		"customhamburger.flxSeperatorAlerts": {
			"__events__": {},
			"__info__": {
				"kuid": "c643975a95cc46b18b605d20441c1755",
				"srcKUID": "b2fe1d61dbc64712ad4e576fb2bd332f",
				"wType": "FlexContainer"
			}
		},
		"customhamburger.flxSeperatorFeedback": {
			"__events__": {},
			"__info__": {
				"kuid": "e64497ef0fb5450dac349c8da18a6f39",
				"srcKUID": "d4e625f6ba7b40efad8d6cb88ccf89d7",
				"wType": "FlexContainer"
			}
		},
		"customhamburger.flxSeperatorMessages": {
			"__events__": {},
			"__info__": {
				"kuid": "f9484a2736974225b6b1396aeb8c1f4f",
				"srcKUID": "c5a23363d5df48049106898aa405a723",
				"wType": "FlexContainer"
			}
		},
		"customhamburger.flxSeperatorNewMessage": {
			"__events__": {},
			"__info__": {
				"kuid": "e299bba523d04d199e7a4d7520e5a37c",
				"srcKUID": "c929fa4f76ed416185ce33e12111609d",
				"wType": "FlexContainer"
			}
		},
		"customhamburger.flxStopPaymentRequests": {
			"__events__": {},
			"__info__": {
				"kuid": "ee1281283bd4491e80b48568864c4a35",
				"srcKUID": "c6e0f2b6aa1948688094395a053fa1d8",
				"wType": "FlexContainer"
			}
		},
		"customhamburger.flxTerms": {
			"__events__": {},
			"__info__": {
				"kuid": "fb2f6201798a4ffe8fc61e045b70d7b2",
				"srcKUID": "a3d4d9ba1e264ec2a3de4b87bc4d7aa3",
				"wType": "FlexContainer"
			}
		},
		"customhamburger.flxTransferHistory": {
			"__events__": {},
			"__info__": {
				"kuid": "dc1fe31285404637925b783cb2084d61",
				"srcKUID": "ib9de73a2bf246eeb639fa215853db61",
				"wType": "FlexContainer"
			}
		},
		"customhamburger.flxTransfers": {
			"__events__": {},
			"__info__": {
				"kuid": "c7b0a92e5e9a4196901b38eec87c83bd",
				"srcKUID": "jc0266e969b0495d868043c84bcc2ab8",
				"wType": "FlexContainer"
			}
		},
		"customhamburger.flxTransfersMoney": {
			"__events__": {},
			"__info__": {
				"kuid": "g623cbe0aa014664ada9574707f43dcf",
				"srcKUID": "jf6d2609ea48459e90552691ca5777fe",
				"wType": "FlexContainer"
			}
		},
		"customhamburger.flxTransfersSubMenu": {
			"__events__": {},
			"__info__": {
				"kuid": "d9bb6cfa381541b9af39955f967c2b06",
				"srcKUID": "fbf8ca4f00d34558966f6061a5087f14",
				"wType": "FlexContainer"
			}
		},
		"customhamburger.flxWireTransfer": {
			"__events__": {},
			"__info__": {
				"kuid": "b51d43ce716e42b3abd247c423b0680f",
				"srcKUID": "aae2b1dec0f44ac0ae2c1e3063ff7ba4",
				"wType": "FlexContainer"
			}
		},
		"customhamburger.flxWireTransferCollapse": {
			"__events__": {},
			"__info__": {
				"kuid": "e9a1f7e1435d412ea22ab2c06eba3a17",
				"srcKUID": "bfc055b1e7c542d1bfa1c23419d834be",
				"wType": "FlexContainer"
			}
		},
		"customhamburger.flxWireTransferHistory": {
			"__events__": {},
			"__info__": {
				"kuid": "dd017fe7fd6741aaae0e4caa31913c7d",
				"srcKUID": "dffd4d61c8a144d4be8f8449855f4c6a",
				"wType": "FlexContainer"
			}
		},
		"customhamburger.flxWireTransferMakeTransfer": {
			"__events__": {},
			"__info__": {
				"kuid": "i4446fab09354a408c1c9dc455fec36d",
				"srcKUID": "f7a63b1bb18644bdbb1f0a7d1c1fc108",
				"wType": "FlexContainer"
			}
		},
		"customhamburger.flxWireTransferMyRecipients": {
			"__events__": {},
			"__info__": {
				"kuid": "i3c39a4546ba46269a10751d86335ad5",
				"srcKUID": "ic7afce86593464b830c20b7eaaa7000",
				"wType": "FlexContainer"
			}
		},
		"customhamburger.flxWireTransferSubMenu": {
			"__events__": {},
			"__info__": {
				"kuid": "h2d722f0b69c448f96c4880df7290bc3",
				"srcKUID": "c1b6035a15254cd380f2d7f0bccc1a35",
				"wType": "FlexContainer"
			}
		},
		"customhamburger.flxWireTransfersAddRecipient": {
			"__events__": {},
			"__info__": {
				"kuid": "g7a8b92499fc4d61a8cff4a97c11d894",
				"srcKUID": "d8d7ecb1da3b431b8a8f09ecfd49dfb4",
				"wType": "FlexContainer"
			}
		},
		"customhamburger.imgAboutUs": {
			"__events__": {},
			"__info__": {
				"kuid": "d57794b5b3e240128bcc05126bcc4a92",
				"srcKUID": "aedf72df6b6646e4b0541f118b852737",
				"wType": "Image"
			}
		},
		"customhamburger.imgAboutUsCollapse": {
			"__events__": {},
			"__info__": {
				"kuid": "g668ef70f21e4ada976a1588d1a603d3",
				"srcKUID": "j47f6cdfaec144f1bc183fc1ee131f6f",
				"wType": "Image"
			}
		},
		"customhamburger.imgAlertsAndMessages": {
			"__events__": {},
			"__info__": {
				"kuid": "ge9ad0fe09ff450a91516486f194886e",
				"srcKUID": "j15a94b7920346d4bc2ad8031f893737",
				"wType": "Image"
			}
		},
		"customhamburger.imgAlertsAndMessagesCollapse": {
			"__events__": {},
			"__info__": {
				"kuid": "j2b636c862c949eb849905be971f2037",
				"srcKUID": "aca93ef7e22940b2934c21108b51accd",
				"wType": "Image"
			}
		},
		"customhamburger.imgBillBay": {
			"__events__": {},
			"__info__": {
				"kuid": "ab42fe485244498dabd748ed4cfd43fd",
				"srcKUID": "d9d417ef42e34752838998db97365d9f",
				"wType": "Image"
			}
		},
		"customhamburger.imgBillPayCollapse": {
			"__events__": {},
			"__info__": {
				"kuid": "b1367c2c243f4f9787294ae25909c529",
				"srcKUID": "e2c091a5a06b4bd99605cb431850b92a",
				"wType": "Image"
			}
		},
		"customhamburger.imgClose": {
			"__events__": {},
			"__info__": {
				"kuid": "a1c379666d404e8ca76ea6565cbf64d4",
				"srcKUID": "b16e44ed01844172894d7476bf054a4e",
				"wType": "Image"
			}
		},
		"customhamburger.imgCollapseAccounts": {
			"__events__": {},
			"__info__": {
				"kuid": "cc45b081189943388891c68a40adebac",
				"srcKUID": "cc9717fdf0ce469aa167f4b79dc1f439",
				"wType": "Image"
			}
		},
		"customhamburger.imgCollapseTransfers": {
			"__events__": {},
			"__info__": {
				"kuid": "acdb2016eaa545018591e9cd1e98425a",
				"srcKUID": "g8ac7330ba6a4fcc94c6de0c85163b0a",
				"wType": "Image"
			}
		},
		"customhamburger.imgFeedback": {
			"__events__": {},
			"__info__": {
				"kuid": "dcf29396b08e45ee8a2831d51cc3e2c2",
				"srcKUID": "d1117d36d9224b2da0a328285c8f3299",
				"wType": "Image"
			}
		},
		"customhamburger.imgFeedbackCollapse": {
			"__events__": {},
			"__info__": {
				"kuid": "cbdd419a69f7463abbc75bd64b871eae",
				"srcKUID": "cd3721b729f04176bb97d05262ad2ea9",
				"wType": "Image"
			}
		},
		"customhamburger.imgKony": {
			"__events__": {},
			"__info__": {
				"kuid": "e88f9e0b319542db81854425444bae4a",
				"srcKUID": "e51c8a8198184739b48a18c3fbc65273",
				"wType": "Image"
			}
		},
		"customhamburger.imgLogout": {
			"__events__": {},
			"__info__": {
				"kuid": "dfbf02ebf8d849b0b135bab3ecfaedc2",
				"srcKUID": "g8c77dbeed3b43038e912f34fbe614fd",
				"wType": "Image"
			}
		},
		"customhamburger.imgPayAPerson": {
			"__events__": {},
			"__info__": {
				"kuid": "fb3c725dca59465f9b245960f4693ad7",
				"srcKUID": "c40e76c18b114f96a40918df9e984c72",
				"wType": "Image"
			}
		},
		"customhamburger.imgPayAPersonCollapse": {
			"__events__": {},
			"__info__": {
				"kuid": "c42b60656dc14ed1a7a99e8d925cde75",
				"srcKUID": "d4487e371bca4c0ab4fed6a829640f23",
				"wType": "Image"
			}
		},
		"customhamburger.imgProfileManagement": {
			"__events__": {},
			"__info__": {
				"kuid": "d28adbcf63944309a266315bcc934c3d",
				"srcKUID": "c256c4de888b46eda952c16c301a26e6",
				"wType": "Image"
			}
		},
		"customhamburger.imgProfileManagementCollapse": {
			"__events__": {},
			"__info__": {
				"kuid": "e3246a89ae3f417c8f2b4d4d690af45b",
				"srcKUID": "cc11b10b955f4de8ac2e1f5349683cdc",
				"wType": "Image"
			}
		},
		"customhamburger.imgTransfers": {
			"__events__": {},
			"__info__": {
				"kuid": "f38126a2ea6d4ece851563e095d0ec1a",
				"srcKUID": "f226bd307bf34f2a8645072816db1907",
				"wType": "Image"
			}
		},
		"customhamburger.imgWireTransfer": {
			"__events__": {},
			"__info__": {
				"kuid": "cb1022bc65b245dca4cb207226b8f887",
				"srcKUID": "d1eaae0c6e784ef3b1eace4495b3f8f7",
				"wType": "Image"
			}
		},
		"customhamburger.imgWireTransferCollapse": {
			"__events__": {},
			"__info__": {
				"kuid": "ha3f71c1b5e040169fb1a7a95411c54c",
				"srcKUID": "j64b6a202cfa4080a0cb2b9e0c591e00",
				"wType": "Image"
			}
		},
		"customhamburger.lbfonticonlLogout": {
			"__events__": {},
			"__info__": {
				"kuid": "a70ae5f770274809a5770b107aee2141",
				"srcKUID": "cbdcdc5074da426f9d8d67372468d417",
				"wType": "Label"
			}
		},
		"customhamburger.lblAboutUs": {
			"__events__": {},
			"__info__": {
				"kuid": "d93d909c03884e86bcd6d1f0a1767955",
				"srcKUID": "i493eec7d326462f92313816d7ae5961",
				"wType": "Label"
			}
		},
		"customhamburger.lblAccounts": {
			"__events__": {},
			"__info__": {
				"kuid": "e48744b2e4114289b2f5170809c8deff",
				"srcKUID": "aed697189cee47098907b5f830c7134b",
				"wType": "Label"
			}
		},
		"customhamburger.lblAddExternalBankAccounts": {
			"__events__": {},
			"__info__": {
				"kuid": "fc8930ffca2d403cb8ca4abaa7617d85",
				"srcKUID": "edabb77d8ed2442ab7ed61fb91558f23",
				"wType": "Label"
			}
		},
		"customhamburger.lblAddKonyAccounts": {
			"__events__": {},
			"__info__": {
				"kuid": "fbdacda6a62740678f79daa9f433ab1f",
				"srcKUID": "ff5d216a556e426ea0485d1305d1cdfc",
				"wType": "Label"
			}
		},
		"customhamburger.lblAddNonKonyAccounts": {
			"__events__": {},
			"__info__": {
				"kuid": "ad692de221d3416b9917876326d37a58",
				"srcKUID": "c0b0a03608614e5f893ef37dabfa17a8",
				"wType": "Label"
			}
		},
		"customhamburger.lblAddPayee": {
			"__events__": {},
			"__info__": {
				"kuid": "f900d54c2a074bbaac2f0d44be87dbdc",
				"srcKUID": "b1ed43109a994044957b192e976111d5",
				"wType": "Label"
			}
		},
		"customhamburger.lblAlerts": {
			"__events__": {},
			"__info__": {
				"kuid": "beb309e418a14614b0a3df56b8b971fb",
				"srcKUID": "jdf83704ef2b4947a774852f4c514bb6",
				"wType": "Label"
			}
		},
		"customhamburger.lblAlertsAndMessages": {
			"__events__": {},
			"__info__": {
				"kuid": "b22cec840f5f4b64a9cd9446dc5e643f",
				"srcKUID": "c8bfe7de3cb1469aaef6d3ffee8c215e",
				"wType": "Label"
			}
		},
		"customhamburger.lblBillPay": {
			"__events__": {},
			"__info__": {
				"kuid": "ec6d6307b2454de092e0082c4c2a10b7",
				"srcKUID": "e219504191c84becaee171477e34698a",
				"wType": "Label"
			}
		},
		"customhamburger.lblBillPayHistory": {
			"__events__": {},
			"__info__": {
				"kuid": "e00beb392ff242a1bb88af419947e49f",
				"srcKUID": "ce6923a7ee8b477bab3d1bfa0979246d",
				"wType": "Label"
			}
		},
		"customhamburger.lblCardManagement": {
			"__events__": {},
			"__info__": {
				"kuid": "fc37f52644b84c339607948290856cfa",
				"srcKUID": "b0c732201f424826b31b883b5eec6956",
				"wType": "Label"
			}
		},
		"customhamburger.lblContactUs": {
			"__events__": {},
			"__info__": {
				"kuid": "i3595c544d0742ca8486941b27d2c0b3",
				"srcKUID": "efd35344776642a49ef6e3aae807a692",
				"wType": "Label"
			}
		},
		"customhamburger.lblExternalAccounts": {
			"__events__": {},
			"__info__": {
				"kuid": "a527d2ba836a48d189a82b8b1364aa33",
				"srcKUID": "abc7e43bdfb142efb0d94a00a797f211",
				"wType": "Label"
			}
		},
		"customhamburger.lblFaq": {
			"__events__": {},
			"__info__": {
				"kuid": "j0825afbfff24c35960506b470544a06",
				"srcKUID": "d8ba96ef5a2e4bf8be5c973713049dc0",
				"wType": "Label"
			}
		},
		"customhamburger.lblFeedback": {
			"__events__": {},
			"__info__": {
				"kuid": "de00d0ac67234f99b7ef8acedabd42c5",
				"srcKUID": "e6e5182ca0e14fed930fee7f4a16b05a",
				"wType": "Label"
			}
		},
		"customhamburger.lblImgAccounts": {
			"__events__": {},
			"__info__": {
				"kuid": "d26af42b43414e638fd31d46d2d4d0ad",
				"srcKUID": "j1310b4359bd4b55a330313f954c89f4",
				"wType": "Label"
			}
		},
		"customhamburger.lblLocateUs": {
			"__events__": {},
			"__info__": {
				"kuid": "b0e9998634f2448a942c67674682b1e8",
				"srcKUID": "g3b7ff8590d0445197ae60ef7a93a17d",
				"wType": "Label"
			}
		},
		"customhamburger.lblLogout": {
			"__events__": {},
			"__info__": {
				"kuid": "bb2a03214d36456697d795a2a913f693",
				"srcKUID": "h4feb1ebd1d844adbbb270e5f22582cd",
				"wType": "Label"
			}
		},
		"customhamburger.lblMessages": {
			"__events__": {},
			"__info__": {
				"kuid": "ac45f1b6cc4443e4bdd131983175fd9e",
				"srcKUID": "bc3a860393a642769c9453d52202a501",
				"wType": "Label"
			}
		},
		"customhamburger.lblMyAccounts": {
			"__events__": {},
			"__info__": {
				"kuid": "fee8f81b2aff4dc1b08a250d6bbf1902",
				"srcKUID": "a202b406f5f04a1698b17c9f0f9e1694",
				"wType": "Label"
			}
		},
		"customhamburger.lblMyPayee": {
			"__events__": {},
			"__info__": {
				"kuid": "fcd6fcbccb2741d19fad1cb46516a65a",
				"srcKUID": "gac82f09141642e3bc00bf3a4c27e7a0",
				"wType": "Label"
			}
		},
		"customhamburger.lblNewMessage": {
			"__events__": {},
			"__info__": {
				"kuid": "ddb72b4b27834bf3b4a288c26238dc7c",
				"srcKUID": "d62536e6a959458a97d070c4fbc8bbcb",
				"wType": "Label"
			}
		},
		"customhamburger.lblPFM": {
			"__events__": {},
			"__info__": {
				"kuid": "e97519491b44454cba67f05437ed4108",
				"srcKUID": "e09127ede361436abb545b5527fba0e0",
				"wType": "Label"
			}
		},
		"customhamburger.lblPayABill": {
			"__events__": {},
			"__info__": {
				"kuid": "abb47f9a01dd483ab74489b9d990e1df",
				"srcKUID": "dc6b9bef9ddf45c0864525e01b4b08d8",
				"wType": "Label"
			}
		},
		"customhamburger.lblPrivacyPolicy": {
			"__events__": {},
			"__info__": {
				"kuid": "d939d720dbce457faf49c843ad244e9a",
				"srcKUID": "ba595802100f49ed8ebfbfc56c559f36",
				"wType": "Label"
			}
		},
		"customhamburger.lblStopPaymentRequests": {
			"__events__": {},
			"__info__": {
				"kuid": "h31a0f01bdab4a68928d884632b1e2ef",
				"srcKUID": "a87770408c7e42698c673972b990dd6d",
				"wType": "Label"
			}
		},
		"customhamburger.lblTermsAndCondition": {
			"__events__": {},
			"__info__": {
				"kuid": "jfba8aa0d45e418dbfd8798f3064d317",
				"srcKUID": "dc7b8618b5ed4cf3ba5a013618d07063",
				"wType": "Label"
			}
		},
		"customhamburger.lblTransferHistory": {
			"__events__": {},
			"__info__": {
				"kuid": "d1d240c392b44a8385e8865a991df774",
				"srcKUID": "d62b43e095964b29b436135534a7afec",
				"wType": "Label"
			}
		},
		"customhamburger.lblTransferMoney": {
			"__events__": {},
			"__info__": {
				"kuid": "ha5f6e9a4dfd415e990bc58a74f00925",
				"srcKUID": "b61740e755f3405791224a340675e733",
				"wType": "Label"
			}
		},
		"customhamburger.lblTransfers": {
			"__events__": {},
			"__info__": {
				"kuid": "df16063252d741da88f61aadb3164b69",
				"srcKUID": "d4c40832e9a140ab8fafbb30d4d1df1d",
				"wType": "Label"
			}
		},
		"customheader": {
			"__events__": {},
			"__info__": {
				"isRoot": true,
				"kuid": "i9fa71af096546a594e5e44926de321b",
				"srcKUID": "c04bbf50611342ca895c5e0a329aeb52",
				"wType": "FlexContainer"
			},
			"autogrowMode": {
				"Default": 0
			},
			"height": {},
			"left": {},
			"responsiveData": {
				"b3": {
					"height": {
						"type": "string",
						"value": "50px"
					},
					"isVisible": true,
					"left": {
						"type": "string",
						"value": "0dp"
					},
					"top": {
						"type": "string",
						"value": "0dp"
					}
				},
				"b4": {
					"minWidth": {
						"type": "string",
						"value": ""
					},
					"top": {
						"type": "string",
						"value": "0dp"
					},
					"width": {
						"type": "string",
						"value": "100%"
					}
				},
				"b1": {
					"top": {
						"type": "string",
						"value": "0dp"
					}
				},
				"b2": {
					"top": {
						"type": "string",
						"value": "0dp"
					}
				}
			},
			"top": {},
			"width": {},
			"minWidth": {},
			"zIndex": {
				"Default": 1000
			}
		},
		"flxAccountTypesSegment": {
			"__events__": {},
			"__info__": {
				"kuid": "hf66b75493ed4d5b8ea9e176645aa245",
				"srcKUID": "d431114047984f3ba84cf9829500caf5",
				"wType": "FlexContainer"
			}
		},
		"flxBottomBlue": {
			"__events__": {},
			"__info__": {
				"kuid": "hc0f740501244789bd4914cbecf1848a",
				"srcKUID": "a3c7c667e8bb4a0da597ebde4b02694b",
				"wType": "FlexContainer"
			}
		},
		"flxBottomContainer": {
			"__events__": {},
			"__info__": {
				"kuid": "e1ba1a93d9fd4b1ea7339428c476becc",
				"srcKUID": "h9bdf039c3f54878b18ff66171c8c6c6",
				"wType": "FlexContainer"
			},
			"responsiveData": {
				"b3": {
					"height": {
						"type": "string",
						"value": "50dp"
					}
				}
			},
			"autogrowMode": {
				"Default": 0
			},
			"height": {}
		},
		"flxHamburger": {
			"__events__": {},
			"__info__": {
				"kuid": "g79ea6056035480bb72854e0326fd64f",
				"srcKUID": "f04c6e11e7da43b49dd181b8b47d93c4",
				"wType": "FlexContainer"
			},
			"left": {
				"Default": {
					"type": "string",
					"value": "-35%"
				}
			},
			"responsiveData": {
				"b3": {}
			},
			"width": {
				"Default": {
					"type": "string",
					"value": "35%"
				}
			},
			"zIndex": {
				"Default": 900
			}
		},
		"flxHamburgerBack": {
			"__events__": {},
			"__info__": {
				"kuid": "g8d7ee69f479498cbe9f3fc9f8bba161",
				"srcKUID": "d74ea43244984beda96f3fdfd7e1de6b",
				"wType": "FlexContainer"
			}
		},
		"flxSeperatorHor2": {
			"__events__": {},
			"__info__": {
				"kuid": "f04d785b63014e368fbbfbf07eb9e36c",
				"srcKUID": "hadeefb9ccf84d75b58e19e7a860af8f",
				"wType": "FlexContainer"
			},
			"responsiveData": {
				"b3": {
					"top": {
						"type": "string",
						"value": "50dp"
					}
				}
			},
			"top": {}
		},
		"flxTopmenu": {
			"__events__": {},
			"__info__": {
				"kuid": "f4cdb8161dbf46e18b8cfff4a59079e0",
				"srcKUID": "ed60ec01cd4843d8acaf4c0c4767b493",
				"wType": "FlexContainer"
			},
			"responsiveData": {
				"b3": {
					"isVisible": true,
					"top": {
						"type": "string",
						"value": "0dp"
					},
					"width": {
						"type": "string",
						"value": "100%"
					}
				},
				"b4": {
					"width": {
						"type": "string",
						"value": "100%"
					}
				},
				"b1": {
					"width": {
						"type": "string",
						"value": "100%"
					}
				}
			},
			"top": {},
			"width": {}
		},
		"flxUserActions": {
			"__events__": {},
			"__info__": {
				"kuid": "c413fbc923084d4187806e50c0f77745",
				"srcKUID": "j914824243a446a18dc539def72a7642",
				"wType": "FlexContainer"
			},
			"autogrowMode": {
				"Default": 0
			},
			"height": {},
			"isVisible": false,
			"responsiveData": {
				"b4": {
					"height": {
						"type": "string",
						"value": "225dp"
					},
					"isVisible": false,
					"width": {
						"type": "string",
						"value": "250dp"
					}
				}
			},
			"width": {}
		},
		"headermenu": {
			"__events__": {},
			"__info__": {
				"kuid": "icf9141101e044969ee68236216d001f",
				"srcKUID": "haabafcdc12f4455b3af44d1e0d8f80b",
				"wType": "UserWidgetInstance"
			},
			"responsiveData": {
				"b3": {
					"isVisible": false
				},
				"b4": {
					"right": {
						"type": "string",
						"value": "24dp"
					},
					"width": {
						"type": "string",
						"value": "100%"
					}
				},
				"b1": {
					"right": {
						"type": "string",
						"value": "6%"
					}
				}
			},
			"right": {},
			"width": {}
		},
		"headermenu.btnLogout": {
			"__events__": {},
			"__info__": {
				"kuid": "c3d711fc64bc408c8786ecff399ccabc",
				"srcKUID": "a766f3cd9f714697b54e4cdcbe1c544b",
				"wType": "Button"
			},
			"i18n_text": null,
			"responsiveData": {}
		},
		"headermenu.flxMessages": {
			"__events__": {},
			"__info__": {
				"kuid": "i32db202203a4f96875dd67c770cf8a2",
				"srcKUID": "ac3447a671db4ff79c563e385d237583",
				"wType": "FlexContainer"
			},
			"responsiveData": {
				"b4": {
					"right": {
						"type": "string",
						"value": "145dp"
					}
				},
				"b1": {
					"right": {
						"type": "string",
						"value": "145dp"
					}
				},
				"b2": {
					"right": {
						"type": "string",
						"value": "145dp"
					}
				}
			},
			"right": {}
		},
		"headermenu.flxResetUserImg": {
			"__events__": {},
			"__info__": {
				"kuid": "fdd896af3ba64a6a91fb990ab856b112",
				"srcKUID": "adcf593a077c4c0cb56c90ee73238583",
				"wType": "FlexContainer"
			},
			"responsiveData": {
				"b2": {
					"right": {
						"type": "string",
						"value": "75dp"
					}
				}
			},
			"right": {}
		},
		"headermenu.flxUserId": {
			"__events__": {},
			"__info__": {
				"kuid": "ge2d15233ce949ce92d81300cb398e3a",
				"srcKUID": "c135ea56ffd24834a20c4f3af08e75ed",
				"wType": "FlexContainer"
			},
			"responsiveData": {
				"b2": {
					"right": {
						"type": "string",
						"value": "55dp"
					}
				}
			},
			"right": {}
		},
		"headermenu.flxVerticalSeperator1": {
			"__events__": {},
			"__info__": {
				"kuid": "ad9e4db16b9244719f35ef558d2c5d78",
				"srcKUID": "g1cf2c5ea04748138b67069bf6443784",
				"wType": "FlexContainer"
			}
		},
		"headermenu.flxVerticalSeperator2": {
			"__events__": {},
			"__info__": {
				"kuid": "a15d0303207949a6abc45184d0c59836",
				"srcKUID": "i869d64f25f744c7a219ce87160f4fa9",
				"wType": "FlexContainer"
			}
		},
		"headermenu.flxWarning": {
			"__events__": {},
			"__info__": {
				"kuid": "aaff99a824f04a6394e51467a1230139",
				"srcKUID": "a3f637c9fa154e6ca5621edf7af7f744",
				"wType": "FlexContainer"
			}
		},
		"headermenu.flximgUserResetWrapper": {
			"__events__": {},
			"__info__": {
				"kuid": "c32952a2591e410686acd256fa7ed211",
				"srcKUID": "e3916b40967c456aa3942940472ad47e",
				"wType": "FlexContainer"
			}
		},
		"headermenu.imgDropdown": {
			"__events__": {},
			"__info__": {
				"kuid": "j13452dbee714cc6982d12abedfb9d98",
				"srcKUID": "h3d2b4b7f954464d931e34492064ab17",
				"wType": "Image"
			}
		},
		"headermenu.imgLogout": {
			"__events__": {},
			"__info__": {
				"kuid": "f674ffe90bf64e1e95eca0b405827c0f",
				"srcKUID": "ea749115721c4958af968ab52ef8529f",
				"wType": "Image"
			}
		},
		"headermenu.imgNotifications": {
			"__events__": {},
			"__info__": {
				"kuid": "bcc26ad095804b8cbf5242672c4ea3f8",
				"srcKUID": "j053dc709b2c497681932e7129f70ddb",
				"wType": "Image"
			}
		},
		"headermenu.imgUserBoundary": {
			"__events__": {},
			"__info__": {
				"kuid": "a21ef04a73b8461c88484037745c3231",
				"srcKUID": "g6047dd874ff440fab7ed86f7b808fdd",
				"wType": "Image"
			}
		},
		"headermenu.imgUserReset": {
			"__events__": {},
			"__info__": {
				"kuid": "a2472c08ccb5485e992bf4548a3b2f30",
				"srcKUID": "i9a593cdf8934086b62dd5b4b4d93eda",
				"wType": "Image"
			}
		},
		"headermenu.imgWarning": {
			"__events__": {},
			"__info__": {
				"kuid": "dcf3a7f3601841598c5324d378d42138",
				"srcKUID": "j00ce4f7525e4f2aa69884ac2cc7b8a0",
				"wType": "Image"
			}
		},
		"headermenu.imgheaderdefault": {
			"__events__": {},
			"__info__": {
				"kuid": "idee4c15c4f94eb68b8b327ff1b175eb",
				"srcKUID": "i589d54c00ef4b33bc0e54ccd9b1e9b9",
				"wType": "Image"
			}
		},
		"headermenu.lblNewMessages": {
			"__events__": {},
			"__info__": {
				"kuid": "f3b3093f88f649e5b48a1a368de6417f",
				"srcKUID": "bc2f4a9f76164bc18e8e1663bbba3a61",
				"wType": "Label"
			}
		},
		"headermenu.rtxWarning": {
			"__events__": {},
			"__info__": {
				"kuid": "f7af3b93de7c47ab871fb6d8cffbff92",
				"srcKUID": "i05c5f9533194937886bb0d238f640e3",
				"wType": "RichText"
			},
			"i18n_text": "i18n.CustomerFeedback.YouHaveNotLoggedIn"
		},
		"imgKony": {
			"__events__": {},
			"__info__": {
				"kuid": "c8442f2c46dd4915a9e17cf23f6dc49b",
				"srcKUID": "i89a4c93ab68416c8f6a24b3e85d037c",
				"wType": "Image"
			},
			"left": {},
			"responsiveData": {
				"b3": {
					"isVisible": false
				},
				"b4": {
					"left": {
						"type": "string",
						"value": "24dp"
					},
					"top": {
						"type": "string",
						"value": "18px"
					}
				},
				"b2": {
					"left": {
						"type": "string",
						"value": "85dp"
					}
				}
			},
			"top": {}
		},
		"imgToolTip": {
			"__events__": {},
			"__info__": {
				"kuid": "cf5f28d01a6f49fb9be7bbf7eb5be8f1",
				"srcKUID": "b05c4200ee7747f2b596bc0eafc18760",
				"wType": "Image"
			}
		},
		"lblHeaderMobile": {
			"__events__": {},
			"__info__": {
				"kuid": "e44cc22db0c842a6a4e486b5ec14f9bb",
				"srcKUID": "f601c2dac7d4490fb32b2040ad16ca87",
				"wType": "Label"
			},
			"responsiveData": {
				"b3": {
					"text": "Pay a Person"
				},
				"b4": {
					"text": "P"
				},
				"b1": {
					"text": ""
				},
				"b2": {
					"text": ""
				}
			},
			"text": "",
			"isVisible": true
		},
		"lblHeaderMobileView": {
			"__events__": {},
			"__info__": {
				"kuid": "d9da5419708a4cf98960ba49f76a8d9b",
				"srcKUID": "e845559aef0c4fb9b6a4354975cce47c",
				"wType": "Label"
			}
		},
		"lblName": {
			"__events__": {},
			"__info__": {
				"kuid": "h339f8ed02bf4fc4878149465056511a",
				"srcKUID": "e4ac7c6df45f47999b2250e0bcb58bcb",
				"wType": "Label"
			},
			"i18n_text": "i18n.AccountsDetails.Loggedinas"
		},
		"lblUserEmail": {
			"__events__": {},
			"__info__": {
				"kuid": "ccde60828b32424a9be75de377c88972",
				"srcKUID": "cd423535a51f4a4bb95d5056c43f5d13",
				"wType": "RichText"
			}
		},
		"lblUserEmail1": {
			"__events__": {},
			"__info__": {
				"kuid": "j54738a7fcf149bba203437cad216fb4",
				"srcKUID": "j0ea4a96f1104289ad3d0312ed141d3b",
				"wType": "Label"
			},
			"i18n_text": "i18n.AccountsDetails.usernamekonycom"
		},
		"segUserActions": {
			"__events__": {},
			"__info__": {
				"kuid": "eed280ede8c842218e46dc438beb1f72",
				"srcKUID": "h6bf423223694ef0be1f75d0abee1c0a",
				"wType": "Segment"
			},
			"isVisible": true
		},
		"topmenu": {
			"__events__": {},
			"__info__": {
				"kuid": "dc51530720be4511bb3cb1206855574e",
				"srcKUID": "f3bc1d211a8342419317a1f649e456a0",
				"wType": "UserWidgetInstance"
			},
			"responsiveData": {
				"b3": {
					"isVisible": true
				},
				"b4": {
					"width": {
						"type": "string",
						"value": "100%"
					}
				}
			},
			"width": {}
		},
		"topmenu.CopyLabel0a8b12f7002084d": {
			"__events__": {},
			"__info__": {
				"kuid": "a167c5d619bf48929b89aa0db5a77803",
				"srcKUID": "c6970a565fc545a99c0e118b2e0fd447",
				"wType": "Label"
			}
		},
		"topmenu.CopyLabel0bb648d916e554d": {
			"__events__": {},
			"__info__": {
				"kuid": "a7a48b83f0524184be987c02efde5513",
				"srcKUID": "jff9fe4733df441da45df3e9e7077c16",
				"wType": "Label"
			}
		},
		"topmenu.CopyLabel0h9e71b8a76ad44": {
			"__events__": {},
			"__info__": {
				"kuid": "dfe9ab6e401f4f7ca3e91ec781c9dcc1",
				"srcKUID": "db7ed17156b3455982f6d5e9ec649426",
				"wType": "Label"
			}
		},
		"topmenu.Label0dcf00103bdba46": {
			"__events__": {},
			"__info__": {
				"kuid": "hc4612af5b3545149a93894078b20481",
				"srcKUID": "f93434834b0144ffb8f03bbbe1edf740",
				"wType": "Label"
			}
		},
		"topmenu.flxContextualMenu": {
			"__events__": {},
			"__info__": {
				"kuid": "b925ffec149e48cb98ab6f19cd5251c2",
				"srcKUID": "iaedc8bb3b254e219e0ec496d08636d8",
				"wType": "FlexContainer"
			},
			"isVisible": false,
			"responsiveData": {
				"b3": {}
			}
		},
		"topmenu.flxFeedback": {
			"__events__": {},
			"__info__": {
				"kuid": "b48c5db20c7e4b0babd73969642a3307",
				"srcKUID": "cd10d4b4f565433fb35f2d2d0a97fe1e",
				"wType": "FlexContainer"
			},
			"responsiveData": {
				"b3": {
					"isVisible": false
				},
				"b4": {
					"right": {
						"type": "string",
						"value": "75dp"
					},
					"width": {
						"type": "string",
						"value": "16%"
					}
				}
			},
			"right": {},
			"width": {}
		},
		"topmenu.flxFeedbackimg": {
			"__events__": {},
			"__info__": {
				"kuid": "f13e7f68b1594f01881a52cf7e073f7b",
				"srcKUID": "g11b5488a8d343ae866e1de13660acda",
				"wType": "FlexContainer"
			},
			"responsiveData": {
				"b4": {
					"right": {
						"type": "string",
						"value": "5%"
					},
					"width": {
						"type": "string",
						"value": "85%"
					}
				},
				"b1": {
					"right": {
						"type": "string",
						"value": "10dp"
					},
					"width": {
						"type": "string",
						"value": "80%"
					}
				},
				"b2": {
					"right": {
						"type": "string",
						"value": "10dp"
					}
				}
			},
			"right": {},
			"width": {}
		},
		"topmenu.flxHelp": {
			"__events__": {},
			"__info__": {
				"kuid": "e607e84b542d434194c0a854ffc5afc5",
				"srcKUID": "i2d06c634cdc4172ba80e744bcdcfebb",
				"wType": "FlexContainer"
			},
			"responsiveData": {
				"b3": {
					"isVisible": false
				},
				"b4": {
					"right": {
						"type": "string",
						"value": "2.50%"
					},
					"width": {
						"type": "string",
						"value": "60dp"
					}
				},
				"b1": {
					"right": {
						"type": "string",
						"value": "6%"
					},
					"width": {
						"type": "string",
						"value": "55dp"
					}
				},
				"b2": {
					"right": {
						"type": "string",
						"value": "83dp"
					},
					"width": {
						"type": "string",
						"value": "55dp"
					}
				}
			},
			"right": {
				"Default": {
					"type": "string",
					"value": "5%"
				}
			},
			"width": {
				"Default": {
					"type": "string",
					"value": "70dp"
				}
			}
		},
		"topmenu.flxMenu": {
			"__events__": {},
			"__info__": {
				"kuid": "c33c749a38f0421e8e67bdc4ddb7e23f",
				"srcKUID": "e3be9a8fdce047e6bfc57c6134e9a975",
				"wType": "FlexContainer"
			},
			"left": {},
			"responsiveData": {
				"b3": {
					"isVisible": true,
					"left": {
						"type": "string",
						"value": "10dp"
					},
					"top": {
						"type": "string",
						"value": "0dp"
					}
				},
				"b4": {
					"left": {
						"type": "string",
						"value": "20dp"
					}
				},
				"b1": {
					"left": {
						"type": "string",
						"value": "78dp"
					}
				},
				"b2": {
					"left": {
						"type": "string",
						"value": "80dp"
					}
				}
			},
			"top": {}
		},
		"topmenu.flxMenusMain": {
			"__events__": {},
			"__info__": {
				"kuid": "f6beb6664ce544a9a2dcec8db61582c8",
				"srcKUID": "da5555fd4c164726bf9860ec53363048",
				"wType": "FlexContainer"
			},
			"responsiveData": {
				"b3": {
					"isVisible": true,
					"top": {
						"type": "string",
						"value": "0dp"
					}
				}
			},
			"top": {}
		},
		"topmenu.flxPayBills": {
			"__events__": {},
			"__info__": {
				"kuid": "j591756f4fec42a6b9886c0fca0763cf",
				"srcKUID": "ea97a9ae24004e468bb62c6e11cff833",
				"wType": "FlexContainer"
			}
		},
		"topmenu.flxSendMoney": {
			"__events__": {},
			"__info__": {
				"kuid": "a9a1f5a032b04d98831c0d9776726930",
				"srcKUID": "h1bb64a044404681858216ea0afef3cf",
				"wType": "FlexContainer"
			}
		},
		"topmenu.flxSeperator1": {
			"__events__": {},
			"__info__": {
				"kuid": "afb2be730eda4831beb6a0d25907fdba",
				"srcKUID": "i09ec806e136452589e84e2f83e53e68",
				"wType": "FlexContainer"
			},
			"responsiveData": {
				"b3": {
					"isVisible": false
				}
			}
		},
		"topmenu.flxTransferMoney": {
			"__events__": {},
			"__info__": {
				"kuid": "c0cc5e34d8244738948760a7124eeceb",
				"srcKUID": "j0b6f93293e948bbaad52b4f16db8bea",
				"wType": "FlexContainer"
			}
		},
		"topmenu.flxTransfersAndPay": {
			"__events__": {},
			"__info__": {
				"kuid": "ia0445fc5b424da2bd851db5aa05290d",
				"srcKUID": "j83fe7fb58c04ec394a0d8313351f539",
				"wType": "FlexContainer"
			},
			"responsiveData": {
				"b3": {
					"isVisible": false
				}
			}
		},
		"topmenu.flxWireMoney": {
			"__events__": {},
			"__info__": {
				"kuid": "f521b627463f46a9a9f4a515668f694a",
				"srcKUID": "ed2961fbd05f4e8eb5ae5d530848a7da",
				"wType": "FlexContainer"
			}
		},
		"topmenu.flxaccounts": {
			"__events__": {},
			"__info__": {
				"kuid": "dff1d0ff7aa94a948bbd346561f7bc44",
				"srcKUID": "b6366fc9b5854ca5aecefb68e89386e7",
				"wType": "FlexContainer"
			},
			"responsiveData": {
				"b3": {
					"isVisible": false
				}
			}
		},
		"topmenu.flxverseperator2": {
			"__events__": {},
			"__info__": {
				"kuid": "c8aa7599a91043ee956d62b05fbe6902",
				"srcKUID": "f9719a0b9d3f42b690d0b92a4477ec5d",
				"wType": "FlexContainer"
			}
		},
		"topmenu.imgLblTransfers": {
			"__events__": {},
			"__info__": {
				"kuid": "c7a5970077544bed988319652409f457",
				"srcKUID": "i6ce4bbe9a904933bf2c217077d91a6f",
				"wType": "Label"
			}
		},
		"topmenu.imgMenu": {
			"__events__": {},
			"__info__": {
				"kuid": "d2c42726a8ed473f8135f115e4449069",
				"srcKUID": "be1e045b3a3347d88509b7efc7d8015b",
				"wType": "Image"
			},
			"responsiveData": {
				"b3": {
					"width": {
						"type": "string",
						"value": "25dp"
					}
				}
			},
			"width": {}
		},
		"topmenu.lblAccounts": {
			"__events__": {},
			"__info__": {
				"kuid": "cd9704e529964f4eaef8553c4a65a7e1",
				"srcKUID": "bcf724a120b24fdbb2278444060c639c",
				"wType": "Label"
			}
		},
		"topmenu.lblFeedback": {
			"__events__": {},
			"__info__": {
				"kuid": "cf001be4d74344da9502bcb2c242cbbb",
				"srcKUID": "i45ffb2e674e425ba9e5542807008a2e",
				"wType": "Label"
			},
			"responsiveData": {}
		},
		"topmenu.lblHelp": {
			"__events__": {},
			"__info__": {
				"kuid": "bd3a059aabd84f5eaf1e3dd26366dc5b",
				"srcKUID": "b910c72e31ac4950b9d4fcca565a1df4",
				"wType": "Label"
			},
			"centerX": {
				"Default": {
					"type": "string",
					"value": "50%"
				}
			},
			"responsiveData": {
				"b4": {
					"centerX": {
						"type": "string",
						"value": ""
					},
					"right": {
						"type": "string",
						"value": "0dp"
					}
				},
				"b1": {
					"centerX": {
						"type": "string",
						"value": ""
					},
					"right": {
						"type": "string",
						"value": "0dp"
					}
				},
				"b2": {
					"centerX": {
						"type": "string",
						"value": ""
					},
					"right": {
						"type": "string",
						"value": "0dp"
					}
				}
			},
			"right": {
				"Default": {
					"type": "string",
					"value": ""
				}
			}
		},
		"topmenu.lblTransferAndPay": {
			"__events__": {},
			"__info__": {
				"kuid": "fe08928879ad4f96810aa9669102c9a6",
				"srcKUID": "gf970d4c8185498db726665e80e4fff7",
				"wType": "Label"
			}
		}
	},
	"id": "customheader",
	"info": null,
	"isdatareferenced": false,
	"isvisible": true,
	"kuid": "i492928ae58b49b1a1ca85feb428a0c6",
	"layouttype": 2,
	"masterType": 0,
	"name": "kony.ui.UserWidgetInstance",
	"parent": "flxHeader",
	"pf": "frmPayAPerson",
	"snaptogrid": true,
	"sourceUserWidget": "c04bbf50611342ca895c5e0a329aeb52",
	"vizprops": {
		"hidewidgethierarchy": false
	},
	"wType": "UserWidgetInstance",
	"zindex": 1000
}