{
    "DNDConfig": null,
    "__parentReadjusting__": false,
    "_height_": {
        "type": "string",
        "value": "100%"
    },
    "_left_": {
        "type": "string",
        "value": "0%"
    },
    "_margin_": [
        0,
        0,
        0,
        0
    ],
    "_orientation_": 6,
    "_padding_": [
        0,
        0,
        0,
        0
    ],
    "_percent_": true,
    "_skin_": "sa65bf9d48914e188d094c107a0ce819",
    "_top_": {
        "type": "string",
        "value": "0px"
    },
    "_width_": {
        "type": "string",
        "value": "100%"
    },
    "allboxes": [],
    "canUpdateUI": true,
    "children": [
        "CustomPopup1"
    ],
    "clipbounds": true,
    "containerweight": 100,
    "enablescrolling": true,
    "id": "flxQuit",
    "info": null,
    "isvisible": false,
    "kuid": "f033df5fd4c84ce4bffee3833eba421c",
    "layouttype": 2,
    "name": "kony.ui.FlexContainer",
    "parent": "frmPayAPerson",
    "pf": "frmPayAPerson",
    "responsiveData": {
        "b1": {
            "height": {
                "type": "string",
                "value": "130%"
            },
            "isVisible": false
        },
        "b2": {
            "height": {
                "type": "string",
                "value": "130%"
            },
            "isVisible": false
        },
        "b3": {
            "isVisible": false
        },
        "b4": {
            "height": {
                "type": "string",
                "value": "130%"
            },
            "isVisible": false
        }
    },
    "snapgridsize": 10,
    "snaptogrid": true,
    "wType": "FlexContainer",
    "widgetalignment": 1,
    "zindex": 11
}