{
    "@class": "com.kony.gen.viz.model.component.KVizLabel",
    "DNDConfig": null,
    "__parentReadjusting__": false,
    "_height_": {
        "type": "ref",
        "value": "preferred"
    },
    "_left_": {
        "type": "string",
        "value": "0%"
    },
    "_margin_": [
        1,
        1,
        1,
        1
    ],
    "_padding_": [
        0,
        0,
        0,
        0
    ],
    "_skin_": "s7f2d51a99b949c28b1d912286bfd6cd",
    "_text_": "Activate P2P Payment Service",
    "_top_": {
        "type": "string",
        "value": "24dp"
    },
    "_width_": {
        "type": "ref",
        "value": "preferred"
    },
    "_wrapping_": 2,
    "accessibilityconfig": {
        "a11yLabel": "Activate P2P Payment Service"
    },
    "android": {
        "textStyle": {
            "letterSpacing": 0,
            "strikeThrough": false
        }
    },
    "canUpdateUI": true,
    "containerweight": 100,
    "contentalignment": 4,
    "id": "lblHeadingActivateP2P",
    "info": null,
    "ipad": {
        "psp": {
            "wrapping": 2
        }
    },
    "iphone": {
        "psp": {
            "wrapping": 2
        }
    },
    "isvisible": true,
    "kuid": "a292c7cb37a942f1b41f34ff85de349e",
    "name": "kony.ui.Label",
    "parent": "flxActivateP2P",
    "pf": "frmPayAPerson",
    "responsiveData": {
        "b1": {
            "isVisible": false,
            "text": "Activate P2P Payment Service"
        },
        "b2": {
            "isVisible": false
        },
        "b3": {
            "isVisible": false,
            "top": {
                "type": "string",
                "value": "0dp"
            }
        },
        "b4": {
            "isVisible": false
        }
    },
    "texti18n": "i18n.PayAPerson.ActivateP2PPaymentService",
    "tooltip": "",
    "wType": "Label",
    "zindex": 1
}