{
    "@class": "com.kony.gen.viz.model.component.KVizLabel",
    "DNDConfig": null,
    "__parentReadjusting__": false,
    "_height_": {
        "type": "ref",
        "value": "preferred"
    },
    "_left_": {
        "type": "string",
        "value": ""
    },
    "_margin_": [
        0,
        0,
        0,
        0
    ],
    "_padding_": [
        0,
        0,
        0,
        0
    ],
    "_skin_": "sbf892219fd04dbcae8a4a76f57b2ae0",
    "_text_": "D",
    "_top_": {
        "type": "number",
        "value": ""
    },
    "_width_": {
        "type": "string",
        "value": "22dp"
    },
    "_wrapping_": 2,
    "accessibilityconfig": {
        "a11yLabel": "Select Terms & Conditions"
    },
    "android": {
        "textStyle": {
            "letterSpacing": 0,
            "strikeThrough": false
        }
    },
    "canUpdateUI": true,
    "centerx": {
        "type": "string",
        "value": "50%"
    },
    "centery": {
        "type": "string",
        "value": "50%"
    },
    "containerweight": 100,
    "contentalignment": 2,
    "id": "lblTCContentsCheckBoxIcon",
    "info": null,
    "ipad": {
        "psp": {
            "wrapping": 2
        }
    },
    "iphone": {
        "psp": {
            "wrapping": 2
        }
    },
    "isvisible": true,
    "kuid": "dab7553382664426a01a7fc896c596eb",
    "name": "kony.ui.Label",
    "parent": "flxTCContentsCheckbox",
    "pf": "frmPayAPerson",
    "responsiveData": {
        "b1": {
            "text": "D"
        },
        "b2": {
            "centerY": {
                "type": "string",
                "value": "50%"
            },
            "top": {
                "type": "string",
                "value": ""
            }
        }
    },
    "tooltip": "",
    "wType": "Label",
    "zindex": 1
}