{
    "@class": "com.kony.gen.viz.model.component.KVizUserWidget",
    "DNDConfig": null,
    "__parentReadjusting__": false,
    "_android_": {},
    "_androidwearos_": {},
    "_children_": [],
    "_desktopweb_": {},
    "_height_": {
        "type": "string",
        "value": "175px"
    },
    "_ipad_": {},
    "_iphone_": {},
    "_kiosk_": {},
    "_left_": {
        "type": "string",
        "value": "0dp"
    },
    "_margin_": [
        0,
        0,
        0,
        0
    ],
    "_orientation_": 1,
    "_padding_": [
        0,
        0,
        0,
        0
    ],
    "_percent_": true,
    "_render_": true,
    "_responsiveData_": {
        "b1": {
            "top": {
                "type": "string",
                "value": "15dp"
            }
        },
        "b4": {
            "top": {
                "type": "string",
                "value": "15dp"
            }
        }
    },
    "_skin_": "sdc143f0e5b64ae3a3f155f691c73fa7",
    "_spa_": {},
    "_spaan_": {},
    "_spaandroidtablet_": {},
    "_spabb_": {},
    "_spaip_": {},
    "_spaipad_": {},
    "_spamobile_": {},
    "_spatablet_": {},
    "_spawindowstablet_": {},
    "_spawinphone8_": {},
    "_tabrcandroid_": {},
    "_top_": {
        "type": "string",
        "value": "20dp"
    },
    "_vizProps_": {
        "hidewidgethierarchy": false
    },
    "_width_": {
        "type": "string",
        "value": "100%"
    },
    "_windows10_": {},
    "_windows8_": {},
    "_winphone10_": {},
    "_winphone8_": {},
    "areflexpropsreferenced": false,
    "canUpdateUI": true,
    "clipbounds": false,
    "containerweight": 0,
    "dataDiffs": {
        "banner": {
            "__events__": {},
            "__info__": {
                "isRoot": true,
                "kuid": "faa5602b417340aba9d3310d935ca7a3",
                "srcKUID": "5c360958c61b42a0935b86dfc3ce5105",
                "wType": "FlexContainer"
            },
            "isVisible": false,
            "responsiveData": {
                "b1": {
                    "top": {
                        "type": "string",
                        "value": "15dp"
                    }
                },
                "b4": {
                    "top": {
                        "type": "string",
                        "value": "15dp"
                    }
                }
            },
            "top": {
                "Default": {
                    "type": "string",
                    "value": "20dp"
                }
            }
        },
        "flxBannerImage": {
            "__events__": {},
            "__info__": {
                "kuid": "jeef13cb02064a9a9d3bc3f41125ccb4",
                "srcKUID": "b0adb9399c2c408d945a3b14cc3d218f",
                "wType": "FlexContainer"
            }
        },
        "flxBannerWrapper": {
            "__events__": {},
            "__info__": {
                "kuid": "fc51f6379a97459096627a638260ca49",
                "srcKUID": "000ac1c1175e499e9c9cab19c890c816",
                "wType": "FlexContainer"
            }
        },
        "flxPagination": {
            "__events__": {},
            "__info__": {
                "kuid": "dbeefbcf14aa4db6bc1ad00f4b4b85ee",
                "srcKUID": "bbe16c7dbc264096a1ad818817a0da1a",
                "wType": "FlexContainer"
            },
            "isVisible": false,
            "responsiveData": {}
        },
        "flxSeparator": {
            "__events__": {},
            "__info__": {
                "kuid": "d33853b338294cdab09629c5853b4ba6",
                "srcKUID": "c02af6417b374e6092571227e09a2851",
                "wType": "FlexContainer"
            }
        },
        "imgBanner": {
            "__events__": {},
            "__info__": {
                "kuid": "d24f42c57b4b4b4cb29ee5d28449a451",
                "srcKUID": "fb4f263eeedb422b993ec746be3838d2",
                "wType": "Image"
            },
            "src": "nuo_banner_1.png"
        },
        "imgPaginationOne": {
            "__events__": {},
            "__info__": {
                "kuid": "a95aa624c188404faf376fc9a88e1413",
                "srcKUID": "c192839832344b9e94d758fb9bbcbb51",
                "wType": "Image"
            },
            "src": "slider.png"
        }
    },
    "id": "banner",
    "info": null,
    "isdatareferenced": false,
    "isvisible": false,
    "kuid": "bf7459aee38c447ea96315a97e555da4",
    "layouttype": 4,
    "masterType": 0,
    "name": "kony.ui.UserWidgetInstance",
    "parent": "flxRightContainer",
    "pf": "frmAccountsLanding",
    "snaptogrid": true,
    "sourceUserWidget": "5c360958c61b42a0935b86dfc3ce5105",
    "vizprops": {
        "hidewidgethierarchy": false
    },
    "wType": "UserWidgetInstance"
}