{
    "@class": "com.kony.gen.viz.model.component.KVizImage2",
    "DNDConfig": null,
    "__parentReadjusting__": false,
    "_base64_": null,
    "_bottom_": {
        "type": "string",
        "value": "10dp"
    },
    "_height_": {
        "type": "number",
        "value": ""
    },
    "_left_": {
        "type": "string",
        "value": "10dp"
    },
    "_margin_": [
        0,
        0,
        0,
        0
    ],
    "_padding_": [
        0,
        0,
        0,
        0
    ],
    "_right_": {
        "type": "string",
        "value": "10dp"
    },
    "_skin_": "s78a5f26c9f14cec9ebed1bb46098f80",
    "_src_": "banner_ad_mobile.png",
    "_top_": {
        "type": "string",
        "value": "10dp"
    },
    "_width_": {
        "type": "number",
        "value": ""
    },
    "canUpdateUI": true,
    "centery": {
        "type": "number",
        "value": ""
    },
    "containerweight": 100,
    "context": {
        "channel": "desktop",
        "formID": "frmAccountsLanding",
        "platform": "desktopweb",
        "templateType": "forms",
        "topLevelBox": null
    },
    "id": "imgBannerMobile",
    "imagescalemode": 0,
    "info": null,
    "invokedProperty": "src",
    "iscustomlayout": false,
    "isvisible": true,
    "kuid": "a36cd11c20f24ec38ef5df59c92f2e78",
    "maxwidth": {
        "type": "number",
        "value": ""
    },
    "name": "kony.ui.Image2",
    "parent": "flxBannerContainerMobile",
    "pf": "frmAccountsLanding",
    "responsiveData": {
        "b2": {
            "src": "banner_ad_tab.png"
        },
        "b3": {
            "bottom": {
                "type": "string",
                "value": ""
            },
            "centerY": {
                "type": "string",
                "value": "50%"
            },
            "height": {
                "type": "string",
                "value": "150dp"
            },
            "maxWidth": {
                "type": "string",
                "value": ""
            },
            "src": "banner_ad_mobile.png",
            "top": {
                "type": "string",
                "value": ""
            },
            "width": {
                "type": "string",
                "value": ""
            }
        }
    },
    "retaincontentalignment": false,
    "retainflexpositionproperties": false,
    "srcType": 1,
    "wType": "Image",
    "widgetalignment": 5,
    "zindex": 1
}