{
    "@class": "com.kony.gen.viz.model.component.KVizLabel",
    "DNDConfig": null,
    "__parentReadjusting__": false,
    "_height_": {
        "type": "ref",
        "value": "preferred"
    },
    "_margin_": [
        0,
        0,
        0,
        0
    ],
    "_padding_": [
        0,
        0,
        0,
        0
    ],
    "_right_": {
        "type": "string",
        "value": "0dp"
    },
    "_skin_": "sbf892219fd04dbcae8a4a76f57b2ae0",
    "_text_": "C",
    "_width_": {
        "type": "string",
        "value": "25dp"
    },
    "_wrapping_": 2,
    "accessibilityconfig": {
        "a11yLabel": "C"
    },
    "android": {
        "textStyle": {
            "letterSpacing": 0,
            "strikeThrough": false
        }
    },
    "canUpdateUI": true,
    "centerx": {
        "type": "string",
        "value": "50%"
    },
    "centery": {
        "type": "string",
        "value": "50%"
    },
    "containerId": true,
    "containerweight": 100,
    "contentalignment": 2,
    "id": "lblMarkAsFavouriteAccountCheckBoxIcon",
    "info": null,
    "ipad": {
        "psp": {
            "wrapping": 2
        }
    },
    "iphone": {
        "psp": {
            "wrapping": 2
        }
    },
    "isvisible": true,
    "kuid": "e430b42b712e47fa94289549f84dd058",
    "name": "kony.ui.Label",
    "parent": "flxFavoriteCheckBox",
    "pf": "segProfileManagementAccounts",
    "tooltip": "",
    "wType": "Label",
    "zindex": 1
}