{
    "@class": "com.kony.gen.viz.model.component.KVizLabel",
    "DNDConfig": null,
    "__parentReadjusting__": false,
    "_height_": {
        "type": "string",
        "value": "1px"
    },
    "_left_": {
        "type": "string",
        "value": "0dp"
    },
    "_margin_": [
        1,
        1,
        1,
        1
    ],
    "_padding_": [
        0,
        0,
        0,
        0
    ],
    "_skin_": "s09349f2265649b3ae4b14f3130733b2",
    "_text_": " -",
    "_top_": {
        "type": "string",
        "value": "99.70%"
    },
    "_width_": {
        "type": "string",
        "value": "99.80%"
    },
    "_wrapping_": 2,
    "accessibilityconfig": {
        "a11yLabel": " -"
    },
    "android": {
        "textStyle": {
            "letterSpacing": 0,
            "strikeThrough": false
        }
    },
    "canUpdateUI": true,
    "containerId": true,
    "containerweight": 100,
    "contentalignment": 4,
    "id": "lblSepeartorlast",
    "info": null,
    "ipad": {
        "psp": {
            "wrapping": 2
        }
    },
    "iphone": {
        "psp": {
            "wrapping": 2
        }
    },
    "isvisible": false,
    "kuid": "a4a93e73ebe840438bfbc73843543f90",
    "name": "kony.ui.Label",
    "parent": "flxContent",
    "pf": "segProfileManagementAccounts",
    "tooltip": "",
    "wType": "Label",
    "zindex": 1
}