{
  "operationConfig" : {
    "name" : "getDirectMarketingAds2962",
    "type" : "MappedToBackend",
    "cachable" : false,
    "smsEnabled" : false,
    "security" : "public",
    "responseEncoding" : "UTF-8",
    "httpMethod" : "GET",
    "decodeResponseBody" : false,
    "iMapping" : "<?xml version=\"1.0\" encoding=\"UTF-8\" standalone=\"yes\"?><mapper xmlns=\"http://www.kony.com/ns/mapper\">                         <map inputpath=\"request_in\" outputpath=\"request_out\">                                                   <set-param inputpath=\"flowposition\" outputpath=\"flowposition\"/>                         </map></mapper>",
    "oMapping" : "<?xml version=\"1.0\" encoding=\"UTF-8\" standalone=\"yes\"?><mapper xmlns=\"http://www.kony.com/ns/mapper\">          <map inputpath=\"response_in\" outputpath=\"response_out\">                    <set-param input=\"develop,  11/03/2017 01:08 PM\" outputpath=\"version\"/>                    <set-param input=\"2.5/20\" outputpath=\"release\"/>                    <set-param input=\"ba7ce8dae4ab466db7cb61bce5c0c523\" outputpath=\"sessionId\"/>                    <set-param input=\"a3a2baaa2ac34e96ba44696b7361c2a7\" outputpath=\"campaignId\"/>                    <map inputpath=\"dmadvertisements\" outputpath=\"DirectMarketing\">                              <map inputpath=\"dmaddinteractions\" outputpath=\"interactions\">                                        <set-param inputpath=\"navigationId\" outputpath=\"navigationId\"/>                                        <set-param inputpath=\"navigationType\" outputpath=\"navigationType\"/>                                        <set-param inputpath=\"navigationURL\" outputpath=\"navigationURL\"/>                                        <set-param inputpath=\"colour\" outputpath=\"colour\"/>                                        <set-param inputpath=\"text\" outputpath=\"text\"/>                                        <set-param inputpath=\"buttonType\" outputpath=\"buttonType\"/>                              </map>                              <set-param inputpath=\"dmaddinteractions/navigationId\" outputpath=\"navigationId\"/>                             <set-param inputpath=\"adTitle\" outputpath=\"adTitle\"/>                                    <set-param inputpath=\"adType\" outputpath=\"adType\"/>                              <set-param inputpath=\"description\" outputpath=\"description\"/>                              <set-param inputpath=\"id\" outputpath=\"id\"/>                              <set-param inputpath=\"imageURL\" outputpath=\"imageURL\"/>                              <set-param inputpath=\"model\" outputpath=\"model\"/>                              <set-param inputpath=\"navigationType\" outputpath=\"navigationType\"/>                              <set-param inputpath=\"navigationURL\" outputpath=\"navigationURL\"/>                              <set-param inputpath=\"visible\" outputpath=\"visible\"/>                    </map>          </map></mapper>",
    "iVisualMappingData" : "{\"nodeDataArray\":[{\"isGroup\":true,\"key\":\"request_in\",\"text\":\"DirectMarketing\",\"xy\":\"150 100\",\"__gohashid\":3559},{\"isGroup\":true,\"key\":\"request_out\",\"text\":\"dbpRbLocalServicesJava.getDirectMarketingAds\",\"xy\":\"770 100\",\"__gohashid\":3560}],\"linkDataArray\":[{\"from\":\"source\",\"to\":\"source:DirectMarketing\",\"fromPort\":\"source\",\"toPort\":\"source:DirectMarketing\",\"visible\":true,\"common\":false,\"__gohashid\":3584},{\"from\":\"source:DirectMarketing\",\"to\":\"source:DirectMarketing:fields\",\"fromPort\":\"source:DirectMarketing\",\"toPort\":\"source:DirectMarketing:fields\",\"visible\":true,\"common\":false,\"__gohashid\":3585},{\"from\":\"source:DirectMarketing:fields\",\"to\":\"source:DirectMarketing:adType:\",\"fromPort\":\"source:DirectMarketing:fields\",\"toPort\":\"source:DirectMarketing:adType:\",\"visible\":true,\"common\":false,\"__gohashid\":3586},{\"from\":\"source:DirectMarketing:fields\",\"to\":\"source:DirectMarketing:buttonType:\",\"fromPort\":\"source:DirectMarketing:fields\",\"toPort\":\"source:DirectMarketing:buttonType:\",\"visible\":true,\"common\":false,\"__gohashid\":3587},{\"from\":\"source:DirectMarketing:fields\",\"to\":\"source:DirectMarketing:colour:\",\"fromPort\":\"source:DirectMarketing:fields\",\"toPort\":\"source:DirectMarketing:colour:\",\"visible\":true,\"common\":false,\"__gohashid\":3588},{\"from\":\"source:DirectMarketing:fields\",\"to\":\"source:DirectMarketing:description:\",\"fromPort\":\"source:DirectMarketing:fields\",\"toPort\":\"source:DirectMarketing:description:\",\"visible\":true,\"common\":false,\"__gohashid\":3589},{\"from\":\"source:DirectMarketing:fields\",\"to\":\"source:DirectMarketing:id:\",\"fromPort\":\"source:DirectMarketing:fields\",\"toPort\":\"source:DirectMarketing:id:\",\"visible\":true,\"common\":false,\"__gohashid\":3590},{\"from\":\"source:DirectMarketing:fields\",\"to\":\"source:DirectMarketing:imageURL:\",\"fromPort\":\"source:DirectMarketing:fields\",\"toPort\":\"source:DirectMarketing:imageURL:\",\"visible\":true,\"common\":false,\"__gohashid\":3591},{\"from\":\"source:DirectMarketing:fields\",\"to\":\"source:DirectMarketing:model:\",\"fromPort\":\"source:DirectMarketing:fields\",\"toPort\":\"source:DirectMarketing:model:\",\"visible\":true,\"common\":false,\"__gohashid\":3592},{\"from\":\"source:DirectMarketing:fields\",\"to\":\"source:DirectMarketing:navigationId:\",\"fromPort\":\"source:DirectMarketing:fields\",\"toPort\":\"source:DirectMarketing:navigationId:\",\"visible\":true,\"common\":false,\"__gohashid\":3593},{\"from\":\"source:DirectMarketing:fields\",\"to\":\"source:DirectMarketing:navigationType:\",\"fromPort\":\"source:DirectMarketing:fields\",\"toPort\":\"source:DirectMarketing:navigationType:\",\"visible\":true,\"common\":false,\"__gohashid\":3594},{\"from\":\"source:DirectMarketing:fields\",\"to\":\"source:DirectMarketing:navigationURL:\",\"fromPort\":\"source:DirectMarketing:fields\",\"toPort\":\"source:DirectMarketing:navigationURL:\",\"visible\":true,\"common\":false,\"__gohashid\":3595},{\"from\":\"source:DirectMarketing:fields\",\"to\":\"source:DirectMarketing:result:\",\"fromPort\":\"source:DirectMarketing:fields\",\"toPort\":\"source:DirectMarketing:result:\",\"visible\":true,\"common\":false,\"__gohashid\":3596},{\"from\":\"source:DirectMarketing:fields\",\"to\":\"source:DirectMarketing:sessionId:\",\"fromPort\":\"source:DirectMarketing:fields\",\"toPort\":\"source:DirectMarketing:sessionId:\",\"visible\":true,\"common\":false,\"__gohashid\":3597},{\"from\":\"source:DirectMarketing:fields\",\"to\":\"source:DirectMarketing:text:\",\"fromPort\":\"source:DirectMarketing:fields\",\"toPort\":\"source:DirectMarketing:text:\",\"visible\":true,\"common\":false,\"__gohashid\":3598},{\"from\":\"source:DirectMarketing:fields\",\"to\":\"source:DirectMarketing:visible:\",\"fromPort\":\"source:DirectMarketing:fields\",\"toPort\":\"source:DirectMarketing:visible:\",\"visible\":true,\"common\":false,\"__gohashid\":3599},{\"from\":\"source:DirectMarketing:fields\",\"to\":\"source:DirectMarketing:flowposition:\",\"fromPort\":\"source:DirectMarketing:fields\",\"toPort\":\"source:DirectMarketing:flowposition:\",\"visible\":true,\"common\":false,\"__gohashid\":3600},{\"from\":\"source:DirectMarketing:fields\",\"to\":\"source:DirectMarketing:navId:\",\"fromPort\":\"source:DirectMarketing:fields\",\"toPort\":\"source:DirectMarketing:navId:\",\"visible\":true,\"common\":false,\"__gohashid\":3601},{\"from\":\"target\",\"to\":\"target:parameters\",\"fromPort\":\"target\",\"toPort\":\"target:parameters\",\"visible\":true,\"common\":false,\"__gohashid\":3602},{\"from\":\"target:parameters\",\"to\":\"target:description:\",\"fromPort\":\"target:parameters\",\"toPort\":\"target:description:\",\"visible\":true,\"common\":false,\"__gohashid\":3603}],\"blockCount\":{\"variableCount\":0},\"variableMap\":{},\"xmlMappingOverride\":true}",
    "oVisualMappingData" : "{\"nodeDataArray\":[{\"isGroup\":true,\"key\":\"response_out\",\"text\":\"DirectMarketing\",\"xy\":\"770 100\",\"__gohashid\":11588},{\"isGroup\":true,\"key\":\"response_in\",\"text\":\"dbpRbLocalServicesJava.getDirectMarketingAds\",\"xy\":\"150 100\",\"__gohashid\":11589}],\"linkDataArray\":[{\"category\":\"Mapping\",\"from\":\"source:DirectMarketing:adType:\",\"to\":\"target:DirectMarketing:adType:\",\"fromPort\":\"source:DirectMarketing:adType:\",\"toPort\":\"target:DirectMarketing:adType:\",\"visible\":true,\"common\":true,\"__gohashid\":14399},{\"category\":\"Mapping\",\"from\":\"source:DirectMarketing:description:\",\"to\":\"target:DirectMarketing:description:\",\"fromPort\":\"source:DirectMarketing:description:\",\"toPort\":\"target:DirectMarketing:description:\",\"visible\":true,\"common\":true,\"__gohashid\":14406},{\"category\":\"Mapping\",\"from\":\"source:DirectMarketing:id:\",\"to\":\"target:DirectMarketing:id:\",\"fromPort\":\"source:DirectMarketing:id:\",\"toPort\":\"target:DirectMarketing:id:\",\"visible\":true,\"common\":true,\"__gohashid\":14413},{\"category\":\"Mapping\",\"from\":\"source:DirectMarketing:imageURL:\",\"to\":\"target:DirectMarketing:imageURL:\",\"fromPort\":\"source:DirectMarketing:imageURL:\",\"toPort\":\"target:DirectMarketing:imageURL:\",\"visible\":true,\"common\":true,\"__gohashid\":14420},{\"category\":\"Mapping\",\"from\":\"source:DirectMarketing:model:\",\"to\":\"target:DirectMarketing:model:\",\"fromPort\":\"source:DirectMarketing:model:\",\"toPort\":\"target:DirectMarketing:model:\",\"visible\":true,\"common\":true,\"__gohashid\":14427},{\"category\":\"Mapping\",\"from\":\"source:DirectMarketing:navigationType:\",\"to\":\"target:DirectMarketing:navigationType:\",\"fromPort\":\"source:DirectMarketing:navigationType:\",\"toPort\":\"target:DirectMarketing:navigationType:\",\"visible\":true,\"common\":true,\"__gohashid\":14434},{\"category\":\"Mapping\",\"from\":\"source:DirectMarketing:navigationURL:\",\"to\":\"target:DirectMarketing:navigationURL:\",\"fromPort\":\"source:DirectMarketing:navigationURL:\",\"toPort\":\"target:DirectMarketing:navigationURL:\",\"visible\":true,\"common\":true,\"__gohashid\":14441},{\"category\":\"Mapping\",\"from\":\"source:DirectMarketing:visible:\",\"to\":\"target:DirectMarketing:visible:\",\"fromPort\":\"source:DirectMarketing:visible:\",\"toPort\":\"target:DirectMarketing:visible:\",\"visible\":true,\"common\":true,\"__gohashid\":14448},{\"from\":\"target\",\"to\":\"target:DirectMarketing\",\"fromPort\":\"target\",\"toPort\":\"target:DirectMarketing\",\"visible\":true,\"common\":false,\"__gohashid\":3587},{\"from\":\"target:DirectMarketing\",\"to\":\"target:DirectMarketing:fields\",\"fromPort\":\"target:DirectMarketing\",\"toPort\":\"target:DirectMarketing:fields\",\"visible\":true,\"common\":false,\"__gohashid\":3588},{\"from\":\"target:DirectMarketing:fields\",\"to\":\"target:DirectMarketing:adType:\",\"fromPort\":\"target:DirectMarketing:fields\",\"toPort\":\"target:DirectMarketing:adType:\",\"visible\":true,\"common\":false,\"__gohashid\":3589},{\"from\":\"target:DirectMarketing:fields\",\"to\":\"target:DirectMarketing:buttonType:\",\"fromPort\":\"target:DirectMarketing:fields\",\"toPort\":\"target:DirectMarketing:buttonType:\",\"visible\":true,\"common\":false,\"__gohashid\":3590},{\"from\":\"target:DirectMarketing:fields\",\"to\":\"target:DirectMarketing:colour:\",\"fromPort\":\"target:DirectMarketing:fields\",\"toPort\":\"target:DirectMarketing:colour:\",\"visible\":true,\"common\":false,\"__gohashid\":3591},{\"from\":\"target:DirectMarketing:fields\",\"to\":\"target:DirectMarketing:description:\",\"fromPort\":\"target:DirectMarketing:fields\",\"toPort\":\"target:DirectMarketing:description:\",\"visible\":true,\"common\":false,\"__gohashid\":3592},{\"from\":\"target:DirectMarketing:fields\",\"to\":\"target:DirectMarketing:id:\",\"fromPort\":\"target:DirectMarketing:fields\",\"toPort\":\"target:DirectMarketing:id:\",\"visible\":true,\"common\":false,\"__gohashid\":3593},{\"from\":\"target:DirectMarketing:fields\",\"to\":\"target:DirectMarketing:imageURL:\",\"fromPort\":\"target:DirectMarketing:fields\",\"toPort\":\"target:DirectMarketing:imageURL:\",\"visible\":true,\"common\":false,\"__gohashid\":3594},{\"from\":\"target:DirectMarketing:fields\",\"to\":\"target:DirectMarketing:model:\",\"fromPort\":\"target:DirectMarketing:fields\",\"toPort\":\"target:DirectMarketing:model:\",\"visible\":true,\"common\":false,\"__gohashid\":3595},{\"from\":\"target:DirectMarketing:fields\",\"to\":\"target:DirectMarketing:navigationId:\",\"fromPort\":\"target:DirectMarketing:fields\",\"toPort\":\"target:DirectMarketing:navigationId:\",\"visible\":true,\"common\":false,\"__gohashid\":3596},{\"from\":\"target:DirectMarketing:fields\",\"to\":\"target:DirectMarketing:navigationType:\",\"fromPort\":\"target:DirectMarketing:fields\",\"toPort\":\"target:DirectMarketing:navigationType:\",\"visible\":true,\"common\":false,\"__gohashid\":3597},{\"from\":\"target:DirectMarketing:fields\",\"to\":\"target:DirectMarketing:navigationURL:\",\"fromPort\":\"target:DirectMarketing:fields\",\"toPort\":\"target:DirectMarketing:navigationURL:\",\"visible\":true,\"common\":false,\"__gohashid\":3598},{\"from\":\"target:DirectMarketing:fields\",\"to\":\"target:DirectMarketing:result:\",\"fromPort\":\"target:DirectMarketing:fields\",\"toPort\":\"target:DirectMarketing:result:\",\"visible\":true,\"common\":false,\"__gohashid\":3599},{\"from\":\"target:DirectMarketing:fields\",\"to\":\"target:DirectMarketing:sessionId:\",\"fromPort\":\"target:DirectMarketing:fields\",\"toPort\":\"target:DirectMarketing:sessionId:\",\"visible\":true,\"common\":false,\"__gohashid\":3600},{\"from\":\"target:DirectMarketing:fields\",\"to\":\"target:DirectMarketing:text:\",\"fromPort\":\"target:DirectMarketing:fields\",\"toPort\":\"target:DirectMarketing:text:\",\"visible\":true,\"common\":false,\"__gohashid\":3601},{\"from\":\"target:DirectMarketing:fields\",\"to\":\"target:DirectMarketing:visible:\",\"fromPort\":\"target:DirectMarketing:fields\",\"toPort\":\"target:DirectMarketing:visible:\",\"visible\":true,\"common\":false,\"__gohashid\":3602},{\"from\":\"target:DirectMarketing:fields\",\"to\":\"target:DirectMarketing:flowposition:\",\"fromPort\":\"target:DirectMarketing:fields\",\"toPort\":\"target:DirectMarketing:flowposition:\",\"visible\":true,\"common\":false,\"__gohashid\":3603},{\"from\":\"target:DirectMarketing:fields\",\"to\":\"target:DirectMarketing:navId:\",\"fromPort\":\"target:DirectMarketing:fields\",\"toPort\":\"target:DirectMarketing:navId:\",\"visible\":true,\"common\":false,\"__gohashid\":3604},{\"from\":\"source\",\"to\":\"source:DirectMarketing\",\"fromPort\":\"source\",\"toPort\":\"source:DirectMarketing\",\"visible\":true,\"common\":false,\"__gohashid\":3605},{\"from\":\"source:DirectMarketing\",\"to\":\"source:DirectMarketing:parameters\",\"fromPort\":\"source:DirectMarketing\",\"toPort\":\"source:DirectMarketing:parameters\",\"visible\":true,\"common\":false,\"__gohashid\":3606},{\"from\":\"source:DirectMarketing:parameters\",\"to\":\"source:DirectMarketing:adType:\",\"fromPort\":\"source:DirectMarketing:parameters\",\"toPort\":\"source:DirectMarketing:adType:\",\"visible\":true,\"common\":false,\"__gohashid\":3607},{\"from\":\"source:DirectMarketing:parameters\",\"to\":\"source:DirectMarketing:description:\",\"fromPort\":\"source:DirectMarketing:parameters\",\"toPort\":\"source:DirectMarketing:description:\",\"visible\":true,\"common\":false,\"__gohashid\":3608},{\"from\":\"source:DirectMarketing:parameters\",\"to\":\"source:DirectMarketing:id:\",\"fromPort\":\"source:DirectMarketing:parameters\",\"toPort\":\"source:DirectMarketing:id:\",\"visible\":true,\"common\":false,\"__gohashid\":3609},{\"from\":\"source:DirectMarketing:parameters\",\"to\":\"source:DirectMarketing:imageURL:\",\"fromPort\":\"source:DirectMarketing:parameters\",\"toPort\":\"source:DirectMarketing:imageURL:\",\"visible\":true,\"common\":false,\"__gohashid\":3610},{\"from\":\"source:DirectMarketing:parameters\",\"to\":\"source:DirectMarketing:model:\",\"fromPort\":\"source:DirectMarketing:parameters\",\"toPort\":\"source:DirectMarketing:model:\",\"visible\":true,\"common\":false,\"__gohashid\":3611},{\"from\":\"source:DirectMarketing:parameters\",\"to\":\"source:DirectMarketing:navigationType:\",\"fromPort\":\"source:DirectMarketing:parameters\",\"toPort\":\"source:DirectMarketing:navigationType:\",\"visible\":true,\"common\":false,\"__gohashid\":3612},{\"from\":\"source:DirectMarketing:parameters\",\"to\":\"source:DirectMarketing:navigationURL:\",\"fromPort\":\"source:DirectMarketing:parameters\",\"toPort\":\"source:DirectMarketing:navigationURL:\",\"visible\":true,\"common\":false,\"__gohashid\":3613},{\"from\":\"source:DirectMarketing:parameters\",\"to\":\"source:DirectMarketing:visible:\",\"fromPort\":\"source:DirectMarketing:parameters\",\"toPort\":\"source:DirectMarketing:visible:\",\"visible\":true,\"common\":false,\"__gohashid\":3614},{\"from\":\"source:DirectMarketing\",\"to\":\"source:DirectMarketing:interactions\",\"fromPort\":\"source:DirectMarketing\",\"toPort\":\"source:DirectMarketing:interactions\",\"visible\":true,\"common\":false,\"__gohashid\":3615},{\"from\":\"source:DirectMarketing:interactions\",\"to\":\"source:DirectMarketing:interactions:parameters\",\"fromPort\":\"source:DirectMarketing:interactions\",\"toPort\":\"source:DirectMarketing:interactions:parameters\",\"visible\":true,\"common\":false,\"__gohashid\":3616},{\"from\":\"source:DirectMarketing:interactions:parameters\",\"to\":\"source:DirectMarketing:interactions:buttonType:\",\"fromPort\":\"source:DirectMarketing:interactions:parameters\",\"toPort\":\"source:DirectMarketing:interactions:buttonType:\",\"visible\":true,\"common\":false,\"__gohashid\":3617},{\"from\":\"source:DirectMarketing:interactions:parameters\",\"to\":\"source:DirectMarketing:interactions:colour:\",\"fromPort\":\"source:DirectMarketing:interactions:parameters\",\"toPort\":\"source:DirectMarketing:interactions:colour:\",\"visible\":true,\"common\":false,\"__gohashid\":3618},{\"from\":\"source:DirectMarketing:interactions:parameters\",\"to\":\"source:DirectMarketing:interactions:navigationId:\",\"fromPort\":\"source:DirectMarketing:interactions:parameters\",\"toPort\":\"source:DirectMarketing:interactions:navigationId:\",\"visible\":true,\"common\":false,\"__gohashid\":3619},{\"from\":\"source:DirectMarketing:interactions:parameters\",\"to\":\"source:DirectMarketing:interactions:navigationType:\",\"fromPort\":\"source:DirectMarketing:interactions:parameters\",\"toPort\":\"source:DirectMarketing:interactions:navigationType:\",\"visible\":true,\"common\":false,\"__gohashid\":3620},{\"from\":\"source:DirectMarketing:interactions:parameters\",\"to\":\"source:DirectMarketing:interactions:text:\",\"fromPort\":\"source:DirectMarketing:interactions:parameters\",\"toPort\":\"source:DirectMarketing:interactions:text:\",\"visible\":true,\"common\":false,\"__gohashid\":3621}],\"blockCount\":{\"variableCount\":0},\"variableMap\":{},\"xmlMappingOverride\":true}",
    "applyCommonMapping" : false,
    "applyRequestCommonMapping" : false,
    "applyResponseCommonMapping" : false,
    "backendMeta" : {
      "serviceName" : "dbpRbLocalServicesJava",
      "serviceVersion" : "1.0",
      "operationName" : "getDirectMarketingAds"
    },
    "relationshipHierarchyMapping" : {
      "children" : [ ],
      "name" : "DirectMarketing",
      "actions" : { },
      "selected" : true
    },
    "requestXmlMappingOverride" : true,
    "responseXmlMappingOverride" : true
  }
}