{
    "@class": "com.kony.gen.viz.model.component.KVizButton",
    "DNDConfig": null,
    "__parentReadjusting__": false,
    "_height_": {
        "type": "string",
        "value": "25dp"
    },
    "_margin_": [
        6,
        6,
        6,
        6
    ],
    "_padding_": [
        0,
        0,
        0,
        0
    ],
    "_right_": {
        "type": "string",
        "value": "0dp"
    },
    "_skin_": "sf6ca31ec68641e5a2df8232c58cd39a",
    "_text_": "SEND",
    "_width_": {
        "type": "ref",
        "value": "preferred"
    },
    "canUpdateUI": true,
    "centery": {
        "type": "string",
        "value": "50%"
    },
    "containerId": true,
    "containerweight": 100,
    "contentalignment": 5,
    "disabledSkins": {
        "focusSkin": "sf44d06ca8224832827ea7fdff757013"
    },
    "displaytext": true,
    "id": "btnSend",
    "ide_onClick": "AS_Button_f27e7f3d43d04eeeba1ec4d0459893fa",
    "info": null,
    "isvisible": true,
    "kuid": "ffed604a0d7c44a2b0ccdb88730858ee",
    "name": "kony.ui.Button",
    "parent": "flxSendAction",
    "pf": "segSendRequestMobile",
    "wType": "Button",
    "zindex": 1,
    "accessibilityconfig": {
        "a11yLabel": "SEND"
    }
}