{
    "DNDConfig": null,
    "__parentReadjusting__": false,
    "_height_": {
        "type": "string",
        "value": "211dp"
    },
    "_left_": {
        "type": "string",
        "value": "0dp"
    },
    "_margin_": [
        0,
        0,
        0,
        0
    ],
    "_orientation_": 6,
    "_padding_": [
        0,
        0,
        0,
        0
    ],
    "_percent_": true,
    "_skin_": "se2c51e2a5574dcc8bc00a48bc7649ca",
    "_top_": {
        "type": "string",
        "value": "0dp"
    },
    "_width_": {
        "type": "string",
        "value": "100%"
    },
    "allboxes": [],
    "autogrowmode": 0,
    "canUpdateUI": true,
    "children": [
        "flxIdentifier",
        "flxSelectedRowWrapper"
    ],
    "clipbounds": true,
    "containerId": true,
    "containerweight": 100,
    "controllerInfo": {
        "default": {
            "channel": "desktop",
            "name": "flxExternalAccountsTransfersSelectedController"
        }
    },
    "enablescrolling": true,
    "id": "flxExternalAccountsTransfersSelected",
    "info": null,
    "isTemplate": true,
    "isvisible": true,
    "kuid": "a41fac4a3c3a48fe89b412be87c932e8",
    "layouttype": 3,
    "name": "kony.ui.FlexContainer",
    "parent": "segExternalAccountsTransfersSelected",
    "pf": "segExternalAccountsTransfersSelected",
    "snapgridsize": 10,
    "snaptogrid": true,
    "wType": "FlexContainer",
    "widgetalignment": 1,
    "zindex": 2
}