{
    "DNDConfig": null,
    "__parentReadjusting__": false,
    "_height_": {
        "type": "string",
        "value": "60dp"
    },
    "_margin_": [
        0,
        0,
        0,
        0
    ],
    "_orientation_": 6,
    "_padding_": [
        0,
        0,
        0,
        0
    ],
    "_percent_": true,
    "_right_": {
        "type": "string",
        "value": "0dp"
    },
    "_skin_": "s24c92fc23b14f5484b693ee9b8a9b35",
    "_top_": {
        "type": "string",
        "value": "0dp"
    },
    "_width_": {
        "type": "string",
        "value": "45dp"
    },
    "allboxes": [],
    "autogrowmode": 0,
    "canUpdateUI": true,
    "children": [
        "imgRemoveAttachment"
    ],
    "clipbounds": true,
    "containerId": true,
    "containerweight": 100,
    "desktopweb": {
        "psp": {
            "hoverSkin": "sad8a93f035b4ddba3ece8e730333295"
        }
    },
    "enablescrolling": true,
    "id": "flxRemoveAttachment",
    "ide_onClick": "AS_FlexContainer_a104bb46828e4c37bf7fc615be7385cb",
    "info": null,
    "isvisible": true,
    "kuid": "ja0c22fb9e654f53a635926718bd49ee",
    "layouttype": 3,
    "name": "kony.ui.FlexContainer",
    "parent": "flxDocAttachment",
    "pf": "segAddAttachment",
    "snapgridsize": 10,
    "snaptogrid": true,
    "wType": "FlexContainer",
    "widgetalignment": 1,
    "zindex": 1
}