{
    "@class": "com.kony.gen.viz.model.component.KVizButton",
    "DNDConfig": null,
    "__parentReadjusting__": false,
    "_height_": {
        "type": "ref",
        "value": "preferred"
    },
    "_left_": {
        "type": "string",
        "value": "86.50%"
    },
    "_margin_": [
        6,
        6,
        6,
        6
    ],
    "_padding_": [
        0,
        0,
        0,
        0
    ],
    "_skin_": "s82771fb0d3040339aab7fd2e47af223",
    "_text_": "Button",
    "_top_": {
        "type": "string",
        "value": "240px"
    },
    "_width_": {
        "type": "ref",
        "value": "preferred"
    },
    "accessibilityconfig": {
        "a11yLabel": "View E-Bill"
    },
    "canUpdateUI": true,
    "containerweight": 100,
    "contentalignment": 5,
    "disabledSkins": {
        "focusSkin": "sf44d06ca8224832827ea7fdff757013"
    },
    "displaytext": true,
    "id": "btnViewEbillmod",
    "info": null,
    "isvisible": false,
    "kuid": "h423f3d9b32a4f25909d5dc0c9fd8187",
    "name": "kony.ui.Button",
    "parent": "flxMain",
    "pf": "userwidgetmodel",
    "texti18n": "i18n.billPay.viewEBill",
    "wType": "Button",
    "zindex": 5
}