{
    "@class": "com.kony.gen.viz.model.component.KVizTextBox2",
    "DNDConfig": null,
    "__parentReadjusting__": false,
    "_height_": {
        "type": "string",
        "value": "40dp"
    },
    "_left_": {
        "type": "string",
        "value": "51.50%"
    },
    "_margin_": [
        0,
        0,
        0,
        0
    ],
    "_padding_": [
        2,
        0,
        0,
        0
    ],
    "_placeholder_": "",
    "_skin_": "s9425d47f432490cbabd204dfe1c1e97",
    "_text_": "",
    "_top_": {
        "type": "string",
        "value": "30dp"
    },
    "_width_": {
        "type": "string",
        "value": "360dp"
    },
    "accessibilityconfig": {
        "a11yLabel": "Number of Recurrences"
    },
    "autocapitalize": "none",
    "autocomplete": false,
    "autocorrect": false,
    "autofilter": false,
    "canUpdateUI": true,
    "containerheight": "",
    "containerheightmode": 1,
    "containerweight": 100,
    "contentalignment": 4,
    "id": "txtEndingOn",
    "info": null,
    "isvisible": false,
    "keyboardtype": "A",
    "kuid": "ff0d85e1f7d94097b8fcc01bd126a03a",
    "mode": "A",
    "name": "kony.ui.TextBox2",
    "parent": "flxContainer3",
    "pf": "userwidgetmodel",
    "placeholderi18n": "i18n.transfers.lblNumberOfRecurrences",
    "securetextentry": false,
    "textinputmode": "A",
    "viewtype": "default",
    "wType": "TextField",
    "zindex": 1
}