{
    "@class": "com.kony.gen.viz.model.component.KVizButton",
    "DNDConfig": null,
    "__parentReadjusting__": false,
    "_height_": {
        "type": "string",
        "value": "100%"
    },
    "_left_": {
        "type": "string",
        "value": "0dp"
    },
    "_margin_": [
        6,
        6,
        6,
        6
    ],
    "_padding_": [
        0,
        0,
        0,
        0
    ],
    "_skin_": "s8d285dbd7ec4412a3f288326f68cd3e",
    "_text_": "",
    "_top_": {
        "type": "string",
        "value": "0dp"
    },
    "_width_": {
        "type": "string",
        "value": "100%"
    },
    "canUpdateUI": true,
    "containerweight": 100,
    "contentalignment": 5,
    "disabledSkins": {},
    "displaytext": true,
    "focusskin": "s8d285dbd7ec4412a3f288326f68cd3e",
    "id": "btnDummyKA",
    "info": null,
    "isvisible": false,
    "kuid": "eaa5a71427e1493e9718af2f93de9c1b",
    "name": "kony.ui.Button",
    "parent": "flxTabsKA",
    "pf": "userwidgetmodel",
    "wType": "Button",
    "zindex": 1
}