{
    "@class": "com.kony.gen.viz.model.component.KVizButton",
    "DNDConfig": null,
    "__parentReadjusting__": false,
    "_height_": {
        "type": "string",
        "value": "100%"
    },
    "_left_": {
        "type": "string",
        "value": "0dp"
    },
    "_margin_": [
        6,
        6,
        6,
        6
    ],
    "_padding_": [
        1,
        0,
        1,
        0
    ],
    "_skin_": "s4fa836257634197b7a49d193c2ca82b",
    "_text_": "",
    "_width_": {
        "type": "ref",
        "value": "preferred"
    },
    "canUpdateUI": true,
    "centery": {
        "type": "string",
        "value": "50%"
    },
    "containerweight": 100,
    "contentalignment": 5,
    "desktopweb": {
        "psp": {}
    },
    "disabledSkins": {
        "focusSkin": "sf44d06ca8224832827ea7fdff757013",
        "hoverSkin": "sb0088f9271a475ca2c75a001cb018e8"
    },
    "displaytext": true,
    "focusskin": null,
    "id": "btnDisputedChecks",
    "info": null,
    "isvisible": true,
    "kuid": "j3c0ddab6ece4c909f490f708d5f1ddf",
    "name": "kony.ui.Button",
    "paddingLocked": false,
    "paddinginpixel": false,
    "parent": "flxTabs1",
    "pf": "userwidgetmodel",
    "texti18n": "i18n.StopCheckPayments.DisputedChecks",
    "tooltip": "Disputed Checks",
    "wType": "Button",
    "zindex": 1,
    "accessibilityconfig": {
        "a11yLabel": "Disputed Checks"
    }
}