{
    "@class": "com.kony.gen.viz.model.component.KVizButton",
    "DNDConfig": null,
    "__parentReadjusting__": false,
    "_height_": {
        "type": "string",
        "value": "40dp"
    },
    "_margin_": [
        6,
        6,
        6,
        6
    ],
    "_padding_": [
        0,
        0,
        0,
        0
    ],
    "_skin_": "s3681a7211a345fba79d7013af78ba93",
    "_text_": "",
    "_top_": {
        "type": "string",
        "value": "29dp"
    },
    "_width_": {
        "type": "string",
        "value": "85%"
    },
    "accessibilityconfig": {
        "a11yLabel": "Next"
    },
    "canUpdateUI": true,
    "centerx": {
        "type": "string",
        "value": "50%"
    },
    "containerweight": 100,
    "contentalignment": 5,
    "desktopweb": {
        "blockedUISkin": "s6296ebeb163492d973121eb1c4b9727",
        "psp": {
            "hoverSkin": "s7ab6326aaf94c28b90b61fcb1b54547"
        }
    },
    "displaytext": true,
    "focusskin": "s7ab6326aaf94c28b90b61fcb1b54547",
    "id": "btnNext",
    "info": null,
    "isvisible": true,
    "kuid": "02636d582cdb49dba6387f223de8d558",
    "name": "kony.ui.Button",
    "parent": "ResetOrEnroll",
    "pf": "userwidgetmodel",
    "texti18n": "i18n.common.next",
    "tooltip": "Next",
    "wType": "Button",
    "zindex": 1
}